0,0.01073759
0.01,0.0106386
0.02,0.00998724
0.03,0.01074838
0.04,0.01006274
0.05,0.0106581
0.06,0.009812933
0.07,0.009956462
0.08,0.01049302
0.09,0.009756261
0.1,0.0100956
0.11,0.009851746
0.12,0.009705072
0.13,0.01062989
0.14,0.01035263
0.15,0.01050189
0.16,0.01101213
0.17,0.01026576
0.18,0.01013797
0.19,0.01117674
0.2,0.01084752
0.21,0.01095953
0.22,0.01143667
0.23,0.0115949
0.24,0.01295308
0.25,0.0141321
0.26,0.01460243
0.27,0.01696202
0.28,0.01828311
0.29,0.02079973
0.3,0.02427412
0.31,0.02793315
0.32,0.03248208
0.33,0.03750822
0.34,0.04287834
0.35,0.04976718
0.36,0.05659709
0.37,0.06394222
0.38,0.07160228
0.39,0.07908018
0.4,0.08701285
0.41,0.09449741
0.42,0.1021475
0.43,0.1098848
0.44,0.117237
0.45,0.1247317
0.46,0.1318249
0.47,0.139018
0.48,0.1458001
0.49,0.1526444
0.5,0.1590415
0.51,0.1653782
0.52,0.1717952
0.53,0.1778617
0.54,0.1840813
0.55,0.1900732
0.56,0.1962133
0.57,0.2021018
0.58,0.2079965
0.59,0.2139632
0.6,0.219696
0.61,0.2255767
0.62,0.2311658
0.63,0.2368886
0.64,0.2423144
0.65,0.2477445
0.66,0.2532892
0.67,0.2585736
0.68,0.2640273
0.69,0.2691735
0.7,0.2744383
0.71,0.2794292
0.72,0.2844952
0.73,0.289304
0.74,0.2939686
0.75,0.2986421
0.76,0.3029837
0.77,0.3073207
0.78,0.311294
0.79,0.3151844
0.8,0.3186457
0.81,0.3218573
0.82,0.324842
0.83,0.3273978
0.84,0.3297394
0.85,0.3316882
0.86,0.3335319
0.87,0.3348742
0.88,0.3361794
0.89,0.337251
0.9,0.3381915
0.91,0.3390087
0.92,0.3398331
0.93,0.3404714
0.94,0.3410756
0.95,0.3417038
0.96,0.3423013
0.97,0.3427409
0.98,0.3432458
0.99,0.3436736
1,0.3442053
1.01,0.3445714
1.02,0.345082
1.03,0.3454495
1.04,0.3458114
1.05,0.3462233
1.06,0.346587
1.07,0.3468722
1.08,0.3473183
1.09,0.3476377
1.1,0.3479788
1.11,0.3482781
1.12,0.3485549
1.13,0.3489299
1.14,0.3492073
1.15,0.349481
1.16,0.34976
1.17,0.3501046
1.18,0.3503123
1.19,0.3505588
1.2,0.3509107
1.21,0.3510697
1.22,0.3513744
1.23,0.3514764
1.24,0.3517018
1.25,0.3520184
1.26,0.3522687
1.27,0.352496
1.28,0.3526242
1.29,0.3528896
1.3,0.3531446
1.31,0.3532668
1.32,0.3534937
1.33,0.3537109
1.34,0.3537548
1.35,0.3540592
1.36,0.354196
1.37,0.3543876
1.38,0.3545533
1.39,0.3547718
1.4,0.3548772
1.41,0.3550227
1.42,0.3551739
1.43,0.3553865
1.44,0.3554857
1.45,0.3556372
1.46,0.3557318
1.47,0.3559663
1.48,0.3560944
1.49,0.3561275
1.5,0.356403
1.51,0.3565181
1.52,0.3566302
1.53,0.3567801
1.54,0.3568403
1.55,0.3569768
1.56,0.3571627
1.57,0.3572785
1.58,0.3574065
1.59,0.3575124
1.6,0.3576337
1.61,0.3576664
1.62,0.3578325
1.63,0.35798
1.64,0.3580808
1.65,0.3580153
1.66,0.3581784
1.67,0.3581714
1.68,0.3583571
1.69,0.3583787
1.7,0.3586225
1.71,0.3586443
1.72,0.3588061
1.73,0.3588725
1.74,0.3589597
1.75,0.3590491
1.76,0.3590324
1.77,0.3592395
1.78,0.3592188
1.79,0.3590801
1.8,0.3592076
