,averageTemp,,measuredvoltage
-34.3633333333333,-24.3633333333333,0.357958,3.63958
-33.9633333333333,-23.9633333333333,0.357919,3.63919
-33.18,-23.18,0.357884,3.63884
-32.8633333333333,-22.8633333333333,0.358157,3.64157
-31.9633333333333,-21.9633333333333,0.358165,3.64165
-30.89,-20.89,0.35811,3.6411
-29.9333333333333,-19.9333333333333,0.358064,3.64064
-28.7533333333333,-18.7533333333333,0.357987,3.63987
-27.9933333333333,-17.9933333333333,0.358005,3.64005
-26.7766666666667,-16.7766666666667,0.357929,3.63929
-25.8466666666667,-15.8466666666667,0.357723,3.63723
-24.78,-14.78,0.35777,3.6377
-23.9633333333333,-13.9633333333333,0.357529,3.63529
-22.97,-12.97,0.357628,3.63628
-21.96,-11.96,0.357658,3.63658
-20.98,-10.98,0.357498,3.63498
-19.41,-9.41,0.357373,3.63373
-18.7533333333333,-8.75333333333333,0.357274,3.63274
-17.9566666666667,-7.95666666666667,0.357134,3.63134
-16.9633333333333,-6.96333333333333,0.357035,3.63035
-15.92,-5.92,0.35696,3.6296
-14.9,-4.9,0.356919,3.62919
-13.9533333333333,-3.95333333333333,0.356808,3.62808
-12.99,-2.99,0.356763,3.62763
-11.8266666666667,-1.82666666666667,0.356605,3.62605
-10.52,-0.52,0.356596,3.62596
-9.97666666666667,0.023333333333333,0.356479,3.62479
-8.99333333333333,1.00666666666667,0.35638,3.6238
-7.12,2.88,0.356294,3.62294
-6.59,3.41,0.356267,3.62267
-5.92666666666667,4.07333333333333,0.356123,3.62123
-4.98333333333333,5.01666666666667,0.356077,3.62077
-3.95666666666667,6.04333333333333,0.356085,3.62085
-2.76,7.24,0.355931,3.61931
-1.86,8.14,0.35592,3.6192
-0.91,9.09,0.355854,3.61854
0.0033333333333,10.0033333333333,0.355767,3.61767
1.0266666666667,11.0266666666667,0.355811,3.61811
2.0633333333333,12.0633333333333,0.355761,3.61761
3.0066666666667,13.0066666666667,0.35578,3.6178
4.0633333333333,14.0633333333333,0.355566,3.61566
5.08,15.08,0.355497,3.61497
6.0666666666667,16.0666666666667,0.355382,3.61382
7.1666666666667,17.1666666666667,0.355395,3.61395
8.72,18.72,0.35537,3.6137
9.01,19.01,0.355274,3.61274
10.1866666666667,20.1866666666667,0.355281,3.61281
11.1066666666667,21.1066666666667,0.355102,3.61102
12.03,22.03,0.355263,3.61263
13.01,23.01,0.355248,3.61248
14.2033333333333,24.2033333333333,0.355071,3.61071
15.16,25.16,0.354982,3.60982
16.07,26.07,0.35503,3.6103
17.07,27.07,0.35505,3.6105
18.2,28.2,0.354934,3.60934
19.0433333333333,29.0433333333333,0.354915,3.60915
20.1333333333333,30.1333333333333,0.354817,3.60817
21.0433333333333,31.0433333333333,0.354737,3.60737
22.0666666666667,32.0666666666667,0.354779,3.60779
23.0033333333333,33.0033333333333,0.354712,3.60712
24.0166666666667,34.0166666666667,0.354641,3.60641
25.21,35.21,0.354516,3.60516
26.0566666666667,36.0566666666667,0.354579,3.60579
27.05,37.05,0.354536,3.60536
28.06,38.06,0.354458,3.60458
29.05,39.05,0.354524,3.60524
30.1666666666667,40.1666666666667,0.354414,3.60414
31.0866666666667,41.0866666666667,0.3543,3.603
32.14,42.14,0.35425,3.6025
33.9966666666667,43.9966666666667,0.354322,3.60322
34.2266666666667,44.2266666666667,0.354257,3.60257
35.0366666666667,45.0366666666667,0.354206,3.60206
36.2533333333333,46.2533333333333,0.354209,3.60209
37.83,47.83,0.354227,3.60227
38.0366666666667,48.0366666666667,0.354255,3.60255
39.05,49.05,0.35426,3.6026
40.04,50.04,0.354098,3.60098
41.27,51.27,0.35408,3.6008
42.04,52.04,0.354022,3.60022
43.1533333333333,53.1533333333333,0.354035,3.60035
44.06,54.06,0.353935,3.59935
45.08,55.08,0.353862,3.59862
46.0133333333333,56.0133333333333,0.35387,3.5987
47.31,57.31,0.354012,3.60012
48.1,58.1,0.353999,3.59999
49.2966666666667,59.2966666666667,0.35397,3.5997
50.0733333333333,60.0733333333333,0.354139,3.60139
51.0466666666667,61.0466666666667,0.353905,3.59905
52.1633333333333,62.1633333333333,0.353975,3.59975
53.32,63.32,0.354014,3.60014
54.1333333333333,64.1333333333333,0.354078,3.60078
55.0966666666667,65.0966666666667,0.3541,3.601
56.0133333333333,66.0133333333333,0.3541,3.601
57.31,67.31,0.354156,3.60156
58.0066666666667,68.0066666666667,0.354126,3.60126
59.09,69.09,0.354027,3.60027
60.0333333333334,70.0333333333334,0.35403,3.6003
61.21,71.21,0.354084,3.60084
62.16,72.16,0.354193,3.60193
63.22,73.22,0.354218,3.60218
64.0433333333333,74.0433333333333,0.354201,3.60201
65.2533333333333,75.2533333333333,0.35423,3.6023
66.24,76.24,0.354317,3.60317
67.06,77.06,0.354429,3.60429
68.0233333333333,78.0233333333333,0.354415,3.60415
69.1833333333333,79.1833333333333,0.354498,3.60498
70.0933333333333,80.0933333333333,0.354585,3.60585
71.0166666666667,81.0166666666667,0.354579,3.60579
72.0033333333333,82.0033333333333,0.354708,3.60708
73.1033333333333,83.1033333333333,0.354622,3.60622
74.25,84.25,0.354699,3.60699
75.04,85.04,0.354792,3.60792
76.0366666666667,86.0366666666667,0.354915,3.60915
77.03,87.03,0.354922,3.60922
78.0533333333333,88.0533333333333,0.354894,3.60894
79.01,89.01,0.355229,3.61229
80.1033333333333,90.1033333333333,0.355263,3.61263
81.0933333333333,91.0933333333333,0.355432,3.61432
82.0033333333333,92.0033333333333,0.355565,3.61565
83.0166666666667,93.0166666666667,0.35565,3.6165
