/bjt X,/bjt Y
0,0.02239737477800415
0.036,0.05062530288307265
0.07200000000000001,0.08559593252886399
0.108,0.1216013495437039
0.144,0.1575500052860232
0.18,0.1930313434814636
0.216,0.2279867017404092
0.252,0.2627791525360184
0.288,0.2976702702083541
0.3240000000000001,0.3327117697584853
0.3600000000000001,0.3678686057842595
0.3960000000000001,0.4030907622103335
0.4320000000000002,0.4383290706269986
0.4680000000000002,0.4735048803425353
0.5040000000000002,0.5084342870305332
0.5400000000000003,0.542668303060908
0.5760000000000003,0.5755139158693446
0.6120000000000003,0.6065597959987349
0.6480000000000004,0.6362851898030669
0.6840000000000004,0.6655195215934508
0.7200000000000004,0.6947382181170977
0.7560000000000004,0.72399948268756
0.7920000000000005,0.7530261417426316
0.8280000000000005,0.7812899972337343
0.8640000000000005,0.8088405925427328
0.9000000000000006,0.8361970002188032
0.9360000000000006,0.8635250053106209
0.9720000000000006,0.8908671508583881
1.008000000000001,0.9183097802304174
1.044000000000001,0.9459167687879746
1.080000000000001,0.9738052171485417
1.116000000000001,1.002127364491052
1.152000000000001,1.03105218787964
1.188000000000001,1.060737444935003
1.224000000000001,1.09071278971504
1.260000000000001,1.117073888459851
1.296000000000001,1.139158970459828
1.332000000000001,1.159227980834846
1.368000000000001,1.176647031577495
1.404000000000001,1.190121309404429
1.440000000000001,1.198336284659731
1.476000000000001,1.202076529685289
1.512000000000001,1.203767183799367
1.548000000000001,1.204741715380206
1.584000000000001,1.205439734599423
1.620000000000001,1.20600754639578
1.656000000000001,1.206501254846244
1.692000000000001,1.206946028360122
1.728000000000001,1.207354927689398
1.764000000000001,1.207735678111916
1.8,1.208093400242517
1.764000000000001,1.207734438402985
1.728000000000001,1.20735373113772
1.692000000000001,1.206944882280554
1.656000000000001,1.206500184885061
1.620000000000001,1.20600660344924
1.584000000000001,1.205439028715229
1.548000000000001,1.204741487565479
1.512000000000001,1.203767727737509
1.476000000000001,1.202076418901611
1.440000000000001,1.198354595628651
1.404000000000001,1.190219650133902
1.368000000000001,1.176721714712803
1.332000000000001,1.15925737982014
1.296000000000001,1.139158055171662
1.260000000000001,1.117015778664278
1.224000000000001,1.090712354009986
1.188000000000001,1.060763171237325
1.152000000000001,1.031073792996541
1.116000000000001,1.002144920521756
1.080000000000001,0.9738206186336379
1.044000000000001,0.9459311577732779
1.008000000000001,0.9183240925510073
0.9720000000000006,0.8908820968325257
0.9360000000000006,0.8635250017497794
0.9000000000000006,0.836196995484793
0.8640000000000005,0.8088405862555298
0.8280000000000005,0.7812900176243828
0.7920000000000005,0.7530264582597899
0.7560000000000004,0.7239995332259839
0.7200000000000004,0.6947382145802634
0.6840000000000004,0.6655195237658821
0.6480000000000004,0.6362852078296394
0.6120000000000003,0.6065595749839928
0.5760000000000003,0.5755141357313212
0.5400000000000003,0.5426687566790354
0.5040000000000002,0.5084342528555796
0.4680000000000002,0.4735055397550932
0.4320000000000002,0.4383295490311822
0.3960000000000001,0.4030911212949223
0.3600000000000001,0.3678686673568153
0.3240000000000001,0.3327117684238929
0.288,0.2976704207680748
0.252,0.2627794076606733
0.216,0.2279840200608473
0.18,0.1930638082087033
0.144,0.1575498802535054
0.108,0.1216075340104401
0.07200000000000001,0.08559624932905803
0.036,0.05063509430998499
0,0.02239737477800365
