/bjt X,/bjt Y
-40,1.209871560435441
-36.8,1.209721021193486
-33.59999999999999,1.209616331572918
-30.4,1.209514584914483
-27.2,1.20941517426697
-24,1.209318095705682
-20.8,1.209223351585764
-17.6,1.20913094621761
-14.4,1.209040877936564
-11.2,1.20895313900085
-7.999999999999999,1.208867715096289
-4.799999999999999,1.208784584763463
-1.599999999999999,1.208703718769533
1.600000000000001,1.208625080573835
4.800000000000002,1.208548620588902
8.000000000000002,1.208474278633801
11.2,1.20840198732004
14.4,1.208331666658384
17.6,1.208263224467892
20.8,1.208196555356867
24,1.20813154007713
27.2,1.208068045110716
30.4,1.208005920435382
33.6,1.207944990627757
36.8,1.207885094119437
40.00000000000001,1.207826044127141
43.20000000000001,1.207767642913439
46.40000000000001,1.207709685924206
49.60000000000002,1.207651965207828
52.80000000000002,1.207594273870773
56.00000000000002,1.207536411276346
59.20000000000002,1.207478188782941
62.40000000000003,1.207419435774758
65.60000000000002,1.207360005662478
68.80000000000003,1.207299781478489
72.00000000000003,1.207238680657051
75.20000000000003,1.207176658584326
78.40000000000003,1.207113710501206
81.60000000000004,1.207049871344505
84.80000000000004,1.206985213074643
88.00000000000004,1.206919838936339
91.20000000000005,1.206853873892995
94.40000000000005,1.206787450124857
97.60000000000005,1.206720687048122
100.8000000000001,1.206653661298609
104.0000000000001,1.206586359998095
107.2000000000001,1.206518635315095
110.4000000000001,1.206450134228013
113.6000000000001,1.206380229445797
116.8000000000001,1.206307985215877
120,1.206232230085672
