setvoltage,measuredvoltage
0.0,0.3328843
0.1,0.332979
0.2,0.3329108
0.3,0.332933
0.4,0.3328818
0.5,0.3329636
0.6,0.3329495
0.7,0.332868
0.8,0.3329234
0.9,0.3329845
1.0,0.3330679
1.1,0.3329628
1.2,0.333007
1.3,0.3329116
1.4,0.3329898
1.5,0.3329458
1.6,0.3330306
1.7,0.3329726
1.8,0.3329812
1.9,0.3329415
2.0,0.3329239
2.1,0.332878
2.2,0.3329228
2.3,0.3329303
2.4,0.333023
2.5,0.3330072
2.6,0.3328865
2.7,0.3329298
2.8,0.332963
2.9,0.3329967
3.0,0.3330386
3.1,0.3329446
3.2,0.3330103
3.3,0.3329354
3.4,0.3329062
3.5,0.3329172
3.6,0.3328819
3.7,0.3328388
3.8,0.3329814
3.9,0.3329402
4.0,0.3329844
4.1,0.3330366
4.2,0.3329718
4.3,0.333023
4.4,0.3329497
4.5,0.3329906
4.6,0.333008
4.7,0.3329998
4.8,0.3329803
4.9,0.3329427
5.0,0.3329602
5.1,0.332911
5.2,0.3330502
5.3,0.3329579
5.4,0.3329382
5.5,0.3329892
5.6,0.3329775
5.7,0.3330346
5.8,0.3329746
5.9,0.3329692
6.0,0.3329887
6.1,0.3329861
6.2,0.3329439
6.3,0.332962
6.4,0.3329298
6.5,0.3329837
6.6,0.3330404
6.7,0.3330082
6.8,0.3330425
6.9,0.3330025
7.0,0.3328427
7.1,0.3329839
7.2,0.3329813
7.3,0.3329786
7.4,0.3329737
7.5,0.3329839
7.6,0.3329546
7.7,0.3330013
7.8,0.3330011
7.9,0.3329363
8.0,0.3329104
8.1,0.3329251
8.2,0.3329937
8.3,0.3329029
8.4,0.3329234
8.5,0.3330067
8.6,0.3330065
8.7,0.3329642
8.8,0.3329735
8.9,0.3330028
9.0,0.3329269
9.1,0.3329316
9.2,0.332957
9.3,0.3329385
9.4,0.3330071
9.5,0.3330221
9.6,0.3329476
9.7,0.3329915
9.8,0.3329505
9.9,0.3330059
10.0,0.3329192
10.1,0.3329815
10.2,0.332996
10.3,0.3329782
10.4,0.333041
10.5,0.3329636
10.6,0.3329852
10.7,0.3329802
10.8,0.3329842
10.9,0.332986
11.0,0.3330208
11.1,0.3329972
11.2,0.3329349
11.3,0.33287
11.4,0.333004
11.5,0.3329445
11.6,0.3329236
11.7,0.3329903
11.8,0.3329729
11.9,0.3329472
12.0,0.3328581
12.1,0.3329912
12.2,0.3329625
12.3,0.3329572
12.4,0.3330065
12.5,0.3329497
12.6,0.3330027
12.7,0.3329016
12.8,0.3330224
12.9,0.3329458
13.0,0.3329732
13.1,0.3329407
13.2,0.332973
13.3,0.3329828
13.4,0.3329771
13.5,0.3329771
13.6,0.3329538
13.7,0.3329833
13.8,0.332972
13.9,0.3329707
14.0,0.3329219
14.1,0.3329473
14.2,0.3330214
14.3,0.3330479
14.4,0.3330097
14.5,0.3329759
14.6,0.3330442
14.7,0.3330204
14.8,0.3329248
14.9,0.3329957
15.0,0.3329297
15.1,0.3329598
15.2,0.3329691
15.3,0.3329615
15.4,0.3329768
15.5,0.3329303
15.6,0.3329558
15.7,0.3329452
15.8,0.3329665
15.9,0.3330477
16.0,0.3330023
16.1,0.3329745
16.2,0.3329581
16.3,0.3329959
16.4,0.3330626
16.5,0.3329796
16.6,0.3329488
16.7,0.3329952
16.8,0.3329986
16.9,0.3330155
17.0,0.3329364
17.1,0.3329428
17.2,0.3329524
17.3,0.3329047
17.4,0.3330477
17.5,0.3330151
17.6,0.3329969
17.7,0.3329998
17.8,0.3329592
17.9,0.3329589
18.0,0.3329836
18.1,0.3330339
18.2,0.332975
18.3,0.3329914
18.4,0.33298
18.5,0.3329392
18.6,0.3329438
18.7,0.3330454
18.8,0.3330344
18.9,0.3329972
