setvoltage,measuredvoltage
0.0,0.009804851
0.1,0.01018163
0.2,0.009888671
0.3,0.01016685
0.4,0.01015972
0.5,0.01032366
0.6,0.01000299
0.7,0.01007751
0.8,0.00979268
0.9,0.01094932
1.0,0.01025795
1.1,0.0106571
1.2,0.01045558
1.3,0.01057903
1.4,0.01044886
1.5,0.01067709
1.6,0.0101589
1.7,0.01083125
1.8,0.01063884
1.9,0.01088419
2.0,0.011867
2.1,0.01121358
2.2,0.01227678
2.3,0.01194183
2.4,0.01352261
2.5,0.01391953
2.6,0.01552444
2.7,0.01769893
2.8,0.01855354
2.9,0.02101179
3.0,0.02468929
3.1,0.02785748
3.2,0.03258194
3.3,0.03751343
3.4,0.04379125
3.5,0.04967271
3.6,0.05665604
3.7,0.063758
3.8,0.07141849
3.9,0.07916322
4.0,0.08693754
4.1,0.094611
4.2,0.1021116
4.3,0.1097881
4.4,0.1172683
4.5,0.1247627
4.6,0.1317781
4.7,0.1390099
4.8,0.1458128
4.9,0.1526201
5.0,0.1590782
5.1,0.1653929
5.2,0.17177
5.3,0.1778637
5.4,0.1841237
5.5,0.1900917
5.6,0.1962245
5.7,0.2021214
5.8,0.2079796
5.9,0.2139276
6.0,0.2196568
6.1,0.2255362
6.2,0.2311365
6.3,0.2368739
6.4,0.2422902
6.5,0.2477335
6.6,0.2532816
6.7,0.258581
6.8,0.2639778
6.9,0.2691355
7.0,0.2744393
7.1,0.279415
7.2,0.2844571
7.3,0.2892671
7.4,0.2939524
7.5,0.2986192
7.6,0.3030035
7.7,0.3073019
7.8,0.3112649
7.9,0.3151124
8.0,0.318554
8.1,0.321772
8.2,0.3247461
8.3,0.3273497
8.4,0.3296734
8.5,0.331617
8.6,0.3334156
8.7,0.334865
8.8,0.3361295
8.9,0.3372482
9.0,0.3380917
9.1,0.3390127
9.2,0.3397402
9.3,0.3402792
9.4,0.3409871
9.5,0.3415705
9.6,0.3421984
9.7,0.3426237
9.8,0.3430808
9.9,0.3435052
10.0,0.3440203
10.1,0.3444189
10.2,0.3449087
10.3,0.3452756
10.4,0.3455091
10.5,0.3459455
10.6,0.3463356
10.7,0.3466789
10.8,0.3471341
10.9,0.3474356
11.0,0.3476942
11.1,0.3480316
11.2,0.3483762
11.3,0.3485831
11.4,0.3490148
11.5,0.34928
11.6,0.3495614
11.7,0.349844
11.8,0.3500348
11.9,0.3504503
12.0,0.350555
12.1,0.3509049
12.2,0.3510299
12.3,0.3513887
12.4,0.3515998
12.5,0.3518608
12.6,0.3520745
12.7,0.3522166
12.8,0.3524222
12.9,0.352682
13.0,0.3529404
13.1,0.3530143
13.2,0.3532034
13.3,0.3534559
13.4,0.3536195
13.5,0.353815
13.6,0.353969
13.7,0.3541786
13.8,0.3543354
13.9,0.3545236
14.0,0.3546133
14.1,0.3548767
14.2,0.3549891
14.3,0.3551504
14.4,0.3553619
14.5,0.3554516
14.6,0.3556435
14.7,0.3558052
14.8,0.3558587
14.9,0.3560601
15.0,0.3561556
15.1,0.3563046
15.2,0.3564116
15.3,0.3565735
15.4,0.3566912
15.5,0.3567277
15.6,0.3568762
15.7,0.3569639
15.8,0.3571401
15.9,0.3573086
16.0,0.3572663
16.1,0.3574454
16.2,0.3575664
16.3,0.3575773
16.4,0.3576671
16.5,0.3577655
16.6,0.3579528
16.7,0.3581115
16.8,0.3581207
16.9,0.3582082
17.0,0.3583582
17.1,0.3584146
17.2,0.3585113
17.3,0.3586454
17.4,0.3587368
17.5,0.358819
17.6,0.3589182
17.7,0.358935
17.8,0.3590713
17.9,0.3588827
18.0,0.3589377
