setvoltage,measuredvoltage
0.0,0.01108028
0.1,0.01078864
0.2,0.01084506
0.3,0.02444917
0.4,0.08698338
0.5,0.1592083
0.6,0.2198094
0.7,0.2746005
0.8,0.3187951
0.9,0.3383414
1.0,0.3441905
1.1,0.3480082
1.2,0.3510009
1.3,0.3530291
1.4,0.3548911
1.5,0.3563635
1.6,0.3575073
1.7,0.3585031
1.8,0.3592041
