setvoltage,measuredvoltage
0.0,0.009896715
0.1,0.009647227
0.2,0.009140633
0.3,0.008463057
0.4,0.009762384
0.5,0.008785455
0.6,0.009227084
0.7,0.00912072
0.8,0.008855142
0.9,0.01051242
1.0,0.009664803
1.1,0.01004903
1.2,0.0102153
1.3,0.01000274
1.4,0.009697488
1.5,0.00991224
1.6,0.008933135
1.7,0.01014504
1.8,0.009872396
1.9,0.01069271
2.0,0.01105973
2.1,0.0118782
2.2,0.01139292
2.3,0.0126863
2.4,0.01365146
2.5,0.0144754
2.6,0.01537635
2.7,0.01684652
2.8,0.01869881
2.9,0.02144469
3.0,0.02389213
3.1,0.02776164
3.2,0.03203456
3.3,0.03769964
3.4,0.04359436
3.5,0.04938369
3.6,0.05678064
3.7,0.0637489
3.8,0.07159306
3.9,0.07902552
4.0,0.08696213
4.1,0.09451731
4.2,0.1020777
4.3,0.1098256
4.4,0.117145
4.5,0.1247004
4.6,0.1317389
4.7,0.1389789
4.8,0.1457275
4.9,0.1525367
5.0,0.1589909
5.1,0.1653126
5.2,0.1716932
5.3,0.1778179
5.4,0.1840646
5.5,0.1900093
5.6,0.1961733
5.7,0.202067
5.8,0.2079205
5.9,0.213911
6.0,0.2196452
6.1,0.2254962
6.2,0.231101
6.3,0.2368527
6.4,0.2422884
6.5,0.2476963
6.6,0.2532513
6.7,0.258572
6.8,0.2640081
6.9,0.2691512
7.0,0.2743874
7.1,0.279411
7.2,0.2844918
7.3,0.289281
7.4,0.2939443
7.5,0.2986479
7.6,0.3030171
7.7,0.3073295
7.8,0.3113166
7.9,0.3151641
8.0,0.3186187
8.1,0.3217962
8.2,0.3248102
8.3,0.3274007
8.4,0.3297865
8.5,0.3317397
8.6,0.3334665
8.7,0.3349631
8.8,0.3362767
8.9,0.3373735
9.0,0.3382583
9.1,0.3391293
9.2,0.339857
9.3,0.3405781
9.4,0.3411601
9.5,0.341726
9.6,0.3422596
9.7,0.3427969
9.8,0.3431922
9.9,0.3436408
10.0,0.3441997
10.1,0.3445788
10.2,0.345019
10.3,0.3453782
10.4,0.3457535
10.5,0.3462169
10.6,0.3465866
10.7,0.3470078
10.8,0.3473041
10.9,0.3476347
11.0,0.3478694
11.1,0.34823
11.2,0.3486983
11.3,0.3489256
11.4,0.349227
11.5,0.3494297
11.6,0.3497613
11.7,0.3500453
11.8,0.3502904
11.9,0.3505297
12.0,0.3508571
12.1,0.3511087
12.2,0.3513217
12.3,0.351548
12.4,0.3517596
12.5,0.3520353
12.6,0.3522468
12.7,0.3524436
12.8,0.352721
12.9,0.352937
13.0,0.3531199
13.1,0.3532969
13.2,0.353508
13.3,0.3537176
13.4,0.3537977
13.5,0.3539679
13.6,0.3540766
13.7,0.3544031
13.8,0.354469
13.9,0.3547197
14.0,0.3548731
14.1,0.3550362
14.2,0.3551736
14.3,0.3553688
14.4,0.3554676
14.5,0.3556231
14.6,0.3558261
14.7,0.3559385
14.8,0.3561347
14.9,0.3561038
15.0,0.3563622
15.1,0.3565049
15.2,0.3565602
15.3,0.3566713
15.4,0.3568638
15.5,0.3569828
15.6,0.3571136
15.7,0.3572495
15.8,0.3573787
15.9,0.3574488
16.0,0.3575254
16.1,0.3576838
16.2,0.3576446
16.3,0.3578331
16.4,0.3579843
16.5,0.3580754
16.6,0.3581735
16.7,0.3582479
16.8,0.3583936
16.9,0.3584848
17.0,0.358536
17.1,0.3587526
17.2,0.3588187
17.3,0.3587483
17.4,0.3588158
17.5,0.3589893
17.6,0.3591507
17.7,0.3591694
17.8,0.359221
17.9,0.3591355
18.0,0.3591711
