setvoltage,measuredvoltage
0.0,0.03485088
0.1,0.1180512
0.2,0.2164459
0.3,0.3162417
0.4,0.414147
0.5,0.5105463
0.6,0.6007364
0.7,0.6784472
0.8,0.752522
0.9,0.8244243
1.0,0.8954532
1.1,0.9638556
1.2,1.015729
1.3,1.036141
1.4,1.044713
1.5,1.05021
1.6,1.053931
1.7,1.043
1.8,1.04578
