setvoltage,measuredvoltage
0.0,0.031194
0.1,0.112001
0.2,0.2078506
0.3,0.3028765
0.4,0.3965222
0.5,0.4820237
0.6,0.5269355
0.7,0.5401532
0.8,0.5457953
0.9,0.5491541
1.0,0.5514088
1.1,0.5533186
1.2,0.5548773
1.3,0.5561762
1.4,0.5571913
1.5,0.5578551
1.6,0.5585405
1.7,0.5594481
1.8,0.5773914
