setvoltage,measuredvoltage
0.0,0.03522799
0.01,0.04237597
0.02,0.04914592
0.03,0.05689565
0.04,0.06509279
0.05,0.07386722
0.06,0.08294226
0.07,0.09188546
0.08,0.1013175
0.09,0.110776
0.1,0.1204941
0.11,0.1299649
0.12,0.1394536
0.13,0.1494806
0.14,0.1591978
0.15,0.1691807
0.16,0.1791019
0.17,0.1893522
0.18,0.1992996
0.19,0.2090455
0.2,0.2195088
0.21,0.2295294
0.22,0.2398521
0.23,0.2498207
0.24,0.2603802
0.25,0.2704006
0.26,0.2804497
0.27,0.2906035
0.28,0.300722
0.29,0.3109925
0.3,0.3209074
0.31,0.3309792
0.32,0.3409214
0.33,0.3511516
0.34,0.3609443
0.35,0.3706985
0.36,0.3807384
0.37,0.3904214
0.38,0.4005243
0.39,0.4102178
0.4,0.4201961
0.41,0.4298283
0.42,0.4394456
0.43,0.4494364
0.44,0.4590459
0.45,0.4689463
0.46,0.4784902
0.47,0.4883983
0.48,0.4979064
0.49,0.5077296
0.5,0.5171502
0.51,0.5265583
0.52,0.5362241
0.53,0.5455028
0.54,0.5549467
0.55,0.5639634
0.56,0.5731882
0.57,0.5819281
0.58,0.5904895
0.59,0.5991657
0.6,0.6072995
0.61,0.615795
0.62,0.6237342
0.63,0.6317716
0.64,0.6395074
0.65,0.647165
0.66,0.6550065
0.67,0.6625372
0.68,0.670237
0.69,0.6777701
0.7,0.6854722
0.71,0.6929294
0.72,0.7005644
0.73,0.7080233
0.74,0.7154084
0.75,0.7230584
0.76,0.7304347
0.77,0.7380165
0.78,0.7454318
0.79,0.7529888
0.8,0.7601994
0.81,0.7675428
0.82,0.7750412
0.83,0.7822482
0.84,0.789717
0.85,0.796914
0.86,0.8042992
0.87,0.8114817
0.88,0.81889
0.89,0.8259866
0.9,0.8331606
0.91,0.8405252
0.92,0.8476294
0.93,0.8549742
0.94,0.8621038
0.95,0.8694727
0.96,0.8765787
0.97,0.883675
0.98,0.8910449
0.99,0.8981653
1.0,0.9055507
1.01,0.912655
1.02,0.9200895
1.03,0.9272493
1.04,0.9344088
1.05,0.9418242
1.06,0.9490585
1.07,0.956515
1.08,0.9637688
1.09,0.971254
1.1,0.9785848
1.11,0.9861605
1.12,0.993511
1.13,1.000831
1.14,1.008511
1.15,1.015934
1.16,1.023617
1.17,1.031039
1.18,1.038648
1.19,1.046042
1.2,1.053252
1.21,1.05296
1.22,1.067263
1.23,1.074784
1.24,1.081345
1.25,1.087519
1.26,1.094389
1.27,1.099701
1.28,1.106466
1.29,1.112084
1.3,1.117682
1.31,1.122945
1.32,1.127287
1.33,1.132449
1.34,1.137601
1.35,1.142532
1.36,1.146717
1.37,1.14876
1.38,1.153286
1.39,1.15841
1.4,1.162389
1.41,1.165784
1.42,1.168512
1.43,1.171533
1.44,1.174219
1.45,1.176515
1.46,1.178577
1.47,1.180437
1.48,1.18198
1.49,1.183388
1.5,1.184695
1.51,1.18578
1.52,1.186652
1.53,1.187565
1.54,1.188203
1.55,1.188847
1.56,1.189349
1.57,1.189988
1.58,1.190477
1.59,1.190891
1.6,1.191488
1.61,1.191913
1.62,1.192283
1.63,1.192696
1.64,1.193039
1.65,1.19335
1.66,1.193781
1.67,1.194085
1.68,1.194482
1.69,1.194782
1.7,1.194945
1.71,1.195233
1.72,1.1955
1.73,1.195878
1.74,1.196098
1.75,1.196283
1.76,1.196562
1.77,1.196792
1.78,1.197097
1.79,1.197267
1.8,1.197486
1.81,1.197721
1.82,1.198042
1.83,1.198105
1.84,1.198321
1.85,1.198543
1.86,1.198717
1.87,1.198951
1.88,1.199073
1.89,1.199232
1.9,1.199481
