setvoltage,measuredvoltage
0.0,0.04231681
0.1,0.1140627
0.2,0.2093956
0.3,0.3055563
0.4,0.4002967
0.5,0.4932128
0.6,0.5706682
0.7,0.6063567
0.8,0.619218
0.9,0.6251487
1.0,0.6286998
1.1,0.6313916
1.2,0.633431
1.3,0.6350037
1.4,0.6362199
1.5,0.6370348
1.6,0.6378815
1.7,0.6385272
1.8,0.6397001
