setvoltage,measuredvoltage
0.0,0.4790397
0.1,0.4790701
0.2,0.4790431
0.3,0.4790183
0.4,0.479057
0.5,0.4790843
0.6,0.4791077
0.7,0.4790339
0.8,0.479197
0.9,0.4791027
1.0,0.4792572
1.1,0.4791865
1.2,0.4791846
1.3,0.4792399
1.4,0.4792091
1.5,0.4791914
1.6,0.479167
1.7,0.4792311
1.8,0.4792244
