setvoltage,measuredvoltage
0.0007,1.191075
0.0008,1.192161
0.0009000000000000001,1.193067
0.001,1.194282
0.0011,1.194359
0.0012000000000000001,1.195622
0.0013000000000000002,1.195409
0.0014,1.196241
0.0015,1.19619
0.0016,1.197047
0.0017000000000000001,1.196997
0.0018000000000000002,1.200402
0.0019,1.197562
0.002,1.198215
0.0021000000000000003,1.199698
0.0022,1.205119
0.0023,1.199481
0.0024000000000000002,1.200467
0.0025,1.204141
0.0026000000000000003,1.201138
0.0027,1.201082
0.0028,1.204379
0.0029000000000000002,1.200841
0.003,1.201083
0.0031000000000000003,1.200295
0.0032,1.200441
0.0033,1.200592
0.0034000000000000002,1.200839
0.0035,1.200891
0.0036000000000000003,1.201121
0.0037,1.201273
0.0038,1.201457
0.0039000000000000003,1.202038
0.004,1.201766
0.0041,1.20228
0.004200000000000001,1.202009
0.0043,1.202944
0.0044,1.202239
0.0045000000000000005,1.202384
0.0046,1.202582
0.0047,1.20279
0.0048000000000000004,1.202844
0.0049,1.203001
0.005,1.203104
0.0051,1.203213
0.005200000000000001,1.203324
0.0053,1.203448
0.0054,1.203441
0.0055000000000000005,1.203636
0.0056,1.203718
0.0057,1.204073
0.0058000000000000005,1.203843
0.0059,1.20405
0.006,1.204068
0.0061,1.204219
0.006200000000000001,1.204223
0.0063,1.20438
0.0064,1.204431
0.006500000000000001,1.20455
0.0066,1.204665
0.0067,1.204726
0.0068000000000000005,1.204778
0.006900000000000001,1.204865
0.007,1.204907
