setvoltage,measuredvoltage
0.0007,1.191075
0.0008,1.192272
0.0009000000000000001,1.193112
0.001,1.193772
0.0011,1.194398
0.0012000000000000001,1.194952
0.0013000000000000002,1.1954
0.0014,1.19586
0.0015,1.196265
0.0016,1.196648
0.0017000000000000001,1.197041
0.0018000000000000002,1.197311
0.0019,1.19754
0.002,1.197909
0.0021000000000000003,1.198119
0.0022,1.198406
0.0023,1.199079
0.0024000000000000002,1.198889
0.0025,1.199797
0.0026000000000000003,1.199361
0.0027,1.199819
0.0028,1.199711
0.0029000000000000002,1.200562
0.003,1.200137
0.0031000000000000003,1.200582
0.0032,1.200454
0.0033,1.20069
0.0034000000000000002,1.200769
0.0035,1.201104
0.0036000000000000003,1.201169
0.0037,1.20135
0.0038,1.201461
0.0039000000000000003,1.201654
0.004,1.201748
0.0041,1.20193
0.004200000000000001,1.201946
0.0043,1.202196
0.0044,1.202232
0.0045000000000000005,1.202407
0.0046,1.202556
0.0047,1.202655
0.0048000000000000004,1.203457
0.0049,1.202904
0.005,1.203685
0.0051,1.20308
0.005200000000000001,1.203554
0.0053,1.203388
0.0054,1.20379
0.0055000000000000005,1.20362
0.0056,1.204046
0.0057,1.203798
0.0058000000000000005,1.204245
0.0059,1.204027
0.006,1.204453
0.0061,1.204257
0.006200000000000001,1.204544
0.0063,1.204431
0.0064,1.2045
0.006500000000000001,1.204518
0.0066,1.204631
0.0067,1.204733
0.0068000000000000005,1.204909
0.006900000000000001,1.204935
0.007,1.205075
