setvoltage,measuredvoltage
-0.0,1.175044
-0.0001,1.174068
-0.0002,1.174746
-0.00030000000000000003,1.173679
-0.0004,1.17428
-0.0005,1.173432
-0.0006000000000000001,1.173366
-0.0007,1.173306
-0.0008,1.173051
-0.0009000000000000001,1.173728
-0.001,1.172817
-0.0011,1.17272
-0.0012000000000000001,1.172467
-0.0013000000000000002,1.172421
-0.0014,1.172142
-0.0015,1.17202
-0.0016,1.171944
-0.0017000000000000001,1.171799
-0.0018000000000000002,1.17164
-0.0019,1.171446
-0.002,1.172079
-0.0021000000000000003,1.171138
-0.0022,1.171719
-0.0023,1.170822
-0.0024000000000000002,1.170962
-0.0025,1.170413
-0.0026000000000000003,1.170224
-0.0027,1.169982
-0.0028,1.169787
-0.0029000000000000002,1.16965
-0.003,1.169435
-0.0031000000000000003,1.169243
-0.0032,1.168993
-0.0033,1.168711
-0.0034000000000000002,1.168455
-0.0035,1.168975
-0.0036000000000000003,1.1681
-0.0037,1.168501
-0.0038,1.167438
-0.0039000000000000003,1.16724
-0.004,1.166887
-0.0041,1.166641
-0.004200000000000001,1.166308
-0.0043,1.166101
-0.0044,1.16577
-0.0045000000000000005,1.165358
-0.0046,1.165215
-0.0047,1.16459
-0.0048000000000000004,1.164768
-0.0049,1.163617
-0.005,1.163031
-0.0051,1.162431
-0.005200000000000001,1.162416
-0.0053,1.160945
-0.0054,1.16002
-0.0055000000000000005,1.158795
-0.0056,1.157518
-0.0057,1.155525
-0.0058000000000000005,1.152062
-0.0059,1.14589
-0.006,1.137984
-0.0061,1.129137
-0.006200000000000001,1.119632
-0.0063,1.110649
-0.0064,1.10067
-0.006500000000000001,1.09117
-0.0066,1.082182
-0.0067,1.072166
-0.0068000000000000005,1.061382
-0.006900000000000001,1.052762
-0.007,1.042929
