setvoltage,measuredvoltage
0.0,2.099987
0.0001,2.099987
0.0002,2.099982
0.00030000000000000003,2.099986
0.0004,2.099981
0.0005,2.099981
0.0006000000000000001,2.099982
0.0007,2.099988
0.0008,2.099983
0.0009000000000000001,2.099984
0.001,2.099984
0.0011,2.099982
0.0012000000000000001,2.099982
0.0013000000000000002,2.099988
0.0014,2.099977
0.0015,2.099984
0.0016,2.099986
0.0017000000000000001,2.099986
0.0018000000000000002,2.099988
0.0019,2.099988
0.002,2.099988
0.0021000000000000003,2.099984
0.0022,2.099986
0.0023,2.099983
0.0024000000000000002,2.099986
0.0025,2.099985
0.0026000000000000003,2.099983
0.0027,2.099985
0.0028,2.099988
0.0029000000000000002,2.099985
0.003,2.099988
0.0031000000000000003,2.099984
0.0032,2.099983
0.0033,2.099986
0.0034000000000000002,2.099986
0.0035,2.099982
0.0036000000000000003,2.099986
0.0037,2.099986
0.0038,2.099987
0.0039000000000000003,2.099981
0.004,2.099982
0.0041,2.099985
0.004200000000000001,2.099975
0.0043,2.099984
0.0044,2.099985
0.0045000000000000005,2.099986
0.0046,2.099983
0.0047,2.099983
0.0048000000000000004,2.09998
0.0049,2.099985
0.005,2.099984
0.0051,2.099985
0.005200000000000001,2.099984
0.0053,2.099986
0.0054,2.099982
0.0055000000000000005,2.099985
0.0056,2.09998
0.0057,2.099985
0.0058000000000000005,2.099984
0.0059,2.099979
0.006,2.099984
0.0061,2.099984
0.006200000000000001,2.099988
0.0063,2.099984
0.0064,2.099985
0.006500000000000001,2.099987
0.0066,2.099985
0.0067,2.099983
0.0068000000000000005,2.099983
0.006900000000000001,2.099984
0.007,2.099984
