setvoltage,measuredvoltage
-0.0,1.172211
-0.0001,1.172026
-0.0002,1.17131
-0.00030000000000000003,1.171551
-0.0004,1.171205
-0.0005,1.17121
-0.0006000000000000001,1.17065
-0.0007,1.170755
-0.0008,1.170332
-0.0009000000000000001,1.170391
-0.001,1.17101
-0.0011,1.169844
-0.0012000000000000001,1.170033
-0.0013000000000000002,1.17013
-0.0014,1.169312
-0.0015,1.169621
-0.0016,1.168412
-0.0017000000000000001,1.169038
-0.0018000000000000002,1.168089
-0.0019,1.168349
-0.002,1.168692
-0.0021000000000000003,1.168424
-0.0022,1.167512
-0.0023,1.167112
-0.0024000000000000002,1.167705
-0.0025,1.166981
-0.0026000000000000003,1.166516
-0.0027,1.166687
-0.0028,1.166632
-0.0029000000000000002,1.166407
-0.003,1.165522
-0.0031000000000000003,1.164876
-0.0032,1.165638
-0.0033,1.165425
-0.0034000000000000002,1.165184
-0.0035,1.164875
-0.0036000000000000003,1.164909
-0.0037,1.164023
-0.0038,1.164166
-0.0039000000000000003,1.163959
-0.004,1.163396
-0.0041,1.16281
-0.004200000000000001,1.163147
-0.0043,1.162257
-0.0044,1.162643
-0.0045000000000000005,1.162187
-0.0046,1.161581
-0.0047,1.160499
-0.0048000000000000004,1.159928
-0.0049,1.160287
-0.005,1.160174
-0.0051,1.15984
-0.005200000000000001,1.158175
-0.0053,1.157854
-0.0054,1.157198
-0.0055000000000000005,1.156661
-0.0056,1.155799
-0.0057,1.154837
-0.0058000000000000005,1.153504
-0.0059,1.151877
-0.006,1.149523
-0.0061,1.14545
-0.006200000000000001,1.13863
-0.0063,1.129773
-0.0064,1.119682
-0.006500000000000001,1.109602
-0.0066,1.100064
-0.0067,1.089952
-0.0068000000000000005,1.080113
-0.006900000000000001,1.07065
-0.007,1.060716
-0.0071,1.051144
-0.007200000000000001,1.041171
-0.0073,1.031287
-0.0074,1.021497
-0.007500000000000001,1.011874
-0.0076,1.001792
-0.0077,0.9918649
-0.0078000000000000005,0.9821587
-0.0079,0.9723929
