averageTemp,measuredvoltage
10.966666666666669,A02  /V/M+1.198574E+00
10.906666666666666,+1.198414E+00
11.026666666666666,+1.198409E+00
12.096666666666666,+1.198544E+00
13.040000000000001,+1.198455E+00
14.006666666666666,+1.198467E+00
15.113333333333332,+1.198462E+00
16.209999999999997,+1.198482E+00
17.023333333333333,+1.198533E+00
18.08666666666667,+1.198562E+00
19.01,+1.198537E+00
20.013333333333335,+1.198476E+00
21.080000000000002,+1.198460E+00
22.083333333333332,+1.198468E+00
23.039999999999996,+1.198422E+00
24.08,+1.198467E+00
