averageTemp,measuredvoltage
-24.0433333333333,0.361538
-23.88,0.361574
-23.3066666666667,0.361756
-22.8633333333333,0.361687
-21.8166666666667,0.361751
-20.9633333333333,0.361738
-19.9266666666667,0.361748
-18.88,0.361787
-17.6833333333333,0.361784
-16.9566666666667,0.36175
-15.7333333333333,0.36179
-14.78,0.361636
-13.9633333333333,0.361767
-12.9166666666667,0.36167
-11.96,0.361673
-10.9366666666667,0.361641
-9.98333333333333,0.361717
-8.84,0.361666
-7.78333333333333,0.361627
-6.75333333333333,0.361642
-5.92,0.361564
-4.94333333333333,0.361525
-3.99333333333333,0.361554
-2.88,0.361541
-1.39333333333333,0.361503
-0.91,0.361543
1.62,0.361454
1.14333333333333,0.361447
2.00333333333333,0.361381
3.01333333333333,0.361276
4.01,0.36138
5.01666666666667,0.36132
6.4,0.361398
7.05333333333333,0.361071
8.01666666666667,0.361277
9.03,0.361191
10.1866666666667,0.361191
11.0566666666667,0.361202
12.0966666666667,0.36109
13.1266666666667,0.361091
14.0066666666667,0.361056
15.0533333333333,0.361094
16.13,0.361061
17.0833333333333,0.361085
18.1466666666667,0.36099
19.12,0.360765
20.0166666666667,0.360918
21.1066666666667,0.360747
22.0233333333333,0.360859
23.01,0.360876
24.11,0.360901
25.22,0.361004
26.2133333333333,0.360832
27.0133333333333,0.360878
28.14,0.360909
29.1,0.360784
30.16,0.360818
31.11,0.360741
32.0966666666667,0.360737
33.0633333333333,0.360713
34.1133333333333,0.360777
35.0466666666667,0.360737
36.1533333333333,0.360756
37.08,0.360566
38.0233333333333,0.360536
39.0866666666667,0.360602
40.06,0.360504
41.1233333333333,0.360601
42.1766666666667,0.360595
43.0633333333333,0.360427
44.1933333333333,0.360446
45.19,0.360521
46.0133333333333,0.360365
47.0966666666667,0.360436
48.1633333333333,0.360407
49.2666666666667,0.360381
50.0366666666667,0.360247
51.04,0.36025
52.03,0.360218
53.0566666666667,0.360165
54.1466666666667,0.360197
55.1166666666667,0.360177
56.2233333333333,0.360238
57.1433333333333,0.360007
58.2533333333333,0.360057
