setvoltage,measuredvoltage
0.0,1.963902
0.1,1.962966
0.2,1.96351
0.3,1.963223
0.4,1.962287
0.5,1.96288
0.6,1.961685
0.7,1.964064
0.8,1.962158
0.9,1.961779
1.0,1.962307
1.1,1.962383
1.2,1.963077
1.3,1.962759
1.4,1.962383
1.5,1.962378
1.6,2.024121
1.7,2.078648
1.8,2.121115
