setvoltage,measuredvoltage
0.0,-0.0004007298
0.1,0.09992877
0.2,0.1998778
0.3,0.2998071
0.4,0.4001007
0.5,0.5000291
0.6,0.6000281
0.7,0.7002172
0.8,0.8001315
0.9,0.9001175
1.0,1.000376
1.1,1.100361
1.2,1.200272
1.3,1.300593
1.4,1.400454
1.5,1.500609
1.6,1.600425
1.7,1.700209
1.8,1.800367
