Temperature and humidity log started on 20/04/2022 at 23:12:46

Time 		 Average T (C) 	 T0 (C) 	 T1 (C) 	 T2 (C) 	 RH (%) 	 HYT T (C) 
------------------------------------------------------------------------
