setvoltage,measuredvoltage
0.0,0.01039995
0.1,0.01008167
0.2,0.01182542
0.3,0.02521125
0.4,0.08711501
0.5,0.1592024
0.6,0.2198436
0.7,0.274606
0.8,0.3187235
0.9,0.3382287
1.0,0.3442028
1.1,0.3479477
1.2,0.3508507
1.3,0.3530693
1.4,0.3549136
1.5,0.356321
1.6,0.357479
1.7,0.358537
1.8,0.3591621
