Temperature and humidity log started on 08/07/2021 at 14:59:55

Time 		 Average T (C) 	 T0 (C) 	 T1 (C) 	 T2 (C) 	 RH (%) 	 HYT T (C) 
------------------------------------------------------------------------
14:59:55	 -12.77		 -13.12		 -13.12		 -12.06		 1.26		 19.04
14:59:55	 -12.72		 -13.12		 -12.97		 -12.06		 1.25		 19.04
14:59:55	 -12.72		 -13.12		 -13.28		 -11.76		 1.22		 19.02
14:59:55	 -12.67		 -13.12		 -13.12		 -11.76		 1.22		 19.02
14:59:56	 -12.66		 -13.12		 -12.81		 -12.06		 1.25		 19.02
14:59:57	 -12.77		 -12.97		 -13.12		 -12.21		 1.26		 19.02
14:59:58	 -12.67		 -13.12		 -12.97		 -11.91		 1.29		 0.02
14:59:59	 -12.67		 -12.97		 -12.97		 -12.06		 1.28		 19.02
15:00:00	 -12.72		 -13.12		 -12.97		 -12.06		 1.28		 19.04
15:00:01	 -12.67		 -12.97		 -12.97		 -12.06		 1.28		 19.02
15:00:02	 -12.71		 -12.81		 -13.12		 -12.21		 1.26		 19.04
15:00:03	 -12.61		 -12.81		 -12.97		 -12.06		 1.25		 19.04
15:00:04	 -12.67		 -12.97		 -13.12		 -11.91		 1.22		 19.02
15:00:04	 -12.67		 -12.97		 -12.97		 -12.06		 1.22		 19.02
15:00:05	 -12.77		 -13.28		 -12.97		 -12.06		 1.25		 19.02
15:00:06	 -12.82		 -12.97		 -13.12		 -12.36		 1.26		 19.02
15:00:07	 -12.57		 -13.12		 -12.97		 -11.61		 1.26		 19.02
15:00:08	 -12.77		 -13.28		 -13.28		 -11.76		 1.26		 19.02
15:00:09	 -12.61		 -12.97		 -12.81		 -12.06		 1.26		 19.02
15:00:10	 -12.72		 -13.12		 -12.97		 -12.06		 1.26		 19.02
15:00:11	 -12.72		 -12.97		 -13.12		 -12.06		 1.26		 19.02
15:00:12	 -12.62		 -12.97		 -12.97		 -11.91		 1.25		 19.02
15:00:13	 -12.82		 -13.12		 -13.12		 -12.21		 1.25		 19.00
15:00:13	 -12.61		 -13.12		 -12.81		 -11.91		 1.25		 19.02
15:00:14	 -12.72		 -12.97		 -13.12		 -12.06		 1.22		 19.02
15:00:15	 -12.77		 -13.12		 -13.12		 -12.06		 1.20		 19.02
15:00:16	 -12.77		 -13.28		 -12.97		 -12.06		 1.20		 19.02
15:00:17	 -12.67		 -12.97		 -13.12		 -11.91		 1.17		 19.02
15:00:18	 -12.51		 -12.81		 -12.81		 -11.91		 1.14		 19.00
15:00:19	 -12.82		 -13.28		 -12.97		 -12.21		 1.14		 19.02
15:00:20	 -12.67		 -12.97		 -13.12		 -11.91		 1.14		 19.00
15:00:21	 -12.77		 -13.12		 -12.97		 -12.21		 1.17		 19.00
15:00:22	 -12.67		 -12.97		 -12.97		 -12.06		 1.17		 19.00
15:00:22	 -12.67		 -12.97		 -12.97		 -12.06		 1.18		 19.00
15:00:23	 -12.92		 -13.28		 -12.97		 -12.51		 1.18		 19.00
15:00:24	 -12.62		 -12.97		 -12.97		 -11.91		 1.20		 19.00
15:00:25	 -12.77		 -13.12		 -13.12		 -12.06		 1.18		 19.00
15:00:26	 -12.67		 -12.97		 -12.97		 -12.06		 1.15		 19.02
15:00:27	 -12.72		 -13.28		 -13.12		 -11.76		 1.15		 19.00
15:00:28	 -12.67		 -12.97		 -12.97		 -12.06		 1.15		 19.02
15:00:29	 -12.61		 -12.81		 -12.81		 -12.21		 1.15		 19.02
15:00:30	 -12.72		 -13.28		 -12.97		 -11.91		 1.15		 19.02
15:00:31	 -12.77		 -13.12		 -13.12		 -12.06		 1.15		 19.00
15:00:32	 -12.82		 -13.12		 -13.12		 -12.21		 1.14		 19.04
15:00:32	 -12.67		 -12.97		 -12.97		 -12.06		 1.15		 19.02
15:00:33	 -12.72		 -12.97		 -12.97		 -12.21		 1.15		 19.04
15:00:34	 -12.67		 -12.97		 -12.97		 -12.06		 1.15		 19.02
15:00:35	 -12.72		 -12.97		 -13.12		 -12.06		 1.14		 19.02
15:00:36	 -12.72		 -12.97		 -12.97		 -12.21		 1.14		 19.02
15:00:37	 -12.67		 -12.97		 -12.97		 -12.06		 1.14		 19.04
15:00:38	 -12.77		 -13.28		 -12.97		 -12.06		 1.14		 19.02
15:00:39	 -12.82		 -13.12		 -13.12		 -12.21		 1.12		 19.02
15:00:40	 -12.61		 -12.97		 -12.81		 -12.06		 1.12		 19.02
15:00:41	 -12.77		 -13.12		 -12.97		 -12.21		 1.14		 19.02
15:00:41	 -12.72		 -13.12		 -12.97		 -12.06		 1.14		 19.00
15:00:42	 -12.67		 -12.97		 -12.97		 -12.06		 1.14		 19.00
15:00:43	 -12.67		 -13.12		 -13.12		 -11.76		 1.14		 19.02
15:00:44	 -12.72		 -13.12		 -12.97		 -12.06		 1.15		 19.02
15:00:45	 -12.72		 -12.97		 -13.12		 -12.06		 1.18		 19.02
15:00:46	 -12.72		 -13.12		 -13.12		 -11.91		 1.20		 19.02
15:00:47	 -12.72		 -13.28		 -12.97		 -11.91		 1.21		 19.02
15:00:48	 -12.61		 -13.12		 -12.81		 -11.91		 1.22		 19.02
15:00:49	 -12.87		 -13.28		 -13.12		 -12.21		 1.25		 19.00
15:00:50	 -12.77		 -13.12		 -13.28		 -11.91		 1.25		 19.02
15:00:50	 -12.72		 -12.97		 -13.12		 -12.06		 1.25		 19.02
15:00:51	 -12.72		 -12.97		 -13.12		 -12.06		 1.22		 19.00
15:00:52	 -12.82		 -13.28		 -13.12		 -12.06		 1.21		 19.02
15:00:53	 -12.67		 -12.97		 -12.97		 -12.06		 1.21		 19.02
15:00:54	 -12.82		 -13.12		 -13.12		 -12.21		 1.21		 19.02
15:00:55	 -12.77		 -13.28		 -12.97		 -12.06		 1.21		 19.04
15:00:56	 -12.77		 -12.97		 -13.12		 -12.21		 1.22		 19.02
15:00:57	 -11.99		 -12.97		 -13.12		 -9.89		 1.22		 19.02
15:00:58	 -12.71		 -13.12		 -12.81		 -12.21		 1.22		 19.04
15:00:59	 -12.82		 -13.28		 -13.12		 -12.06		 1.21		 19.02
15:01:00	 -12.67		 -12.97		 -13.12		 -11.91		 1.21		 19.04
15:01:00	 -12.77		 -13.12		 -13.12		 -12.06		 1.21		 19.04
15:01:01	 -12.72		 -12.97		 -13.12		 -12.06		 1.22		 19.04
15:01:02	 -12.72		 -13.12		 -12.97		 -12.06		 1.22		 19.04
15:01:03	 -12.72		 -12.97		 -13.12		 -12.06		 1.22		 19.04
15:01:04	 -12.77		 -12.97		 -13.12		 -12.21		 1.22		 19.04
15:01:05	 -12.61		 -12.81		 -12.97		 -12.06		 1.22		 19.04
15:01:06	 -12.48		 -13.28		 -13.12		 -11.03		 1.25		 19.04
15:01:07	 -12.62		 -12.97		 -12.97		 -11.91		 1.21		 19.02
15:01:08	 -12.61		 -13.12		 -12.66		 -12.06		 1.21		 19.02
15:01:09	 -12.61		 -12.81		 -12.97		 -12.06		 1.21		 19.02
15:01:09	 -12.77		 -13.28		 -12.97		 -12.06		 1.21		 19.02
15:01:10	 -12.51		 -12.21		 -13.12		 -12.21		 1.21		 19.02
15:01:11	 -12.67		 -13.12		 -13.12		 -11.76		 1.22		 19.04
15:01:12	 -12.72		 -12.97		 -12.97		 -12.21		 1.22		 19.02
15:01:13	 -12.72		 -13.12		 -12.97		 -12.06		 1.25		 19.02
15:01:14	 -12.72		 -13.12		 -13.12		 -11.91		 1.26		 19.04
15:01:15	 -12.52		 -13.12		 -12.97		 -11.46		 1.26		 19.04
15:01:16	 -12.67		 -13.12		 -13.12		 -11.76		 1.26		 19.04
15:01:17	 -12.72		 -13.28		 -12.97		 -11.91		 1.25		 19.04
15:01:18	 -12.72		 -12.97		 -13.12		 -12.06		 1.25		 19.04
15:01:18	 -12.82		 -13.12		 -13.12		 -12.21		 1.22		 19.02
15:01:19	 -12.66		 -12.81		 -13.12		 -12.06		 1.22		 19.04
15:01:20	 -12.72		 -12.97		 -13.12		 -12.06		 1.20		 19.02
15:01:21	 -12.82		 -13.28		 -12.97		 -12.21		 1.17		 19.05
15:01:22	 -12.77		 -13.28		 -12.97		 -12.06		 1.15		 19.04
15:01:23	 -12.77		 -12.97		 -12.97		 -12.36		 1.14		 19.04
15:01:24	 -12.82		 -13.28		 -13.12		 -12.06		 1.12		 19.04
15:01:25	 -12.72		 -12.97		 -13.12		 -12.06		 1.11		 19.04
15:01:26	 -12.72		 -13.12		 -12.97		 -12.06		 1.11		 19.04
15:01:27	 -12.67		 -12.97		 -12.97		 -12.06		 1.11		 19.05
15:01:27	 -12.67		 -13.28		 -12.81		 -11.91		 1.11		 19.04
15:01:28	 -12.67		 -12.97		 -13.12		 -11.91		 1.11		 19.05
15:01:29	 -12.87		 -13.12		 -13.12		 -12.36		 1.11		 19.04
15:01:30	 -12.87		 -13.28		 -13.12		 -12.21		 1.11		 19.05
15:01:31	 -12.72		 -13.12		 -13.12		 -11.91		 1.11		 19.05
15:01:32	 -12.72		 -13.28		 -12.97		 -11.91		 1.10		 19.04
15:01:33	 -12.61		 -13.12		 -12.81		 -11.91		 1.11		 19.04
15:01:34	 -12.61		 -13.12		 -12.66		 -12.06		 99.99		 -40.01
15:01:35	 -12.66		 -13.12		 -12.81		 -12.06		 1.15		 19.04
15:01:36	 -12.67		 -12.97		 -13.12		 -11.91		 1.15		 19.04
15:01:37	 -12.82		 -13.12		 -12.97		 -12.36		 1.18		 19.02
15:01:37	 -12.82		 -13.12		 -13.28		 -12.06		 1.20		 19.02
15:01:38	 -12.87		 -13.44		 -12.97		 -12.21		 1.20		 19.04
15:01:39	 -12.87		 -13.44		 -12.97		 -12.21		 1.22		 19.05
15:01:40	 -12.92		 -12.97		 -13.12		 -12.66		 1.22		 19.05
15:01:41	 -12.61		 -12.81		 -13.12		 -11.91		 1.22		 19.04
15:01:42	 -12.62		 -13.12		 -12.97		 -11.76		 1.22		 19.04
15:01:43	 -12.57		 -12.97		 -12.97		 -11.76		 1.25		 19.04
15:01:44	 -12.62		 -13.12		 -12.97		 -11.76		 1.25		 19.04
15:01:45	 -12.67		 -13.12		 -12.97		 -11.91		 1.22		 19.04
15:01:46	 -12.87		 -13.28		 -13.28		 -12.06		 1.22		 19.04
15:01:46	 -12.77		 -13.28		 -12.81		 -12.21		 1.20		 19.04
15:01:47	 -12.77		 -13.12		 -13.12		 -12.06		 1.15		 19.02
15:01:48	 -12.67		 -12.97		 -12.97		 -12.06		 1.12		 19.04
15:01:49	 -12.77		 -13.28		 -13.12		 -11.91		 1.10		 19.04
15:01:50	 -12.87		 -13.12		 -13.12		 -12.36		 1.07		 19.05
15:01:51	 -12.57		 -12.97		 -12.97		 -11.76		 1.07		 19.05
15:01:52	 -12.46		 -12.97		 -12.51		 -11.91		 1.07		 19.04
15:01:53	 -12.56		 -12.81		 -12.81		 -12.06		 1.07		 19.04
15:01:54	 -12.67		 -12.81		 -13.28		 -11.91		 1.10		 19.04
15:01:55	 -12.92		 -13.44		 -12.97		 -12.36		 1.11		 19.04
15:01:55	 -12.56		 -12.81		 -12.81		 -12.06		 1.12		 19.05
15:01:56	 -12.72		 -13.12		 -13.12		 -11.91		 1.14		 19.04
15:01:57	 -12.67		 -12.97		 -12.97		 -12.06		 1.14		 19.04
15:01:58	 -12.67		 -13.12		 -12.97		 -11.91		 1.15		 19.04
15:01:59	 -12.61		 -12.97		 -12.81		 -12.06		 1.17		 19.05
15:02:00	 -12.66		 -12.97		 -12.81		 -12.21		 1.18		 19.05
15:02:01	 -12.82		 -13.12		 -13.12		 -12.21		 1.21		 19.04
15:02:02	 -12.72		 -13.12		 -13.12		 -11.91		 1.25		 19.04
15:02:03	 -12.67		 -12.97		 -12.97		 -12.06		 1.26		 19.04
15:02:04	 -12.77		 -13.12		 -13.12		 -12.06		 1.26		 19.05
15:02:05	 -12.67		 -12.97		 -13.12		 -11.91		 1.26		 19.05
15:02:05	 -12.67		 -13.12		 -13.12		 -11.76		 1.28		 19.04
15:02:06	 -12.72		 -13.28		 -12.97		 -11.91		 1.26		 19.04
15:02:07	 -12.62		 -12.97		 -12.97		 -11.91		 1.26		 19.05
15:02:08	 -12.77		 -12.97		 -13.12		 -12.21		 1.25		 19.05
15:02:09	 -12.72		 -13.12		 -12.97		 -12.06		 1.25		 19.05
15:02:10	 -12.77		 -13.12		 -12.97		 -12.21		 1.22		 19.04
15:02:11	 -12.67		 -13.12		 -12.97		 -11.91		 1.22		 19.04
15:02:12	 -12.77		 -13.12		 -13.12		 -12.06		 1.25		 19.04
15:02:13	 -12.67		 -13.28		 -12.97		 -11.76		 1.21		 19.05
15:02:14	 -12.77		 -12.97		 -13.12		 -12.21		 1.21		 19.05
15:02:14	 -12.67		 -12.97		 -12.97		 -12.06		 1.20		 19.05
15:02:15	 -12.72		 -12.97		 -13.12		 -12.06		 1.20		 19.04
15:02:16	 -12.72		 -12.97		 -13.12		 -12.06		 1.17		 19.05
15:02:17	 -12.67		 -13.12		 -12.97		 -11.91		 1.17		 19.05
15:02:18	 -12.72		 -13.12		 -12.97		 -12.06		 1.15		 19.04
15:02:19	 -12.72		 -13.12		 -12.97		 -12.06		 1.14		 19.04
15:02:20	 -12.51		 -12.36		 -13.12		 -12.06		 1.14		 19.04
15:02:21	 -12.82		 -13.28		 -12.97		 -12.21		 1.11		 19.02
15:02:22	 -12.72		 -13.12		 -12.97		 -12.06		 1.10		 19.02
15:02:23	 -12.66		 -13.12		 -12.81		 -12.06		 1.06		 19.02
15:02:24	 -12.67		 -12.97		 -12.97		 -12.06		 1.07		 19.02
15:02:25	 -12.61		 -12.81		 -12.97		 -12.06		 1.10		 19.02
15:02:26	 -12.67		 -12.97		 -12.97		 -12.06		 1.11		 19.04
15:02:27	 -12.87		 -13.28		 -12.97		 -12.36		 1.14		 19.02
15:02:28	 -12.77		 -13.12		 -13.12		 -12.06		 1.14		 19.02
15:02:29	 -12.72		 -12.97		 -13.12		 -12.06		 1.12		 19.02
15:02:30	 -12.51		 -12.81		 -12.81		 -11.91		 1.10		 19.02
15:02:31	 -12.72		 -13.12		 -13.28		 -11.76		 1.10		 19.02
15:02:32	 -12.67		 -12.97		 -12.97		 -12.06		 1.12		 19.02
15:02:33	 -12.77		 -13.12		 -13.12		 -12.06		 1.14		 19.02
15:02:34	 -12.77		 -13.12		 -13.12		 -12.06		 1.15		 19.02
15:02:35	 -12.56		 -12.81		 -12.97		 -11.91		 1.18		 19.02
15:02:36	 -12.72		 -13.28		 -13.12		 -11.76		 1.21		 19.02
15:02:37	 -12.61		 -12.81		 -12.81		 -12.21		 1.20		 19.04
15:02:38	 -12.77		 -13.44		 -12.97		 -11.91		 1.18		 19.04
15:02:39	 -12.77		 -12.97		 -13.12		 -12.21		 1.15		 19.02
15:02:40	 -12.72		 -12.97		 -12.97		 -12.21		 1.15		 19.00
15:02:41	 -12.62		 -12.97		 -12.97		 -11.91		 1.15		 19.02
15:02:42	 -12.66		 -13.12		 -12.81		 -12.06		 1.15		 19.00
15:02:43	 -12.62		 -13.12		 -12.97		 -11.76		 1.17		 19.02
15:02:44	 -12.72		 -13.28		 -12.97		 -11.91		 1.17		 19.02
15:02:45	 -11.89		 -13.12		 -12.81		 -9.75		 1.15		 19.02
15:02:46	 -12.72		 -12.97		 -12.97		 -12.21		 1.15		 19.02
15:02:47	 -12.61		 -12.97		 -12.81		 -12.06		 1.17		 19.02
15:02:48	 -12.67		 -12.97		 -12.97		 -12.06		 1.15		 19.02
15:02:49	 -12.61		 -13.12		 -12.81		 -11.91		 1.17		 19.02
15:02:50	 -12.72		 -12.97		 -13.12		 -12.06		 1.17		 19.00
15:02:51	 -12.72		 -12.97		 -13.12		 -12.06		 1.17		 19.02
15:02:52	 -12.72		 -12.97		 -12.97		 -12.21		 1.18		 19.02
15:02:53	 -12.61		 -13.12		 -12.81		 -11.91		 1.21		 19.04
15:02:54	 -12.61		 -13.12		 -12.66		 -12.06		 1.21		 19.00
15:02:55	 -12.62		 -12.97		 -12.97		 -11.91		 1.22		 19.04
15:02:56	 -12.77		 -13.12		 -12.97		 -12.21		 1.21		 19.00
15:02:57	 -12.67		 -12.97		 -12.97		 -12.06		 1.22		 19.02
15:02:58	 -12.72		 -12.97		 -12.97		 -12.21		 1.25		 19.02
15:02:59	 -12.67		 -13.12		 -12.97		 -11.91		 1.25		 19.00
15:03:00	 -12.72		 -13.28		 -12.97		 -11.91		 1.25		 19.02
15:03:01	 -12.72		 -13.12		 -12.97		 -12.06		 1.21		 19.02
15:03:02	 -12.66		 -13.12		 -12.81		 -12.06		 1.21		 19.02
15:03:03	 -12.77		 -13.12		 -13.12		 -12.06		 1.20		 19.02
15:03:04	 -12.77		 -13.28		 -12.97		 -12.06		 1.25		 19.04
15:03:05	 -12.66		 -12.81		 -13.12		 -12.06		 1.30		 19.02
15:03:06	 -12.82		 -13.12		 -12.97		 -12.36		 1.37		 19.02
15:03:07	 -12.72		 -13.12		 -13.12		 -11.91		 1.46		 19.04
15:03:08	 -12.77		 -13.12		 -13.28		 -11.91		 1.56		 19.05
15:03:09	 -12.66		 -12.81		 -12.97		 -12.21		 1.64		 19.04
15:03:10	 -12.67		 -13.12		 -12.97		 -11.91		 1.76		 19.04
15:03:11	 -12.77		 -13.12		 -12.97		 -12.21		 1.84		 19.04
15:03:12	 -12.72		 -13.28		 -12.97		 -11.91		 1.92		 19.04
15:03:13	 -12.77		 -13.28		 -12.97		 -12.06		 1.98		 19.05
15:03:14	 -12.82		 -13.12		 -13.12		 -12.21		 2.02		 19.05
15:03:15	 -12.57		 -13.28		 -12.97		 -11.46		 2.07		 19.05
15:03:16	 -12.66		 -13.12		 -12.81		 -12.06		 2.11		 19.07
15:03:17	 -12.82		 -13.12		 -13.28		 -12.06		 2.15		 19.07
15:03:18	 -12.77		 -13.12		 -13.28		 -11.91		 2.17		 19.08
15:03:19	 -12.97		 -13.12		 -12.97		 -12.81		 2.23		 19.08
15:03:20	 -12.82		 -12.97		 -13.12		 -12.36		 2.24		 19.08
15:03:21	 -12.77		 -12.97		 -13.12		 -12.21		 2.25		 19.07
15:03:22	 -12.87		 -13.12		 -13.28		 -12.21		 2.28		 19.08
15:03:23	 -12.72		 -13.12		 -12.97		 -12.06		 2.30		 19.07
15:03:24	 -12.87		 -13.12		 -13.28		 -12.21		 2.33		 19.08
15:03:25	 -12.77		 -13.12		 -13.12		 -12.06		 2.33		 19.07
15:03:26	 -12.77		 -13.28		 -13.12		 -11.91		 2.36		 19.07
15:03:27	 -13.03		 -13.59		 -13.28		 -12.21		 2.40		 19.07
15:03:28	 -12.72		 -13.12		 -12.97		 -12.06		 2.46		 19.07
15:03:29	 -12.87		 -13.28		 -13.12		 -12.21		 2.48		 19.07
15:03:30	 -12.77		 -13.12		 -13.12		 -12.06		 2.51		 19.05
15:03:31	 -13.03		 -13.28		 -13.44		 -12.36		 2.51		 19.05
15:03:32	 -12.82		 -13.12		 -12.97		 -12.36		 2.50		 19.07
15:03:33	 -12.87		 -13.28		 -13.12		 -12.21		 2.50		 19.07
15:03:34	 -12.97		 -13.12		 -13.28		 -12.51		 2.48		 19.08
15:03:35	 -12.92		 -13.12		 -13.28		 -12.36		 2.48		 19.08
15:03:36	 -13.13		 -13.44		 -13.44		 -12.51		 2.48		 19.08
15:03:37	 -12.87		 -13.28		 -13.28		 -12.06		 2.50		 19.08
15:03:38	 -12.82		 -13.28		 -13.12		 -12.06		 2.50		 19.08
15:03:39	 -12.97		 -13.28		 -13.28		 -12.36		 2.51		 19.10
15:03:40	 -12.92		 -13.28		 -13.12		 -12.36		 2.55		 19.10
15:03:41	 -13.03		 -13.44		 -13.28		 -12.36		 2.56		 19.10
15:03:42	 -12.92		 -13.28		 -13.28		 -12.21		 2.61		 19.11
15:03:43	 -13.03		 -13.44		 -13.44		 -12.21		 2.63		 19.10
15:03:44	 -12.93		 -13.44		 -13.28		 -12.06		 2.64		 19.10
15:03:45	 -12.98		 -13.44		 -13.44		 -12.06		 2.66		 19.10
15:03:46	 -12.92		 -13.28		 -13.12		 -12.36		 2.66		 19.10
15:03:47	 -13.13		 -13.59		 -13.44		 -12.36		 2.64		 19.10
15:03:48	 -12.87		 -13.28		 -13.12		 -12.21		 2.63		 19.10
15:03:49	 -12.92		 -13.44		 -13.12		 -12.21		 2.63		 19.10
15:03:50	 -12.87		 -13.44		 -13.12		 -12.06		 2.64		 19.10
15:03:51	 -12.87		 -13.28		 -13.12		 -12.21		 2.64		 19.10
15:03:52	 -13.03		 -13.28		 -13.44		 -12.36		 2.64		 19.10
15:03:53	 -12.87		 -13.28		 -13.12		 -12.21		 2.63		 19.10
15:03:54	 -13.03		 -13.44		 -13.44		 -12.21		 2.62		 19.10
15:03:55	 -12.97		 -13.28		 -13.12		 -12.51		 2.62		 19.10
15:03:56	 -13.08		 -13.44		 -13.44		 -12.36		 2.59		 19.11
15:03:57	 -13.13		 -13.59		 -13.44		 -12.36		 2.59		 19.08
15:03:58	 -13.03		 -13.59		 -13.28		 -12.21		 2.58		 19.10
15:03:59	 -12.98		 -13.59		 -13.28		 -12.06		 2.59		 19.11
15:04:00	 -13.23		 -13.44		 -13.44		 -12.81		 2.58		 19.10
15:04:01	 -13.13		 -13.59		 -13.44		 -12.36		 2.61		 19.11
15:04:02	 -13.03		 -13.59		 -13.44		 -12.06		 2.63		 19.10
15:04:03	 -13.03		 -13.44		 -13.28		 -12.36		 2.62		 19.11
15:04:04	 -13.13		 -13.44		 -13.44		 -12.51		 2.61		 19.11
15:04:06	 -13.13		 -13.44		 -13.44		 -12.51		 2.62		 19.11
15:04:07	 -12.87		 -13.28		 -12.97		 -12.36		 2.61		 19.11
15:04:08	 -13.13		 -13.28		 -13.44		 -12.66		 2.62		 19.11
15:04:09	 -13.03		 -13.44		 -13.44		 -12.21		 2.62		 19.11
15:04:10	 -13.08		 -13.44		 -13.44		 -12.36		 2.62		 19.12
15:04:11	 -13.13		 -13.44		 -13.44		 -12.51		 2.62		 19.12
15:04:12	 -13.18		 -13.59		 -13.59		 -12.36		 2.59		 19.11
15:04:13	 -13.13		 -13.59		 -13.44		 -12.36		 2.55		 19.11
15:04:14	 -13.18		 -13.44		 -13.59		 -12.51		 2.54		 19.11
15:04:15	 -13.18		 -13.59		 -13.59		 -12.36		 2.54		 19.12
15:04:16	 -13.23		 -13.59		 -13.59		 -12.51		 2.54		 19.12
15:04:17	 -13.08		 -13.75		 -12.97		 -12.51		 2.51		 19.12
15:04:18	 -13.13		 -13.59		 -13.59		 -12.21		 2.54		 19.11
15:04:19	 -13.13		 -13.28		 -13.75		 -12.36		 2.51		 19.10
15:04:20	 -13.13		 -13.44		 -13.44		 -12.51		 2.51		 19.11
15:04:21	 -12.98		 -13.28		 -13.44		 -12.21		 2.51		 19.11
15:04:22	 -13.33		 -13.59		 -13.75		 -12.66		 2.50		 19.11
15:04:23	 -13.28		 -13.59		 -13.59		 -12.66		 2.51		 19.11
15:04:24	 -13.23		 -13.59		 -13.44		 -12.66		 2.54		 19.12
15:04:25	 -13.23		 -13.44		 -13.59		 -12.66		 2.55		 19.11
15:04:26	 -13.08		 -13.44		 -13.28		 -12.51		 2.54		 19.11
15:04:27	 -13.18		 -13.44		 -13.44		 -12.66		 2.51		 19.12
15:04:28	 -13.28		 -13.75		 -13.44		 -12.66		 2.51		 19.12
15:04:29	 -13.18		 -13.44		 -13.59		 -12.51		 2.50		 19.11
15:04:30	 -13.18		 -13.59		 -13.59		 -12.36		 2.51		 19.12
15:04:31	 -13.13		 -13.44		 -13.44		 -12.51		 2.54		 19.12
15:04:32	 -13.18		 -13.44		 -13.44		 -12.66		 2.51		 19.11
15:04:33	 -13.13		 -13.59		 -13.44		 -12.36		 2.54		 19.11
15:04:34	 -13.18		 -13.75		 -13.28		 -12.51		 2.50		 19.10
15:04:35	 -13.28		 -13.75		 -13.44		 -12.66		 2.50		 19.10
15:04:36	 -13.18		 -13.59		 -13.28		 -12.66		 2.50		 19.11
15:04:37	 -13.44		 -13.75		 -13.59		 -12.97		 2.51		 19.10
15:04:38	 -13.18		 -13.59		 -13.59		 -12.36		 2.54		 19.10
15:04:39	 -13.18		 -13.59		 -13.44		 -12.51		 2.54		 19.11
15:04:40	 -13.23		 -13.44		 -13.44		 -12.81		 2.51		 19.11
15:04:41	 -13.23		 -13.59		 -13.59		 -12.51		 2.51		 19.11
15:04:42	 -13.18		 -13.75		 -13.44		 -12.36		 2.50		 19.12
15:04:43	 -13.28		 -13.59		 -13.59		 -12.66		 2.48		 19.12
15:04:44	 -13.28		 -13.75		 -13.59		 -12.51		 2.50		 19.11
15:04:45	 -13.23		 -13.59		 -13.44		 -12.66		 2.48		 19.12
15:04:46	 -13.28		 -13.75		 -13.59		 -12.51		 2.50		 19.12
15:04:47	 -13.23		 -13.44		 -13.75		 -12.51		 2.48		 19.12
15:04:48	 -13.23		 -13.59		 -13.59		 -12.51		 2.48		 19.12
15:04:49	 -13.28		 -13.75		 -13.44		 -12.66		 2.47		 19.12
15:04:50	 -13.33		 -13.75		 -13.59		 -12.66		 2.47		 19.11
15:04:51	 -13.23		 -13.59		 -13.59		 -12.51		 2.48		 19.12
15:04:52	 -13.18		 -13.59		 -13.44		 -12.51		 2.47		 19.11
15:04:53	 -13.18		 -13.59		 -13.44		 -12.51		 2.46		 19.11
15:04:54	 -13.34		 -13.91		 -13.44		 -12.66		 2.44		 19.11
15:04:55	 -13.28		 -13.59		 -13.59		 -12.66		 2.42		 19.12
15:04:56	 -13.33		 -13.59		 -13.44		 -12.97		 2.44		 19.12
15:04:57	 -13.28		 -13.59		 -13.75		 -12.51		 2.44		 19.12
15:04:58	 -13.49		 -14.07		 -13.75		 -12.66		 2.44		 19.12
15:04:59	 -13.28		 -13.59		 -13.59		 -12.66		 2.46		 19.12
15:05:00	 -14.19		 -13.75		 -13.59		 -15.22		 2.47		 19.12
15:05:01	 -13.23		 -13.44		 -13.59		 -12.66		 2.48		 19.12
15:05:02	 -13.39		 -13.91		 -13.75		 -12.51		 2.51		 19.12
15:05:03	 -13.18		 -13.59		 -13.44		 -12.51		 2.54		 19.12
15:05:04	 -13.33		 -13.59		 -13.75		 -12.66		 2.56		 19.12
15:05:05	 -13.34		 -13.91		 -13.59		 -12.51		 2.58		 19.12
15:05:06	 -13.34		 -13.91		 -13.59		 -12.51		 2.55		 19.14
15:05:07	 -13.39		 -13.91		 -13.59		 -12.66		 2.55		 19.12
15:05:08	 -13.33		 -13.59		 -13.75		 -12.66		 2.55		 19.11
15:05:09	 -13.38		 -13.75		 -13.59		 -12.81		 2.56		 19.11
15:05:10	 -13.34		 -13.91		 -13.59		 -12.51		 2.54		 19.12
15:05:11	 -13.44		 -13.91		 -13.59		 -12.81		 2.51		 19.10
15:05:12	 -13.39		 -13.91		 -13.59		 -12.66		 2.50		 19.11
15:05:13	 -13.39		 -13.91		 -13.59		 -12.66		 2.51		 19.11
15:05:14	 -13.44		 -13.91		 -13.59		 -12.81		 2.51		 19.11
15:05:15	 -13.34		 -13.91		 -13.44		 -12.66		 2.51		 19.11
15:05:16	 -13.39		 -13.75		 -13.75		 -12.66		 2.55		 19.11
15:05:17	 -13.39		 -13.75		 -13.75		 -12.66		 2.55		 19.11
15:05:18	 -13.39		 -13.91		 -13.91		 -12.36		 2.55		 19.11
15:05:19	 -13.44		 -13.91		 -13.59		 -12.81		 2.54		 19.11
15:05:20	 -13.49		 -13.91		 -13.59		 -12.97		 2.55		 19.11
15:05:21	 -13.39		 -13.75		 -13.75		 -12.66		 2.54		 19.11
15:05:22	 -13.44		 -13.75		 -13.75		 -12.81		 2.58		 19.11
