Temperature and humidity log started on 14/07/2021 at 16:11:53

Time 		 Average T (C) 	 T0 (C) 	 T1 (C) 	 T2 (C) 	 RH (%) 	 HYT T (C) 
------------------------------------------------------------------------
16:11:53	 -29.00		 -30.33		 -27.60		 -29.08		 0.34		 18.52
16:11:55	 -29.09		 -30.33		 -28.18		 -28.77		 0.34		 18.54
16:11:56	 -29.31		 -30.66		 -28.18		 -29.08		 0.34		 18.54
16:11:57	 -28.69		 -30.01		 -27.60		 -28.47		 0.34		 18.54
16:11:58	 -28.69		 -30.01		 -27.89		 -28.18		 0.35		 18.54
16:11:59	 -28.81		 -30.33		 -27.32		 -28.77		 0.34		 18.55
16:12:00	 -28.79		 -30.01		 -27.60		 -28.77		 0.34		 18.54
16:12:00	 -28.90		 -30.33		 -27.89		 -28.47		 0.34		 18.55
16:12:01	 -28.69		 -30.01		 -27.89		 -28.18		 0.34		 18.55
16:12:02	 -28.90		 -30.33		 -27.89		 -28.47		 0.34		 18.54
16:12:03	 -28.71		 -30.33		 -27.32		 -28.47		 0.34		 18.55
16:12:04	 -28.69		 -30.01		 -27.89		 -28.18		 0.34		 18.54
16:12:05	 -28.21		 -29.69		 -26.77		 -28.18		 0.31		 18.55
16:12:06	 -28.90		 -30.33		 -27.89		 -28.47		 0.31		 18.55
16:12:07	 -28.60		 -30.01		 -27.60		 -28.18		 0.31		 18.54
16:12:08	 -28.29		 -29.38		 -27.60		 -27.89		 0.31		 18.54
16:12:09	 -28.31		 -30.01		 -27.32		 -27.60		 0.34		 18.56
16:12:10	 -26.62		 -29.69		 -27.60		 -22.56		 0.31		 18.54
16:12:10	 -28.30		 -29.69		 -27.32		 -27.89		 0.34		 18.55
16:12:11	 -28.96		 -31.68		 -27.32		 -27.89		 0.34		 18.55
16:12:12	 -28.49		 -29.69		 -27.60		 -28.18		 0.31		 18.56
16:12:13	 -28.20		 -29.69		 -27.32		 -27.60		 0.31		 18.55
16:12:14	 -28.10		 -29.38		 -27.32		 -27.60		 0.31		 18.55
16:12:15	 -28.10		 -29.38		 -27.04		 -27.89		 0.31		 18.56
16:12:16	 -28.29		 -29.38		 -27.89		 -27.60		 0.31		 18.56
16:12:17	 -28.10		 -29.38		 -27.32		 -27.60		 0.31		 18.56
16:12:18	 -28.10		 -29.38		 -27.32		 -27.60		 0.31		 18.56
16:12:19	 -27.92		 -29.69		 -27.04		 -27.04		 0.31		 18.56
16:12:20	 -28.21		 -29.69		 -27.04		 -27.89		 0.31		 18.56
16:12:21	 -27.91		 -29.08		 -27.04		 -27.60		 0.31		 18.56
16:12:22	 -28.01		 -29.38		 -27.04		 -27.60		 0.31		 18.56
16:12:23	 -27.73		 -29.38		 -26.50		 -27.32		 0.32		 18.58
16:12:24	 -27.71		 -28.77		 -26.77		 -27.60		 0.32		 18.60
16:12:25	 -27.62		 -28.77		 -26.77		 -27.32		 0.32		 18.58
16:12:26	 -27.91		 -29.08		 -27.32		 -27.32		 0.32		 18.59
16:12:27	 -27.44		 -28.77		 -26.77		 -26.77		 0.32		 18.58
16:12:28	 -27.62		 -28.77		 -27.04		 -27.04		 0.32		 18.60
16:12:29	 -27.43		 -28.47		 -26.77		 -27.04		 0.32		 18.59
16:12:30	 -27.35		 -28.77		 -26.23		 -27.04		 0.32		 18.60
16:12:31	 -27.63		 -29.08		 -26.77		 -27.04		 0.32		 18.60
16:12:32	 -27.91		 -29.08		 -27.04		 -27.60		 0.32		 18.62
16:12:33	 -27.53		 -28.77		 -26.77		 -27.04		 0.32		 18.62
16:12:34	 -27.35		 -28.77		 -26.50		 -26.77		 0.31		 18.63
16:12:35	 -27.63		 -29.08		 -26.50		 -27.32		 0.31		 18.62
16:12:36	 -27.63		 -29.08		 -26.77		 -27.04		 0.32		 18.60
16:12:37	 -27.35		 -28.77		 -26.50		 -26.77		 0.31		 18.63
16:12:38	 -27.92		 -29.08		 -26.50		 -28.18		 0.30		 18.63
16:12:39	 -27.16		 -28.47		 -26.50		 -26.50		 0.30		 18.63
16:12:40	 -27.53		 -28.77		 -26.50		 -27.32		 0.30		 18.63
16:12:41	 -27.06		 -28.18		 -25.96		 -27.04		 0.30		 18.65
16:12:42	 -27.15		 -28.18		 -26.50		 -26.77		 0.31		 18.65
16:12:43	 -27.06		 -28.18		 -26.23		 -26.77		 0.30		 18.65
16:12:44	 -27.06		 -28.18		 -26.23		 -26.77		 0.30		 18.65
16:12:45	 -27.16		 -28.47		 -26.50		 -26.50		 0.30		 18.65
16:12:46	 -26.98		 -28.47		 -26.23		 -26.23		 0.30		 18.65
16:12:47	 -27.25		 -28.47		 -26.50		 -26.77		 0.31		 18.66
16:12:48	 -26.69		 -27.89		 -25.96		 -26.23		 0.31		 18.66
16:12:49	 -27.06		 -28.18		 -26.23		 -26.77		 0.31		 18.66
16:12:50	 -26.97		 -28.18		 -25.96		 -26.77		 0.31		 18.66
16:12:51	 -26.79		 -28.18		 -25.96		 -26.23		 0.31		 18.67
16:12:52	 -26.69		 -27.89		 -25.96		 -26.23		 0.31		 18.69
16:12:53	 -26.87		 -27.60		 -26.50		 -26.50		 0.31		 18.67
16:12:54	 -26.79		 -28.18		 -25.96		 -26.23		 0.31		 18.67
16:12:55	 -26.33		 -27.32		 -25.70		 -25.96		 0.31		 18.69
16:12:56	 -26.51		 -27.60		 -25.70		 -26.23		 0.31		 18.69
16:12:57	 -26.79		 -27.89		 -25.70		 -26.77		 0.31		 18.69
16:12:58	 -26.78		 -27.89		 -25.96		 -26.50		 0.31		 18.69
16:12:59	 -25.88		 -26.23		 -25.70		 -25.70		 0.30		 18.70
16:13:00	 -26.52		 -27.89		 -25.44		 -26.23		 0.30		 18.70
16:13:01	 -26.69		 -27.60		 -25.70		 -26.77		 0.30		 18.70
16:13:02	 -26.69		 -27.60		 -26.23		 -26.23		 0.30		 18.71
16:13:03	 -26.51		 -27.60		 -25.96		 -25.96		 0.31		 18.70
16:13:04	 -26.69		 -27.60		 -26.50		 -25.96		 0.30		 18.71
16:13:05	 -26.43		 -27.89		 -25.70		 -25.70		 0.31		 18.71
16:13:06	 -26.42		 -27.60		 -25.70		 -25.96		 0.30		 18.73
16:13:07	 -26.33		 -27.60		 -25.70		 -25.70		 0.31		 18.71
16:13:08	 -26.52		 -27.89		 -25.96		 -25.70		 0.30		 18.73
16:13:09	 -26.42		 -27.32		 -26.23		 -25.70		 0.31		 18.73
16:13:10	 -26.26		 -27.89		 -25.19		 -25.70		 0.31		 18.73
16:13:11	 -26.25		 -27.60		 -25.70		 -25.44		 0.31		 18.73
16:13:12	 -26.07		 -27.32		 -25.44		 -25.44		 0.30		 18.74
16:13:13	 -26.25		 -27.60		 -25.19		 -25.96		 0.30		 18.74
16:13:14	 -26.07		 -27.32		 -25.44		 -25.44		 0.30		 18.74
16:13:15	 -25.89		 -26.77		 -25.19		 -25.70		 0.31		 18.74
16:13:16	 -26.07		 -27.32		 -25.19		 -25.70		 0.30		 18.76
16:13:17	 -25.98		 -27.32		 -25.19		 -25.44		 0.31		 18.74
16:13:18	 -26.07		 -27.32		 -25.44		 -25.44		 0.31		 18.76
16:13:19	 -25.90		 -27.32		 -24.69		 -25.70		 0.30		 18.77
16:13:20	 -26.15		 -27.32		 -25.44		 -25.70		 0.30		 18.76
16:13:21	 -26.16		 -27.32		 -25.19		 -25.96		 0.31		 18.77
16:13:22	 -25.80		 -26.77		 -24.94		 -25.70		 0.30		 18.76
16:13:23	 -25.89		 -27.04		 -25.44		 -25.19		 0.30		 18.78
16:13:24	 -25.89		 -27.04		 -25.19		 -25.44		 0.30		 18.77
16:13:25	 -25.64		 -27.04		 -24.69		 -25.19		 0.30		 18.77
16:13:26	 -25.90		 -27.32		 -25.19		 -25.19		 0.30		 18.77
16:13:27	 -25.56		 -27.04		 -24.44		 -25.19		 0.30		 18.78
16:13:28	 -26.07		 -27.32		 -25.44		 -25.44		 0.30		 18.78
16:13:29	 -25.63		 -26.77		 -25.44		 -24.69		 0.30		 18.78
16:13:30	 -25.46		 -26.50		 -24.69		 -25.19		 0.30		 18.78
16:13:31	 -25.81		 -27.04		 -24.94		 -25.44		 0.30		 18.78
16:13:32	 -25.55		 -26.77		 -25.19		 -24.69		 0.30		 18.80
16:13:33	 -25.54		 -26.23		 -25.44		 -24.94		 0.30		 18.80
16:13:34	 -25.55		 -26.77		 -24.69		 -25.19		 0.30		 18.81
16:13:35	 -25.38		 -26.77		 -24.44		 -24.94		 0.27		 18.81
16:13:36	 -25.38		 -26.50		 -24.94		 -24.69		 0.30		 18.80
16:13:37	 -25.80		 -26.77		 -25.19		 -25.44		 0.30		 18.80
16:13:38	 -25.38		 -26.77		 -24.69		 -24.69		 0.29		 18.80
16:13:39	 -25.55		 -26.77		 -24.94		 -24.94		 0.27		 18.81
16:13:40	 -25.29		 -26.50		 -24.44		 -24.94		 0.30		 18.81
16:13:41	 -25.65		 -27.32		 -24.69		 -24.94		 0.30		 18.82
16:13:42	 -25.46		 -26.50		 -24.69		 -25.19		 0.27		 18.82
16:13:43	 -25.37		 -26.23		 -24.94		 -24.94		 0.30		 18.84
16:13:44	 -25.38		 -26.50		 -24.94		 -24.69		 0.30		 18.82
16:13:45	 -25.12		 -26.23		 -24.44		 -24.69		 0.30		 18.82
16:13:46	 -25.46		 -26.50		 -24.94		 -24.94		 0.27		 18.82
16:13:47	 -25.29		 -26.23		 -24.69		 -24.94		 0.29		 18.84
16:13:48	 -25.13		 -26.50		 -24.44		 -24.44		 0.29		 18.84
16:13:49	 -25.12		 -26.23		 -24.44		 -24.69		 0.29		 18.84
16:13:50	 -25.11		 -25.96		 -24.69		 -24.69		 0.29		 18.84
16:13:51	 -24.87		 -25.96		 -24.20		 -24.44		 0.29		 18.84
16:13:52	 -24.95		 -25.96		 -24.44		 -24.44		 0.29		 18.85
16:13:53	 -24.97		 -26.50		 -24.20		 -24.20		 0.30		 18.85
16:13:54	 -25.04		 -26.23		 -24.44		 -24.44		 0.30		 18.85
16:13:55	 -25.12		 -26.23		 -24.44		 -24.69		 0.29		 18.85
16:13:56	 -25.04		 -26.23		 -24.44		 -24.44		 0.30		 18.87
16:13:57	 -25.21		 -26.23		 -24.20		 -25.19		 0.29		 18.87
16:13:58	 -25.13		 -26.50		 -24.20		 -24.69		 0.30		 18.87
16:13:59	 -24.79		 -25.96		 -24.20		 -24.20		 0.30		 18.87
16:14:00	 -24.86		 -25.70		 -24.20		 -24.69		 0.30		 18.88
16:14:01	 -24.86		 -25.70		 -24.44		 -24.44		 0.30		 18.88
16:14:02	 -24.70		 -25.96		 -23.95		 -24.20		 0.30		 18.88
16:14:03	 -24.96		 -26.23		 -24.44		 -24.20		 0.30		 18.88
16:14:04	 -24.96		 -26.23		 -24.69		 -23.95		 0.30		 18.88
16:14:05	 -24.70		 -25.96		 -24.20		 -23.95		 0.31		 18.88
16:14:06	 -24.62		 -25.70		 -23.95		 -24.20		 0.31		 18.88
16:14:07	 -24.46		 -25.96		 -23.48		 -23.95		 0.30		 18.89
16:14:08	 -24.53		 -25.44		 -23.95		 -24.20		 0.31		 18.89
16:14:09	 -26.14		 -25.70		 -23.95		 -28.77		 0.31		 18.89
16:14:10	 -23.96		 -24.20		 -23.72		 -23.95		 0.30		 18.89
16:14:11	 -24.46		 -25.70		 -23.72		 -23.95		 0.30		 18.89
16:14:12	 -24.79		 -25.96		 -24.20		 -24.20		 0.30		 18.89
16:14:13	 -24.54		 -25.70		 -23.72		 -24.20		 0.30		 18.91
16:14:14	 -24.71		 -26.23		 -23.95		 -23.95		 0.31		 18.89
16:14:15	 -24.62		 -25.70		 -23.95		 -24.20		 0.31		 18.91
16:14:16	 -24.53		 -25.44		 -24.20		 -23.95		 0.31		 18.92
16:14:17	 -24.46		 -25.70		 -23.95		 -23.72		 0.31		 18.92
16:14:18	 -24.29		 -25.44		 -23.95		 -23.48		 0.31		 18.92
16:14:19	 -24.21		 -25.44		 -23.48		 -23.72		 0.31		 18.92
16:14:20	 -24.45		 -25.44		 -23.95		 -23.95		 0.30		 18.92
16:14:21	 -24.53		 -25.19		 -24.20		 -24.20		 0.30		 18.93
16:14:22	 -24.45		 -25.44		 -23.72		 -24.20		 0.30		 18.92
16:14:23	 -24.46		 -25.70		 -23.72		 -23.95		 0.31		 18.92
16:14:24	 -24.37		 -25.44		 -23.95		 -23.72		 0.31		 18.93
16:14:25	 -24.13		 -25.19		 -23.48		 -23.72		 0.30		 18.93
16:14:26	 -23.88		 -24.69		 -23.48		 -23.48		 0.31		 18.93
16:14:27	 -24.13		 -25.44		 -23.48		 -23.48		 0.31		 18.95
16:14:28	 -24.13		 -25.19		 -23.48		 -23.72		 0.30		 18.95
16:14:29	 -23.97		 -24.94		 -23.48		 -23.48		 0.30		 18.93
16:14:30	 -24.05		 -24.94		 -23.48		 -23.72		 0.30		 18.93
16:14:31	 -24.13		 -25.19		 -23.48		 -23.72		 0.30		 18.95
16:14:32	 -24.13		 -25.44		 -23.48		 -23.48		 0.30		 18.93
16:14:33	 -24.29		 -24.94		 -23.72		 -24.20		 0.30		 18.93
16:14:34	 -24.06		 -25.44		 -23.25		 -23.48		 0.30		 18.95
16:14:35	 -24.05		 -25.19		 -23.48		 -23.48		 0.30		 18.95
16:14:36	 -24.05		 -25.19		 -23.48		 -23.48		 0.30		 18.95
16:14:37	 -24.37		 -24.69		 -23.48		 -24.94		 0.30		 18.95
16:14:38	 -23.97		 -24.94		 -23.48		 -23.48		 0.30		 18.95
16:14:39	 -23.97		 -24.94		 -23.48		 -23.48		 0.30		 18.95
16:14:40	 -23.65		 -24.94		 -23.01		 -23.01		 0.30		 18.98
16:14:41	 -24.05		 -25.19		 -23.48		 -23.48		 0.30		 18.98
16:14:42	 -23.81		 -24.94		 -23.25		 -23.25		 0.30		 18.98
16:14:43	 -23.81		 -24.94		 -23.01		 -23.48		 0.30		 18.99
16:14:44	 -23.81		 -24.94		 -23.25		 -23.25		 0.30		 18.98
16:14:45	 -23.57		 -24.44		 -22.78		 -23.48		 0.27		 18.98
16:14:46	 -23.90		 -25.19		 -23.25		 -23.25		 0.27		 18.99
16:14:47	 -23.89		 -24.94		 -23.48		 -23.25		 0.27		 18.98
16:14:48	 -23.89		 -24.69		 -23.72		 -23.25		 0.27		 18.98
16:14:49	 -23.72		 -24.44		 -23.25		 -23.48		 0.29		 19.00
16:14:50	 -23.57		 -24.44		 -23.01		 -23.25		 0.30		 18.99
16:14:51	 -23.49		 -24.44		 -23.01		 -23.01		 0.27		 18.99
16:14:52	 -23.65		 -24.44		 -23.25		 -23.25		 0.27		 18.99
16:14:53	 -23.26		 -24.44		 -22.33		 -23.01		 0.29		 19.00
16:14:54	 -23.57		 -24.44		 -23.01		 -23.25		 0.30		 18.99
16:14:55	 -23.80		 -24.44		 -23.25		 -23.72		 0.27		 18.99
16:14:56	 -23.58		 -24.94		 -22.78		 -23.01		 0.29		 19.00
16:14:57	 -23.65		 -24.69		 -23.25		 -23.01		 0.29		 19.00
16:14:58	 -23.49		 -24.69		 -23.01		 -22.78		 0.30		 19.02
16:14:59	 -23.49		 -24.20		 -23.25		 -23.01		 0.30		 19.02
16:15:00	 -23.57		 -24.44		 -23.48		 -22.78		 0.30		 19.02
16:15:01	 -23.73		 -24.94		 -23.25		 -23.01		 0.29		 19.04
16:15:02	 -23.73		 -24.69		 -23.25		 -23.25		 0.29		 19.04
16:15:03	 -23.74		 -25.19		 -22.78		 -23.25		 0.27		 19.04
16:15:04	 -23.57		 -24.44		 -23.25		 -23.01		 0.30		 19.02
16:15:05	 -23.41		 -24.44		 -23.01		 -22.78		 0.29		 19.04
16:15:06	 -23.26		 -24.44		 -23.01		 -22.33		 0.29		 19.04
16:15:07	 -23.66		 -25.19		 -23.01		 -22.78		 0.27		 19.04
16:15:08	 -21.93		 -24.20		 -22.78		 -18.81		 0.27		 19.04
16:15:09	 -23.41		 -24.44		 -22.78		 -23.01		 0.29		 19.04
16:15:10	 -23.57		 -24.44		 -23.48		 -22.78		 0.27		 19.04
16:15:11	 -23.26		 -24.44		 -23.01		 -22.33		 0.27		 19.04
16:15:12	 -23.34		 -24.69		 -22.56		 -22.78		 0.27		 19.05
16:15:13	 -23.18		 -24.20		 -22.56		 -22.78		 0.27		 19.04
16:15:14	 -23.33		 -24.20		 -22.78		 -23.01		 0.27		 19.04
16:15:15	 -23.26		 -24.20		 -22.56		 -23.01		 0.27		 19.04
16:15:16	 -23.18		 -24.20		 -22.78		 -22.56		 0.27		 19.04
16:15:17	 -23.17		 -23.95		 -23.01		 -22.56		 0.27		 19.05
16:15:18	 -23.19		 -24.44		 -23.01		 -22.11		 0.27		 19.04
16:15:19	 -23.10		 -24.20		 -22.78		 -22.33		 0.27		 19.04
16:15:20	 -23.10		 -23.95		 -22.78		 -22.56		 0.27		 19.05
16:15:21	 -23.18		 -24.20		 -22.78		 -22.56		 0.27		 19.05
16:15:22	 -23.19		 -24.44		 -22.56		 -22.56		 0.27		 19.05
16:15:23	 -23.18		 -24.20		 -22.56		 -22.78		 0.27		 19.05
16:15:24	 -22.72		 -23.95		 -21.89		 -22.33		 0.27		 19.05
16:15:25	 -23.02		 -23.72		 -22.56		 -22.78		 0.27		 19.05
16:15:26	 -23.26		 -24.20		 -22.56		 -23.01		 0.27		 19.05
16:15:27	 -23.25		 -23.95		 -22.78		 -23.01		 0.27		 19.05
16:15:28	 -22.95		 -23.95		 -22.78		 -22.11		 0.26		 19.07
16:15:29	 -23.17		 -23.95		 -23.01		 -22.56		 0.27		 19.05
16:15:30	 -22.52		 -23.95		 -22.78		 -20.82		 0.26		 19.05
16:15:31	 -22.95		 -23.95		 -22.33		 -22.56		 0.26		 19.07
16:15:32	 -22.95		 -23.95		 -22.56		 -22.33		 0.26		 19.07
16:15:33	 -23.02		 -23.95		 -22.56		 -22.56		 0.26		 19.07
16:15:34	 -23.02		 -23.95		 -22.78		 -22.33		 0.26		 19.07
16:15:35	 -22.80		 -23.72		 -22.11		 -22.56		 0.26		 19.07
16:15:36	 -23.10		 -23.95		 -22.78		 -22.56		 0.26		 19.07
16:15:37	 -22.87		 -23.72		 -22.33		 -22.56		 0.26		 19.07
16:15:38	 -22.87		 -23.95		 -22.33		 -22.33		 0.26		 19.08
16:15:39	 -22.87		 -23.95		 -22.11		 -22.56		 0.26		 19.08
16:15:40	 -22.80		 -23.95		 -22.33		 -22.11		 0.26		 19.10
16:15:41	 -22.57		 -23.48		 -22.11		 -22.11		 0.26		 19.08
16:15:42	 -22.57		 -23.72		 -22.11		 -21.89		 0.26		 19.08
16:15:43	 -22.71		 -23.48		 -22.33		 -22.33		 0.26		 19.08
16:15:44	 -22.65		 -23.72		 -22.11		 -22.11		 0.26		 19.10
16:15:45	 -22.72		 -23.48		 -22.56		 -22.11		 0.26		 19.10
16:15:46	 -22.72		 -23.72		 -22.33		 -22.11		 0.26		 19.10
16:15:47	 -22.80		 -23.72		 -22.56		 -22.11		 0.26		 19.10
16:15:48	 -22.64		 -23.48		 -22.11		 -22.33		 0.26		 19.10
16:15:49	 -22.64		 -23.48		 -22.11		 -22.33		 0.25		 19.10
16:15:50	 -22.65		 -23.72		 -21.89		 -22.33		 0.25		 19.10
16:15:51	 -22.42		 -23.25		 -22.11		 -21.89		 0.26		 19.11
16:15:52	 -22.49		 -23.25		 -22.11		 -22.11		 0.26		 19.12
16:15:53	 -22.42		 -23.48		 -21.67		 -22.11		 0.26		 19.12
16:15:54	 -22.42		 -23.48		 -21.89		 -21.89		 0.26		 19.11
16:15:55	 -22.42		 -23.48		 -21.89		 -21.89		 0.24		 19.12
16:15:56	 -22.57		 -23.48		 -22.11		 -22.11		 0.24		 19.11
16:15:57	 -22.49		 -23.48		 -22.11		 -21.89		 0.26		 19.12
16:15:58	 -22.42		 -23.25		 -22.11		 -21.89		 0.24		 19.12
16:15:59	 -21.41		 -23.48		 -22.33		 -18.43		 0.26		 19.12
16:16:00	 -22.49		 -23.25		 -22.11		 -22.11		 0.26		 19.12
16:16:01	 -22.42		 -23.25		 -22.11		 -21.89		 0.26		 19.14
16:16:02	 -22.26		 -23.01		 -21.67		 -22.11		 0.26		 19.12
16:16:03	 -22.64		 -23.25		 -22.33		 -22.33		 0.24		 19.12
16:16:04	 -22.42		 -23.25		 -22.11		 -21.89		 0.26		 19.12
16:16:05	 -22.19		 -23.01		 -21.67		 -21.89		 0.24		 19.14
16:16:06	 -22.49		 -23.25		 -21.89		 -22.33		 0.24		 19.14
16:16:07	 -22.27		 -23.48		 -21.67		 -21.67		 0.24		 19.14
16:16:08	 -22.35		 -23.48		 -21.67		 -21.89		 0.24		 19.14
16:16:09	 -22.27		 -23.25		 -21.89		 -21.67		 0.26		 19.14
16:16:10	 -22.34		 -23.25		 -21.89		 -21.89		 0.22		 19.14
16:16:11	 -22.27		 -23.25		 -21.89		 -21.67		 0.26		 19.14
16:16:12	 -22.12		 -23.01		 -21.67		 -21.67		 0.24		 19.15
16:16:13	 -22.26		 -23.01		 -21.89		 -21.89		 0.24		 19.15
16:16:14	 -22.20		 -23.25		 -21.89		 -21.46		 0.22		 19.15
16:16:15	 -22.13		 -23.25		 -21.46		 -21.67		 0.24		 19.15
16:16:16	 -22.42		 -23.25		 -22.11		 -21.89		 0.24		 19.15
16:16:17	 -22.04		 -22.78		 -21.89		 -21.46		 0.24		 19.15
16:16:18	 -22.28		 -23.48		 -21.46		 -21.89		 0.24		 19.15
16:16:19	 -22.12		 -23.01		 -21.89		 -21.46		 0.24		 19.15
16:16:20	 -22.27		 -23.25		 -21.89		 -21.67		 0.24		 19.15
16:16:21	 -22.05		 -23.01		 -21.46		 -21.67		 0.24		 19.15
16:16:22	 -22.19		 -23.01		 -21.89		 -21.67		 0.24		 19.16
16:16:23	 -22.19		 -23.01		 -21.89		 -21.67		 0.24		 19.16
16:16:24	 -22.20		 -23.25		 -21.67		 -21.67		 0.24		 19.16
16:16:25	 -22.20		 -23.25		 -21.67		 -21.67		 0.24		 19.16
16:16:26	 -22.12		 -23.01		 -21.89		 -21.46		 0.25		 19.18
16:16:27	 -22.20		 -23.25		 -21.89		 -21.46		 0.24		 19.18
16:16:28	 -21.69		 -23.01		 -21.67		 -20.40		 0.25		 19.18
16:16:29	 -21.75		 -22.78		 -21.24		 -21.24		 0.24		 19.18
16:16:30	 -21.90		 -22.78		 -21.46		 -21.46		 0.25		 19.19
16:16:31	 -21.97		 -22.78		 -21.67		 -21.46		 0.25		 19.19
16:16:32	 -21.82		 -22.56		 -21.67		 -21.24		 0.25		 19.19
16:16:33	 -21.97		 -22.78		 -21.46		 -21.67		 0.25		 19.21
16:16:34	 -22.12		 -23.01		 -21.89		 -21.46		 0.25		 19.19
16:16:35	 -21.83		 -22.78		 -21.24		 -21.46		 0.24		 19.21
16:16:36	 -21.97		 -22.78		 -21.67		 -21.46		 0.25		 19.19
16:16:37	 -22.05		 -23.01		 -21.46		 -21.67		 0.25		 19.22
16:16:38	 -21.75		 -22.56		 -21.46		 -21.24		 0.25		 19.22
16:16:39	 -21.75		 -22.56		 -21.46		 -21.24		 0.25		 19.22
16:16:40	 -21.90		 -23.01		 -21.46		 -21.24		 0.25		 19.22
16:16:41	 -22.04		 -22.78		 -21.67		 -21.67		 0.24		 19.22
16:16:42	 -21.97		 -22.78		 -21.67		 -21.46		 0.25		 19.22
16:16:43	 -21.83		 -22.78		 -21.46		 -21.24		 0.25		 19.22
16:16:44	 -21.90		 -23.01		 -21.46		 -21.24		 0.25		 19.22
16:16:45	 -21.90		 -23.01		 -21.46		 -21.24		 0.25		 19.23
16:16:46	 -21.76		 -23.01		 -21.24		 -21.03		 0.25		 19.21
16:16:47	 -21.75		 -22.78		 -21.24		 -21.24		 0.25		 19.23
16:16:48	 -21.68		 -22.56		 -21.24		 -21.24		 0.24		 19.22
16:16:49	 -21.97		 -22.78		 -21.24		 -21.89		 0.25		 19.23
16:16:50	 -21.98		 -23.01		 -21.46		 -21.46		 0.24		 19.23
16:16:51	 -21.75		 -22.78		 -21.24		 -21.24		 0.24		 19.23
16:16:52	 -21.76		 -23.01		 -21.24		 -21.03		 0.24		 19.23
16:16:53	 -21.68		 -22.78		 -21.24		 -21.03		 0.24		 19.23
16:16:54	 -21.61		 -22.56		 -21.24		 -21.03		 0.25		 19.23
16:16:55	 -21.83		 -22.78		 -21.67		 -21.03		 0.24		 19.25
16:16:56	 -21.85		 -23.48		 -20.82		 -21.24		 0.24		 19.23
16:16:57	 -21.62		 -23.01		 -21.24		 -20.61		 0.24		 19.25
16:16:58	 -21.60		 -22.33		 -21.24		 -21.24		 0.26		 19.25
16:16:59	 -21.75		 -22.56		 -21.46		 -21.24		 0.24		 19.25
16:17:00	 -21.54		 -22.56		 -21.03		 -21.03		 0.24		 19.26
16:17:01	 -21.83		 -22.78		 -21.46		 -21.24		 0.24		 19.25
16:17:02	 -21.24		 -21.46		 -21.24		 -21.03		 0.24		 19.25
16:17:03	 -21.53		 -22.33		 -21.03		 -21.24		 0.24		 19.25
16:17:04	 -21.54		 -22.56		 -21.03		 -21.03		 0.24		 19.26
16:17:05	 -21.68		 -22.33		 -21.89		 -20.82		 0.24		 19.26
16:17:06	 -21.46		 -22.33		 -21.03		 -21.03		 0.22		 19.25
16:17:07	 -21.76		 -22.56		 -21.89		 -20.82		 0.24		 19.26
16:17:08	 -21.68		 -22.78		 -21.03		 -21.24		 0.24		 19.26
16:17:09	 -21.68		 -22.56		 -21.46		 -21.03		 0.22		 19.26
16:17:10	 -21.47		 -22.56		 -20.82		 -21.03		 0.24		 19.26
16:17:11	 -21.54		 -22.56		 -21.24		 -20.82		 0.24		 19.26
16:17:12	 -21.68		 -22.56		 -21.24		 -21.24		 0.22		 19.27
16:17:13	 -21.61		 -22.56		 -21.24		 -21.03		 0.24		 19.26
16:17:14	 -21.54		 -22.33		 -21.46		 -20.82		 0.24		 19.27
16:17:15	 -21.47		 -22.56		 -20.82		 -21.03		 0.24		 19.27
16:17:16	 -21.54		 -22.56		 -21.03		 -21.03		 0.22		 19.29
16:17:17	 -21.32		 -22.33		 -21.03		 -20.61		 0.24		 19.27
16:17:18	 -21.46		 -22.11		 -21.03		 -21.24		 0.24		 19.27
16:17:19	 -21.54		 -22.56		 -21.03		 -21.03		 0.22		 19.29
16:17:20	 -21.54		 -22.78		 -21.03		 -20.82		 0.24		 19.27
16:17:21	 -21.32		 -22.11		 -21.03		 -20.82		 0.24		 19.27
16:17:22	 -21.53		 -22.11		 -21.46		 -21.03		 0.24		 19.30
16:17:23	 -21.46		 -22.33		 -21.03		 -21.03		 0.24		 19.29
16:17:24	 -21.32		 -22.11		 -21.24		 -20.61		 0.22		 19.30
16:17:25	 -21.32		 -22.33		 -21.24		 -20.40		 0.24		 19.29
16:17:26	 -21.32		 -22.11		 -21.03		 -20.82		 0.24		 19.29
16:17:27	 -21.32		 -22.11		 -21.24		 -20.61		 0.24		 19.30
16:17:28	 -21.11		 -21.89		 -20.82		 -20.61		 0.24		 19.29
16:17:29	 -21.39		 -22.33		 -20.82		 -21.03		 0.24		 19.29
16:17:30	 -21.32		 -22.33		 -20.82		 -20.82		 0.24		 19.30
16:17:31	 -21.39		 -22.33		 -21.03		 -20.82		 0.24		 19.30
16:17:32	 -21.39		 -22.33		 -20.82		 -21.03		 0.24		 19.29
16:17:33	 -21.18		 -21.89		 -21.03		 -20.61		 0.22		 19.30
16:17:34	 -21.39		 -22.33		 -21.03		 -20.82		 0.24		 19.30
16:17:35	 -21.32		 -22.11		 -21.03		 -20.82		 0.24		 19.32
16:17:36	 -21.39		 -22.33		 -20.82		 -21.03		 0.24		 19.30
16:17:37	 -22.61		 -22.33		 -20.82		 -24.69		 0.24		 19.32
16:17:38	 -21.25		 -22.11		 -20.82		 -20.82		 0.22		 19.30
16:17:39	 -21.32		 -22.11		 -20.82		 -21.03		 0.24		 19.32
16:17:40	 -21.39		 -22.11		 -21.03		 -21.03		 0.24		 19.32
16:17:41	 -21.18		 -21.89		 -21.03		 -20.61		 0.22		 19.30
16:17:42	 -21.18		 -22.33		 -20.61		 -20.61		 0.24		 19.32
16:17:43	 -20.15		 -22.11		 -21.03		 -17.31		 0.24		 19.32
16:17:44	 -21.25		 -22.11		 -21.03		 -20.61		 0.24		 19.32
16:17:45	 -21.32		 -22.11		 -21.03		 -20.82		 0.22		 19.32
16:17:46	 -21.25		 -21.89		 -21.03		 -20.82		 0.22		 19.33
16:17:47	 -21.32		 -22.11		 -20.82		 -21.03		 0.22		 19.32
16:17:48	 -21.18		 -22.11		 -20.82		 -20.61		 0.22		 19.33
16:17:49	 -21.25		 -22.33		 -20.82		 -20.61		 0.22		 19.34
16:17:50	 -21.32		 -22.11		 -20.82		 -21.03		 0.22		 19.33
16:17:51	 -21.18		 -21.89		 -20.82		 -20.82		 0.22		 19.33
16:17:52	 -21.11		 -22.33		 -20.61		 -20.40		 0.22		 19.32
16:17:53	 -20.89		 -21.67		 -20.61		 -20.40		 0.22		 19.34
16:17:54	 -21.17		 -21.67		 -21.03		 -20.82		 0.22		 19.33
16:17:55	 -21.04		 -22.11		 -20.61		 -20.40		 0.22		 19.33
16:17:56	 -21.03		 -21.67		 -20.82		 -20.61		 0.22		 19.34
16:17:57	 -21.18		 -21.89		 -20.82		 -20.82		 0.18		 19.34
16:17:58	 -21.11		 -22.11		 -20.82		 -20.40		 0.21		 19.36
16:17:59	 -21.11		 -21.89		 -20.82		 -20.61		 0.21		 19.36
16:18:00	 -21.04		 -21.89		 -20.61		 -20.61		 0.22		 19.37
16:18:01	 -20.83		 -21.89		 -20.20		 -20.40		 0.21		 19.37
16:18:02	 -20.97		 -21.89		 -20.61		 -20.40		 0.22		 19.37
16:18:03	 -21.10		 -21.67		 -21.03		 -20.61		 0.21		 19.37
16:18:04	 -21.04		 -22.11		 -20.61		 -20.40		 0.21		 19.37
16:18:05	 -21.34		 -23.01		 -20.40		 -20.61		 0.21		 19.37
16:18:06	 -21.04		 -21.89		 -20.61		 -20.61		 0.21		 19.37
16:18:07	 -20.96		 -21.67		 -20.61		 -20.61		 0.21		 19.37
16:18:08	 -20.97		 -21.89		 -20.82		 -20.20		 0.21		 19.38
16:18:09	 -20.82		 -21.67		 -20.40		 -20.40		 0.21		 19.37
16:18:10	 -21.25		 -22.33		 -20.82		 -20.61		 0.21		 19.38
16:18:11	 -20.76		 -21.67		 -20.40		 -20.20		 0.21		 19.37
16:18:12	 -20.97		 -21.89		 -20.61		 -20.40		 0.22		 19.38
16:18:13	 -21.25		 -22.11		 -20.82		 -20.82		 0.21		 19.38
16:18:14	 -20.97		 -21.89		 -20.82		 -20.20		 0.21		 19.40
16:18:15	 -21.03		 -21.67		 -20.82		 -20.61		 0.21		 19.40
16:18:16	 -20.90		 -21.89		 -20.40		 -20.40		 0.21		 19.40
16:18:17	 -20.83		 -21.67		 -20.61		 -20.20		 0.21		 19.40
16:18:18	 -20.96		 -21.67		 -20.61		 -20.61		 0.21		 19.41
16:18:19	 -20.82		 -21.67		 -20.40		 -20.40		 0.21		 19.40
16:18:20	 -20.55		 -21.46		 -19.79		 -20.40		 0.21		 19.40
16:18:21	 -20.90		 -21.89		 -20.61		 -20.20		 0.21		 19.41
16:18:22	 -20.76		 -21.46		 -20.82		 -20.00		 0.21		 19.41
16:18:23	 -20.83		 -21.46		 -20.82		 -20.20		 0.21		 19.41
16:18:24	 -20.82		 -21.46		 -20.61		 -20.40		 0.21		 19.41
16:18:25	 -20.90		 -21.89		 -20.40		 -20.40		 0.21		 19.41
16:18:26	 -20.76		 -21.67		 -20.40		 -20.20		 0.21		 19.41
16:18:27	 -20.91		 -22.33		 -20.40		 -20.00		 0.21		 19.41
16:18:28	 -20.97		 -21.89		 -20.82		 -20.20		 0.21		 19.40
16:18:29	 -19.95		 -21.89		 -20.82		 -17.13		 0.21		 19.41
16:18:30	 -20.68		 -21.24		 -20.61		 -20.20		 0.21		 19.41
16:18:31	 -20.76		 -21.67		 -20.61		 -20.00		 0.21		 19.43
16:18:32	 -20.83		 -21.67		 -20.61		 -20.20		 0.20		 19.43
16:18:33	 -20.83		 -21.89		 -20.40		 -20.20		 0.20		 19.43
16:18:34	 -20.76		 -21.67		 -20.40		 -20.20		 0.21		 19.43
16:18:35	 -20.83		 -21.89		 -20.20		 -20.40		 0.20		 19.43
16:18:36	 -20.97		 -21.89		 -20.82		 -20.20		 0.20		 19.43
16:18:37	 -20.76		 -21.67		 -20.40		 -20.20		 0.21		 19.43
16:18:38	 -20.76		 -21.67		 -20.40		 -20.20		 0.21		 19.43
16:18:39	 -20.76		 -21.67		 -20.40		 -20.20		 0.21		 19.43
16:18:40	 -20.90		 -21.89		 -20.82		 -20.00		 0.21		 19.43
16:18:41	 -20.69		 -21.67		 -20.40		 -20.00		 0.20		 19.43
16:18:42	 -20.76		 -21.67		 -20.40		 -20.20		 0.20		 19.43
16:18:43	 -20.69		 -21.67		 -20.20		 -20.20		 0.21		 19.43
16:18:44	 -20.62		 -21.46		 -20.40		 -20.00		 0.20		 19.41
16:18:45	 -20.62		 -21.67		 -20.00		 -20.20		 0.20		 19.43
16:18:46	 -20.69		 -21.46		 -20.00		 -20.61		 0.20		 19.43
16:18:47	 -20.62		 -21.46		 -20.40		 -20.00		 0.20		 19.41
16:18:48	 -20.61		 -21.24		 -20.40		 -20.20		 0.20		 19.41
16:18:49	 -20.69		 -21.46		 -20.40		 -20.20		 0.21		 19.43
16:18:50	 -20.55		 -21.46		 -20.00		 -20.20		 0.20		 19.43
16:18:51	 -20.62		 -21.67		 -20.20		 -20.00		 0.20		 19.43
16:18:52	 -20.76		 -21.67		 -20.40		 -20.20		 0.21		 19.41
16:18:53	 -20.62		 -21.46		 -20.40		 -20.00		 0.20		 19.43
16:18:54	 -20.68		 -21.24		 -20.61		 -20.20		 0.20		 19.41
16:18:55	 -20.69		 -21.67		 -20.40		 -20.00		 0.20		 19.43
16:18:56	 -20.55		 -21.67		 -20.20		 -19.79		 0.20		 19.43
16:18:57	 -20.82		 -21.46		 -20.40		 -20.61		 0.20		 19.44
16:18:58	 -20.75		 -21.46		 -20.40		 -20.40		 0.20		 19.43
16:18:59	 -20.69		 -21.46		 -20.40		 -20.20		 0.20		 19.44
16:19:00	 -20.76		 -21.67		 -20.40		 -20.20		 0.20		 19.44
16:19:01	 -20.69		 -21.46		 -20.61		 -20.00		 0.20		 19.44
16:19:02	 -20.54		 -21.03		 -20.40		 -20.20		 0.20		 19.44
16:19:03	 -20.69		 -21.67		 -20.40		 -20.00		 0.20		 19.44
16:19:04	 -20.55		 -21.46		 -20.00		 -20.20		 0.20		 19.44
16:19:05	 -20.69		 -21.24		 -20.82		 -20.00		 0.20		 19.43
16:19:06	 -20.55		 -21.24		 -20.20		 -20.20		 0.20		 19.44
16:19:07	 -20.55		 -21.67		 -20.20		 -19.79		 0.20		 19.44
16:19:08	 -20.55		 -21.24		 -20.40		 -20.00		 0.20		 19.44
16:19:09	 -20.55		 -21.46		 -20.20		 -20.00		 0.20		 19.44
16:19:10	 -20.48		 -21.24		 -20.40		 -19.79		 0.20		 19.44
16:19:11	 -20.41		 -21.24		 -20.40		 -19.59		 0.20		 19.43
16:19:12	 -20.55		 -21.24		 -20.40		 -20.00		 0.20		 19.43
16:19:13	 -20.69		 -21.67		 -20.20		 -20.20		 0.20		 19.44
16:19:14	 -20.48		 -21.46		 -20.20		 -19.79		 0.20		 19.44
16:19:15	 -20.55		 -21.46		 -20.20		 -20.00		 0.20		 19.43
16:19:16	 -20.69		 -21.46		 -20.40		 -20.20		 0.20		 19.44
16:19:17	 -20.55		 -21.24		 -20.20		 -20.20		 0.20		 19.43
16:19:18	 -20.55		 -21.24		 -20.40		 -20.00		 0.20		 19.43
16:19:19	 -20.41		 -21.24		 -20.20		 -19.79		 0.20		 19.43
16:19:20	 -20.62		 -21.67		 -20.20		 -20.00		 0.20		 19.44
16:19:21	 -20.69		 -21.67		 -20.00		 -20.40		 0.20		 19.44
16:19:22	 -20.41		 -21.24		 -20.20		 -19.79		 0.20		 19.44
16:19:23	 -20.41		 -20.82		 -20.20		 -20.20		 0.20		 19.43
16:19:24	 -20.34		 -21.03		 -20.00		 -20.00		 0.20		 19.44
16:19:25	 -20.55		 -21.24		 -20.40		 -20.00		 0.20		 19.44
16:19:26	 -20.42		 -21.46		 -20.00		 -19.79		 0.20		 19.44
16:19:27	 -20.55		 -21.24		 -20.20		 -20.20		 0.20		 19.44
16:19:28	 -20.41		 -21.03		 -20.20		 -20.00		 0.20		 19.44
16:19:29	 -20.48		 -21.24		 -20.61		 -19.59		 0.20		 19.45
16:19:30	 -20.41		 -21.24		 -20.20		 -19.79		 0.20		 19.44
16:19:31	 -20.56		 -21.67		 -20.00		 -20.00		 0.20		 19.45
16:19:32	 -20.55		 -21.24		 -20.40		 -20.00		 0.20		 19.44
16:19:33	 -20.41		 -21.24		 -20.20		 -19.79		 0.20		 19.45
16:19:34	 -20.34		 -21.03		 -20.40		 -19.59		 0.20		 19.45
16:19:35	 -20.27		 -21.03		 -20.00		 -19.79		 0.20		 19.45
16:19:36	 -20.34		 -21.24		 -20.20		 -19.59		 0.20		 19.45
16:19:37	 -20.28		 -21.24		 -20.00		 -19.59		 0.20		 19.45
16:19:38	 -20.28		 -21.24		 -20.00		 -19.59		 0.20		 19.47
16:19:39	 -20.21		 -21.03		 -20.00		 -19.59		 0.20		 19.47
16:19:40	 -20.27		 -21.03		 -20.00		 -19.79		 0.20		 19.47
16:19:41	 -20.34		 -21.03		 -20.20		 -19.79		 0.20		 19.47
16:19:42	 -20.21		 -21.03		 -20.00		 -19.59		 0.20		 19.47
16:19:43	 -20.34		 -21.24		 -20.00		 -19.79		 0.20		 19.47
16:19:44	 -20.34		 -21.03		 -20.20		 -19.79		 0.20		 19.48
16:19:45	 -20.41		 -21.24		 -20.20		 -19.79		 0.20		 19.47
16:19:46	 -20.41		 -21.24		 -19.79		 -20.20		 0.20		 19.48
16:19:47	 -20.34		 -21.03		 -20.20		 -19.79		 0.18		 19.48
16:19:48	 -20.28		 -21.24		 -20.00		 -19.59		 0.18		 19.48
16:19:49	 -20.41		 -21.03		 -20.40		 -19.79		 0.20		 19.48
16:19:50	 -20.35		 -21.46		 -20.00		 -19.59		 0.18		 19.48
16:19:51	 -20.28		 -21.24		 -20.00		 -19.59		 0.20		 19.48
16:19:52	 -20.27		 -21.24		 -19.79		 -19.79		 0.18		 19.48
16:19:53	 -20.48		 -21.46		 -20.20		 -19.79		 0.20		 19.49
16:19:54	 -20.14		 -21.03		 -19.79		 -19.59		 0.18		 19.48
16:19:55	 -20.00		 -20.61		 -20.00		 -19.40		 0.18		 19.48
16:19:56	 -20.34		 -21.03		 -20.20		 -19.79		 0.18		 19.49
16:19:57	 -20.21		 -21.03		 -20.20		 -19.40		 0.18		 19.49
16:19:58	 -20.34		 -21.24		 -20.00		 -19.79		 0.18		 19.48
16:19:59	 -20.27		 -21.03		 -20.20		 -19.59		 0.18		 19.48
16:20:00	 -20.34		 -21.03		 -20.20		 -19.79		 0.18		 19.48
16:20:01	 -20.34		 -21.03		 -20.40		 -19.59		 0.18		 19.49
16:20:02	 -20.07		 -21.03		 -19.79		 -19.40		 0.18		 19.49
16:20:03	 -19.88		 -20.82		 -20.00		 -18.81		 0.18		 19.48
16:20:04	 -20.14		 -21.03		 -19.79		 -19.59		 0.18		 19.49
16:20:05	 -20.28		 -21.03		 -20.40		 -19.40		 0.18		 19.49
16:20:06	 -20.20		 -20.82		 -20.00		 -19.79		 0.18		 19.49
16:20:07	 -20.27		 -20.82		 -20.20		 -19.79		 0.18		 19.51
16:20:08	 -20.21		 -21.03		 -20.00		 -19.59		 0.18		 19.51
16:20:09	 -20.14		 -21.03		 -19.79		 -19.59		 0.18		 19.51
16:20:10	 -20.00		 -20.82		 -19.59		 -19.59		 0.18		 19.49
16:20:11	 -20.13		 -20.82		 -19.79		 -19.79		 0.18		 19.51
16:20:12	 -20.07		 -20.82		 -19.59		 -19.79		 0.18		 19.49
16:20:13	 -20.14		 -20.82		 -20.00		 -19.59		 0.18		 19.51
16:20:14	 -20.07		 -20.82		 -19.79		 -19.59		 0.18		 19.51
16:20:15	 -20.14		 -21.03		 -19.79		 -19.59		 0.18		 19.51
16:20:16	 -20.14		 -21.03		 -19.59		 -19.79		 0.18		 19.49
16:20:17	 -20.28		 -21.24		 -20.00		 -19.59		 0.18		 19.51
16:20:18	 -20.28		 -21.46		 -19.79		 -19.59		 0.20		 19.52
16:20:19	 -20.27		 -21.03		 -20.00		 -19.79		 0.20		 19.52
16:20:20	 -20.00		 -20.61		 -20.00		 -19.40		 0.18		 19.51
16:20:21	 -20.14		 -20.82		 -20.00		 -19.59		 0.20		 19.52
16:20:22	 -20.00		 -20.61		 -19.79		 -19.59		 0.20		 19.52
16:20:23	 -21.28		 -20.82		 -20.00		 -23.01		 0.20		 19.52
16:20:24	 -20.00		 -20.82		 -19.79		 -19.40		 0.20		 19.52
16:20:25	 -20.14		 -21.03		 -19.79		 -19.59		 0.20		 19.52
16:20:26	 -20.08		 -21.24		 -19.59		 -19.40		 0.20		 19.52
16:20:27	 -20.07		 -20.82		 -19.79		 -19.59		 0.20		 19.52
16:20:28	 -19.86		 -20.40		 -19.79		 -19.40		 0.20		 19.54
16:20:29	 -20.20		 -21.03		 -19.79		 -19.79		 0.18		 19.56
16:20:30	 -20.07		 -21.03		 -19.79		 -19.40		 0.20		 19.54
16:20:31	 -20.01		 -21.03		 -19.59		 -19.40		 0.20		 19.54
16:20:32	 -20.07		 -20.82		 -19.79		 -19.59		 0.18		 19.52
16:20:33	 -20.07		 -20.82		 -19.59		 -19.79		 0.18		 19.54
16:20:34	 -20.06		 -20.61		 -19.79		 -19.79		 0.18		 19.56
16:20:36	 -20.07		 -20.82		 -19.79		 -19.59		 0.18		 19.54
16:20:37	 -20.00		 -20.61		 -19.59		 -19.79		 0.18		 19.54
16:20:38	 -19.93		 -20.61		 -19.59		 -19.59		 0.18		 19.54
16:20:39	 -20.01		 -21.03		 -19.59		 -19.40		 0.18		 19.54
16:20:40	 -20.21		 -21.03		 -20.00		 -19.59		 0.20		 19.54
16:20:41	 -20.27		 -21.03		 -20.00		 -19.79		 0.20		 19.54
16:20:42	 -19.87		 -20.82		 -19.59		 -19.20		 0.18		 19.54
16:20:43	 -19.87		 -20.61		 -19.59		 -19.40		 0.20		 19.54
16:20:44	 -19.94		 -20.82		 -19.40		 -19.59		 0.20		 19.54
16:20:45	 -20.14		 -21.03		 -19.79		 -19.59		 0.18		 19.56
16:20:46	 -20.00		 -20.61		 -20.20		 -19.20		 0.18		 19.56
16:20:47	 -19.74		 -20.61		 -19.40		 -19.20		 0.20		 19.54
16:20:48	 -19.94		 -20.82		 -19.59		 -19.40		 0.20		 19.54
16:20:49	 -19.94		 -21.03		 -19.40		 -19.40		 0.18		 19.54
16:20:50	 -21.22		 -20.61		 -19.79		 -23.25		 0.20		 19.54
16:20:51	 -19.94		 -20.82		 -19.79		 -19.20		 0.20		 19.54
16:20:52	 -19.94		 -21.03		 -19.40		 -19.40		 0.20		 19.54
16:20:53	 -20.14		 -21.03		 -20.00		 -19.40		 0.17		 19.56
16:20:54	 -19.87		 -20.61		 -19.40		 -19.59		 0.18		 124.99
16:20:55	 -19.80		 -20.40		 -19.79		 -19.20		 0.17		 19.56
16:20:56	 -19.87		 -20.61		 -19.79		 -19.20		 0.17		 19.56
16:20:57	 -19.87		 -20.61		 -19.79		 -19.20		 0.18		 19.54
16:20:58	 -19.87		 -20.61		 -19.40		 -19.59		 0.17		 19.56
16:20:59	 -20.27		 -21.03		 -19.79		 -20.00		 0.17		 19.56
16:21:00	 -19.80		 -20.40		 -19.40		 -19.59		 0.17		 19.56
16:21:01	 -19.94		 -20.82		 -19.59		 -19.40		 0.17		 19.56
16:21:02	 -19.81		 -20.82		 -19.40		 -19.20		 0.17		 19.56
16:21:03	 -19.87		 -20.61		 -20.00		 -19.00		 0.18		 19.54
16:21:04	 -20.07		 -20.82		 -19.79		 -19.59		 0.17		 19.56
16:21:05	 -19.94		 -20.82		 -19.79		 -19.20		 0.17		 19.56
16:21:06	 -20.07		 -20.61		 -20.00		 -19.59		 0.17		 19.56
16:21:07	 -19.87		 -20.61		 -19.59		 -19.40		 0.17		 19.57
16:21:08	 -19.93		 -20.61		 -19.79		 -19.40		 0.16		 19.57
16:21:09	 -19.93		 -20.40		 -19.79		 -19.59		 0.17		 19.56
16:21:10	 -19.81		 -20.82		 -19.40		 -19.20		 0.17		 19.57
16:21:11	 -19.80		 -20.40		 -19.59		 -19.40		 0.17		 19.56
16:21:12	 -19.93		 -20.61		 -19.59		 -19.59		 0.16		 19.56
16:21:13	 -20.07		 -20.82		 -19.79		 -19.59		 0.16		 19.57
16:21:14	 -19.94		 -20.82		 -19.59		 -19.40		 0.16		 19.59
16:21:15	 -19.80		 -20.40		 -19.59		 -19.40		 0.16		 19.59
16:21:16	 -20.07		 -20.82		 -20.00		 -19.40		 0.16		 19.57
16:21:17	 -20.00		 -20.61		 -19.59		 -19.79		 0.17		 19.57
16:21:18	 -19.94		 -20.82		 -19.59		 -19.40		 0.16		 19.59
16:21:19	 -19.80		 -20.61		 -19.40		 -19.40		 0.16		 19.59
16:21:20	 -19.87		 -20.61		 -19.59		 -19.40		 0.16		 19.59
16:21:21	 -19.74		 -20.61		 -19.40		 -19.20		 0.16		 19.59
16:21:22	 -19.87		 -20.40		 -20.00		 -19.20		 0.16		 19.59
16:21:23	 -19.87		 -20.61		 -19.59		 -19.40		 0.16		 19.59
16:21:24	 -19.68		 -20.82		 -19.40		 -18.81		 0.16		 19.60
16:21:25	 -19.60		 -20.40		 -19.40		 -19.00		 0.16		 19.60
16:21:26	 -19.80		 -20.61		 -19.59		 -19.20		 0.16		 19.60
16:21:27	 -20.00		 -20.82		 -19.40		 -19.79		 0.16		 19.60
16:21:28	 -19.80		 -20.61		 -19.59		 -19.20		 0.16		 19.59
16:21:29	 -19.87		 -20.82		 -19.59		 -19.20		 0.16		 19.59
16:21:30	 -19.87		 -20.82		 -19.59		 -19.20		 0.16		 19.59
16:21:31	 -19.60		 -20.40		 -19.40		 -19.00		 0.16		 19.60
16:21:32	 -19.87		 -20.61		 -19.79		 -19.20		 0.16		 19.61
16:21:33	 -19.87		 -20.61		 -19.59		 -19.40		 0.16		 19.60
16:21:34	 -19.73		 -20.40		 -19.59		 -19.20		 0.16		 19.60
16:21:35	 -19.80		 -20.20		 -20.00		 -19.20		 0.16		 19.60
16:21:36	 -19.94		 -20.61		 -20.00		 -19.20		 0.16		 19.59
16:21:37	 -19.86		 -20.40		 -19.79		 -19.40		 0.16		 19.59
16:21:38	 -19.66		 -20.40		 -19.59		 -19.00		 0.16		 19.59
16:21:39	 -19.67		 -20.61		 -19.20		 -19.20		 0.16		 19.59
16:21:40	 -19.66		 -20.40		 -19.59		 -19.00		 0.16		 19.59
16:21:41	 -19.80		 -20.61		 -19.40		 -19.40		 0.16		 19.60
16:21:42	 -19.60		 -20.40		 -19.20		 -19.20		 0.16		 19.59
16:21:43	 -19.73		 -20.40		 -19.59		 -19.20		 0.16		 19.59
16:21:44	 -19.73		 -20.40		 -19.40		 -19.40		 0.16		 19.59
16:21:45	 -19.74		 -20.82		 -19.40		 -19.00		 0.16		 19.59
16:21:46	 -19.73		 -20.20		 -19.79		 -19.20		 0.16		 19.57
16:21:47	 -19.73		 -20.61		 -19.59		 -19.00		 0.16		 19.57
16:21:48	 -19.80		 -20.40		 -19.59		 -19.40		 0.16		 19.59
16:21:49	 -20.14		 -20.61		 -20.40		 -19.40		 0.16		 19.59
16:21:50	 -19.60		 -20.20		 -19.40		 -19.20		 0.16		 19.60
16:21:51	 -19.73		 -20.61		 -19.59		 -19.00		 0.16		 19.59
16:21:52	 -19.66		 -20.00		 -19.79		 -19.20		 0.16		 19.59
16:21:53	 -19.80		 -20.40		 -19.79		 -19.20		 0.16		 19.60
16:21:54	 -19.74		 -20.61		 -19.40		 -19.20		 0.16		 19.59
16:21:55	 -20.13		 -20.40		 -20.20		 -19.79		 0.16		 19.59
16:21:56	 -19.67		 -20.20		 -19.40		 -19.40		 0.16		 19.59
16:21:57	 -19.67		 -20.61		 -19.59		 -18.81		 0.16		 19.59
16:21:58	 -19.67		 -20.40		 -19.40		 -19.20		 0.16		 19.59
16:21:59	 -19.80		 -20.40		 -19.79		 -19.20		 0.16		 19.59
16:22:00	 -19.74		 -20.61		 -19.40		 -19.20		 0.16		 19.57
16:22:01	 -19.80		 -20.82		 -19.59		 -19.00		 0.16		 19.59
16:22:02	 -19.60		 -20.20		 -19.40		 -19.20		 0.16		 19.59
16:22:03	 -19.74		 -20.61		 -19.40		 -19.20		 0.16		 19.59
16:22:04	 -20.00		 -20.61		 -19.79		 -19.59		 0.16		 19.57
16:22:05	 -19.60		 -20.40		 -19.20		 -19.20		 0.16		 19.59
16:22:06	 -19.80		 -20.61		 -19.40		 -19.40		 0.15		 19.59
16:22:07	 -19.66		 -20.40		 -19.59		 -19.00		 0.15		 19.57
16:22:08	 -19.53		 -20.20		 -19.59		 -18.81		 0.15		 19.59
16:22:09	 -19.47		 -20.20		 -19.20		 -19.00		 0.15		 19.59
16:22:10	 -19.74		 -20.61		 -19.40		 -19.20		 0.15		 19.59
16:22:11	 -19.47		 -20.20		 -19.20		 -19.00		 0.15		 19.59
16:22:12	 -19.67		 -20.40		 -19.40		 -19.20		 0.15		 19.59
16:22:13	 -19.53		 -20.40		 -19.20		 -19.00		 0.15		 19.59
16:22:14	 -20.00		 -20.61		 -19.79		 -19.59		 0.15		 19.59
16:22:15	 -19.53		 -20.20		 -19.20		 -19.20		 0.15		 19.59
16:22:16	 -19.53		 -20.20		 -19.40		 -19.00		 0.15		 19.59
16:22:17	 -19.73		 -20.40		 -19.79		 -19.00		 0.15		 19.59
16:22:18	 -19.80		 -20.61		 -19.59		 -19.20		 0.15		 19.59
16:22:19	 -19.47		 -20.40		 -19.20		 -18.81		 0.15		 19.59
16:22:20	 -19.66		 -20.40		 -19.59		 -19.00		 0.15		 19.59
16:22:21	 -19.74		 -20.61		 -19.40		 -19.20		 0.15		 19.59
16:22:22	 -19.67		 -20.40		 -19.40		 -19.20		 0.15		 19.59
16:22:23	 -18.57		 -20.40		 -19.40		 -15.90		 0.15		 19.59
16:22:24	 -19.47		 -20.20		 -19.40		 -18.81		 0.16		 19.59
16:22:25	 -19.93		 -20.61		 -19.59		 -19.59		 0.15		 19.59
16:22:26	 -19.47		 -20.20		 -19.20		 -19.00		 0.16		 19.59
16:22:27	 -19.66		 -20.20		 -19.79		 -19.00		 0.15		 19.59
16:22:28	 -19.75		 -21.03		 -19.40		 -18.81		 0.15		 19.59
16:22:29	 -19.66		 -20.20		 -19.79		 -19.00		 0.16		 19.59
16:22:30	 -19.73		 -20.20		 -19.40		 -19.59		 0.15		 19.60
16:22:31	 -19.73		 -20.40		 -19.59		 -19.20		 0.16		 19.59
16:22:32	 -19.60		 -20.40		 -19.59		 -18.81		 0.16		 19.59
16:22:33	 -19.60		 -20.20		 -19.59		 -19.00		 0.15		 19.60
16:22:34	 -19.60		 -20.20		 -19.40		 -19.20		 0.16		 19.60
16:22:35	 -19.53		 -20.20		 -19.40		 -19.00		 0.16		 19.60
16:22:36	 -19.60		 -20.40		 -19.59		 -18.81		 0.15		 19.60
16:22:37	 -19.60		 -20.20		 -19.59		 -19.00		 0.16		 19.59
16:22:38	 -19.53		 -20.20		 -19.40		 -19.00		 0.16		 19.59
16:22:39	 -19.53		 -20.20		 -19.40		 -19.00		 0.16		 19.59
16:22:40	 -19.60		 -20.40		 -19.40		 -19.00		 0.15		 19.59
16:22:41	 -19.67		 -20.40		 -19.40		 -19.20		 0.16		 19.60
16:22:42	 -19.60		 -20.40		 -19.59		 -18.81		 0.15		 19.59
16:22:43	 -19.47		 -20.20		 -19.20		 -19.00		 0.15		 19.60
16:22:44	 -19.53		 -20.00		 -19.40		 -19.20		 0.15		 19.60
16:22:45	 -19.60		 -20.20		 -19.59		 -19.00		 0.15		 19.60
16:22:46	 -19.53		 -20.20		 -19.40		 -19.00		 0.15		 19.60
16:22:47	 -19.66		 -20.00		 -19.59		 -19.40		 0.15		 19.60
16:22:48	 -19.40		 -20.20		 -19.20		 -18.81		 0.15		 19.60
16:22:49	 -19.67		 -20.82		 -19.20		 -19.00		 0.15		 19.61
16:22:50	 -19.53		 -20.20		 -19.40		 -19.00		 0.15		 19.60
16:22:51	 -19.47		 -20.20		 -19.20		 -19.00		 0.15		 19.60
16:22:52	 -19.27		 -20.20		 -19.00		 -18.62		 0.15		 19.60
16:22:53	 -19.53		 -20.20		 -19.40		 -19.00		 0.15		 19.60
16:22:54	 -19.54		 -20.40		 -19.40		 -18.81		 0.15		 19.60
16:22:55	 -19.61		 -20.61		 -19.40		 -18.81		 0.15		 19.60
16:22:56	 -19.40		 -20.20		 -19.20		 -18.81		 0.15		 19.60
16:22:57	 -19.47		 -20.20		 -19.20		 -19.00		 0.15		 19.60
16:22:58	 -19.54		 -20.61		 -19.20		 -18.81		 0.15		 19.60
16:22:59	 -19.67		 -20.40		 -19.20		 -19.40		 0.15		 19.60
16:23:00	 -19.47		 -20.20		 -19.20		 -19.00		 0.15		 19.60
16:23:01	 -19.53		 -20.40		 -19.20		 -19.00		 0.15		 19.60
16:23:02	 -19.47		 -20.20		 -19.20		 -19.00		 0.15		 19.60
16:23:03	 -19.73		 -20.40		 -19.59		 -19.20		 0.15		 19.60
16:23:04	 -19.47		 -20.40		 -19.40		 -18.62		 0.15		 19.60
16:23:05	 -19.60		 -20.20		 -19.20		 -19.40		 0.15		 19.60
16:23:06	 -19.67		 -20.20		 -19.40		 -19.40		 0.15		 19.60
16:23:07	 -19.60		 -20.20		 -19.40		 -19.20		 0.15		 19.60
16:23:08	 -19.47		 -20.00		 -19.59		 -18.81		 0.15		 19.60
16:23:09	 -19.60		 -20.20		 -19.59		 -19.00		 0.15		 19.60
16:23:10	 -19.47		 -20.40		 -19.20		 -18.81		 0.15		 19.60
16:23:11	 -19.47		 -20.00		 -19.40		 -19.00		 0.15		 19.61
16:23:12	 -19.40		 -20.20		 -19.20		 -18.81		 0.15		 19.60
16:23:13	 -19.53		 -20.20		 -19.40		 -19.00		 0.15		 19.61
16:23:14	 -19.53		 -20.20		 -19.40		 -19.00		 0.15		 19.61
16:23:15	 -19.47		 -20.20		 -19.40		 -18.81		 0.15		 19.61
16:23:16	 -19.53		 -20.20		 -19.40		 -19.00		 0.15		 19.61
16:23:17	 -19.40		 -20.00		 -19.40		 -18.81		 0.15		 19.63
16:23:18	 -19.67		 -20.40		 -19.79		 -18.81		 0.15		 19.63
16:23:19	 -19.26		 -19.59		 -19.20		 -19.00		 0.15		 19.61
16:23:20	 -19.40		 -20.40		 -18.81		 -19.00		 0.15		 19.61
16:23:21	 -19.40		 -20.00		 -19.20		 -19.00		 0.15		 19.61
16:23:22	 -19.47		 -20.00		 -19.59		 -18.81		 0.15		 19.60
16:23:23	 -19.40		 -20.00		 -19.40		 -18.81		 0.15		 19.61
16:23:24	 -19.60		 -20.20		 -19.40		 -19.20		 0.15		 19.61
16:23:25	 -19.40		 -20.00		 -19.40		 -18.81		 0.15		 19.61
16:23:26	 -19.40		 -20.40		 -19.00		 -18.81		 0.15		 19.61
16:23:27	 -19.40		 -20.00		 -19.20		 -19.00		 0.15		 19.63
16:23:28	 -19.47		 -20.20		 -19.40		 -18.81		 0.15		 19.61
16:23:29	 -19.34		 -20.00		 -19.40		 -18.62		 0.15		 19.63
16:23:30	 -19.53		 -20.20		 -19.59		 -18.81		 0.15		 19.63
16:23:31	 -19.59		 -19.79		 -19.59		 -19.40		 0.15		 19.64
16:23:32	 -19.60		 -20.40		 -19.40		 -19.00		 0.15		 19.63
16:23:33	 -19.28		 -20.00		 -19.40		 -18.43		 0.15		 19.63
16:23:34	 -19.47		 -20.20		 -19.40		 -18.81		 0.15		 19.66
16:23:35	 -19.34		 -20.00		 -19.20		 -18.81		 0.15		 19.64
16:23:36	 -19.47		 -20.20		 -19.20		 -19.00		 0.15		 19.63
16:23:37	 -19.66		 -20.20		 -19.59		 -19.20		 0.13		 19.64
16:23:38	 -19.47		 -20.40		 -19.20		 -18.81		 0.15		 19.64
16:23:39	 -19.47		 -20.00		 -19.40		 -19.00		 0.15		 19.64
16:23:40	 -19.47		 -20.61		 -19.00		 -18.81		 0.15		 19.64
16:23:41	 -19.53		 -20.20		 -19.40		 -19.00		 0.13		 19.64
16:23:42	 -19.27		 -19.79		 -19.40		 -18.62		 0.13		 19.63
16:23:43	 -19.47		 -20.00		 -19.40		 -19.00		 0.15		 19.63
16:23:44	 -19.47		 -20.00		 -19.40		 -19.00		 0.15		 19.64
16:23:45	 -19.40		 -20.00		 -19.20		 -19.00		 0.15		 19.63
16:23:46	 -19.21		 -20.20		 -19.00		 -18.43		 0.13		 19.63
16:23:47	 -19.47		 -20.20		 -19.20		 -19.00		 0.13		 19.63
16:23:48	 -19.53		 -20.00		 -19.20		 -19.40		 0.13		 19.63
16:23:49	 -19.53		 -20.40		 -19.20		 -19.00		 0.13		 19.63
16:23:50	 -19.41		 -20.40		 -19.40		 -18.43		 0.13		 19.63
16:23:51	 -19.47		 -20.40		 -19.20		 -18.81		 0.13		 19.64
16:23:52	 -19.27		 -20.00		 -19.20		 -18.62		 0.13		 19.63
16:23:53	 -19.40		 -20.20		 -19.20		 -18.81		 0.13		 19.63
16:23:54	 -19.40		 -20.00		 -19.20		 -19.00		 0.15		 19.64
16:23:55	 -19.53		 -20.20		 -19.40		 -19.00		 0.13		 19.64
16:23:56	 -19.47		 -20.20		 -19.40		 -18.81		 0.13		 19.63
16:23:57	 -19.14		 -19.79		 -19.00		 -18.62		 0.13		 19.64
16:23:58	 -19.34		 -20.20		 -19.20		 -18.62		 0.13		 19.63
16:23:59	 -19.46		 -19.79		 -19.40		 -19.20		 0.13		 19.63
16:24:00	 -19.47		 -20.20		 -19.40		 -18.81		 0.13		 19.63
16:24:01	 -19.14		 -20.00		 -19.00		 -18.43		 0.13		 19.63
16:24:02	 -19.47		 -20.20		 -19.79		 -18.43		 0.13		 19.63
16:24:03	 -19.40		 -20.20		 -19.20		 -18.81		 0.13		 19.63
16:24:04	 -19.53		 -20.20		 -19.40		 -19.00		 0.13		 19.63
16:24:05	 -19.27		 -19.79		 -19.40		 -18.62		 0.13		 19.63
16:24:06	 -19.34		 -20.20		 -19.00		 -18.81		 0.13		 19.63
16:24:07	 -19.40		 -20.20		 -19.20		 -18.81		 0.13		 19.64
16:24:08	 -19.41		 -20.20		 -19.40		 -18.62		 0.13		 19.63
16:24:09	 -19.34		 -20.20		 -19.40		 -18.43		 0.13		 19.64
16:24:10	 -19.47		 -20.20		 -19.20		 -19.00		 0.13		 19.63
16:24:11	 -19.47		 -20.20		 -19.40		 -18.81		 0.13		 19.63
16:24:12	 -19.26		 -19.79		 -19.00		 -19.00		 0.13		 19.64
16:24:13	 -19.21		 -20.20		 -18.81		 -18.62		 0.13		 19.64
16:24:14	 -19.20		 -19.79		 -19.20		 -18.62		 0.13		 19.64
16:24:15	 -19.20		 -19.79		 -19.20		 -18.62		 0.13		 19.63
16:24:16	 -19.46		 -19.79		 -19.59		 -19.00		 0.13		 19.63
16:24:17	 -19.27		 -19.79		 -19.20		 -18.81		 0.13		 19.63
16:24:18	 -19.27		 -20.00		 -19.00		 -18.81		 0.13		 19.63
16:24:19	 -19.40		 -20.20		 -19.20		 -18.81		 0.13		 19.63
16:24:20	 -19.34		 -20.20		 -19.00		 -18.81		 0.13		 19.64
16:24:21	 -18.42		 -20.20		 -19.00		 -16.07		 0.13		 19.64
16:24:22	 -19.20		 -19.79		 -19.20		 -18.62		 0.13		 19.63
16:24:23	 -19.34		 -20.00		 -19.20		 -18.81		 0.13		 19.64
16:24:24	 -19.21		 -20.00		 -19.00		 -18.62		 0.13		 19.63
16:24:25	 -19.54		 -20.40		 -19.40		 -18.81		 0.13		 19.64
16:24:26	 -19.53		 -20.20		 -19.59		 -18.81		 0.13		 19.66
16:24:27	 -19.27		 -20.00		 -19.00		 -18.81		 0.13		 19.64
16:24:28	 -19.28		 -20.00		 -19.40		 -18.43		 0.13		 19.64
16:24:29	 -19.40		 -20.20		 -19.00		 -19.00		 0.13		 19.64
16:24:30	 -19.47		 -20.20		 -19.40		 -18.81		 0.13		 19.64
16:24:31	 -19.40		 -20.00		 -19.20		 -19.00		 0.12		 19.66
16:24:32	 -19.40		 -20.20		 -19.20		 -18.81		 0.12		 19.64
16:24:33	 -19.27		 -20.00		 -19.00		 -18.81		 0.13		 19.66
16:24:34	 -19.34		 -20.40		 -19.00		 -18.62		 0.12		 19.64
16:24:35	 -19.21		 -20.00		 -19.00		 -18.62		 0.13		 19.66
16:24:36	 -19.20		 -19.79		 -19.00		 -18.81		 0.13		 19.66
16:24:37	 -19.27		 -19.79		 -19.20		 -18.81		 0.13		 19.67
16:24:38	 -19.20		 -19.79		 -19.20		 -18.62		 0.12		 19.66
16:24:39	 -19.27		 -19.79		 -19.40		 -18.62		 0.12		 19.66
16:24:40	 -19.14		 -19.79		 -19.00		 -18.62		 0.12		 19.67
16:24:41	 -19.21		 -20.00		 -19.00		 -18.62		 0.13		 19.66
16:24:42	 -19.27		 -19.79		 -19.59		 -18.43		 0.12		 19.66
16:24:43	 -19.21		 -20.00		 -19.00		 -18.62		 0.13		 19.66
16:24:44	 -19.40		 -19.79		 -19.59		 -18.81		 0.13		 19.66
16:24:45	 -19.41		 -20.20		 -19.40		 -18.62		 0.12		 19.67
16:24:46	 -19.27		 -19.79		 -19.20		 -18.81		 0.12		 19.66
16:24:47	 -20.51		 -20.00		 -19.20		 -22.33		 0.12		 19.67
16:24:48	 -19.40		 -20.20		 -19.20		 -18.81		 0.12		 19.66
16:24:49	 -19.27		 -20.20		 -19.00		 -18.62		 0.12		 19.67
16:24:50	 -19.34		 -20.20		 -19.00		 -18.81		 0.12		 19.67
16:24:51	 -19.21		 -20.00		 -19.20		 -18.43		 0.12		 19.67
16:24:52	 -19.47		 -20.00		 -19.40		 -19.00		 0.13		 19.67
16:24:53	 -19.53		 -20.40		 -19.20		 -19.00		 0.13		 19.67
16:24:54	 -19.28		 -20.40		 -19.00		 -18.43		 0.12		 19.67
16:24:55	 -19.27		 -20.00		 -19.20		 -18.62		 0.13		 19.67
16:24:56	 -19.14		 -19.59		 -19.20		 -18.62		 0.12		 19.67
16:24:57	 -19.47		 -20.40		 -19.00		 -19.00		 0.12		 19.67
16:24:58	 -19.14		 -19.79		 -19.00		 -18.62		 0.12		 19.67
16:24:59	 -19.14		 -19.79		 -19.00		 -18.62		 0.12		 19.67
16:25:00	 -19.15		 -20.20		 -18.62		 -18.62		 0.12		 19.67
16:25:01	 -19.14		 -19.79		 -19.00		 -18.62		 0.12		 19.67
16:25:02	 -19.20		 -19.79		 -19.00		 -18.81		 0.13		 19.67
16:25:03	 -19.40		 -20.00		 -19.20		 -19.00		 0.12		 19.67
16:25:04	 -19.08		 -20.00		 -18.81		 -18.43		 0.12		 19.67
16:25:05	 -19.21		 -20.00		 -19.00		 -18.62		 0.12		 19.67
16:25:06	 -19.40		 -20.00		 -19.40		 -18.81		 0.12		 19.67
16:25:07	 -19.40		 -20.00		 -19.40		 -18.81		 0.12		 19.67
16:25:08	 -19.27		 -20.00		 -19.00		 -18.81		 0.12		 19.67
16:25:09	 -19.14		 -19.79		 -19.20		 -18.43		 0.12		 19.67
16:25:10	 -19.20		 -19.79		 -19.00		 -18.81		 0.13		 19.66
16:25:11	 -19.27		 -19.79		 -19.40		 -18.62		 0.12		 19.68
16:25:12	 -19.33		 -19.79		 -19.40		 -18.81		 0.12		 19.67
16:25:13	 -19.21		 -20.00		 -19.20		 -18.43		 0.12		 19.67
16:25:14	 -19.40		 -20.00		 -19.20		 -19.00		 0.12		 19.68
16:25:15	 -19.13		 -19.59		 -19.00		 -18.81		 0.12		 19.68
16:25:16	 -19.28		 -20.40		 -19.00		 -18.43		 0.12		 19.67
16:25:17	 -19.34		 -20.20		 -19.20		 -18.62		 0.12		 19.67
16:25:18	 -19.34		 -20.00		 -19.20		 -18.81		 0.12		 19.68
16:25:19	 -19.20		 -19.79		 -19.20		 -18.62		 0.12		 19.67
16:25:20	 -19.33		 -19.79		 -19.40		 -18.81		 0.12		 19.68
16:25:21	 -19.21		 -20.00		 -19.20		 -18.43		 0.12		 19.68
16:25:22	 -19.40		 -20.20		 -19.20		 -18.81		 0.12		 19.68
16:25:23	 -19.41		 -20.40		 -19.20		 -18.62		 0.12		 19.68
16:25:24	 -19.21		 -20.00		 -19.00		 -18.62		 0.12		 19.68
16:25:25	 -19.28		 -20.20		 -19.20		 -18.43		 0.12		 19.68
16:25:26	 -19.21		 -20.00		 -19.00		 -18.62		 0.12		 19.68
16:25:27	 -19.27		 -20.20		 -18.81		 -18.81		 0.12		 19.68
16:25:28	 -19.14		 -19.59		 -19.20		 -18.62		 0.12		 19.68
16:25:29	 -19.47		 -20.20		 -19.40		 -18.81		 0.12		 19.68
16:25:30	 -19.27		 -20.00		 -19.20		 -18.62		 0.12		 19.70
16:25:31	 -19.01		 -19.59		 -18.81		 -18.62		 0.12		 19.68
16:25:32	 -19.20		 -19.79		 -19.20		 -18.62		 0.12		 19.70
16:25:33	 -19.34		 -20.00		 -19.20		 -18.81		 0.12		 19.70
16:25:34	 -18.94		 -19.59		 -18.81		 -18.43		 0.12		 19.70
16:25:35	 -19.08		 -20.00		 -18.81		 -18.43		 0.12		 19.70
16:25:36	 -19.34		 -20.20		 -18.81		 -19.00		 0.12		 19.70
16:25:37	 -19.14		 -19.79		 -19.00		 -18.62		 0.12		 19.68
16:25:38	 -19.20		 -19.79		 -19.20		 -18.62		 0.12		 19.68
16:25:39	 -18.94		 -19.20		 -19.20		 -18.43		 0.12		 19.70
16:25:40	 -19.20		 -19.79		 -19.20		 -18.62		 0.12		 19.70
16:25:41	 -19.13		 -19.59		 -19.00		 -18.81		 0.12		 19.70
16:25:42	 -19.47		 -20.00		 -19.20		 -19.20		 0.12		 19.70
16:25:43	 -19.27		 -20.00		 -19.20		 -18.62		 0.12		 19.70
16:25:44	 -19.01		 -19.79		 -18.81		 -18.43		 0.12		 19.70
16:25:45	 -19.21		 -20.00		 -19.00		 -18.62		 0.12		 19.71
16:25:46	 -19.47		 -20.00		 -19.59		 -18.81		 0.12		 19.71
16:25:47	 -19.08		 -19.79		 -19.20		 -18.24		 0.12		 19.71
16:25:48	 -19.20		 -19.79		 -19.20		 -18.62		 0.12		 19.71
16:25:49	 -19.28		 -20.20		 -19.20		 -18.43		 0.12		 19.71
16:25:50	 -18.19		 -20.00		 -19.00		 -15.56		 0.12		 19.71
16:25:51	 -19.14		 -19.79		 -18.81		 -18.81		 0.12		 19.71
16:25:52	 -19.14		 -20.00		 -19.00		 -18.43		 0.12		 19.71
16:25:53	 -19.14		 -20.00		 -19.00		 -18.43		 0.12		 19.71
16:25:54	 -19.14		 -19.79		 -19.00		 -18.62		 0.12		 19.71
16:25:55	 -19.07		 -19.79		 -18.62		 -18.81		 0.12		 19.72
16:25:56	 -19.14		 -20.00		 -19.00		 -18.43		 0.12		 19.71
16:25:57	 -19.14		 -19.79		 -19.00		 -18.62		 0.12		 19.70
16:25:58	 -19.20		 -19.79		 -19.20		 -18.62		 0.12		 19.71
16:25:59	 -19.27		 -20.00		 -19.20		 -18.62		 0.12		 19.70
16:26:00	 -20.37		 -20.00		 -19.00		 -22.11		 0.12		 19.71
16:26:01	 -18.94		 -19.59		 -19.00		 -18.24		 0.12		 19.71
16:26:02	 -19.07		 -19.59		 -19.00		 -18.62		 0.12		 19.71
16:26:03	 -19.08		 -20.00		 -18.81		 -18.43		 0.12		 19.71
16:26:04	 -19.13		 -19.59		 -19.00		 -18.81		 0.12		 19.71
16:26:05	 -19.27		 -20.00		 -19.20		 -18.62		 0.11		 19.72
16:26:06	 -19.07		 -19.79		 -19.00		 -18.43		 0.12		 19.71
16:26:07	 -19.41		 -20.40		 -19.20		 -18.62		 0.12		 19.70
16:26:08	 -19.01		 -19.59		 -19.00		 -18.43		 0.12		 19.71
16:26:09	 -19.15		 -20.20		 -19.00		 -18.24		 0.11		 19.71
16:26:10	 -19.14		 -19.79		 -19.00		 -18.62		 0.11		 19.72
16:26:11	 -19.34		 -20.40		 -19.00		 -18.62		 0.12		 19.72
16:26:12	 -19.27		 -20.00		 -19.00		 -18.81		 0.12		 19.72
16:26:13	 -19.27		 -20.00		 -19.20		 -18.62		 0.11		 19.72
16:26:14	 -19.14		 -19.79		 -18.81		 -18.81		 0.12		 19.72
16:26:15	 -19.21		 -19.79		 -19.40		 -18.43		 0.11		 19.72
16:26:16	 -19.27		 -19.79		 -19.40		 -18.62		 0.11		 19.72
16:26:17	 -18.94		 -19.59		 -18.81		 -18.43		 0.12		 19.72
16:26:18	 -19.07		 -19.79		 -18.81		 -18.62		 0.11		 19.71
16:26:19	 -18.95		 -19.79		 -18.62		 -18.43		 0.12		 19.72
16:26:20	 -19.08		 -20.00		 -18.81		 -18.43		 0.11		 19.72
16:26:21	 -19.14		 -20.00		 -18.81		 -18.62		 0.11		 19.72
16:26:22	 -18.94		 -19.59		 -18.81		 -18.43		 0.11		 19.72
16:26:23	 -19.01		 -19.79		 -19.00		 -18.24		 0.11		 19.72
16:26:24	 -19.20		 -19.79		 -19.20		 -18.62		 0.11		 19.74
16:26:25	 -19.07		 -19.79		 -19.00		 -18.43		 0.11		 19.72
16:26:26	 -19.14		 -19.59		 -19.20		 -18.62		 0.11		 19.72
16:26:27	 -19.01		 -19.79		 -19.00		 -18.24		 0.11		 19.74
16:26:28	 -19.14		 -19.79		 -19.00		 -18.62		 0.11		 19.71
16:26:29	 -19.08		 -20.00		 -19.00		 -18.24		 0.11		 19.71
16:26:30	 -19.21		 -20.00		 -18.81		 -18.81		 0.11		 19.72
16:26:31	 -19.21		 -20.00		 -19.00		 -18.62		 0.11		 19.71
16:26:32	 -19.07		 -19.59		 -19.00		 -18.62		 0.11		 19.72
16:26:33	 -19.14		 -19.59		 -19.20		 -18.62		 0.11		 19.71
16:26:34	 -19.01		 -19.79		 -18.81		 -18.43		 0.12		 19.71
16:26:35	 -19.01		 -19.79		 -19.00		 -18.24		 0.11		 19.72
16:26:36	 -19.21		 -19.79		 -19.40		 -18.43		 0.11		 19.72
16:26:37	 -19.14		 -19.59		 -19.20		 -18.62		 0.11		 19.72
16:26:38	 -19.07		 -19.59		 -18.81		 -18.81		 0.11		 19.72
16:26:39	 -19.21		 -20.00		 -19.00		 -18.62		 0.11		 19.71
16:26:40	 -19.33		 -19.79		 -19.00		 -19.20		 0.11		 19.72
16:26:41	 -19.20		 -19.40		 -19.40		 -18.81		 0.12		 19.71
16:26:42	 -19.14		 -19.59		 -19.20		 -18.62		 0.11		 19.71
16:26:43	 -19.01		 -19.59		 -18.81		 -18.62		 0.12		 19.72
16:26:44	 -19.14		 -19.79		 -19.00		 -18.62		 0.11		 19.71
16:26:45	 -19.14		 -19.79		 -19.00		 -18.62		 0.11		 19.71
16:26:46	 -19.14		 -20.00		 -18.81		 -18.62		 0.11		 19.72
16:26:47	 -19.07		 -19.79		 -19.00		 -18.43		 0.11		 19.72
16:26:48	 -19.14		 -19.79		 -19.00		 -18.62		 0.11		 19.72
16:26:49	 -18.95		 -19.79		 -18.81		 -18.24		 0.11		 19.71
16:26:50	 -19.01		 -19.79		 -18.81		 -18.43		 0.11		 19.72
16:26:51	 -19.20		 -19.79		 -19.20		 -18.62		 0.11		 19.72
16:26:52	 -18.95		 -19.79		 -18.81		 -18.24		 0.11		 19.74
16:26:53	 -19.07		 -19.79		 -19.00		 -18.43		 0.11		 19.74
16:26:54	 -19.14		 -19.59		 -19.20		 -18.62		 0.11		 19.72
16:26:55	 -19.01		 -19.79		 -18.81		 -18.43		 0.11		 19.74
16:26:56	 -19.33		 -19.79		 -19.20		 -19.00		 0.11		 19.72
16:26:57	 -18.94		 -19.59		 -18.81		 -18.43		 0.11		 19.72
16:26:58	 -18.94		 -19.59		 -18.81		 -18.43		 0.11		 19.74
16:26:59	 -19.01		 -19.59		 -19.00		 -18.43		 0.11		 19.74
16:27:00	 -19.27		 -19.79		 -19.20		 -18.81		 0.11		 19.74
16:27:01	 -19.08		 -20.00		 -19.00		 -18.24		 0.11		 19.74
16:27:02	 -19.34		 -20.00		 -19.20		 -18.81		 0.11		 19.74
16:27:03	 -19.01		 -19.79		 -18.81		 -18.43		 0.11		 19.72
16:27:04	 -19.21		 -20.20		 -19.20		 -18.24		 0.11		 19.72
16:27:05	 -19.21		 -20.20		 -18.81		 -18.62		 0.11		 19.71
16:27:06	 -19.01		 -19.79		 -19.00		 -18.24		 0.11		 19.72
16:27:07	 -19.21		 -20.00		 -19.00		 -18.62		 0.11		 19.72
16:27:08	 -19.14		 -19.79		 -18.81		 -18.81		 0.11		 19.71
16:27:09	 -18.95		 -19.79		 -18.81		 -18.24		 0.11		 19.72
16:27:10	 -18.94		 -19.59		 -18.81		 -18.43		 0.11		 19.71
16:27:11	 -19.21		 -20.00		 -19.00		 -18.62		 0.11		 19.71
16:27:12	 -19.14		 -19.79		 -19.00		 -18.62		 0.11		 19.71
16:27:13	 -19.40		 -20.00		 -19.40		 -18.81		 0.11		 19.71
16:27:14	 -19.20		 -19.40		 -19.20		 -19.00		 0.09		 19.70
16:27:15	 -19.01		 -19.79		 -18.81		 -18.43		 0.11		 19.70
16:27:16	 -19.14		 -19.79		 -19.00		 -18.62		 0.11		 19.70
16:27:17	 -18.94		 -19.59		 -18.81		 -18.43		 0.11		 19.70
16:27:18	 -19.01		 -19.79		 -18.62		 -18.62		 0.11		 19.70
16:27:19	 -19.02		 -20.00		 -18.81		 -18.24		 0.11		 19.70
16:27:20	 -19.01		 -19.59		 -19.00		 -18.43		 0.11		 19.68
16:27:21	 -19.07		 -19.79		 -18.81		 -18.62		 0.11		 19.71
16:27:22	 -19.20		 -19.79		 -19.00		 -18.81		 0.09		 19.70
16:27:23	 -19.01		 -19.79		 -18.81		 -18.43		 0.11		 19.70
16:27:24	 -19.20		 -19.79		 -19.20		 -18.62		 0.10		 19.71
16:27:25	 -19.08		 -20.00		 -18.81		 -18.43		 0.11		 19.71
16:27:26	 -19.01		 -19.79		 -18.81		 -18.43		 0.11		 19.71
16:27:27	 -19.14		 -19.79		 -19.00		 -18.62		 0.11		 19.71
16:27:28	 -19.21		 -20.00		 -19.00		 -18.62		 0.11		 19.71
16:27:29	 -19.14		 -19.79		 -19.00		 -18.62		 0.11		 19.71
16:27:30	 -19.07		 -19.79		 -19.00		 -18.43		 0.10		 19.71
16:27:31	 -19.40		 -20.00		 -19.20		 -19.00		 0.10		 19.71
16:27:32	 -19.14		 -19.59		 -19.20		 -18.62		 0.11		 19.72
16:27:33	 -18.94		 -19.59		 -18.81		 -18.43		 0.11		 19.70
16:27:34	 -19.01		 -19.59		 -19.00		 -18.43		 0.11		 19.71
16:27:35	 -19.02		 -20.00		 -18.81		 -18.24		 0.11		 19.71
16:27:36	 -19.14		 -20.00		 -19.00		 -18.43		 0.10		 19.71
16:27:37	 -18.88		 -19.59		 -18.81		 -18.24		 0.11		 19.74
16:27:38	 -19.27		 -19.79		 -19.20		 -18.81		 0.10		 19.71
16:27:39	 -19.27		 -20.20		 -19.00		 -18.62		 0.10		 19.72
16:27:40	 -18.95		 -19.79		 -18.62		 -18.43		 0.11		 19.71
16:27:41	 -19.27		 -20.20		 -18.81		 -18.81		 0.10		 19.71
16:27:42	 -19.07		 -19.79		 -18.81		 -18.62		 0.11		 19.71
16:27:43	 -19.21		 -20.00		 -19.00		 -18.62		 0.10		 19.71
16:27:44	 -19.07		 -19.79		 -19.00		 -18.43		 0.11		 19.72
16:27:45	 -19.14		 -19.79		 -19.20		 -18.43		 0.10		 19.71
16:27:46	 -19.14		 -19.79		 -19.20		 -18.43		 0.10		 19.71
16:27:47	 -19.01		 -19.59		 -19.00		 -18.43		 0.10		 19.71
16:27:48	 -19.01		 -19.59		 -19.00		 -18.43		 0.10		 19.71
16:27:49	 -18.88		 -19.40		 -19.00		 -18.24		 0.10		 19.71
16:27:50	 -19.27		 -20.00		 -18.81		 -19.00		 0.09		 19.70
16:27:51	 -18.88		 -19.59		 -18.81		 -18.24		 0.10		 19.71
16:27:52	 -19.21		 -20.00		 -19.00		 -18.62		 0.10		 19.71
16:27:53	 -19.07		 -19.79		 -19.00		 -18.43		 0.10		 19.71
16:27:54	 -19.07		 -19.79		 -19.00		 -18.43		 0.11		 19.71
16:27:55	 -19.14		 -19.79		 -19.00		 -18.62		 0.10		 19.71
16:27:56	 -18.88		 -19.59		 -18.62		 -18.43		 0.10		 19.71
16:27:57	 -19.14		 -19.79		 -19.20		 -18.43		 0.11		 19.71
16:27:58	 -19.14		 -19.79		 -19.20		 -18.43		 0.11		 19.72
16:27:59	 -19.27		 -20.00		 -19.20		 -18.62		 0.10		 19.71
16:28:00	 -19.20		 -19.79		 -19.00		 -18.81		 0.10		 19.71
16:28:01	 -19.34		 -20.00		 -19.20		 -18.81		 0.10		 19.71
16:28:02	 -19.21		 -20.00		 -18.81		 -18.81		 0.10		 19.71
16:28:03	 -19.08		 -20.00		 -18.81		 -18.43		 0.10		 19.71
16:28:04	 -19.07		 -19.79		 -19.00		 -18.43		 0.10		 19.71
16:28:05	 -19.07		 -19.59		 -19.00		 -18.62		 0.09		 19.71
16:28:06	 -18.94		 -19.40		 -19.00		 -18.43		 0.10		 19.71
16:28:07	 -19.07		 -19.79		 -18.81		 -18.62		 0.10		 19.71
16:28:08	 -18.88		 -19.20		 -18.81		 -18.62		 0.10		 19.72
16:28:09	 -19.01		 -19.40		 -19.20		 -18.43		 0.11		 19.72
16:28:10	 -18.94		 -19.59		 -18.81		 -18.43		 0.10		 19.71
16:28:11	 -18.94		 -19.59		 -18.81		 -18.43		 0.10		 19.72
16:28:12	 -19.07		 -19.59		 -19.20		 -18.43		 0.10		 19.71
16:28:13	 -19.08		 -20.00		 -19.00		 -18.24		 0.10		 19.72
16:28:14	 -19.34		 -20.00		 -19.20		 -18.81		 0.10		 19.72
16:28:15	 -19.08		 -20.00		 -18.81		 -18.43		 0.11		 19.72
16:28:16	 -19.14		 -20.00		 -19.00		 -18.43		 0.10		 19.72
16:28:17	 -19.28		 -20.00		 -19.40		 -18.43		 0.11		 19.72
16:28:18	 -19.07		 -19.79		 -19.00		 -18.43		 0.10		 19.72
16:28:19	 -19.21		 -19.79		 -19.59		 -18.24		 0.10		 19.72
16:28:20	 -19.27		 -20.00		 -19.00		 -18.81		 0.11		 19.72
16:28:21	 -18.88		 -19.79		 -18.81		 -18.05		 0.10		 19.72
16:28:22	 -19.20		 -19.79		 -19.20		 -18.62		 0.10		 19.74
16:28:23	 -18.88		 -19.40		 -18.81		 -18.43		 0.10		 19.74
16:28:24	 -19.01		 -19.79		 -18.81		 -18.43		 0.10		 19.72
16:28:25	 -19.07		 -19.59		 -18.81		 -18.81		 0.10		 19.72
16:28:26	 -19.21		 -20.00		 -19.00		 -18.62		 0.10		 19.74
16:28:27	 -19.07		 -19.79		 -18.62		 -18.81		 0.09		 19.74
16:28:28	 -18.94		 -19.59		 -18.81		 -18.43		 0.10		 19.74
16:28:29	 -19.27		 -20.00		 -19.20		 -18.62		 0.10		 19.74
16:28:30	 -19.14		 -19.79		 -19.20		 -18.43		 0.09		 19.74
16:28:31	 -18.94		 -19.59		 -18.81		 -18.43		 0.10		 19.75
16:28:32	 -19.14		 -19.79		 -19.00		 -18.62		 0.10		 19.75
16:28:33	 -18.95		 -19.79		 -18.81		 -18.24		 0.10		 19.75
16:28:34	 -19.34		 -20.40		 -19.00		 -18.62		 0.11		 19.75
16:28:35	 -19.07		 -19.59		 -19.00		 -18.62		 0.09		 19.75
16:28:36	 -19.14		 -20.00		 -18.81		 -18.62		 0.09		 19.74
16:28:37	 -19.07		 -19.79		 -18.81		 -18.62		 0.09		 19.75
16:28:38	 -19.01		 -19.59		 -19.00		 -18.43		 0.09		 19.75
16:28:39	 -19.27		 -20.00		 -19.00		 -18.81		 0.09		 19.74
16:28:40	 -19.27		 -19.79		 -19.40		 -18.62		 0.09		 19.75
16:28:41	 -18.94		 -19.40		 -18.81		 -18.62		 0.10		 19.77
16:28:42	 -19.02		 -20.00		 -18.81		 -18.24		 0.10		 19.77
16:28:43	 -19.20		 -19.79		 -19.00		 -18.81		 0.09		 19.75
16:28:44	 -19.07		 -19.79		 -19.00		 -18.43		 0.09		 19.77
16:28:45	 -19.07		 -19.79		 -18.81		 -18.62		 0.09		 19.77
16:28:46	 -19.01		 -19.59		 -18.81		 -18.62		 0.10		 19.78
16:28:47	 -19.14		 -20.00		 -19.00		 -18.43		 0.11		 19.79
16:28:48	 -19.13		 -19.59		 -19.00		 -18.81		 0.11		 19.81
16:28:49	 -19.21		 -20.00		 -19.20		 -18.43		 0.11		 19.82
16:28:50	 -19.14		 -19.79		 -18.81		 -18.81		 3.12		 124.99
16:28:51	 -19.07		 -19.79		 -19.00		 -18.43		 0.16		 19.82
16:28:52	 -19.01		 -19.79		 -18.81		 -18.43		 0.17		 19.85
16:28:53	 -19.14		 -19.79		 -19.00		 -18.62		 0.18		 19.86
16:28:54	 -19.01		 -19.59		 -19.00		 -18.43		 0.20		 19.88
16:28:55	 -19.07		 -19.40		 -19.00		 -18.81		 0.22		 19.89
16:28:56	 -19.07		 -19.59		 -19.00		 -18.62		 0.22		 19.90
16:28:57	 -19.14		 -19.79		 -19.20		 -18.43		 0.26		 19.92
16:28:58	 -19.08		 -20.00		 -18.81		 -18.43		 0.26		 19.92
16:28:59	 -18.95		 -19.59		 -19.20		 -18.05		 0.26		 19.93
16:29:00	 -19.08		 -19.59		 -19.40		 -18.24		 0.27		 19.94
16:29:01	 -19.01		 -19.40		 -19.00		 -18.62		 0.30		 19.96
16:29:02	 -18.88		 -19.59		 -18.81		 -18.24		 0.31		 19.96
16:29:03	 -19.14		 -20.00		 -18.81		 -18.62		 0.32		 19.97
16:29:04	 -19.20		 -19.79		 -19.00		 -18.81		 0.35		 19.99
16:29:05	 -18.94		 -19.59		 -18.81		 -18.43		 0.35		 20.00
16:29:06	 -19.08		 -20.00		 -18.62		 -18.62		 0.35		 20.00
16:29:07	 -18.82		 -19.40		 -18.62		 -18.43		 0.37		 20.01
16:29:08	 -18.88		 -19.40		 -18.81		 -18.43		 0.36		 20.03
16:29:09	 -19.08		 -20.00		 -18.81		 -18.43		 0.37		 20.03
16:29:10	 -19.02		 -20.00		 -18.81		 -18.24		 0.38		 20.04
16:29:11	 -19.08		 -20.00		 -18.81		 -18.43		 0.40		 20.04
16:29:12	 -19.21		 -19.79		 -19.40		 -18.43		 0.41		 20.05
16:29:13	 -18.95		 -19.79		 -18.62		 -18.43		 0.42		 20.07
16:29:14	 -19.01		 -19.59		 -19.00		 -18.43		 0.42		 20.07
16:29:15	 -19.08		 -20.00		 -18.81		 -18.43		 0.45		 20.08
16:29:16	 -18.94		 -19.40		 -18.81		 -18.62		 0.46		 20.08
16:29:17	 -18.88		 -19.59		 -18.81		 -18.24		 0.46		 20.10
16:29:18	 -19.34		 -20.00		 -19.40		 -18.62		 0.47		 20.10
16:29:19	 -19.26		 -19.59		 -19.20		 -19.00		 0.47		 20.11
16:29:20	 -18.95		 -19.79		 -19.00		 -18.05		 0.48		 20.12
16:29:21	 -19.01		 -19.40		 -18.81		 -18.81		 0.48		 20.12
16:29:22	 -18.82		 -19.40		 -18.62		 -18.43		 0.48		 20.12
16:29:23	 -19.27		 -20.00		 -19.20		 -18.62		 0.51		 20.14
16:29:24	 -19.14		 -19.79		 -19.00		 -18.62		 0.51		 20.14
16:29:25	 -18.94		 -19.59		 -19.00		 -18.24		 0.52		 20.15
16:29:26	 -19.07		 -19.59		 -19.00		 -18.62		 0.52		 20.15
16:29:27	 -19.07		 -19.59		 -18.62		 -19.00		 0.52		 20.15
16:29:28	 -19.14		 -20.00		 -19.00		 -18.43		 0.53		 20.18
16:29:29	 -19.01		 -19.59		 -18.81		 -18.62		 0.53		 20.15
16:29:30	 -19.07		 -19.79		 -19.00		 -18.43		 0.53		 20.16
16:29:31	 -19.07		 -19.59		 -19.00		 -18.62		 0.56		 20.19
16:29:32	 -18.94		 -19.40		 -18.81		 -18.62		 0.56		 20.19
16:29:33	 -19.01		 -19.59		 -19.00		 -18.43		 0.56		 20.21
16:29:34	 -18.95		 -19.79		 -18.81		 -18.24		 0.57		 20.19
16:29:35	 -18.94		 -19.40		 -19.00		 -18.43		 0.57		 20.21
16:29:36	 -19.14		 -19.79		 -19.00		 -18.62		 0.57		 20.22
16:29:38	 -19.07		 -19.79		 -19.00		 -18.43		 0.59		 20.23
16:29:39	 -18.88		 -19.79		 -18.81		 -18.05		 0.59		 20.23
16:29:40	 -18.82		 -19.59		 -18.62		 -18.24		 0.60		 20.23
16:29:41	 -19.07		 -19.79		 -19.00		 -18.43		 0.60		 20.25
16:29:42	 -19.14		 -20.00		 -19.00		 -18.43		 0.60		 20.23
16:29:43	 -19.20		 -19.79		 -19.00		 -18.81		 0.60		 20.25
16:29:44	 -19.07		 -19.79		 -19.00		 -18.43		 0.60		 20.26
16:29:45	 -18.95		 -19.79		 -18.62		 -18.43		 0.60		 20.27
16:29:46	 -18.94		 -19.59		 -18.81		 -18.43		 0.60		 20.26
16:29:47	 -18.82		 -19.79		 -18.43		 -18.24		 0.60		 20.26
16:29:48	 -18.95		 -19.79		 -19.00		 -18.05		 0.60		 20.27
16:29:49	 -18.88		 -19.59		 -18.81		 -18.24		 0.60		 20.27
16:29:50	 -19.01		 -19.79		 -19.00		 -18.24		 0.63		 20.27
16:29:51	 -19.01		 -19.79		 -19.00		 -18.24		 0.60		 20.29
16:29:52	 -19.01		 -19.59		 -19.00		 -18.43		 0.63		 20.27
16:29:53	 -19.14		 -20.00		 -19.00		 -18.43		 0.63		 20.29
16:29:54	 -18.94		 -19.59		 -19.00		 -18.24		 0.63		 20.29
16:29:55	 -19.08		 -20.00		 -18.62		 -18.62		 0.63		 20.29
16:29:56	 -19.01		 -19.59		 -19.00		 -18.43		 0.65		 20.30
16:29:57	 -19.07		 -19.79		 -18.81		 -18.62		 0.66		 20.32
16:29:58	 -18.95		 -19.79		 -18.62		 -18.43		 0.66		 20.30
16:29:59	 -19.01		 -19.59		 -18.81		 -18.62		 0.67		 20.30
16:30:00	 -18.88		 -19.59		 -18.81		 -18.24		 0.67		 20.32
16:30:01	 -19.01		 -19.40		 -19.00		 -18.62		 0.67		 20.32
16:30:02	 -19.01		 -19.59		 -19.00		 -18.43		 0.67		 20.32
16:30:03	 -19.01		 -19.79		 -18.81		 -18.43		 0.67		 20.33
16:30:04	 -19.13		 -19.59		 -18.81		 -19.00		 0.68		 20.32
16:30:05	 -18.75		 -19.40		 -18.43		 -18.43		 0.68		 20.33
16:30:06	 -19.13		 -19.59		 -19.00		 -18.81		 0.68		 20.33
16:30:07	 -19.07		 -19.59		 -19.00		 -18.62		 0.68		 20.34
16:30:08	 -19.08		 -19.79		 -19.20		 -18.24		 0.68		 20.34
16:30:09	 -18.94		 -19.59		 -18.81		 -18.43		 0.71		 20.34
16:30:10	 -19.07		 -19.40		 -19.00		 -18.81		 0.71		 20.34
16:30:11	 -19.07		 -19.40		 -19.20		 -18.62		 0.71		 20.34
16:30:12	 -19.14		 -19.59		 -19.20		 -18.62		 0.71		 20.34
16:30:13	 -18.94		 -19.59		 -18.62		 -18.62		 0.68		 20.34
16:30:14	 -19.01		 -19.79		 -18.62		 -18.62		 0.71		 20.34
16:30:15	 -19.01		 -19.59		 -18.81		 -18.62		 0.71		 20.34
16:30:16	 -19.07		 -19.59		 -19.00		 -18.62		 0.71		 20.34
16:30:17	 -18.94		 -19.59		 -18.81		 -18.43		 0.71		 20.34
16:30:18	 -19.01		 -19.79		 -18.81		 -18.43		 0.71		 20.34
16:30:19	 -18.94		 -19.40		 -19.00		 -18.43		 0.71		 20.34
16:30:20	 -19.27		 -19.59		 -19.40		 -18.81		 0.71		 20.36
16:30:21	 -18.95		 -20.00		 -18.81		 -18.05		 0.71		 20.34
16:30:22	 -19.07		 -19.79		 -19.00		 -18.43		 0.71		 20.36
16:30:23	 -19.14		 -19.79		 -19.20		 -18.43		 0.71		 20.36
16:30:24	 -18.94		 -19.59		 -19.00		 -18.24		 0.71		 20.36
16:30:25	 -19.01		 -19.79		 -18.62		 -18.62		 0.71		 20.34
16:30:26	 -18.94		 -19.40		 -19.00		 -18.43		 0.71		 20.36
16:30:27	 -18.94		 -19.59		 -18.62		 -18.62		 0.72		 20.36
16:30:28	 -19.01		 -19.59		 -18.62		 -18.81		 0.72		 20.36
16:30:29	 -18.94		 -19.59		 -19.00		 -18.24		 0.72		 20.36
16:30:30	 -18.94		 -19.59		 -18.81		 -18.43		 0.72		 20.36
16:30:31	 -18.88		 -19.59		 -18.62		 -18.43		 0.72		 20.36
16:30:32	 -19.01		 -19.59		 -19.00		 -18.43		 0.72		 20.37
16:30:33	 -19.01		 -19.59		 -18.81		 -18.62		 0.72		 20.36
16:30:34	 -19.07		 -19.59		 -19.00		 -18.62		 0.72		 20.37
16:30:35	 -19.14		 -19.59		 -19.20		 -18.62		 0.72		 20.37
16:30:36	 -19.01		 -19.59		 -18.81		 -18.62		 0.72		 20.38
16:30:37	 -19.01		 -19.59		 -18.62		 -18.81		 0.72		 20.37
16:30:38	 -19.21		 -20.00		 -19.00		 -18.62		 0.72		 20.38
16:30:39	 -19.01		 -19.79		 -18.81		 -18.43		 0.72		 20.38
16:30:40	 -19.20		 -19.79		 -19.20		 -18.62		 0.72		 20.38
16:30:41	 -19.20		 -19.40		 -19.59		 -18.62		 0.72		 20.38
16:30:42	 -19.33		 -20.00		 -19.00		 -19.00		 0.72		 20.37
16:30:43	 -19.20		 -19.79		 -19.00		 -18.81		 0.73		 20.37
16:30:44	 -19.14		 -19.79		 -19.00		 -18.62		 0.74		 20.40
16:30:45	 -19.47		 -20.20		 -19.20		 -19.00		 0.76		 20.41
16:30:46	 -19.40		 -20.00		 -19.40		 -18.81		 0.77		 20.41
16:30:47	 -19.21		 -20.00		 -19.20		 -18.43		 0.82		 20.43
16:30:48	 -19.28		 -20.00		 -19.40		 -18.43		 0.87		 20.46
16:30:49	 -19.53		 -20.20		 -19.59		 -18.81		 0.98		 20.46
16:30:50	 -18.95		 -20.00		 -19.00		 -17.86		 1.10		 20.48
16:30:51	 -19.40		 -20.20		 -19.20		 -18.81		 1.17		 20.48
16:30:52	 -19.47		 -20.20		 -19.40		 -18.81		 1.25		 20.48
16:30:53	 -19.40		 -20.00		 -19.20		 -19.00		 1.34		 20.48
16:30:54	 -19.66		 -20.40		 -19.59		 -19.00		 1.41		 20.49
16:30:55	 -19.41		 -20.20		 -19.40		 -18.62		 1.49		 20.50
16:30:56	 -19.60		 -20.40		 -19.40		 -19.00		 1.56		 20.52
16:30:57	 -19.66		 -20.40		 -19.59		 -19.00		 1.63		 20.52
16:30:58	 -19.53		 -20.20		 -19.59		 -18.81		 1.71		 20.52
16:30:59	 -19.67		 -20.61		 -19.40		 -19.00		 1.80		 20.53
16:31:00	 -19.73		 -20.61		 -19.59		 -19.00		 1.86		 20.53
16:31:01	 -19.66		 -20.40		 -19.59		 -19.00		 1.93		 20.55
16:31:02	 -19.66		 -20.20		 -19.59		 -19.20		 2.00		 20.55
16:31:03	 -19.27		 -20.00		 -19.20		 -18.62		 2.07		 20.57
16:31:04	 -19.66		 -20.20		 -19.59		 -19.20		 2.12		 20.56
16:31:05	 -19.60		 -20.20		 -19.59		 -19.00		 2.20		 20.57
16:31:06	 -20.14		 -21.24		 -19.79		 -19.40		 2.26		 20.57
16:31:07	 -19.66		 -20.20		 -19.59		 -19.20		 2.34		 20.57
16:31:08	 -19.88		 -21.03		 -19.40		 -19.20		 2.37		 20.60
16:31:09	 -19.80		 -20.20		 -19.79		 -19.40		 2.42		 20.60
16:31:10	 -19.87		 -20.61		 -19.59		 -19.40		 2.46		 20.59
16:31:11	 -19.80		 -20.61		 -19.59		 -19.20		 2.53		 20.60
16:31:12	 -19.73		 -20.61		 -19.59		 -19.00		 2.58		 20.60
16:31:13	 -20.01		 -21.24		 -19.79		 -19.00		 2.56		 20.61
16:31:14	 -19.53		 -20.20		 -19.40		 -19.00		 2.63		 20.63
16:31:15	 -19.86		 -20.40		 -19.79		 -19.40		 2.67		 20.63
16:31:16	 -19.73		 -20.40		 -19.79		 -19.00		 2.72		 20.63
16:31:17	 -19.87		 -20.40		 -20.00		 -19.20		 2.78		 20.64
16:31:18	 -19.80		 -20.40		 -19.79		 -19.20		 2.81		 20.64
16:31:19	 -20.34		 -20.82		 -20.61		 -19.59		 2.87		 20.66
16:31:20	 -20.07		 -21.03		 -19.79		 -19.40		 2.89		 20.66
16:31:21	 -19.69		 -21.03		 -19.79		 -18.24		 2.96		 20.67
16:31:22	 -19.93		 -20.61		 -19.79		 -19.40		 2.99		 20.66
16:31:23	 -19.93		 -20.40		 -20.00		 -19.40		 3.04		 20.67
16:31:24	 -20.07		 -20.61		 -20.00		 -19.59		 3.09		 20.68
16:31:25	 -20.01		 -21.03		 -19.59		 -19.40		 3.14		 20.68
16:31:26	 -20.14		 -20.82		 -20.00		 -19.59		 3.17		 20.70
16:31:27	 -20.07		 -20.82		 -19.79		 -19.59		 3.22		 20.68
16:31:28	 -20.01		 -21.03		 -19.79		 -19.20		 3.22		 20.70
16:31:29	 -20.00		 -20.61		 -20.00		 -19.40		 3.27		 20.70
16:31:30	 -20.07		 -20.82		 -20.00		 -19.40		 3.31		 20.71
16:31:31	 -20.21		 -21.03		 -20.00		 -19.59		 3.34		 20.71
16:31:32	 -21.21		 -20.61		 -20.00		 -23.01		 3.38		 20.72
16:31:33	 -20.14		 -21.24		 -19.59		 -19.59		 3.40		 20.72
16:31:34	 -20.42		 -21.67		 -19.79		 -19.79		 3.45		 20.72
16:31:35	 -20.21		 -21.03		 -20.20		 -19.40		 3.49		 20.72
16:31:36	 -20.34		 -21.03		 -20.20		 -19.79		 3.55		 20.72
16:31:37	 -20.14		 -21.03		 -20.00		 -19.40		 3.60		 20.74
16:31:38	 -20.20		 -21.03		 -19.79		 -19.79		 3.63		 20.74
16:31:39	 -20.21		 -21.03		 -20.00		 -19.59		 3.66		 20.75
16:31:40	 -20.41		 -21.24		 -20.40		 -19.59		 3.69		 20.75
16:31:41	 -20.14		 -21.03		 -20.00		 -19.40		 3.72		 20.75
16:31:42	 -20.07		 -20.82		 -19.79		 -19.59		 3.74		 20.75
16:31:43	 -20.27		 -20.82		 -20.40		 -19.59		 3.77		 20.75
