Temperature and humidity log started on 01/07/2021 at 16:17:42

Time 		 Average T (C) 	 T0 (C) 	 T1 (C) 	 T2 (C) 	 RH (%) 	 HYT T (C) 
------------------------------------------------------------------------
16:17:42	 19.55		 19.64		 19.47		 19.55		 47.39		 20.32
16:17:42	 19.67		 19.81		 19.55		 19.64		 47.42		 20.32
16:17:43	 19.67		 19.90		 19.64		 19.47		 47.42		 20.33
16:17:43	 19.58		 19.73		 19.55		 19.47		 47.44		 20.33
16:17:44	 19.64		 19.73		 19.64		 19.55		 47.44		 20.33
16:17:45	 19.61		 19.73		 19.55		 19.55		 47.44		 20.32
16:17:46	 19.61		 19.81		 19.47		 19.55		 47.44		 20.33
16:17:47	 19.61		 19.73		 19.55		 19.55		 47.44		 20.33
16:17:48	 19.67		 19.81		 19.64		 19.55		 47.44		 20.33
16:17:49	 19.61		 19.81		 19.55		 19.47		 47.44		 20.33
16:17:50	 19.61		 19.81		 19.47		 19.55		 47.44		 20.33
16:17:51	 19.67		 19.81		 19.64		 19.55		 47.44		 20.33
16:17:52	 19.73		 19.90		 19.64		 19.64		 47.44		 20.33
16:17:52	 19.64		 19.81		 19.55		 19.55		 47.44		 20.33
16:17:53	 19.55		 19.73		 19.55		 19.38		 47.44		 20.33
16:17:54	 19.64		 19.73		 19.64		 19.55		 47.44		 20.32
16:17:55	 19.67		 19.81		 19.55		 19.64		 47.44		 20.33
16:17:56	 19.67		 19.73		 19.64		 19.64		 47.44		 20.33
16:17:57	 19.67		 19.81		 19.64		 19.55		 47.47		 20.33
16:17:58	 19.67		 19.81		 19.64		 19.55		 47.47		 20.33
16:17:59	 19.70		 19.81		 19.64		 19.64		 47.47		 20.32
16:18:00	 19.67		 19.73		 19.64		 19.64		 47.47		 20.33
16:18:01	 19.64		 19.73		 19.64		 19.55		 47.50		 20.33
16:18:01	 19.58		 19.73		 19.47		 19.55		 47.50		 20.33
16:18:02	 19.64		 19.81		 19.55		 19.55		 47.50		 20.33
16:18:03	 19.70		 19.81		 19.64		 19.64		 47.50		 20.33
16:18:04	 19.70		 19.81		 19.64		 19.64		 47.52		 20.33
16:18:05	 19.67		 19.81		 19.64		 19.55		 47.52		 20.33
16:18:06	 19.67		 19.81		 19.64		 19.55		 47.52		 20.34
16:18:07	 19.70		 19.81		 19.64		 19.64		 47.52		 20.33
16:18:08	 19.64		 19.81		 19.64		 19.47		 47.52		 20.33
16:18:09	 19.73		 19.90		 19.64		 19.64		 47.52		 20.32
16:18:10	 19.64		 19.81		 19.47		 19.64		 47.55		 20.33
16:18:11	 19.67		 19.73		 19.73		 19.55		 47.52		 20.33
16:18:11	 19.64		 19.81		 19.55		 19.55		 47.52		 20.33
16:18:12	 19.76		 19.81		 19.73		 19.73		 47.55		 20.33
16:18:13	 19.73		 19.81		 19.64		 19.73		 47.55		 20.33
16:18:14	 19.70		 19.81		 19.55		 19.73		 47.57		 20.33
16:18:15	 19.73		 19.81		 19.64		 19.73		 47.55		 20.34
16:18:16	 19.67		 19.81		 19.64		 19.55		 47.60		 20.33
16:18:17	 19.64		 19.73		 19.64		 19.55		 47.57		 20.33
16:18:18	 19.70		 19.81		 19.64		 19.64		 47.60		 20.33
16:18:19	 19.67		 19.81		 19.64		 19.55		 47.60		 20.34
16:18:20	 19.73		 19.90		 19.64		 19.64		 47.57		 20.33
16:18:20	 19.73		 19.90		 19.73		 19.55		 47.57		 20.34
16:18:21	 19.70		 19.81		 19.55		 19.73		 47.57		 20.33
16:18:22	 19.70		 19.81		 19.64		 19.64		 47.57		 20.34
16:18:23	 19.70		 19.81		 19.64		 19.64		 47.57		 20.33
16:18:24	 19.61		 19.73		 19.55		 19.55		 47.62		 20.34
16:18:25	 19.67		 19.81		 19.55		 19.64		 47.60		 20.34
16:18:26	 19.73		 19.81		 19.73		 19.64		 47.62		 20.33
16:18:27	 19.73		 19.81		 19.73		 19.64		 47.60		 20.34
16:18:28	 19.70		 19.81		 19.64		 19.64		 47.60		 20.33
16:18:29	 19.67		 19.81		 19.64		 19.55		 47.62		 20.33
16:18:29	 19.73		 19.90		 19.64		 19.64		 47.62		 20.33
16:18:30	 19.73		 19.90		 19.64		 19.64		 47.62		 20.33
16:18:31	 19.75		 19.90		 19.81		 19.55		 47.62		 20.34
16:18:32	 19.70		 19.81		 19.55		 19.73		 47.62		 20.34
16:18:33	 19.70		 19.81		 19.55		 19.73		 47.62		 20.33
16:18:34	 19.70		 19.81		 19.64		 19.64		 47.64		 20.34
16:18:35	 19.75		 19.81		 19.64		 19.81		 47.62		 20.34
16:18:36	 19.70		 19.81		 19.55		 19.73		 47.64		 20.33
16:18:37	 19.76		 19.90		 19.64		 19.73		 47.64		 20.33
16:18:38	 19.79		 19.90		 19.73		 19.73		 47.67		 20.33
16:18:39	 19.73		 19.90		 19.64		 19.64		 47.67		 20.33
16:18:40	 19.76		 19.90		 19.73		 19.64		 47.64		 20.33
16:18:41	 19.73		 19.81		 19.73		 19.64		 47.67		 20.33
16:18:42	 19.70		 19.81		 19.64		 19.64		 47.67		 20.34
16:18:43	 19.76		 19.81		 19.73		 19.73		 47.67		 20.34
16:18:44	 19.76		 19.81		 19.73		 19.73		 47.67		 20.33
16:18:45	 19.70		 19.90		 19.55		 19.64		 47.67		 20.33
16:18:46	 19.76		 19.81		 19.73		 19.73		 47.67		 20.33
16:18:47	 19.67		 19.73		 19.64		 19.64		 47.67		 20.33
16:18:48	 19.73		 19.81		 19.73		 19.64		 47.70		 20.33
