Temperature and humidity log started on 06/09/2021 at 16:34:05

Time 		 Average T (C) 	 T0 (C) 	 T1 (C) 	 T2 (C) 	 RH (%) 	 HYT T (C) 
------------------------------------------------------------------------
16:34:07	 15.58		 15.75		 15.40		 15.58		 3.38		 22.59
16:34:08	 15.52		 15.66		 15.32		 15.58		 3.39		 22.59
16:34:09	 15.55		 15.66		 15.32		 15.66		 3.38		 22.57
16:34:10	 15.52		 15.66		 15.32		 15.58		 3.39		 22.59
16:34:11	 15.46		 15.66		 15.23		 15.49		 3.40		 22.59
16:34:12	 15.49		 15.66		 15.32		 15.49		 3.39		 22.59
16:34:13	 15.49		 15.66		 15.32		 15.49		 3.40		 22.57
16:34:14	 15.46		 15.66		 15.23		 15.49		 3.40		 22.59
16:34:15	 15.43		 15.75		 15.23		 15.32		 3.43		 22.59
16:34:16	 15.46		 15.58		 15.14		 15.66		 3.43		 22.57
16:34:17	 15.40		 15.58		 15.14		 15.49		 3.43		 22.57
16:34:18	 15.43		 15.58		 15.14		 15.58		 3.43		 22.57
16:34:19	 15.43		 15.66		 15.14		 15.49		 3.40		 22.59
16:34:20	 15.40		 15.58		 15.23		 15.40		 3.40		 22.57
16:34:21	 15.32		 15.49		 15.06		 15.40		 3.40		 22.57
16:34:22	 15.40		 15.58		 15.14		 15.49		 3.40		 22.57
16:34:23	 15.32		 15.49		 15.14		 15.32		 3.40		 22.59
16:34:24	 15.26		 15.40		 15.06		 15.32		 3.40		 22.57
16:34:25	 15.29		 15.49		 15.06		 15.32		 3.40		 22.57
16:34:26	 15.29		 15.49		 15.06		 15.32		 3.40		 22.57
16:34:27	 15.20		 15.32		 14.97		 15.32		 3.40		 22.57
16:34:28	 15.29		 15.49		 15.06		 15.32		 3.40		 22.59
16:34:29	 15.17		 15.32		 14.97		 15.23		 3.40		 22.57
16:34:30	 15.20		 15.32		 14.97		 15.32		 3.40		 22.57
16:34:31	 15.20		 15.40		 14.97		 15.23		 3.40		 22.57
16:34:32	 15.14		 15.32		 14.88		 15.23		 3.39		 22.57
16:34:33	 15.17		 15.40		 14.88		 15.23		 3.38		 22.56
16:34:34	 15.12		 15.32		 14.97		 15.06		 3.38		 22.57
16:34:35	 15.11		 15.32		 14.88		 15.14		 3.36		 22.57
16:34:36	 15.17		 15.32		 14.97		 15.23		 3.36		 22.56
16:34:37	 15.11		 15.32		 14.88		 15.14		 3.36		 22.57
16:34:38	 15.06		 15.32		 14.79		 15.06		 3.38		 22.59
16:34:39	 15.05		 15.23		 14.79		 15.14		 3.36		 22.57
16:34:40	 15.06		 15.23		 14.88		 15.06		 3.34		 22.57
16:34:41	 15.03		 15.23		 14.79		 15.06		 3.36		 22.56
16:34:42	 15.02		 15.14		 14.79		 15.14		 3.34		 22.57
16:34:43	 14.94		 15.14		 14.71		 14.97		 3.36		 22.56
16:34:44	 14.97		 15.14		 14.79		 14.97		 3.36		 22.57
16:34:45	 15.00		 15.14		 14.79		 15.06		 3.38		 22.57
16:34:46	 14.94		 15.14		 14.71		 14.97		 3.38		 22.57
16:34:47	 15.08		 15.14		 14.79		 15.32		 3.39		 22.56
16:34:48	 14.94		 15.06		 14.79		 14.97		 3.39		 22.57
16:34:49	 14.97		 15.14		 14.79		 14.97		 3.39		 22.56
16:34:50	 14.97		 15.06		 14.79		 15.06		 3.38		 22.57
16:34:51	 14.94		 15.14		 14.71		 14.97		 3.39		 22.56
16:34:52	 14.88		 15.06		 14.71		 14.88		 3.39		 22.56
16:34:53	 14.85		 14.97		 14.62		 14.97		 3.40		 22.57
16:34:54	 14.88		 15.06		 14.71		 14.88		 3.40		 22.56
16:34:55	 14.82		 14.97		 14.62		 14.88		 3.40		 22.56
16:34:56	 14.97		 14.97		 14.62		 15.32		 3.40		 22.56
16:34:57	 14.79		 14.97		 14.53		 14.88		 3.40		 22.56
16:34:58	 14.76		 14.97		 14.53		 14.79		 3.43		 22.56
16:34:59	 14.73		 14.88		 14.53		 14.79		 3.43		 22.57
16:35:00	 14.76		 14.97		 14.44		 14.88		 3.44		 22.56
16:35:01	 14.79		 14.97		 14.53		 14.88		 3.44		 22.57
16:35:02	 14.76		 14.88		 14.53		 14.88		 3.44		 22.56
16:35:03	 14.73		 14.88		 14.53		 14.79		 3.45		 22.56
16:35:04	 14.73		 14.88		 14.53		 14.79		 3.44		 22.56
16:35:05	 14.76		 14.88		 14.53		 14.88		 3.44		 22.56
16:35:06	 14.73		 14.88		 14.53		 14.79		 3.44		 22.56
16:35:07	 14.79		 14.97		 14.62		 14.79		 3.44		 22.56
16:35:08	 14.74		 14.97		 14.53		 14.71		 3.45		 22.56
16:35:09	 14.71		 14.88		 14.53		 14.71		 3.45		 22.57
16:35:10	 14.68		 14.79		 14.53		 14.71		 3.45		 22.56
16:35:11	 14.68		 14.88		 14.44		 14.71		 3.44		 22.56
16:35:12	 14.65		 14.79		 14.36		 14.79		 3.44		 22.56
16:35:13	 14.59		 14.79		 14.36		 14.62		 3.43		 22.55
16:35:14	 14.62		 14.79		 14.44		 14.62		 3.43		 22.56
16:35:15	 14.65		 14.79		 14.44		 14.71		 3.44		 22.56
16:35:16	 14.59		 14.79		 14.27		 14.71		 3.44		 22.56
16:35:17	 14.62		 14.79		 14.36		 14.71		 3.44		 22.56
16:35:18	 14.62		 14.79		 14.36		 14.71		 3.44		 22.56
16:35:19	 14.62		 14.79		 14.36		 14.71		 3.44		 22.56
16:35:20	 14.59		 14.71		 14.36		 14.71		 3.44		 22.56
16:35:21	 14.59		 14.79		 14.36		 14.62		 3.45		 22.56
16:35:22	 14.65		 14.88		 14.36		 14.71		 3.47		 22.55
16:35:23	 14.59		 14.79		 14.36		 14.62		 3.47		 22.56
16:35:24	 14.56		 14.71		 14.36		 14.62		 3.47		 22.56
16:35:25	 14.53		 14.71		 14.36		 14.53		 3.49		 22.56
16:35:26	 14.56		 14.71		 14.36		 14.62		 3.49		 22.56
16:35:27	 14.53		 14.71		 14.36		 14.53		 3.47		 22.55
16:35:28	 14.53		 14.71		 14.27		 14.62		 3.49		 22.56
16:35:29	 14.50		 14.71		 14.27		 14.53		 3.49		 22.55
16:35:30	 14.50		 14.71		 14.27		 14.53		 3.49		 22.56
16:35:31	 14.47		 14.71		 14.27		 14.44		 3.49		 22.56
16:35:32	 14.50		 14.62		 14.27		 14.62		 3.49		 22.56
16:35:33	 14.47		 14.71		 14.18		 14.53		 3.49		 22.55
16:35:34	 14.47		 14.71		 14.27		 14.44		 3.49		 22.56
16:35:35	 14.47		 14.62		 14.18		 14.62		 3.47		 22.55
16:35:36	 14.47		 14.62		 14.36		 14.44		 3.47		 22.56
16:35:37	 14.44		 14.62		 14.18		 14.53		 3.47		 22.56
16:35:38	 14.44		 14.62		 14.18		 14.53		 3.45		 22.55
16:35:39	 14.41		 14.62		 14.18		 14.44		 3.45		 22.56
16:35:40	 14.44		 14.62		 14.18		 14.53		 3.45		 22.55
16:35:41	 14.50		 14.62		 14.27		 14.62		 3.45		 22.56
16:35:42	 14.44		 14.71		 14.18		 14.44		 3.45		 22.55
16:35:43	 14.38		 14.53		 14.18		 14.44		 3.45		 22.55
16:35:44	 14.35		 14.53		 14.09		 14.44		 3.45		 22.55
16:35:45	 14.38		 14.53		 14.18		 14.44		 3.45		 22.55
16:35:46	 14.38		 14.62		 14.09		 14.44		 3.43		 22.53
16:35:47	 14.36		 14.53		 14.18		 14.36		 3.44		 22.55
16:35:48	 14.36		 14.53		 14.18		 14.36		 3.43		 22.55
16:35:49	 14.36		 14.62		 14.09		 14.36		 3.40		 22.55
16:35:50	 14.33		 14.53		 14.09		 14.36		 3.40		 22.56
16:35:51	 14.35		 14.53		 14.09		 14.44		 3.40		 22.55
16:35:52	 14.38		 14.53		 14.09		 14.53		 3.40		 22.55
16:35:53	 14.32		 14.44		 14.09		 14.44		 3.40		 22.55
16:35:54	 14.27		 14.44		 14.01		 14.36		 3.40		 22.55
16:35:55	 14.36		 14.53		 14.18		 14.36		 3.40		 22.55
16:35:56	 14.38		 14.53		 14.18		 14.44		 3.39		 22.55
16:35:57	 14.33		 14.53		 14.09		 14.36		 3.38		 22.55
16:35:58	 14.30		 14.44		 14.09		 14.36		 3.38		 22.55
16:35:59	 14.33		 14.53		 14.01		 14.44		 3.36		 22.55
16:36:00	 14.33		 14.53		 14.09		 14.36		 3.33		 22.53
16:36:01	 14.32		 14.44		 14.09		 14.44		 3.32		 22.53
16:36:02	 14.30		 14.62		 14.01		 14.27		 3.31		 22.55
16:36:03	 14.24		 14.44		 14.01		 14.27		 3.31		 22.56
16:36:04	 14.32		 14.44		 14.09		 14.44		 3.32		 22.55
16:36:05	 14.21		 14.36		 14.01		 14.27		 3.32		 22.55
16:36:06	 14.27		 14.36		 14.09		 14.36		 3.32		 22.55
16:36:07	 14.35		 14.53		 14.09		 14.44		 3.31		 22.55
16:36:08	 14.27		 14.36		 14.01		 14.44		 3.32		 22.55
16:36:09	 14.27		 14.44		 14.09		 14.27		 3.31		 22.55
16:36:10	 14.24		 14.44		 14.01		 14.27		 3.31		 22.53
16:36:11	 14.27		 14.44		 14.01		 14.36		 3.32		 22.55
16:36:12	 14.24		 14.44		 14.01		 14.27		 3.32		 22.56
16:36:13	 14.24		 14.44		 14.01		 14.27		 3.31		 22.55
16:36:14	 14.21		 14.27		 14.09		 14.27		 3.32		 22.55
16:36:15	 14.27		 14.44		 14.09		 14.27		 3.36		 22.55
16:36:16	 14.24		 14.36		 14.01		 14.36		 3.36		 22.55
16:36:17	 14.24		 14.44		 14.01		 14.27		 3.38		 22.55
16:36:18	 14.18		 14.27		 14.01		 14.27		 3.36		 22.55
16:36:19	 14.18		 14.36		 13.92		 14.27		 3.34		 22.53
16:36:20	 14.21		 14.36		 14.01		 14.27		 3.33		 22.53
16:36:21	 14.18		 14.36		 13.92		 14.27		 3.34		 22.55
16:36:22	 14.18		 14.36		 14.01		 14.18		 3.33		 22.53
16:36:23	 14.36		 14.36		 14.44		 14.27		 3.33		 22.53
16:36:24	 14.24		 14.44		 14.01		 14.27		 3.34		 22.55
16:36:25	 14.21		 14.44		 14.01		 14.18		 3.36		 22.55
16:36:26	 14.18		 14.36		 14.01		 14.18		 3.34		 22.53
16:36:27	 14.15		 14.36		 13.92		 14.18		 3.36		 22.53
16:36:28	 14.21		 14.44		 13.92		 14.27		 3.39		 22.53
16:36:29	 14.18		 14.44		 13.92		 14.18		 3.39		 22.53
16:36:30	 14.18		 14.36		 14.01		 14.18		 3.36		 22.53
16:36:31	 14.21		 14.36		 14.01		 14.27		 3.38		 22.55
16:36:32	 14.15		 14.36		 13.92		 14.18		 3.36		 22.55
16:36:33	 14.15		 14.36		 13.92		 14.18		 3.34		 22.53
16:36:34	 14.18		 14.36		 14.01		 14.18		 3.34		 22.53
16:36:35	 14.15		 14.36		 13.92		 14.18		 3.38		 22.55
16:36:36	 14.12		 14.27		 13.92		 14.18		 3.38		 22.55
16:36:37	 14.12		 14.27		 13.92		 14.18		 3.38		 22.55
16:36:38	 14.15		 14.36		 13.92		 14.18		 3.39		 22.55
16:36:39	 14.15		 14.27		 13.92		 14.27		 3.40		 22.55
16:36:40	 14.12		 14.36		 13.92		 14.09		 3.40		 22.55
16:36:41	 13.92		 14.36		 14.01		 13.39		 3.40		 22.53
16:36:42	 14.09		 14.27		 13.92		 14.09		 3.39		 22.55
16:36:43	 14.15		 14.27		 14.01		 14.18		 3.40		 22.55
16:36:44	 14.06		 14.27		 13.83		 14.09		 3.39		 22.55
16:36:45	 14.12		 14.27		 13.92		 14.18		 3.39		 22.55
16:36:46	 14.09		 14.27		 13.92		 14.09		 3.40		 22.53
16:36:47	 14.09		 14.27		 13.83		 14.18		 3.40		 22.53
16:36:48	 14.12		 14.36		 13.92		 14.09		 3.42		 22.53
16:36:49	 14.12		 14.27		 13.92		 14.18		 3.40		 22.53
16:36:50	 14.09		 14.27		 13.92		 14.09		 3.43		 22.55
16:36:51	 14.09		 14.27		 13.83		 14.18		 3.43		 22.55
16:36:52	 14.12		 14.36		 13.92		 14.09		 3.40		 22.53
16:36:53	 14.09		 14.36		 13.83		 14.09		 3.39		 22.55
16:36:54	 13.83		 14.27		 13.04		 14.18		 3.39		 22.53
16:36:55	 14.06		 14.27		 13.83		 14.09		 3.39		 22.55
16:36:56	 14.06		 14.27		 13.83		 14.09		 3.36		 22.53
16:36:57	 14.06		 14.27		 13.83		 14.09		 3.38		 22.55
16:36:58	 14.12		 14.18		 13.92		 14.27		 3.36		 22.53
16:36:59	 14.06		 14.27		 13.83		 14.09		 3.34		 22.53
16:37:00	 14.03		 14.18		 13.83		 14.09		 3.36		 22.53
16:37:01	 14.09		 14.27		 13.92		 14.09		 3.34		 22.53
16:37:02	 14.06		 14.18		 13.92		 14.09		 3.33		 22.53
16:37:03	 14.06		 14.27		 13.83		 14.09		 3.34		 22.55
16:37:04	 14.09		 14.27		 13.92		 14.09		 3.33		 22.53
16:37:05	 14.12		 14.27		 13.92		 14.18		 3.32		 22.53
16:37:06	 14.06		 14.27		 13.83		 14.09		 3.32		 22.53
16:37:07	 14.06		 14.18		 13.83		 14.18		 3.33		 22.53
16:37:08	 14.03		 14.18		 13.83		 14.09		 3.33		 22.52
16:37:09	 14.06		 14.27		 13.83		 14.09		 3.36		 22.55
16:37:10	 14.06		 14.18		 13.83		 14.18		 3.36		 22.53
16:37:11	 14.06		 14.27		 13.83		 14.09		 3.38		 22.55
16:37:12	 14.06		 14.18		 13.92		 14.09		 3.39		 22.55
16:37:13	 14.03		 14.18		 13.83		 14.09		 3.40		 22.53
16:37:14	 14.06		 14.27		 13.83		 14.09		 3.42		 22.52
16:37:15	 14.01		 14.18		 13.83		 14.01		 3.42		 22.53
16:37:16	 14.00		 14.09		 13.83		 14.09		 3.42		 22.53
16:37:17	 14.06		 14.27		 13.83		 14.09		 3.42		 22.53
16:37:18	 14.03		 14.18		 13.83		 14.09		 3.42		 22.53
16:37:19	 13.98		 14.18		 13.83		 13.92		 3.42		 22.53
16:37:20	 14.04		 14.27		 13.83		 14.01		 3.40		 22.53
16:37:21	 13.98		 14.09		 13.83		 14.01		 3.40		 22.53
16:37:22	 14.01		 14.18		 13.83		 14.01		 3.39		 22.53
16:37:23	 14.01		 14.18		 13.83		 14.01		 3.39		 22.53
16:37:24	 14.03		 14.18		 13.83		 14.09		 3.38		 22.55
16:37:25	 14.24		 14.27		 14.36		 14.09		 3.36		 22.53
16:37:26	 13.98		 14.18		 13.74		 14.01		 3.36		 22.53
16:37:27	 14.01		 14.27		 13.74		 14.01		 3.36		 22.53
16:37:28	 14.04		 14.27		 13.83		 14.01		 3.36		 22.53
16:37:29	 14.00		 14.09		 13.83		 14.09		 3.36		 22.52
16:37:30	 14.04		 14.27		 13.83		 14.01		 3.36		 22.53
16:37:31	 14.01		 14.27		 13.74		 14.01		 3.34		 22.53
16:37:32	 13.98		 14.09		 13.83		 14.01		 3.33		 22.53
16:37:33	 13.98		 14.18		 13.74		 14.01		 3.34		 22.53
16:37:34	 14.00		 14.09		 13.83		 14.09		 3.36		 22.55
16:37:35	 13.98		 14.18		 13.74		 14.01		 3.34		 22.53
16:37:36	 14.00		 14.18		 13.74		 14.09		 3.34		 22.53
16:37:37	 13.98		 14.18		 13.74		 14.01		 3.36		 22.55
16:37:38	 13.95		 14.18		 13.66		 14.01		 3.33		 22.53
16:37:39	 14.01		 14.18		 13.83		 14.01		 3.34		 22.53
16:37:40	 14.00		 14.09		 13.74		 14.18		 3.34		 22.53
16:37:41	 13.95		 14.09		 13.83		 13.92		 3.34		 22.52
16:37:42	 14.01		 14.18		 13.83		 14.01		 3.33		 22.53
16:37:43	 14.01		 14.18		 13.83		 14.01		 3.33		 22.53
16:37:44	 13.95		 14.18		 13.66		 14.01		 3.33		 22.53
16:37:45	 14.03		 14.18		 13.83		 14.09		 3.34		 22.52
16:37:46	 14.00		 14.18		 13.74		 14.09		 3.34		 22.53
16:37:47	 13.98		 14.18		 13.74		 14.01		 3.39		 22.53
16:37:48	 13.98		 14.18		 13.74		 14.01		 3.39		 22.53
16:37:49	 13.95		 14.09		 13.74		 14.01		 3.39		 22.53
16:37:50	 13.92		 14.09		 13.74		 13.92		 3.39		 22.52
16:37:51	 14.01		 14.18		 13.83		 14.01		 3.39		 22.53
16:37:52	 14.03		 14.18		 13.74		 14.18		 3.36		 22.52
16:37:53	 13.98		 14.09		 13.83		 14.01		 3.36		 22.52
16:37:54	 13.98		 14.18		 13.74		 14.01		 3.33		 22.53
16:37:55	 13.98		 14.18		 13.74		 14.01		 3.34		 22.52
16:37:56	 13.92		 14.09		 13.66		 14.01		 3.34		 22.53
16:37:57	 13.98		 14.18		 13.74		 14.01		 3.34		 22.53
16:37:58	 13.95		 14.18		 13.74		 13.92		 3.36		 22.53
16:37:59	 13.98		 14.09		 13.83		 14.01		 3.34		 22.53
16:38:00	 13.95		 14.09		 13.83		 13.92		 3.36		 22.52
16:38:01	 13.98		 14.18		 13.74		 14.01		 3.36		 22.53
16:38:02	 13.95		 14.09		 13.74		 14.01		 3.36		 22.52
16:38:03	 13.95		 14.09		 13.74		 14.01		 3.36		 22.52
16:38:04	 13.95		 14.09		 13.74		 14.01		 3.36		 22.52
16:38:05	 13.98		 14.09		 13.83		 14.01		 3.36		 22.53
16:38:06	 13.98		 14.18		 13.74		 14.01		 3.39		 22.55
16:38:07	 13.98		 14.18		 13.74		 14.01		 3.39		 22.53
16:38:08	 13.95		 14.09		 13.74		 14.01		 3.40		 22.53
16:38:09	 13.86		 13.92		 13.74		 13.92		 3.40		 22.53
16:38:10	 13.95		 14.09		 13.74		 14.01		 3.40		 22.53
16:38:11	 13.98		 14.09		 13.83		 14.01		 3.42		 22.52
16:38:12	 13.95		 14.09		 13.74		 14.01		 3.42		 22.52
16:38:13	 13.98		 14.18		 13.74		 14.01		 3.42		 22.52
16:38:14	 13.89		 14.18		 13.48		 14.01		 3.42		 22.53
16:38:15	 13.95		 14.09		 13.74		 14.01		 3.43		 22.53
16:38:16	 14.01		 14.18		 13.83		 14.01		 3.43		 22.52
16:38:17	 13.92		 14.09		 13.74		 13.92		 3.42		 22.52
16:38:18	 13.98		 14.18		 13.74		 14.01		 3.42		 22.52
16:38:19	 13.95		 14.18		 13.74		 13.92		 3.42		 22.52
16:38:20	 13.98		 14.18		 13.74		 14.01		 3.42		 22.52
16:38:21	 13.95		 14.09		 13.74		 14.01		 3.43		 22.52
16:38:22	 13.97		 14.09		 13.74		 14.09		 3.43		 22.52
16:38:23	 13.89		 14.09		 13.66		 13.92		 3.43		 22.52
16:38:24	 13.95		 14.09		 13.74		 14.01		 3.44		 22.52
16:38:25	 13.92		 14.09		 13.66		 14.01		 3.44		 22.53
16:38:26	 14.00		 14.18		 13.74		 14.09		 3.44		 22.53
16:38:27	 13.95		 14.09		 13.74		 14.01		 3.43		 22.52
16:38:28	 13.95		 14.09		 13.74		 14.01		 3.42		 22.52
16:38:29	 13.98		 14.18		 13.74		 14.01		 3.39		 22.52
16:38:30	 13.97		 14.09		 13.74		 14.09		 3.36		 22.52
16:38:31	 13.95		 14.09		 13.74		 14.01		 3.36		 22.53
16:38:32	 13.92		 14.09		 13.66		 14.01		 3.33		 22.52
16:38:33	 13.92		 14.09		 13.66		 14.01		 3.32		 22.52
16:38:34	 13.92		 14.09		 13.66		 14.01		 3.32		 22.52
16:38:35	 13.89		 14.09		 13.66		 13.92		 3.31		 22.53
16:38:36	 13.92		 14.09		 13.74		 13.92		 3.27		 22.53
16:38:37	 13.92		 14.09		 13.74		 13.92		 3.25		 22.53
16:38:38	 14.04		 14.36		 13.74		 14.01		 3.23		 22.52
16:38:39	 13.83		 14.01		 13.66		 13.83		 3.22		 22.52
16:38:40	 13.92		 14.09		 13.66		 14.01		 3.23		 22.52
16:38:41	 13.86		 14.01		 13.66		 13.92		 3.23		 22.52
16:38:42	 13.95		 14.09		 13.74		 14.01		 3.22		 22.52
16:38:43	 13.89		 14.01		 13.66		 14.01		 3.17		 22.52
16:38:44	 13.89		 14.09		 13.66		 13.92		 3.17		 22.51
16:38:45	 13.95		 14.09		 13.83		 13.92		 3.17		 22.51
16:38:46	 13.95		 14.09		 13.74		 14.01		 3.16		 22.52
16:38:47	 13.92		 14.09		 13.74		 13.92		 3.16		 22.52
16:38:48	 13.98		 14.18		 13.74		 14.01		 3.15		 22.51
16:38:49	 13.92		 14.09		 13.74		 13.92		 3.15		 22.52
16:38:50	 14.06		 14.09		 13.74		 14.36		 3.15		 22.52
16:38:51	 13.98		 14.18		 13.74		 14.01		 3.14		 22.51
16:38:52	 13.98		 14.09		 13.83		 14.01		 3.11		 22.51
16:38:53	 13.95		 14.09		 13.74		 14.01		 3.11		 22.52
16:38:54	 13.98		 14.18		 13.74		 14.01		 3.09		 22.52
16:38:55	 13.89		 14.09		 13.74		 13.83		 3.08		 22.51
16:38:56	 13.92		 14.09		 13.66		 14.01		 3.08		 22.52
16:38:57	 13.95		 14.09		 13.74		 14.01		 3.07		 22.51
16:38:58	 13.89		 14.01		 13.74		 13.92		 3.07		 22.51
16:38:59	 13.92		 14.09		 13.74		 13.92		 3.07		 22.52
16:39:00	 13.92		 14.09		 13.66		 14.01		 3.07		 22.51
16:39:01	 13.92		 14.09		 13.74		 13.92		 3.05		 22.52
16:39:02	 13.95		 14.18		 13.74		 13.92		 3.07		 22.52
16:39:03	 13.92		 14.09		 13.74		 13.92		 3.07		 22.52
16:39:04	 13.89		 14.09		 13.66		 13.92		 3.07		 22.51
16:39:06	 13.98		 14.09		 13.83		 14.01		 3.07		 22.52
16:39:06	 13.92		 14.01		 13.74		 14.01		 3.07		 22.51
16:39:07	 13.95		 14.09		 13.74		 14.01		 3.07		 22.52
16:39:09	 13.92		 14.09		 13.66		 14.01		 3.05		 22.52
16:39:09	 13.92		 14.01		 13.74		 14.01		 3.03		 22.51
16:39:11	 13.86		 14.09		 13.66		 13.83		 3.03		 22.52
16:39:12	 13.89		 14.01		 13.66		 14.01		 3.02		 22.51
16:39:13	 13.92		 14.09		 13.74		 13.92		 3.02		 22.52
16:39:14	 13.89		 14.09		 13.66		 13.92		 3.02		 22.51
16:39:15	 13.89		 14.09		 13.66		 13.92		 3.00		 22.52
16:39:16	 13.92		 14.09		 13.66		 14.01		 3.02		 22.51
16:39:17	 13.89		 14.09		 13.66		 13.92		 3.00		 22.52
16:39:18	 13.86		 14.09		 13.66		 13.83		 3.02		 22.51
16:39:19	 13.95		 14.09		 13.74		 14.01		 3.02		 22.52
16:39:20	 13.86		 14.09		 13.66		 13.83		 3.00		 22.52
16:39:21	 13.95		 14.18		 13.74		 13.92		 3.00		 22.51
16:39:22	 13.89		 14.01		 13.74		 13.92		 3.02		 22.51
16:39:23	 13.92		 14.09		 13.66		 14.01		 3.00		 22.52
16:39:24	 14.56		 14.01		 15.75		 13.92		 3.02		 22.51
16:39:25	 13.92		 14.09		 13.74		 13.92		 3.00		 22.51
16:39:26	 13.89		 14.09		 13.66		 13.92		 3.00		 22.52
16:39:27	 13.89		 14.09		 13.66		 13.92		 3.00		 22.51
16:39:28	 13.95		 14.09		 13.66		 14.09		 3.02		 22.52
16:39:29	 13.86		 13.92		 13.74		 13.92		 3.02		 22.51
16:39:30	 13.92		 14.09		 13.74		 13.92		 3.00		 22.51
16:39:31	 13.92		 14.09		 13.66		 14.01		 2.99		 22.52
16:39:32	 13.86		 14.01		 13.66		 13.92		 2.99		 22.49
16:39:33	 13.86		 14.01		 13.57		 14.01		 2.99		 22.51
16:39:34	 13.92		 14.09		 13.66		 14.01		 2.97		 22.51
16:39:35	 13.95		 14.09		 13.74		 14.01		 2.97		 22.51
16:39:36	 13.92		 14.09		 13.66		 14.01		 2.97		 22.51
16:39:37	 13.89		 14.09		 13.66		 13.92		 2.97		 22.51
16:39:38	 13.86		 14.01		 13.66		 13.92		 2.97		 22.51
16:39:39	 13.89		 14.09		 13.66		 13.92		 2.97		 22.52
16:39:40	 13.95		 14.09		 13.66		 14.09		 2.97		 22.51
16:39:41	 13.89		 14.09		 13.66		 13.92		 2.97		 22.51
16:39:42	 13.89		 14.09		 13.66		 13.92		 2.97		 22.51
16:39:43	 13.89		 14.01		 13.66		 14.01		 2.97		 22.51
16:39:44	 13.83		 14.01		 13.57		 13.92		 2.97		 22.51
16:39:45	 13.83		 14.01		 13.66		 13.83		 2.95		 22.51
16:39:46	 13.92		 14.09		 13.74		 13.92		 2.95		 22.51
16:39:47	 13.89		 14.09		 13.66		 13.92		 2.95		 22.51
16:39:48	 13.86		 14.01		 13.66		 13.92		 2.97		 22.51
16:39:49	 13.86		 14.09		 13.66		 13.83		 2.99		 22.51
16:39:50	 13.92		 14.18		 13.66		 13.92		 2.97		 22.51
16:39:51	 13.86		 14.01		 13.74		 13.83		 2.97		 22.51
16:39:52	 13.95		 14.09		 13.74		 14.01		 2.97		 22.51
16:39:53	 13.92		 14.09		 13.66		 14.01		 2.95		 22.52
16:39:54	 13.95		 14.09		 13.74		 14.01		 2.95		 22.52
16:39:55	 13.83		 14.01		 13.57		 13.92		 2.94		 22.51
16:39:56	 13.86		 14.01		 13.66		 13.92		 2.94		 22.51
16:39:57	 13.92		 14.09		 13.74		 13.92		 2.95		 22.51
16:39:58	 13.89		 14.01		 13.66		 14.01		 2.95		 22.51
16:39:59	 13.89		 14.09		 13.66		 13.92		 2.97		 22.51
16:40:00	 13.92		 14.09		 13.74		 13.92		 2.94		 22.51
16:40:01	 13.89		 14.09		 13.66		 13.92		 2.92		 22.49
16:40:02	 13.92		 14.09		 13.74		 13.92		 2.94		 22.51
16:40:03	 13.92		 14.09		 13.74		 13.92		 2.94		 22.51
16:40:04	 13.86		 14.09		 13.57		 13.92		 2.94		 22.51
16:40:05	 13.92		 14.09		 13.66		 14.01		 2.94		 22.51
16:40:06	 13.92		 14.09		 13.74		 13.92		 2.92		 22.49
16:40:07	 13.89		 14.09		 13.66		 13.92		 2.95		 22.49
16:40:08	 13.86		 14.01		 13.66		 13.92		 2.95		 22.51
16:40:09	 13.83		 14.01		 13.66		 13.83		 2.95		 22.49
16:40:10	 13.86		 14.01		 13.66		 13.92		 2.95		 22.51
16:40:11	 13.89		 14.01		 13.66		 14.01		 2.95		 22.49
16:40:12	 13.98		 14.36		 13.66		 13.92		 2.97		 22.51
16:40:13	 13.89		 14.01		 13.74		 13.92		 2.97		 22.51
16:40:14	 13.89		 14.01		 13.74		 13.92		 2.95		 22.49
16:40:15	 13.89		 14.09		 13.66		 13.92		 2.95		 22.51
16:40:16	 13.86		 14.01		 13.66		 13.92		 2.95		 22.49
16:40:17	 13.92		 13.92		 14.01		 13.83		 2.95		 22.49
16:40:18	 13.89		 14.09		 13.66		 13.92		 2.95		 22.51
16:40:19	 13.86		 14.01		 13.66		 13.92		 2.95		 22.49
16:40:20	 13.95		 14.18		 13.66		 14.01		 2.95		 22.49
16:40:21	 13.89		 14.09		 13.57		 14.01		 2.95		 22.49
16:40:22	 13.86		 14.09		 13.66		 13.83		 2.97		 22.49
16:40:23	 13.89		 14.09		 13.66		 13.92		 2.97		 22.49
16:40:24	 13.92		 14.09		 13.66		 14.01		 2.97		 22.49
16:40:25	 13.83		 14.01		 13.66		 13.83		 2.97		 22.49
16:40:26	 13.83		 14.01		 13.57		 13.92		 2.95		 22.49
16:40:27	 13.89		 14.01		 13.74		 13.92		 2.95		 22.49
16:40:28	 13.83		 14.09		 13.57		 13.83		 2.94		 22.49
16:40:29	 13.86		 14.01		 13.66		 13.92		 2.94		 22.48
16:40:30	 13.89		 14.09		 13.66		 13.92		 2.92		 22.49
16:40:31	 13.92		 14.09		 13.74		 13.92		 2.92		 22.49
16:40:32	 13.89		 14.01		 13.74		 13.92		 2.92		 22.49
16:40:33	 13.89		 14.01		 13.74		 13.92		 2.92		 22.49
16:40:34	 13.86		 14.01		 13.66		 13.92		 2.94		 22.49
16:40:35	 13.54		 14.01		 12.78		 13.83		 2.92		 22.49
16:40:36	 13.86		 14.01		 13.66		 13.92		 2.92		 22.49
16:40:37	 13.89		 14.01		 13.74		 13.92		 2.94		 22.49
16:40:38	 13.89		 14.09		 13.66		 13.92		 2.94		 22.49
16:40:39	 13.83		 14.01		 13.66		 13.83		 2.92		 22.49
16:40:40	 14.15		 14.09		 13.57		 14.79		 2.94		 22.48
16:40:41	 13.80		 14.01		 13.57		 13.83		 2.94		 22.48
16:40:42	 13.89		 14.01		 13.74		 13.92		 2.92		 22.48
16:40:43	 13.86		 14.01		 13.66		 13.92		 2.92		 22.49
16:40:44	 13.86		 14.01		 13.66		 13.92		 2.92		 22.48
16:40:45	 13.86		 14.01		 13.66		 13.92		 2.92		 22.49
16:40:46	 13.86		 14.09		 13.57		 13.92		 2.92		 22.49
16:40:47	 13.89		 14.09		 13.66		 13.92		 2.94		 22.48
16:40:48	 13.83		 14.01		 13.66		 13.83		 2.94		 22.48
16:40:49	 13.83		 14.01		 13.66		 13.83		 2.95		 22.48
16:40:50	 13.77		 13.74		 13.66		 13.92		 2.94		 22.49
16:40:51	 13.89		 14.01		 13.66		 14.01		 2.95		 22.48
16:40:52	 13.86		 14.01		 13.66		 13.92		 2.95		 22.49
16:40:53	 13.86		 14.01		 13.66		 13.92		 2.97		 22.49
16:40:54	 13.83		 14.09		 13.57		 13.83		 2.95		 22.49
16:40:55	 14.09		 14.09		 14.18		 14.01		 2.95		 22.49
16:40:56	 13.86		 14.01		 13.66		 13.92		 2.92		 22.48
16:40:57	 13.83		 14.01		 13.66		 13.83		 2.92		 22.49
16:40:58	 13.83		 14.01		 13.66		 13.83		 2.94		 22.49
16:40:59	 13.89		 14.09		 13.66		 13.92		 2.94		 22.49
16:41:00	 13.86		 14.01		 13.66		 13.92		 2.92		 22.48
16:41:01	 13.83		 14.01		 13.57		 13.92		 2.94		 22.48
16:41:02	 13.83		 14.01		 13.66		 13.83		 2.94		 22.48
16:41:03	 13.83		 14.09		 13.57		 13.83		 2.94		 22.48
16:41:04	 13.80		 14.01		 13.57		 13.83		 2.94		 22.49
16:41:05	 13.83		 14.01		 13.66		 13.83		 2.94		 22.48
16:41:06	 13.86		 14.01		 13.66		 13.92		 2.94		 22.48
16:41:07	 13.83		 14.09		 13.57		 13.83		 2.95		 22.46
16:41:08	 13.86		 14.09		 13.66		 13.83		 2.97		 22.48
16:41:09	 13.86		 14.01		 13.66		 13.92		 2.95		 22.48
16:41:10	 13.92		 14.01		 13.66		 14.09		 2.94		 22.48
16:41:11	 13.92		 14.01		 13.66		 14.09		 2.95		 22.49
16:41:12	 13.86		 14.01		 13.66		 13.92		 2.95		 22.48
16:41:13	 13.83		 14.01		 13.57		 13.92		 2.95		 22.48
16:41:14	 13.86		 14.01		 13.66		 13.92		 2.95		 22.48
16:41:15	 13.83		 13.92		 13.66		 13.92		 2.95		 22.49
16:41:16	 13.86		 13.92		 13.66		 14.01		 2.94		 22.48
16:41:17	 13.83		 14.01		 13.66		 13.83		 2.92		 22.48
16:41:18	 13.86		 14.09		 13.66		 13.83		 2.95		 22.48
16:41:19	 13.89		 14.18		 13.66		 13.83		 2.94		 22.48
16:41:20	 13.86		 14.01		 13.66		 13.92		 2.95		 22.48
16:41:21	 13.89		 14.09		 13.57		 14.01		 2.95		 22.48
16:41:22	 13.92		 14.09		 13.66		 14.01		 2.94		 22.48
16:41:23	 13.86		 14.01		 13.66		 13.92		 2.92		 22.48
16:41:24	 13.86		 14.01		 13.66		 13.92		 2.92		 22.48
16:41:25	 13.83		 14.01		 13.57		 13.92		 2.92		 22.48
16:41:26	 13.86		 14.01		 13.66		 13.92		 2.92		 22.46
16:41:27	 13.83		 14.01		 13.57		 13.92		 2.94		 22.48
16:41:28	 13.89		 14.01		 13.74		 13.92		 2.92		 22.48
16:41:29	 13.83		 14.01		 13.57		 13.92		 2.94		 22.48
16:41:30	 13.86		 14.01		 13.66		 13.92		 2.92		 22.48
16:41:31	 13.86		 14.09		 13.57		 13.92		 2.92		 22.48
16:41:32	 13.83		 14.01		 13.57		 13.92		 2.94		 22.49
16:41:33	 13.86		 14.01		 13.66		 13.92		 2.92		 22.48
16:41:34	 13.86		 14.01		 13.57		 14.01		 2.92		 22.48
16:41:35	 13.89		 14.01		 13.74		 13.92		 2.92		 22.49
16:41:36	 13.86		 14.01		 13.66		 13.92		 2.94		 22.48
16:41:37	 13.83		 14.01		 13.57		 13.92		 2.92		 22.49
16:41:38	 13.83		 14.01		 13.66		 13.83		 2.92		 22.48
16:41:39	 13.83		 14.09		 13.57		 13.83		 2.92		 22.49
16:41:40	 13.86		 14.01		 13.66		 13.92		 2.92		 22.48
16:41:41	 13.80		 13.74		 13.66		 14.01		 2.92		 22.48
16:41:42	 13.83		 14.01		 13.57		 13.92		 2.92		 22.48
16:41:43	 13.83		 13.92		 13.66		 13.92		 2.92		 22.48
16:41:44	 13.83		 13.92		 13.66		 13.92		 2.92		 22.48
16:41:45	 13.86		 14.09		 13.66		 13.83		 2.94		 22.48
16:41:46	 13.89		 14.09		 13.66		 13.92		 2.92		 22.46
16:41:47	 13.80		 13.92		 13.57		 13.92		 2.92		 22.48
16:41:48	 13.86		 14.01		 13.66		 13.92		 2.92		 22.48
16:41:49	 13.86		 14.01		 13.66		 13.92		 2.92		 22.48
16:41:50	 13.92		 14.09		 13.66		 14.01		 2.92		 22.48
16:41:51	 13.86		 14.01		 13.66		 13.92		 2.92		 22.48
16:41:52	 13.83		 14.01		 13.66		 13.83		 2.92		 22.46
16:41:53	 13.83		 14.01		 13.66		 13.83		 2.92		 22.48
16:41:54	 13.83		 14.09		 13.57		 13.83		 2.92		 22.48
16:41:55	 13.86		 14.01		 13.74		 13.83		 2.94		 22.48
16:41:56	 13.80		 14.01		 13.57		 13.83		 2.92		 22.48
16:41:57	 13.86		 14.01		 13.74		 13.83		 2.92		 22.46
16:41:58	 13.86		 14.01		 13.66		 13.92		 2.92		 22.48
16:41:59	 13.89		 14.01		 13.74		 13.92		 2.92		 22.48
16:42:00	 13.83		 14.01		 13.57		 13.92		 2.91		 22.48
16:42:01	 13.86		 14.01		 13.66		 13.92		 2.91		 22.48
16:42:02	 13.80		 14.01		 13.66		 13.74		 2.89		 22.49
16:42:03	 13.77		 13.92		 13.57		 13.83		 2.91		 22.48
16:42:04	 13.86		 14.01		 13.66		 13.92		 2.91		 22.49
16:42:05	 13.86		 14.01		 13.66		 13.92		 2.91		 22.46
16:42:06	 13.80		 14.01		 13.57		 13.83		 2.89		 22.46
16:42:07	 13.83		 14.01		 13.66		 13.83		 2.89		 22.48
16:42:08	 13.80		 13.92		 13.66		 13.83		 2.89		 22.46
16:42:09	 13.83		 14.01		 13.66		 13.83		 2.87		 22.48
16:42:10	 13.21		 14.09		 11.80		 13.74		 2.87		 22.48
16:42:11	 13.86		 14.09		 13.57		 13.92		 2.87		 22.46
16:42:12	 13.86		 14.09		 13.57		 13.92		 2.86		 22.46
16:42:13	 13.77		 14.01		 13.57		 13.74		 2.87		 22.46
16:42:14	 13.86		 14.01		 13.66		 13.92		 2.87		 22.48
16:42:15	 13.86		 14.09		 13.57		 13.92		 2.87		 22.48
16:42:16	 13.83		 14.01		 13.66		 13.83		 2.87		 22.46
16:42:17	 13.83		 14.01		 13.66		 13.83		 2.86		 22.46
16:42:18	 13.83		 14.01		 13.57		 13.92		 2.86		 22.46
16:42:19	 13.89		 14.09		 13.74		 13.83		 2.86		 22.48
16:42:20	 13.86		 14.01		 13.66		 13.92		 2.86		 22.48
16:42:21	 13.89		 14.01		 13.74		 13.92		 2.86		 22.46
16:42:22	 13.86		 14.09		 13.66		 13.83		 2.86		 22.46
16:42:23	 13.86		 14.09		 13.57		 13.92		 2.86		 22.46
16:42:24	 13.86		 14.09		 13.66		 13.83		 2.87		 22.46
16:42:25	 13.95		 14.36		 13.57		 13.92		 2.87		 22.46
16:42:26	 13.86		 14.09		 13.57		 13.92		 2.87		 22.46
16:42:27	 13.83		 14.01		 13.66		 13.83		 2.87		 22.48
16:42:28	 13.86		 14.01		 13.66		 13.92		 2.86		 22.46
16:42:29	 13.83		 14.01		 13.57		 13.92		 2.87		 22.48
16:42:30	 13.89		 14.01		 13.74		 13.92		 2.86		 22.48
16:42:31	 13.83		 14.01		 13.66		 13.83		 2.87		 22.48
16:42:32	 13.83		 14.01		 13.66		 13.83		 2.86		 22.48
16:42:33	 13.83		 14.01		 13.57		 13.92		 2.86		 22.48
16:42:34	 13.86		 14.01		 13.66		 13.92		 2.86		 22.46
16:42:35	 13.86		 14.01		 13.57		 14.01		 2.86		 22.46
16:42:36	 13.83		 14.01		 13.57		 13.92		 2.87		 22.46
16:42:37	 13.80		 14.01		 13.57		 13.83		 2.87		 22.46
16:42:38	 13.86		 14.09		 13.66		 13.83		 2.87		 22.48
16:42:39	 13.86		 14.01		 13.66		 13.92		 2.87		 22.46
16:42:40	 13.86		 14.01		 13.57		 14.01		 2.89		 22.48
16:42:41	 13.86		 14.09		 13.57		 13.92		 2.91		 22.48
16:42:42	 13.83		 14.01		 13.66		 13.83		 2.89		 22.48
16:42:43	 13.95		 14.27		 13.66		 13.92		 2.89		 22.48
16:42:44	 13.89		 14.01		 13.66		 14.01		 2.89		 22.48
16:42:45	 13.89		 14.09		 13.74		 13.83		 2.89		 22.48
16:42:46	 13.89		 14.09		 13.66		 13.92		 2.89		 22.48
16:42:47	 13.86		 14.09		 13.66		 13.83		 2.89		 22.48
16:42:48	 13.80		 14.01		 13.48		 13.92		 2.87		 22.46
16:42:49	 13.83		 14.01		 13.57		 13.92		 2.87		 22.46
16:42:50	 13.86		 14.01		 13.57		 14.01		 2.87		 22.48
16:42:51	 13.83		 14.01		 13.66		 13.83		 2.87		 22.48
16:42:52	 13.80		 14.01		 13.57		 13.83		 2.87		 22.48
16:42:53	 13.75		 14.01		 13.57		 13.66		 2.89		 22.46
16:42:54	 13.86		 14.09		 13.57		 13.92		 2.89		 22.46
16:42:55	 13.80		 13.92		 13.66		 13.83		 2.89		 22.46
16:42:56	 13.80		 13.92		 13.57		 13.92		 2.89		 22.46
16:42:57	 13.83		 14.01		 13.57		 13.92		 2.91		 22.46
16:42:58	 13.86		 14.01		 13.66		 13.92		 2.91		 22.46
16:42:59	 13.83		 14.01		 13.66		 13.83		 2.91		 22.46
16:43:00	 13.89		 14.09		 13.66		 13.92		 2.91		 22.46
16:43:01	 13.24		 14.01		 11.80		 13.92		 2.91		 22.46
16:43:02	 13.83		 14.01		 13.57		 13.92		 2.89		 22.46
16:43:03	 13.86		 14.09		 13.57		 13.92		 2.87		 22.46
16:43:04	 13.80		 13.92		 13.66		 13.83		 2.87		 22.46
16:43:05	 13.77		 13.92		 13.57		 13.83		 2.87		 22.46
16:43:06	 13.86		 14.01		 13.66		 13.92		 2.87		 22.48
16:43:07	 13.83		 14.01		 13.57		 13.92		 2.86		 22.46
16:43:08	 13.83		 14.01		 13.57		 13.92		 2.84		 22.46
16:43:09	 13.86		 14.09		 13.66		 13.83		 2.84		 22.46
16:43:10	 13.89		 14.01		 13.66		 14.01		 2.84		 22.46
16:43:11	 13.83		 14.01		 13.57		 13.92		 2.84		 22.46
16:43:12	 13.80		 14.01		 13.57		 13.83		 2.84		 22.46
16:43:13	 13.80		 14.01		 13.57		 13.83		 2.84		 22.48
16:43:14	 13.74		 13.83		 13.57		 13.83		 2.84		 22.46
16:43:15	 13.89		 14.09		 13.66		 13.92		 2.84		 22.46
16:43:16	 13.83		 14.01		 13.66		 13.83		 2.84		 22.46
16:43:17	 13.83		 14.01		 13.66		 13.83		 2.83		 22.46
16:43:18	 13.86		 14.01		 13.66		 13.92		 2.81		 22.46
16:43:19	 13.98		 14.01		 14.01		 13.92		 2.79		 22.46
16:43:20	 13.86		 14.01		 13.66		 13.92		 2.79		 22.48
16:43:21	 13.83		 14.09		 13.48		 13.92		 2.78		 22.48
16:43:22	 13.83		 14.01		 13.66		 13.83		 2.79		 22.48
16:43:23	 13.89		 14.09		 13.66		 13.92		 2.79		 22.46
16:43:24	 13.86		 14.09		 13.66		 13.83		 2.78		 22.46
16:43:25	 13.89		 14.09		 13.66		 13.92		 2.78		 22.48
16:43:26	 13.92		 14.01		 13.74		 14.01		 2.79		 22.46
16:43:27	 13.83		 14.01		 13.66		 13.83		 2.79		 22.48
16:43:28	 13.86		 14.09		 13.66		 13.83		 2.79		 22.46
16:43:29	 13.83		 14.01		 13.66		 13.83		 2.81		 22.48
16:43:30	 13.80		 14.01		 13.57		 13.83		 2.81		 22.48
16:43:31	 13.89		 14.01		 13.66		 14.01		 2.81		 22.46
16:43:32	 13.83		 14.01		 13.66		 13.83		 2.81		 22.48
16:43:33	 13.89		 14.09		 13.66		 13.92		 2.81		 22.46
16:43:34	 14.21		 15.06		 13.66		 13.92		 2.81		 22.48
16:43:35	 13.89		 14.01		 13.66		 14.01		 2.81		 22.46
16:43:36	 13.86		 14.09		 13.57		 13.92		 2.81		 22.46
16:43:37	 13.92		 14.09		 13.74		 13.92		 2.81		 22.46
16:43:38	 13.86		 14.01		 13.66		 13.92		 2.79		 22.46
16:43:39	 14.59		 14.01		 15.84		 13.92		 2.79		 22.46
16:43:40	 13.80		 13.92		 13.66		 13.83		 2.79		 22.46
16:43:41	 13.86		 14.09		 13.57		 13.92		 2.81		 22.46
16:43:42	 13.77		 14.01		 13.57		 13.74		 2.79		 22.48
16:43:43	 13.80		 14.01		 13.57		 13.83		 2.79		 22.48
16:43:44	 13.83		 14.01		 13.57		 13.92		 2.81		 22.48
16:43:45	 13.83		 14.09		 13.57		 13.83		 2.83		 22.46
16:43:46	 13.92		 14.09		 13.66		 14.01		 2.83		 22.48
16:43:47	 13.83		 13.92		 13.66		 13.92		 2.84		 22.46
16:43:48	 13.77		 14.01		 13.48		 13.83		 2.86		 22.48
16:43:49	 13.86		 14.01		 13.66		 13.92		 2.86		 22.46
16:43:50	 13.86		 14.01		 13.66		 13.92		 2.87		 22.46
16:43:51	 13.80		 14.01		 13.66		 13.74		 2.87		 22.48
16:43:52	 13.83		 14.01		 13.66		 13.83		 2.87		 22.48
16:43:53	 13.86		 14.09		 13.66		 13.83		 2.89		 22.48
16:43:54	 13.89		 14.09		 13.66		 13.92		 2.89		 22.48
16:43:55	 13.89		 14.01		 13.57		 14.09		 2.91		 22.48
16:43:56	 13.83		 14.01		 13.57		 13.92		 2.91		 22.46
16:43:57	 13.83		 14.01		 13.66		 13.83		 2.91		 22.48
16:43:58	 13.80		 14.01		 13.57		 13.83		 2.89		 22.46
16:43:59	 13.83		 14.01		 13.57		 13.92		 2.89		 22.48
16:44:00	 13.86		 14.01		 13.66		 13.92		 2.89		 22.48
16:44:01	 13.86		 14.01		 13.74		 13.83		 2.89		 22.46
16:44:02	 13.80		 14.01		 13.57		 13.83		 2.89		 22.48
16:44:03	 13.86		 14.01		 13.66		 13.92		 2.91		 22.48
16:44:04	 13.83		 14.01		 13.57		 13.92		 2.91		 22.48
16:44:05	 13.83		 14.01		 13.57		 13.92		 2.91		 22.49
16:44:06	 13.86		 14.01		 13.66		 13.92		 2.92		 22.46
16:44:07	 13.89		 14.09		 13.66		 13.92		 2.92		 22.48
16:44:08	 13.86		 14.01		 13.74		 13.83		 2.91		 22.46
16:44:09	 13.86		 14.01		 13.66		 13.92		 2.91		 22.48
16:44:10	 13.83		 14.09		 13.57		 13.83		 2.91		 22.48
16:44:11	 13.83		 14.01		 13.66		 13.83		 2.92		 22.46
16:44:12	 13.89		 14.01		 13.66		 14.01		 2.92		 22.46
16:44:13	 13.83		 14.01		 13.57		 13.92		 2.92		 22.46
16:44:14	 13.83		 14.01		 13.57		 13.92		 2.94		 22.46
16:44:15	 13.86		 14.09		 13.57		 13.92		 2.92		 22.46
16:44:16	 13.86		 14.01		 13.66		 13.92		 2.92		 22.46
