Temperature and humidity log started on 30/06/2021 at 16:27:55

Time 		 Average T (C) 	 T0 (C) 	 T1 (C) 	 T2 (C) 	 RH (%) 	 HYT T (C) 
------------------------------------------------------------------------
16:27:55	 6.00		 1.00		 16.00		 1.00		 43.18		 22.72
16:27:55	 15.35		 15.40		 15.32		 15.32		 43.16		 2.72
16:27:55	 15.32		 15.40		 15.23		 15.32		 43.16		 22.72
16:27:56	 15.37		 15.40		 15.40		 15.32		 43.16		 22.74
16:27:57	 15.58		 15.40		 16.01		 15.32		 43.13		 22.74
16:27:58	 15.38		 15.49		 15.32		 15.32		 43.11		 22.74
16:27:59	 15.35		 15.49		 15.32		 15.23		 43.08		 22.75
16:28:00	 15.38		 15.49		 15.32		 15.32		 43.08		 22.74
16:28:01	 15.41		 15.58		 15.32		 15.32		 43.08		 22.75
16:28:02	 15.38		 15.49		 15.32		 15.32		 43.06		 22.75
16:28:03	 15.40		 15.49		 15.40		 15.32		 43.08		 22.76
16:28:04	 15.35		 15.40		 15.32		 15.32		 43.06		 22.76
16:28:05	 15.38		 15.49		 15.32		 15.32		 43.04		 22.76
16:28:06	 15.40		 15.49		 15.40		 15.32		 43.06		 22.75
16:28:07	 15.35		 15.40		 15.32		 15.32		 43.06		 22.76
16:28:08	 15.38		 15.49		 15.32		 15.32		 43.06		 22.75
16:28:09	 15.38		 15.49		 15.32		 15.32		 43.04		 22.78
16:28:10	 15.35		 15.49		 15.23		 15.32		 43.04		 22.78
16:28:11	 15.37		 15.40		 15.32		 15.40		 43.04		 22.76
16:28:12	 15.35		 15.40		 15.32		 15.32		 43.04		 22.76
16:28:13	 15.38		 15.49		 15.32		 15.32		 43.01		 22.76
16:28:14	 15.35		 15.49		 15.23		 15.32		 43.01		 22.76
16:28:15	 15.38		 15.49		 15.32		 15.32		 43.04		 22.76
16:28:16	 15.40		 15.49		 15.40		 15.32		 43.01		 22.76
16:28:17	 15.40		 15.49		 15.40		 15.32		 43.01		 22.78
16:28:18	 15.40		 15.49		 15.40		 15.32		 43.01		 22.75
16:28:19	 15.35		 15.40		 15.32		 15.32		 43.01		 22.75
16:28:20	 15.38		 15.49		 15.32		 15.32		 43.04		 22.75
16:28:21	 15.40		 15.49		 15.40		 15.32		 43.04		 22.76
16:28:22	 15.35		 15.49		 15.23		 15.32		 43.01		 22.76
16:28:23	 15.35		 15.40		 15.32		 15.32		 42.99		 22.76
16:28:24	 15.35		 15.40		 15.32		 15.32		 43.01		 22.76
16:28:25	 15.40		 15.49		 15.40		 15.32		 42.96		 22.75
16:28:26	 15.32		 15.40		 15.23		 15.32		 42.91		 22.75
16:28:27	 15.40		 15.49		 15.32		 15.40		 42.96		 22.74
16:28:28	 15.38		 15.49		 15.32		 15.32		 43.04		 22.74
16:28:29	 15.38		 15.49		 15.32		 15.32		 43.06		 22.74
16:28:30	 15.41		 15.58		 15.32		 15.32		 43.08		 22.74
16:28:31	 15.40		 15.49		 15.40		 15.32		 43.08		 22.74
16:28:32	 15.35		 15.49		 15.23		 15.32		 43.08		 22.74
16:28:33	 15.35		 15.49		 15.23		 15.32		 43.06		 22.75
16:28:34	 15.38		 15.49		 15.32		 15.32		 43.06		 22.74
16:28:35	 15.38		 15.49		 15.32		 15.32		 43.06		 22.74
16:28:36	 15.35		 15.40		 15.32		 15.32		 43.08		 22.72
16:28:37	 15.37		 15.49		 15.40		 15.23		 43.06		 22.71
16:28:38	 15.35		 15.40		 15.32		 15.32		 43.11		 22.72
16:28:39	 15.35		 15.49		 15.23		 15.32		 43.13		 22.72
16:28:40	 15.35		 15.40		 15.32		 15.32		 43.13		 22.72
