Temperature and humidity log started on 08/07/2021 at 15:57:39

Time 		 Average T (C) 	 T0 (C) 	 T1 (C) 	 T2 (C) 	 RH (%) 	 HYT T (C) 
------------------------------------------------------------------------
15:57:39	 12.51		 12.78		 12.33		 12.42		 52.78		 20.14
15:57:39	 12.57		 12.78		 12.33		 12.60		 52.80		 15.00
15:57:39	 12.66		 12.86		 12.33		 12.78		 52.80		 20.15
15:57:40	 12.69		 12.95		 12.33		 12.78		 52.78		 20.16
15:57:41	 12.54		 12.78		 12.24		 12.60		 52.72		 20.15
15:57:42	 12.63		 12.95		 12.33		 12.60		 52.75		 20.16
