Temperature and humidity log started on 16/07/2021 at 12:19:42

Time 		 Average T (C) 	 T0 (C) 	 T1 (C) 	 T2 (C) 	 RH (%) 	 HYT T (C) 
------------------------------------------------------------------------
12:19:42	 -33.66		 -35.08		 -32.03		 -33.88		 1.70		 19.61
12:19:43	 -33.56		 -35.50		 -31.68		 -33.49		 1.68		 1.00
12:19:44	 -33.79		 -35.50		 -32.38		 -33.49		 1.67		 19.61
12:19:45	 -34.06		 -35.93		 -32.75		 -33.49		 1.64		 19.60
12:19:46	 -33.82		 -35.50		 -31.68		 -34.27		 1.64		 19.61
12:19:47	 -33.55		 -35.08		 -31.68		 -33.88		 1.64		 19.61
12:19:48	 -33.53		 -34.67		 -32.03		 -33.88		 1.68		 19.61
12:19:49	 -34.07		 -35.50		 -32.03		 -34.67		 1.67		 19.60
12:19:49	 -33.55		 -35.50		 -32.03		 -33.11		 1.68		 19.60
12:19:50	 -33.78		 -35.08		 -32.38		 -33.88		 1.70		 19.61
12:19:51	 -33.95		 -35.93		 -32.03		 -33.88		 1.71		 19.61
12:19:52	 -33.80		 -35.50		 -32.03		 -33.88		 1.71		 19.61
12:19:53	 -33.67		 -35.50		 -32.03		 -33.49		 1.71		 19.60
12:19:54	 -34.20		 -36.36		 -32.75		 -33.49		 1.72		 19.63
12:19:55	 -33.80		 -35.50		 -32.03		 -33.88		 1.72		 19.61
12:19:56	 -33.77		 -34.67		 -32.38		 -34.27		 1.71		 19.61
12:19:57	 -33.93		 -35.50		 -32.03		 -34.27		 1.71		 19.61
12:19:58	 -33.92		 -35.50		 -32.38		 -33.88		 1.71		 19.63
12:19:58	 -33.53		 -35.08		 -32.03		 -33.49		 1.71		 19.61
12:19:59	 -33.51		 -34.67		 -32.38		 -33.49		 1.71		 19.61
12:20:00	 -33.69		 -35.50		 -31.68		 -33.88		 1.71		 19.60
12:20:01	 -33.40		 -34.67		 -32.03		 -33.49		 1.71		 19.60
12:20:02	 -34.19		 -35.93		 -32.75		 -33.88		 1.68		 19.60
12:20:03	 -33.95		 -35.93		 -32.03		 -33.88		 1.68		 19.61
12:20:04	 -33.80		 -35.50		 -32.03		 -33.88		 1.67		 19.60
12:20:05	 -34.06		 -35.93		 -32.38		 -33.88		 1.67		 19.60
12:20:06	 -33.80		 -35.50		 -32.03		 -33.88		 1.68		 19.59
12:20:07	 -34.10		 -36.36		 -31.68		 -34.27		 1.68		 19.60
12:20:07	 -33.82		 -35.93		 -32.03		 -33.49		 1.67		 19.60
12:20:08	 -33.82		 -35.93		 -32.03		 -33.49		 1.68		 19.60
12:20:09	 -34.04		 -35.50		 -32.75		 -33.88		 1.67		 19.60
12:20:10	 -34.09		 -36.36		 -32.03		 -33.88		 1.68		 19.60
12:20:11	 -33.68		 -35.08		 -31.68		 -34.27		 1.71		 19.60
12:20:12	 -34.21		 -35.93		 -32.03		 -34.67		 1.71		 19.60
12:20:13	 -33.55		 -35.50		 -32.03		 -33.11		 1.70		 19.61
12:20:14	 -33.43		 -35.50		 -31.68		 -33.11		 1.68		 19.60
12:20:15	 -33.93		 -35.93		 -32.38		 -33.49		 1.70		 19.63
12:20:16	 -34.05		 -35.50		 -32.38		 -34.27		 1.68		 19.63
12:20:17	 -33.80		 -35.50		 -32.03		 -33.88		 1.68		 19.61
12:20:18	 -34.10		 -36.36		 -31.68		 -34.27		 1.70		 19.61
12:20:19	 -33.92		 -35.50		 -32.38		 -33.88		 1.68		 19.61
12:20:20	 -33.95		 -35.93		 -32.03		 -33.88		 1.70		 19.61
12:20:21	 -34.06		 -35.93		 -32.38		 -33.88		 1.68		 19.61
12:20:22	 -34.18		 -35.50		 -32.38		 -34.67		 1.70		 19.61
12:20:23	 -34.08		 -35.93		 -32.03		 -34.27		 1.68		 19.61
12:20:24	 -33.95		 -35.93		 -32.03		 -33.88		 1.70		 19.61
12:20:25	 -33.92		 -35.50		 -32.38		 -33.88		 1.68		 19.61
12:20:26	 -33.69		 -35.50		 -31.68		 -33.88		 1.68		 19.61
12:20:27	 -34.44		 -35.50		 -32.75		 -35.08		 1.68		 19.63
12:20:28	 -33.90		 -35.08		 -32.75		 -33.88		 1.68		 19.61
12:20:29	 -33.79		 -35.08		 -32.03		 -34.27		 1.68		 19.63
12:20:30	 -33.56		 -35.50		 -31.68		 -33.49		 1.70		 19.61
12:20:31	 -34.52		 -37.27		 -32.03		 -34.27		 1.68		 19.61
12:20:32	 -34.05		 -35.50		 -32.38		 -34.27		 1.70		 19.61
12:20:33	 -33.78		 -35.08		 -32.38		 -33.88		 1.68		 19.61
12:20:34	 -34.06		 -35.93		 -32.38		 -33.88		 1.64		 19.61
12:20:35	 -33.66		 -35.50		 -32.38		 -33.11		 1.67		 19.61
12:20:36	 -33.68		 -35.08		 -31.68		 -34.27		 1.67		 19.61
12:20:37	 -33.80		 -35.50		 -32.03		 -33.88		 1.64		 19.61
12:20:38	 -33.80		 -35.50		 -32.03		 -33.88		 1.64		 19.60
12:20:39	 -34.07		 -35.50		 -32.03		 -34.67		 1.64		 19.60
12:20:40	 -34.08		 -35.93		 -32.03		 -34.27		 1.65		 19.60
12:20:41	 -33.93		 -35.50		 -32.03		 -34.27		 1.65		 19.60
12:20:42	 -34.22		 -36.36		 -32.03		 -34.27		 1.67		 19.60
12:20:43	 -33.77		 -34.67		 -32.75		 -33.88		 1.64		 19.60
12:20:44	 -34.22		 -36.36		 -32.03		 -34.27		 1.65		 19.60
12:20:45	 -34.08		 -35.93		 -32.03		 -34.27		 1.65		 19.60
12:20:46	 -34.08		 -35.93		 -32.03		 -34.27		 1.64		 19.60
12:20:47	 -34.05		 -35.50		 -32.38		 -34.27		 1.65		 19.59
12:20:48	 -33.80		 -35.50		 -32.03		 -33.88		 1.64		 19.60
12:20:49	 -34.05		 -35.50		 -32.38		 -34.27		 1.64		 19.60
12:20:50	 -33.82		 -35.93		 -32.03		 -33.49		 1.64		 19.60
12:20:51	 -33.80		 -35.50		 -32.03		 -33.88		 1.64		 19.60
12:20:52	 -33.93		 -35.50		 -32.03		 -34.27		 1.64		 19.59
12:20:53	 -34.77		 -37.27		 -32.38		 -34.67		 1.64		 19.59
12:20:54	 -33.96		 -35.93		 -31.68		 -34.27		 1.64		 19.59
12:20:55	 -33.95		 -35.93		 -32.03		 -33.88		 1.64		 19.60
12:20:56	 -33.80		 -35.50		 -32.03		 -33.88		 1.64		 19.59
12:20:57	 -33.51		 -34.27		 -32.38		 -33.88		 1.64		 19.59
12:20:58	 -33.80		 -35.50		 -32.03		 -33.88		 1.64		 19.59
12:20:59	 -34.20		 -35.50		 -32.03		 -35.08		 1.64		 19.57
12:21:00	 -34.05		 -35.50		 -32.38		 -34.27		 1.65		 19.59
12:21:01	 -34.23		 -36.81		 -32.38		 -33.49		 1.64		 19.59
12:21:02	 -34.05		 -35.50		 -32.38		 -34.27		 1.65		 19.59
12:21:03	 -33.91		 -35.50		 -32.75		 -33.49		 1.65		 19.59
12:21:04	 -33.93		 -35.50		 -32.03		 -34.27		 1.65		 19.59
12:21:05	 -34.05		 -35.50		 -32.38		 -34.27		 1.67		 19.59
12:21:06	 -33.92		 -35.50		 -32.38		 -33.88		 1.65		 19.59
12:21:07	 -33.92		 -35.50		 -32.38		 -33.88		 1.65		 19.59
12:21:08	 -34.34		 -36.36		 -32.38		 -34.27		 1.67		 19.59
12:21:09	 -34.06		 -35.93		 -32.38		 -33.88		 1.65		 19.59
12:21:10	 -34.08		 -35.93		 -32.03		 -34.27		 1.68		 19.59
12:21:11	 -34.50		 -36.81		 -32.03		 -34.67		 1.68		 19.59
12:21:12	 -34.15		 -35.08		 -33.11		 -34.27		 1.67		 19.60
12:21:13	 -33.93		 -35.50		 -32.03		 -34.27		 1.67		 19.60
12:21:14	 -33.68		 -35.08		 -31.68		 -34.27		 1.68		 19.59
12:21:15	 -34.33		 -36.36		 -32.75		 -33.88		 1.68		 19.59
12:21:16	 -33.92		 -35.50		 -32.38		 -33.88		 1.67		 19.60
12:21:17	 -34.05		 -35.50		 -32.38		 -34.27		 1.68		 19.59
12:21:18	 -33.77		 -34.67		 -32.38		 -34.27		 1.65		 19.60
12:21:19	 -34.32		 -35.93		 -32.75		 -34.27		 1.67		 19.60
12:21:20	 -33.79		 -35.50		 -32.38		 -33.49		 1.67		 19.59
12:21:21	 -33.80		 -35.50		 -32.03		 -33.88		 1.65		 19.59
12:21:22	 -34.09		 -35.93		 -31.68		 -34.67		 1.67		 19.59
12:21:23	 -33.91		 -35.50		 -32.75		 -33.49		 1.71		 19.59
12:21:24	 -34.34		 -36.36		 -32.38		 -34.27		 1.68		 19.59
12:21:25	 -33.92		 -35.50		 -32.38		 -33.88		 1.71		 19.59
12:21:26	 -34.34		 -36.36		 -32.38		 -34.27		 1.67		 19.59
12:21:27	 -33.82		 -35.93		 -32.03		 -33.49		 1.65		 19.59
12:21:28	 -34.08		 -35.93		 -32.03		 -34.27		 1.64		 19.59
12:21:29	 -34.32		 -35.93		 -32.75		 -34.27		 1.65		 19.59
12:21:30	 -34.08		 -35.93		 -32.03		 -34.27		 1.64		 19.57
12:21:31	 -33.91		 -35.08		 -32.38		 -34.27		 1.65		 19.57
12:21:32	 -34.21		 -35.93		 -32.03		 -34.67		 1.64		 19.57
12:21:33	 -34.59		 -35.93		 -32.75		 -35.08		 1.64		 19.57
12:21:34	 -34.08		 -36.36		 -32.38		 -33.49		 1.65		 19.57
12:21:35	 -34.47		 -36.36		 -32.38		 -34.67		 1.67		 19.59
12:21:36	 -34.09		 -36.36		 -32.03		 -33.88		 1.68		 19.59
12:21:37	 -34.32		 -35.50		 -32.38		 -35.08		 1.68		 19.57
12:21:38	 -34.08		 -35.93		 -32.03		 -34.27		 1.68		 19.59
12:21:39	 -34.21		 -36.36		 -32.38		 -33.88		 1.67		 19.59
12:21:40	 -34.35		 -36.36		 -32.03		 -34.67		 1.71		 19.57
12:21:41	 -34.21		 -35.93		 -32.03		 -34.67		 1.68		 19.57
12:21:42	 -34.19		 -35.93		 -32.38		 -34.27		 1.67		 19.59
12:21:43	 -34.46		 -36.36		 -32.75		 -34.27		 1.68		 19.57
12:21:44	 -34.05		 -35.50		 -32.38		 -34.27		 1.71		 19.59
12:21:45	 -34.19		 -35.93		 -32.38		 -34.27		 1.72		 19.59
12:21:46	 -34.31		 -35.50		 -32.75		 -34.67		 1.72		 19.57
12:21:47	 -34.19		 -35.93		 -32.38		 -34.27		 1.72		 19.57
12:21:48	 -34.17		 -35.50		 -32.75		 -34.27		 1.71		 19.57
12:21:49	 -34.46		 -36.36		 -32.75		 -34.27		 1.68		 19.57
12:21:50	 -34.34		 -36.36		 -32.38		 -34.27		 1.68		 19.59
12:21:51	 -34.45		 -35.93		 -32.75		 -34.67		 1.71		 19.59
12:21:52	 -34.18		 -35.50		 -32.38		 -34.67		 1.68		 19.59
12:21:53	 -34.05		 -35.50		 -32.38		 -34.27		 1.71		 19.59
12:21:54	 -34.08		 -35.93		 -32.03		 -34.27		 1.71		 19.57
12:21:55	 -33.92		 -35.50		 -32.38		 -33.88		 1.72		 19.57
12:21:56	 -34.33		 -35.93		 -32.38		 -34.67		 1.72		 19.56
12:21:57	 -34.17		 -35.50		 -32.75		 -34.27		 1.73		 19.57
12:21:58	 -34.08		 -35.93		 -32.03		 -34.27		 1.73		 19.57
12:21:59	 -34.29		 -35.50		 -33.11		 -34.27		 1.73		 19.57
12:22:00	 -34.19		 -35.93		 -32.38		 -34.27		 1.72		 19.57
12:22:01	 -33.90		 -35.08		 -32.75		 -33.88		 1.73		 19.57
12:22:02	 -34.25		 -36.81		 -31.68		 -34.27		 1.73		 19.56
12:22:03	 -33.92		 -35.50		 -32.38		 -33.88		 1.73		 19.57
12:22:04	 -34.07		 -35.50		 -32.03		 -34.67		 1.73		 19.59
12:22:05	 -34.32		 -35.93		 -32.75		 -34.27		 1.73		 19.57
12:22:06	 -34.33		 -36.36		 -32.75		 -33.88		 1.73		 19.57
12:22:07	 -33.91		 -35.08		 -32.38		 -34.27		 1.73		 19.59
12:22:08	 -34.32		 -35.93		 -32.75		 -34.27		 1.73		 19.56
12:22:09	 -34.62		 -36.81		 -32.38		 -34.67		 1.73		 19.59
12:22:10	 -34.19		 -35.93		 -32.38		 -34.27		 1.73		 19.57
12:22:11	 -34.46		 -36.36		 -32.75		 -34.27		 1.73		 19.57
12:22:12	 -34.33		 -35.93		 -32.38		 -34.67		 1.73		 19.57
12:22:13	 -34.59		 -35.93		 -32.75		 -35.08		 1.73		 19.57
12:22:14	 -34.43		 -35.50		 -33.11		 -34.67		 1.73		 19.57
12:22:15	 -34.32		 -35.93		 -32.75		 -34.27		 1.73		 19.56
12:22:16	 -34.59		 -35.93		 -32.75		 -35.08		 1.75		 19.57
12:22:17	 -34.32		 -35.93		 -32.75		 -34.27		 1.73		 19.57
12:22:18	 -34.61		 -36.36		 -32.38		 -35.08		 1.73		 19.56
12:22:19	 -34.41		 -35.08		 -33.49		 -34.67		 1.73		 19.56
12:22:20	 -34.46		 -36.36		 -32.75		 -34.27		 1.73		 19.56
12:22:21	 -34.17		 -35.08		 -32.75		 -34.67		 1.72		 19.56
12:22:22	 -34.33		 -35.93		 -32.38		 -34.67		 1.72		 19.56
12:22:23	 -34.22		 -36.36		 -32.03		 -34.27		 1.71		 19.57
12:22:24	 -34.59		 -36.36		 -32.75		 -34.67		 1.71		 19.56
12:22:25	 -34.59		 -36.36		 -32.75		 -34.67		 1.68		 19.56
12:22:26	 -34.37		 -36.81		 -32.03		 -34.27		 1.67		 19.56
12:22:27	 -34.46		 -35.93		 -32.38		 -35.08		 1.67		 19.56
12:22:28	 -34.61		 -36.81		 -32.75		 -34.27		 1.68		 19.56
12:22:29	 -34.18		 -35.50		 -32.38		 -34.67		 1.67		 19.56
12:22:30	 -34.05		 -35.50		 -32.38		 -34.27		 1.65		 19.56
12:22:31	 -34.05		 -35.50		 -32.38		 -34.27		 1.65		 19.57
12:22:32	 -34.31		 -35.50		 -32.75		 -34.67		 1.68		 19.57
12:22:33	 -34.31		 -35.50		 -32.75		 -34.67		 1.68		 19.56
12:22:34	 -34.45		 -35.93		 -32.75		 -34.67		 1.68		 19.56
12:22:35	 -34.59		 -36.36		 -32.75		 -34.67		 1.71		 19.57
12:22:36	 -34.19		 -35.93		 -32.75		 -33.88		 1.71		 19.57
12:22:37	 -34.59		 -36.36		 -32.75		 -34.67		 1.73		 19.56
12:22:38	 -34.46		 -36.36		 -32.75		 -34.27		 1.73		 19.56
12:22:39	 -34.19		 -35.93		 -32.75		 -33.88		 1.75		 19.57
12:22:40	 -34.45		 -35.93		 -32.75		 -34.67		 1.76		 19.57
12:22:41	 -34.16		 -35.50		 -33.11		 -33.88		 1.76		 19.56
12:22:42	 -34.33		 -35.93		 -32.38		 -34.67		 1.76		 19.56
12:22:43	 -34.56		 -35.93		 -33.49		 -34.27		 1.76		 19.56
12:22:44	 -34.32		 -35.50		 -32.38		 -35.08		 1.78		 19.56
12:22:45	 -34.46		 -35.93		 -32.38		 -35.08		 1.78		 19.57
12:22:46	 -34.47		 -36.36		 -32.38		 -34.67		 1.78		 19.57
12:22:47	 -34.86		 -36.81		 -33.49		 -34.27		 1.78		 19.57
12:22:48	 -34.45		 -35.93		 -32.75		 -34.67		 1.78		 19.57
12:22:49	 -34.33		 -35.93		 -32.38		 -34.67		 1.78		 19.57
12:22:50	 -34.31		 -35.50		 -32.75		 -34.67		 1.78		 19.56
12:22:51	 -34.35		 -36.36		 -32.03		 -34.67		 1.78		 19.56
12:22:52	 -34.64		 -36.81		 -32.03		 -35.08		 1.78		 19.56
12:22:53	 -34.19		 -35.93		 -32.38		 -34.27		 1.76		 19.57
12:22:54	 -34.59		 -36.36		 -32.75		 -34.67		 1.78		 19.59
12:22:55	 -34.57		 -35.93		 -33.11		 -34.67		 1.78		 19.57
12:22:56	 -34.46		 -36.36		 -32.75		 -34.27		 1.80		 19.57
12:22:57	 -34.45		 -35.93		 -32.75		 -34.67		 1.80		 19.59
12:22:58	 -33.93		 -35.50		 -32.03		 -34.27		 1.80		 19.57
12:22:59	 -34.17		 -35.50		 -32.75		 -34.27		 1.80		 19.59
12:23:00	 -34.22		 -36.36		 -32.03		 -34.27		 1.80		 19.57
12:23:01	 -34.59		 -36.36		 -32.75		 -34.67		 1.80		 19.57
12:23:02	 -34.76		 -36.81		 -32.38		 -35.08		 1.80		 19.57
12:23:03	 -34.44		 -35.93		 -33.11		 -34.27		 1.81		 19.56
12:23:04	 -34.46		 -36.36		 -32.75		 -34.27		 1.80		 19.57
12:23:05	 -34.66		 -37.27		 -32.03		 -34.67		 1.80		 19.57
12:23:06	 -34.61		 -36.36		 -32.38		 -35.08		 1.78		 19.56
12:23:07	 -34.32		 -35.93		 -32.75		 -34.27		 1.78		 19.56
12:23:08	 -34.59		 -36.36		 -32.75		 -34.67		 1.80		 19.57
12:23:09	 -34.18		 -35.50		 -32.38		 -34.67		 1.78		 19.57
12:23:10	 -34.31		 -35.50		 -32.75		 -34.67		 1.78		 19.57
12:23:11	 -34.45		 -35.93		 -32.75		 -34.67		 1.78		 19.56
12:23:12	 -34.35		 -35.93		 -32.03		 -35.08		 1.78		 19.56
12:23:13	 -34.62		 -36.81		 -32.38		 -34.67		 1.78		 19.57
12:23:14	 -34.59		 -35.93		 -32.75		 -35.08		 1.78		 19.57
12:23:15	 -34.47		 -36.36		 -32.38		 -34.67		 1.76		 19.56
12:23:16	 -34.47		 -36.36		 -32.38		 -34.67		 1.76		 19.56
12:23:17	 -34.59		 -36.36		 -32.75		 -34.67		 1.78		 19.56
12:23:18	 -34.32		 -35.93		 -32.75		 -34.27		 1.76		 19.56
12:23:19	 -34.99		 -36.81		 -33.49		 -34.67		 1.77		 19.54
12:23:20	 -34.59		 -36.36		 -32.75		 -34.67		 1.78		 19.54
12:23:21	 -34.45		 -35.93		 -32.75		 -34.67		 1.78		 19.54
12:23:22	 -34.32		 -35.93		 -32.75		 -34.27		 1.77		 19.54
12:23:23	 -33.90		 -35.08		 -32.75		 -33.88		 1.77		 19.54
12:23:24	 -34.62		 -36.81		 -32.38		 -34.67		 1.77		 19.54
12:23:25	 -34.73		 -36.36		 -32.75		 -35.08		 1.77		 19.54
12:23:26	 -35.17		 -37.74		 -33.11		 -34.67		 1.78		 19.56
12:23:27	 -34.59		 -36.36		 -32.75		 -34.67		 1.77		 19.54
12:23:28	 -35.02		 -36.81		 -32.75		 -35.50		 1.76		 19.56
12:23:29	 -34.33		 -35.93		 -32.38		 -34.67		 1.78		 19.54
12:23:30	 -34.90		 -36.81		 -32.38		 -35.50		 1.78		 19.56
12:23:31	 -34.44		 -35.93		 -33.11		 -34.27		 1.76		 19.56
12:23:32	 -34.71		 -36.36		 -33.11		 -34.67		 1.76		 19.56
12:23:33	 -34.59		 -36.36		 -32.75		 -34.67		 1.76		 19.56
12:23:34	 -34.85		 -36.36		 -33.11		 -35.08		 1.73		 19.56
12:23:35	 -34.45		 -35.93		 -32.75		 -34.67		 1.72		 19.56
12:23:36	 -34.73		 -36.81		 -33.11		 -34.27		 1.71		 19.56
12:23:37	 -34.49		 -36.81		 -32.38		 -34.27		 1.68		 19.56
12:23:38	 -34.33		 -35.93		 -32.38		 -34.67		 1.71		 19.56
12:23:39	 -34.19		 -35.93		 -32.38		 -34.27		 1.68		 19.56
12:23:40	 -34.73		 -36.36		 -32.75		 -35.08		 1.68		 19.56
12:23:41	 -34.87		 -36.36		 -32.75		 -35.50		 1.68		 19.56
12:23:42	 -34.45		 -35.93		 -32.75		 -34.67		 1.68		 19.56
12:23:43	 -34.73		 -36.36		 -32.75		 -35.08		 1.67		 19.56
12:23:44	 -34.29		 -35.50		 -33.11		 -34.27		 1.70		 19.54
12:23:45	 -34.58		 -36.36		 -33.11		 -34.27		 1.71		 19.56
12:23:46	 -34.32		 -35.93		 -32.75		 -34.27		 1.70		 19.54
12:23:47	 -34.61		 -36.81		 -32.75		 -34.27		 1.70		 19.54
12:23:48	 -33.92		 -35.50		 -32.38		 -33.88		 1.70		 19.54
12:23:49	 -34.46		 -36.36		 -32.75		 -34.27		 1.67		 19.56
12:23:50	 -34.49		 -36.81		 -32.38		 -34.27		 1.67		 19.54
12:23:51	 -34.46		 -36.36		 -32.75		 -34.27		 1.70		 19.54
12:23:52	 -34.43		 -35.50		 -33.11		 -34.67		 1.68		 19.54
12:23:53	 -34.34		 -36.36		 -32.38		 -34.27		 1.71		 19.56
12:23:54	 -34.33		 -35.93		 -32.38		 -34.67		 1.71		 19.54
12:23:55	 -34.71		 -36.36		 -33.11		 -34.67		 1.72		 19.56
12:23:56	 -34.29		 -35.50		 -33.11		 -34.27		 1.71		 19.54
12:23:57	 -34.73		 -36.36		 -32.75		 -35.08		 1.71		 19.56
12:23:58	 -34.62		 -36.81		 -32.38		 -34.67		 1.68		 19.56
12:23:59	 -34.33		 -35.93		 -32.38		 -34.67		 1.68		 19.54
12:24:00	 -34.61		 -36.81		 -32.75		 -34.27		 1.68		 19.54
12:24:01	 -34.59		 -36.36		 -32.75		 -34.67		 1.68		 19.54
12:24:02	 -35.17		 -37.74		 -33.11		 -34.67		 1.68		 19.54
12:24:03	 -34.46		 -36.36		 -32.75		 -34.27		 1.68		 19.52
12:24:04	 -34.74		 -36.81		 -32.75		 -34.67		 1.68		 19.52
12:24:05	 -34.44		 -35.50		 -32.75		 -35.08		 1.68		 19.52
12:24:06	 -34.70		 -35.93		 -33.49		 -34.67		 1.71		 19.52
12:24:07	 -34.46		 -35.93		 -32.38		 -35.08		 1.71		 19.52
12:24:08	 -34.04		 -35.08		 -32.38		 -34.67		 1.67		 19.51
12:24:09	 -34.46		 -36.36		 -32.75		 -34.27		 1.70		 19.52
12:24:10	 -34.71		 -36.36		 -33.11		 -34.67		 1.70		 19.52
12:24:11	 -34.86		 -36.81		 -33.11		 -34.67		 1.67		 19.51
12:24:12	 -34.87		 -36.36		 -32.75		 -35.50		 1.65		 19.51
12:24:13	 -34.76		 -36.81		 -32.38		 -35.08		 1.65		 19.51
12:24:14	 -34.44		 -35.93		 -33.11		 -34.27		 1.64		 19.51
12:24:15	 -35.02		 -36.81		 -32.75		 -35.50		 1.65		 19.51
12:24:16	 -34.59		 -36.36		 -32.75		 -34.67		 1.64		 19.51
12:24:17	 -34.29		 -35.50		 -33.11		 -34.27		 1.67		 19.51
12:24:18	 -34.45		 -36.36		 -33.11		 -33.88		 1.67		 19.51
12:24:19	 -34.46		 -35.93		 -32.38		 -35.08		 1.68		 19.51
12:24:20	 -34.90		 -36.81		 -32.38		 -35.50		 1.68		 19.49
12:24:21	 -34.31		 -35.50		 -32.75		 -34.67		 1.71		 19.51
12:24:22	 -34.21		 -35.93		 -32.03		 -34.67		 1.72		 19.51
12:24:23	 -34.71		 -36.36		 -33.11		 -34.67		 1.73		 19.49
12:24:24	 -34.87		 -36.36		 -32.75		 -35.50		 1.72		 19.49
12:24:25	 -34.98		 -36.36		 -33.49		 -35.08		 1.71		 19.48
12:24:26	 -34.77		 -37.27		 -32.38		 -34.67		 1.71		 19.49
12:24:27	 -35.15		 -37.27		 -33.11		 -35.08		 1.67		 19.49
12:24:28	 -34.76		 -36.81		 -32.38		 -35.08		 1.68		 19.49
12:24:29	 -34.44		 -35.93		 -33.11		 -34.27		 1.65		 19.49
12:24:30	 -34.57		 -35.93		 -33.11		 -34.67		 1.67		 19.49
12:24:31	 -34.59		 -36.36		 -32.75		 -34.67		 1.67		 19.49
12:24:32	 -34.87		 -35.50		 -32.75		 -36.36		 1.67		 19.49
12:24:33	 -34.85		 -35.93		 -33.11		 -35.50		 1.68		 19.49
12:24:34	 -34.48		 -36.81		 -32.75		 -33.88		 1.68		 19.49
12:24:35	 -34.44		 -35.50		 -32.75		 -35.08		 1.67		 19.48
12:24:36	 -34.06		 -35.93		 -32.38		 -33.88		 1.68		 19.49
12:24:37	 -34.85		 -35.93		 -33.11		 -35.50		 1.67		 19.49
12:24:38	 -34.86		 -36.81		 -33.11		 -34.67		 1.68		 19.49
12:24:39	 -34.32		 -35.93		 -32.75		 -34.27		 1.68		 19.49
12:24:40	 -34.61		 -36.36		 -32.38		 -35.08		 1.68		 19.48
12:24:41	 -34.73		 -36.36		 -32.75		 -35.08		 1.68		 19.49
12:24:42	 -35.13		 -35.93		 -33.11		 -36.36		 1.68		 19.49
12:24:43	 -34.88		 -36.81		 -32.75		 -35.08		 1.67		 19.49
12:24:44	 -34.19		 -35.93		 -32.38		 -34.27		 1.67		 19.51
12:24:45	 -34.46		 -36.36		 -32.75		 -34.27		 1.67		 19.49
12:24:46	 -34.61		 -36.36		 -32.38		 -35.08		 1.67		 19.49
12:24:47	 -34.57		 -35.93		 -33.11		 -34.67		 1.68		 19.49
12:24:48	 -34.57		 -35.93		 -33.11		 -34.67		 1.68		 19.51
12:24:49	 -34.56		 -35.93		 -33.49		 -34.27		 1.68		 19.49
12:24:50	 -34.70		 -35.93		 -33.49		 -34.67		 1.68		 19.49
12:24:51	 -34.56		 -35.50		 -33.11		 -35.08		 1.67		 19.49
12:24:52	 -34.86		 -36.81		 -33.11		 -34.67		 1.67		 19.49
12:24:53	 -34.59		 -36.36		 -32.75		 -34.67		 1.71		 19.49
12:24:54	 -34.86		 -36.81		 -33.11		 -34.67		 1.71		 19.49
12:24:55	 -34.73		 -36.36		 -32.75		 -35.08		 1.72		 19.49
12:24:56	 -34.71		 -36.36		 -33.11		 -34.67		 1.72		 19.49
12:24:57	 -34.59		 -36.36		 -32.75		 -34.67		 1.72		 19.49
12:24:58	 -34.91		 -37.27		 -32.38		 -35.08		 1.73		 19.49
12:24:59	 -34.47		 -36.36		 -32.38		 -34.67		 1.73		 19.49
12:25:00	 -34.20		 -35.50		 -32.03		 -35.08		 1.72		 19.49
12:25:01	 -35.44		 -37.74		 -33.49		 -35.08		 1.68		 19.49
12:25:02	 -34.73		 -36.81		 -33.11		 -34.27		 1.67		 19.49
12:25:03	 -34.86		 -36.81		 -33.11		 -34.67		 1.67		 19.48
12:25:04	 -34.45		 -35.93		 -32.75		 -34.67		 1.68		 19.48
12:25:05	 -34.43		 -35.50		 -33.11		 -34.67		 1.71		 19.51
12:25:06	 -34.46		 -36.36		 -32.75		 -34.27		 1.71		 19.48
12:25:07	 -34.46		 -36.36		 -32.75		 -34.27		 1.71		 19.48
12:25:08	 -35.00		 -36.81		 -33.11		 -35.08		 1.71		 19.49
12:25:09	 -34.85		 -36.36		 -33.11		 -35.08		 1.71		 19.49
12:25:10	 -34.71		 -35.93		 -33.11		 -35.08		 1.68		 19.49
12:25:11	 -34.46		 -35.93		 -32.38		 -35.08		 1.67		 19.49
12:25:12	 -34.71		 -35.93		 -33.11		 -35.08		 1.67		 19.49
12:25:13	 -34.71		 -36.36		 -33.11		 -34.67		 1.67		 19.49
12:25:14	 -34.19		 -35.93		 -32.38		 -34.27		 1.67		 19.49
12:25:15	 -34.64		 -37.27		 -32.38		 -34.27		 1.64		 19.49
12:25:16	 -34.76		 -36.81		 -32.38		 -35.08		 1.64		 19.49
12:25:17	 -34.07		 -35.50		 -32.03		 -34.67		 1.64		 19.49
12:25:18	 -34.86		 -36.81		 -33.49		 -34.27		 1.64		 19.49
12:25:19	 -34.71		 -36.36		 -33.11		 -34.67		 1.63		 19.49
12:25:20	 -34.32		 -35.93		 -32.75		 -34.27		 1.63		 19.48
12:25:21	 -34.76		 -36.81		 -32.38		 -35.08		 1.63		 19.49
12:25:22	 -34.61		 -36.36		 -32.38		 -35.08		 1.63		 19.49
12:25:23	 -34.70		 -35.93		 -33.49		 -34.67		 1.63		 19.51
12:25:24	 -35.03		 -37.27		 -32.75		 -35.08		 1.63		 19.49
12:25:25	 -34.76		 -36.81		 -32.38		 -35.08		 1.63		 19.48
12:25:26	 -34.46		 -36.36		 -32.75		 -34.27		 1.63		 19.49
12:25:27	 -34.86		 -36.81		 -33.11		 -34.67		 1.63		 19.49
12:25:28	 -34.32		 -35.93		 -32.75		 -34.27		 1.61		 19.49
12:25:29	 -34.47		 -36.36		 -32.38		 -34.67		 1.61		 19.49
12:25:30	 -34.85		 -35.93		 -33.11		 -35.50		 1.61		 19.51
12:25:31	 -35.02		 -36.81		 -32.75		 -35.50		 1.61		 19.49
12:25:32	 -34.86		 -36.81		 -33.11		 -34.67		 1.61		 19.49
12:25:33	 -34.59		 -35.93		 -32.75		 -35.08		 1.61		 19.48
12:25:34	 -34.75		 -36.36		 -32.38		 -35.50		 1.63		 19.49
12:25:35	 -34.76		 -36.81		 -32.38		 -35.08		 1.61		 19.49
12:25:36	 -35.17		 -37.27		 -32.75		 -35.50		 1.61		 19.49
12:25:37	 -34.57		 -35.93		 -33.11		 -34.67		 1.63		 19.49
12:25:38	 -34.59		 -35.93		 -32.75		 -35.08		 1.63		 19.49
12:25:39	 -34.71		 -35.93		 -33.11		 -35.08		 1.64		 19.49
12:25:40	 -34.70		 -35.93		 -33.49		 -34.67		 1.64		 19.51
12:25:41	 -35.02		 -37.27		 -33.11		 -34.67		 1.64		 19.51
12:25:42	 -34.45		 -35.93		 -32.75		 -34.67		 1.64		 19.49
12:25:43	 -34.97		 -36.36		 -33.88		 -34.67		 1.65		 19.48
12:25:44	 -34.73		 -36.81		 -33.11		 -34.27		 1.67		 19.49
