Temperature and humidity log started on 08/07/2021 at 15:50:52

Time 		 Average T (C) 	 T0 (C) 	 T1 (C) 	 T2 (C) 	 RH (%) 	 HYT T (C) 
------------------------------------------------------------------------
15:50:52	 -5.88		 -5.84		 -6.08		 -5.71		 36.29		 20.79
15:50:52	 -5.75		 -5.71		 -5.84		 -5.71		 36.41		 20.79
15:50:53	 -5.80		 -5.71		 -5.84		 -5.84		 36.48		 20.79
15:50:54	 -5.75		 -5.71		 -5.84		 -5.71		 36.46		 20.81
15:50:55	 -5.63		 -5.47		 -5.84		 -5.59		 36.43		 20.78
15:50:56	 -5.43		 -5.35		 -5.59		 -5.35		 36.38		 20.79
15:50:56	 -5.35		 -5.35		 -5.47		 -5.22		 36.31		 20.78
15:50:57	 -5.31		 -5.10		 -5.47		 -5.35		 36.31		 20.77
15:50:58	 -5.35		 -5.22		 -5.47		 -5.35		 36.36		 20.77
15:50:59	 -5.14		 -5.10		 -5.35		 -4.98		 36.46		 20.75
15:51:00	 -5.06		 -5.10		 -5.10		 -4.98		 36.51		 20.75
