Temperature and humidity log started on 07/07/2021 at 15:38:27

Time 		 Average T (C) 	 T0 (C) 	 T1 (C) 	 T2 (C) 	 RH (%) 	 HYT T (C) 
------------------------------------------------------------------------
15:38:27	 -5.06		 -5.22		 -4.98		 -4.98		 0.92		 5.00
15:38:27	 -4.98		 -4.98		 -4.98		 -4.98		 0.89		 18.87
15:38:27	 -5.10		 -5.22		 -4.98		 -5.10		 0.81		 18.88
15:38:28	 -5.02		 -5.10		 -4.98		 -4.98		 0.74		 18.88
15:38:29	 -5.02		 -5.10		 -4.98		 -4.98		 0.71		 18.88
15:38:30	 -5.10		 -5.22		 -4.98		 -5.10		 0.66		 18.89
15:38:31	 -5.14		 -5.10		 -5.10		 -5.22		 0.65		 18.91
15:38:32	 -5.10		 -5.10		 -5.10		 -5.10		 0.67		 18.91
15:38:33	 -5.18		 -5.10		 -5.10		 -5.35		 0.74		 18.91
15:38:34	 -5.26		 -5.35		 -5.22		 -5.22		 0.87		 18.92
15:38:35	 -5.14		 -5.35		 -4.86		 -5.22		 1.03		 18.92
15:38:36	 -5.31		 -5.35		 -5.22		 -5.35		 1.21		 18.92
15:38:37	 -5.22		 -5.35		 -5.22		 -5.10		 1.36		 18.93
15:38:38	 -5.39		 -5.47		 -5.22		 -5.47		 1.49		 18.92
15:38:39	 -5.35		 -5.35		 -5.35		 -5.35		 1.58		 18.93
15:38:40	 -5.43		 -5.59		 -5.35		 -5.35		 1.72		 18.93
15:38:41	 -5.51		 -5.71		 -5.47		 -5.35		 1.82		 18.93
15:38:42	 -5.30		 -5.47		 -5.22		 -5.22		 1.97		 18.95
15:38:43	 -5.43		 -5.47		 -5.35		 -5.47		 2.06		 18.93
15:38:44	 -5.51		 -5.71		 -5.35		 -5.47		 2.19		 18.93
15:38:45	 -5.47		 -5.35		 -5.47		 -5.59		 2.28		 18.95
15:38:46	 -5.55		 -5.59		 -5.47		 -5.59		 2.37		 18.95
15:38:47	 -5.47		 -5.59		 -5.47		 -5.35		 2.44		 18.95
15:38:48	 -5.71		 -5.84		 -5.59		 -5.71		 2.50		 18.95
15:38:49	 -5.72		 -5.84		 -5.47		 -5.84		 2.53		 18.95
15:38:50	 -5.59		 -5.59		 -5.59		 -5.59		 2.54		 18.95
15:38:51	 -5.67		 -5.84		 -5.59		 -5.59		 2.55		 18.95
15:38:52	 -5.71		 -5.84		 -5.59		 -5.71		 2.58		 18.95
15:38:53	 -5.75		 -5.84		 -5.71		 -5.71		 2.55		 18.95
15:38:54	 -5.59		 -5.71		 -5.59		 -5.47		 2.54		 18.95
15:38:55	 -5.80		 -5.96		 -5.59		 -5.84		 2.50		 18.95
15:38:56	 -5.71		 -5.84		 -5.59		 -5.71		 2.46		 18.95
15:38:57	 -5.67		 -5.84		 -5.59		 -5.59		 2.47		 18.95
15:38:58	 -5.80		 -5.84		 -5.71		 -5.84		 2.47		 18.95
15:38:59	 -5.84		 -5.96		 -5.84		 -5.71		 2.47		 18.93
15:39:00	 -5.92		 -6.08		 -5.84		 -5.84		 2.47		 18.95
15:39:01	 -5.84		 -5.84		 -5.84		 -5.84		 2.51		 18.93
15:39:02	 -5.88		 -5.96		 -5.84		 -5.84		 2.53		 18.93
15:39:03	 -5.96		 -6.08		 -5.71		 -6.08		 2.53		 18.93
15:39:04	 -5.96		 -6.08		 -5.84		 -5.96		 2.54		 18.95
15:39:05	 -5.88		 -5.84		 -5.96		 -5.84		 2.51		 18.95
15:39:06	 -5.96		 -6.21		 -5.71		 -5.96		 2.47		 18.93
15:39:07	 -6.04		 -6.21		 -5.96		 -5.96		 2.44		 18.95
15:39:08	 -6.00		 -6.08		 -5.96		 -5.96		 2.38		 18.95
15:39:09	 -6.04		 -6.08		 -5.96		 -6.08		 2.37		 18.95
15:39:10	 -5.96		 -6.08		 -5.84		 -5.96		 2.37		 18.95
15:39:11	 -6.00		 -6.21		 -5.84		 -5.96		 2.44		 18.95
15:39:12	 -6.12		 -6.21		 -6.08		 -6.08		 2.47		 18.95
15:39:13	 -6.08		 -6.21		 -5.96		 -6.08		 2.47		 18.95
15:39:14	 -6.17		 -6.21		 -6.08		 -6.21		 2.50		 18.93
15:39:15	 -6.17		 -6.21		 -6.08		 -6.21		 2.51		 18.95
15:39:16	 -6.17		 -6.21		 -5.96		 -6.33		 2.53		 18.95
15:39:17	 -6.13		 -6.33		 -6.21		 -5.84		 2.53		 18.95
15:39:18	 -6.25		 -6.33		 -6.21		 -6.21		 2.53		 18.95
15:39:19	 -6.29		 -6.33		 -6.08		 -6.46		 2.54		 18.95
15:39:20	 -6.25		 -6.33		 -6.21		 -6.21		 2.51		 18.95
15:39:21	 -6.29		 -6.46		 -6.21		 -6.21		 2.50		 18.95
15:39:22	 -6.29		 -6.46		 -6.21		 -6.21		 2.50		 18.95
15:39:23	 -6.33		 -6.46		 -6.21		 -6.33		 2.51		 18.95
15:39:24	 -6.29		 -6.46		 -6.21		 -6.21		 2.51		 18.95
15:39:25	 -6.29		 -6.46		 -6.21		 -6.21		 2.54		 18.95
15:39:26	 -6.29		 -6.33		 -6.08		 -6.46		 2.54		 18.95
15:39:27	 -6.29		 -6.46		 -6.21		 -6.21		 2.53		 18.95
15:39:28	 -6.33		 -6.58		 -6.21		 -6.21		 2.51		 18.95
15:39:29	 -6.37		 -6.46		 -6.33		 -6.33		 2.46		 18.93
15:39:30	 -6.29		 -6.33		 -6.21		 -6.33		 2.39		 18.95
15:39:31	 -6.29		 -6.46		 -6.21		 -6.21		 2.37		 18.95
15:39:32	 -6.42		 -6.46		 -6.33		 -6.46		 2.36		 18.95
15:39:33	 -6.42		 -6.46		 -6.33		 -6.46		 2.32		 18.93
15:39:34	 -6.33		 -6.46		 -6.21		 -6.33		 2.36		 18.93
15:39:35	 -6.37		 -6.58		 -6.21		 -6.33		 2.37		 18.93
15:39:36	 -6.42		 -6.46		 -6.21		 -6.58		 2.39		 18.93
15:39:37	 -6.46		 -6.58		 -6.46		 -6.33		 2.42		 18.93
15:39:38	 -6.42		 -6.33		 -6.46		 -6.46		 2.45		 18.93
15:39:39	 -6.54		 -6.58		 -6.33		 -6.71		 2.44		 18.93
15:39:40	 -6.46		 -6.46		 -6.46		 -6.46		 2.45		 18.93
15:39:41	 -6.63		 -6.84		 -6.46		 -6.58		 2.47		 18.93
15:39:42	 -6.50		 -6.58		 -6.33		 -6.58		 2.47		 18.93
15:39:43	 -6.50		 -6.58		 -6.46		 -6.46		 2.46		 18.93
15:39:44	 -6.50		 -6.71		 -6.33		 -6.46		 2.45		 18.93
15:39:45	 -6.67		 -6.84		 -6.46		 -6.71		 2.44		 18.95
15:39:46	 -6.58		 -6.71		 -6.58		 -6.46		 2.39		 18.93
15:39:47	 -6.54		 -6.58		 -6.46		 -6.58		 2.44		 18.95
15:39:48	 -6.63		 -6.71		 -6.46		 -6.71		 2.45		 18.95
15:39:49	 -6.54		 -6.58		 -6.46		 -6.58		 2.46		 18.93
15:39:50	 -6.54		 -6.58		 -6.58		 -6.46		 2.47		 18.93
15:39:51	 -6.62		 -6.71		 -6.58		 -6.58		 2.47		 18.93
15:39:52	 -6.67		 -6.71		 -6.58		 -6.71		 2.47		 18.93
15:39:53	 -6.54		 -6.71		 -6.46		 -6.46		 2.46		 18.95
15:39:54	 -6.75		 -6.71		 -6.71		 -6.84		 2.42		 18.93
15:39:55	 -6.75		 -6.71		 -6.84		 -6.71		 2.38		 18.93
15:39:56	 -6.67		 -6.71		 -6.58		 -6.71		 2.37		 18.93
15:39:57	 -6.71		 -6.84		 -6.46		 -6.84		 2.39		 18.93
15:39:58	 -6.62		 -6.71		 -6.58		 -6.58		 2.44		 18.93
15:39:59	 -6.62		 -6.71		 -6.58		 -6.58		 2.50		 18.95
15:40:00	 -6.67		 -6.84		 -6.58		 -6.58		 2.51		 16.71
15:40:01	 -6.75		 -6.84		 -6.58		 -6.84		 2.54		 18.93
15:40:02	 -6.67		 -6.71		 -6.71		 -6.58		 2.53		 18.93
15:40:03	 -6.75		 -6.96		 -6.58		 -6.71		 2.53		 18.93
15:40:04	 -6.71		 -6.71		 -6.84		 -6.58		 2.51		 18.93
15:40:05	 -6.75		 -6.84		 -6.58		 -6.84		 2.50		 18.93
15:40:06	 -6.84		 -6.84		 -6.71		 -6.96		 2.46		 18.93
15:40:07	 -7.09		 -6.96		 -7.48		 -6.84		 2.45		 18.92
15:40:08	 -6.71		 -6.84		 -6.58		 -6.71		 2.46		 18.92
15:40:09	 -6.75		 -6.71		 -6.71		 -6.84		 2.51		 18.92
15:40:10	 -6.80		 -6.84		 -6.71		 -6.84		 2.53		 18.93
15:40:11	 -6.88		 -7.09		 -6.71		 -6.84		 2.51		 18.92
15:40:12	 -6.88		 -7.09		 -6.84		 -6.71		 2.50		 18.92
15:40:13	 -6.88		 -6.84		 -6.96		 -6.84		 2.47		 18.92
15:40:14	 -6.75		 -6.84		 -6.58		 -6.84		 2.50		 18.92
15:40:15	 -6.75		 -6.96		 -6.58		 -6.71		 2.54		 18.92
15:40:16	 -6.84		 -6.71		 -6.84		 -6.96		 2.54		 18.92
15:40:17	 -6.84		 -6.84		 -6.71		 -6.96		 2.53		 18.92
15:40:18	 -6.83		 -6.96		 -6.58		 -6.96		 2.53		 18.92
15:40:19	 -6.88		 -6.96		 -6.71		 -6.96		 2.54		 18.92
15:40:20	 -6.80		 -6.84		 -6.71		 -6.84		 2.54		 18.92
15:40:21	 -6.80		 -6.84		 -6.71		 -6.84		 2.50		 18.92
15:40:22	 -6.83		 -6.96		 -6.58		 -6.96		 2.44		 18.92
15:40:23	 -6.80		 -6.84		 -6.71		 -6.84		 2.39		 18.91
15:40:24	 -6.88		 -7.09		 -6.71		 -6.84		 2.44		 18.92
15:40:25	 -6.92		 -6.96		 -6.84		 -6.96		 2.46		 18.93
15:40:27	 -6.88		 -6.96		 -6.84		 -6.84		 2.47		 18.92
15:40:28	 -6.96		 -7.09		 -6.96		 -6.84		 2.46		 18.92
15:40:29	 -6.88		 -6.84		 -6.84		 -6.96		 2.42		 18.91
15:40:30	 -6.88		 -6.96		 -6.58		 -7.09		 2.42		 18.93
15:40:31	 -6.88		 -6.96		 -6.84		 -6.84		 2.42		 18.92
15:40:32	 -6.96		 -6.96		 -6.96		 -6.96		 2.46		 18.91
15:40:33	 -6.96		 -6.96		 -6.96		 -6.96		 99.99		 -40.01
15:40:34	 -6.88		 -6.96		 -6.84		 -6.84		 2.53		 18.92
15:40:35	 -6.96		 -7.09		 -6.96		 -6.84		 2.56		 18.92
15:40:36	 -6.96		 -7.09		 -6.84		 -6.96		 2.58		 18.93
15:40:37	 -6.92		 -6.96		 -6.84		 -6.96		 2.59		 18.87
15:40:38	 -6.96		 -6.96		 -6.84		 -7.09		 2.59		 18.91
15:40:39	 -7.00		 -6.96		 -6.96		 -7.09		 2.63		 18.92
15:40:40	 -6.96		 -7.09		 -6.84		 -6.96		 2.64		 18.92
15:40:41	 -7.01		 -7.22		 -6.84		 -6.96		 2.66		 18.91
15:40:42	 -6.92		 -7.09		 -6.84		 -6.84		 2.64		 18.91
15:40:43	 -6.96		 -6.96		 -6.96		 -6.96		 2.63		 18.91
15:40:44	 -6.92		 -7.09		 -6.84		 -6.84		 2.63		 18.91
15:40:45	 -7.05		 -7.22		 -6.84		 -7.09		 2.62		 16.71
15:40:46	 -6.88		 -6.96		 -6.96		 -6.71		 2.59		 18.91
15:40:47	 -7.39		 -7.22		 -6.96		 -8.00		 2.59		 18.91
15:40:48	 -6.92		 -6.96		 -6.96		 -6.84		 2.59		 18.91
15:40:49	 -7.09		 -7.09		 -6.96		 -7.22		 2.63		 18.91
15:40:50	 -7.00		 -7.09		 -6.96		 -6.96		 2.63		 18.89
15:40:51	 -7.00		 -7.09		 -6.96		 -6.96		 2.66		 18.91
15:40:52	 -7.00		 -6.96		 -6.96		 -7.09		 2.70		 18.91
15:40:53	 -7.05		 -7.22		 -6.84		 -7.09		 2.72		 18.91
15:40:54	 -7.00		 -7.09		 -6.96		 -6.96		 2.73		 18.91
15:40:55	 -7.05		 -7.22		 -6.96		 -6.96		 2.75		 18.91
15:40:56	 -7.05		 -7.09		 -6.96		 -7.09		 2.73		 18.92
15:40:57	 -6.96		 -7.09		 -6.84		 -6.96		 2.73		 18.91
15:40:58	 -6.96		 -7.09		 -6.84		 -6.96		 2.73		 18.91
15:40:59	 -7.13		 -7.22		 -7.09		 -7.09		 2.72		 18.92
15:41:00	 -7.09		 -7.22		 -6.84		 -7.22		 2.72		 18.92
15:41:01	 -7.13		 -7.22		 -7.09		 -7.09		 2.66		 18.92
15:41:02	 -7.05		 -7.22		 -6.96		 -6.96		 2.59		 18.92
15:41:03	 -7.05		 -7.22		 -6.96		 -6.96		 2.55		 18.91
15:41:04	 -7.09		 -7.22		 -7.09		 -6.96		 2.54		 18.91
15:41:05	 -7.35		 -7.22		 -7.74		 -7.09		 2.54		 18.92
15:41:06	 -7.22		 -7.35		 -7.22		 -7.09		 2.55		 18.92
15:41:07	 -6.92		 -7.09		 -6.71		 -6.96		 2.58		 18.91
15:41:08	 -7.13		 -7.22		 -7.09		 -7.09		 2.59		 18.91
15:41:09	 -7.01		 -7.09		 -6.84		 -7.09		 2.62		 18.91
15:41:10	 -7.09		 -7.09		 -6.96		 -7.22		 2.56		 18.91
15:41:11	 -7.05		 -7.09		 -6.96		 -7.09		 2.55		 18.91
15:41:12	 -6.92		 -6.46		 -6.96		 -7.35		 2.50		 18.91
15:41:13	 -7.09		 -7.22		 -6.96		 -7.09		 2.46		 18.91
15:41:14	 -7.01		 -7.22		 -6.96		 -6.84		 2.42		 18.91
15:41:15	 -7.13		 -7.22		 -7.09		 -7.09		 2.42		 18.91
15:41:16	 -7.09		 -7.09		 -6.96		 -7.22		 2.45		 18.92
15:41:17	 -7.13		 -7.09		 -7.22		 -7.09		 2.44		 18.91
15:41:18	 -7.05		 -7.22		 -6.96		 -6.96		 2.44		 18.91
15:41:19	 -7.13		 -7.22		 -6.96		 -7.22		 2.40		 18.89
15:41:20	 -7.18		 -7.22		 -7.09		 -7.22		 2.39		 18.91
15:41:21	 -7.13		 -7.22		 -6.96		 -7.22		 2.38		 18.91
15:41:22	 -7.09		 -7.22		 -6.96		 -7.09		 2.38		 18.91
15:41:23	 -7.13		 -7.22		 -7.09		 -7.09		 2.39		 18.91
15:41:24	 -7.09		 -7.22		 -6.96		 -7.09		 2.42		 18.89
15:41:25	 -7.13		 -7.09		 -7.09		 -7.22		 99.99		 -40.01
15:41:26	 -6.92		 -6.96		 -6.84		 -6.96		 2.51		 18.89
15:41:27	 -7.05		 -7.09		 -6.96		 -7.09		 2.55		 18.91
15:41:28	 -7.09		 -7.09		 -7.09		 -7.09		 2.55		 18.91
15:41:29	 -7.13		 -7.35		 -7.09		 -6.96		 2.50		 18.91
15:41:30	 -7.09		 -7.09		 -7.09		 -7.09		 2.48		 18.91
15:41:31	 -7.13		 -7.35		 -7.09		 -6.96		 2.47		 18.89
15:41:32	 -7.09		 -7.35		 -6.96		 -6.96		 2.44		 18.91
15:41:33	 -7.13		 -7.35		 -7.09		 -6.96		 2.42		 18.89
15:41:34	 -7.13		 -7.22		 -7.09		 -7.09		 2.42		 18.89
15:41:35	 -7.18		 -7.22		 -7.09		 -7.22		 2.44		 18.91
15:41:36	 -7.13		 -7.22		 -7.09		 -7.09		 2.44		 18.91
15:41:37	 -7.13		 -7.22		 -7.22		 -6.96		 2.44		 18.89
15:41:38	 -7.13		 -7.22		 -7.09		 -7.09		 2.48		 18.91
15:41:39	 -7.13		 -7.09		 -7.09		 -7.22		 2.58		 18.91
15:41:40	 -7.18		 -7.22		 -7.09		 -7.22		 2.63		 18.91
15:41:41	 -7.26		 -7.22		 -7.22		 -7.35		 99.99		 -40.01
15:41:42	 -7.09		 -7.22		 -6.96		 -7.09		 2.66		 18.91
15:41:43	 -7.22		 -7.35		 -7.09		 -7.22		 2.62		 18.92
15:41:44	 -7.26		 -7.61		 -7.09		 -7.09		 2.62		 18.91
15:41:45	 -7.22		 -7.48		 -6.96		 -7.22		 2.59		 18.91
15:41:46	 -7.22		 -7.22		 -7.09		 -7.35		 2.59		 18.89
15:41:47	 -7.18		 -7.35		 -6.96		 -7.22		 2.59		 18.89
15:41:48	 -7.31		 -7.35		 -7.09		 -7.48		 2.56		 18.91
15:41:49	 -7.13		 -7.22		 -7.09		 -7.09		 2.54		 -40.01
15:41:50	 -7.26		 -7.35		 -7.09		 -7.35		 2.50		 18.89
15:41:51	 -7.09		 -7.22		 -6.96		 -7.09		 2.50		 18.89
15:41:52	 -7.13		 -7.22		 -6.96		 -7.22		 2.51		 18.89
15:41:53	 -7.22		 -7.35		 -7.22		 -7.09		 2.58		 18.89
15:41:54	 -7.22		 -7.22		 -7.22		 -7.22		 2.62		 18.89
15:41:55	 -7.18		 -7.35		 -6.96		 -7.22		 2.63		 18.89
15:41:56	 -7.05		 -7.09		 -7.22		 -6.84		 2.59		 18.89
15:41:57	 -7.26		 -7.22		 -7.22		 -7.35		 2.59		 18.91
15:41:58	 -7.18		 -7.22		 -7.09		 -7.22		 2.58		 18.91
15:41:59	 -7.18		 -7.35		 -6.96		 -7.22		 2.59		 18.91
15:42:00	 -7.13		 -7.35		 -7.09		 -6.96		 2.63		 18.91
15:42:01	 -7.05		 -7.22		 -6.96		 -6.96		 2.64		 124.99
15:42:02	 -7.18		 -7.09		 -7.09		 -7.35		 2.64		 18.91
15:42:03	 -7.13		 -7.22		 -7.09		 -7.09		 2.62		 18.89
15:42:04	 -7.13		 -7.35		 -7.09		 -6.96		 2.59		 18.89
15:42:05	 -7.22		 -7.22		 -7.09		 -7.35		 2.62		 18.91
15:42:06	 -7.31		 -7.61		 -7.09		 -7.22		 2.59		 18.92
15:42:07	 -7.14		 -7.35		 -6.84		 -7.22		 2.59		 18.91
15:42:08	 -7.18		 -7.22		 -7.09		 -7.22		 2.56		 18.91
15:42:09	 -7.18		 -7.48		 -6.96		 -7.09		 2.51		 18.91
15:42:10	 -7.26		 -7.48		 -6.96		 -7.35		 2.50		 18.91
15:42:11	 -7.13		 -7.22		 -7.09		 -7.09		 2.51		 18.91
15:42:12	 -7.09		 -7.22		 -6.96		 -7.09		 2.59		 18.91
15:42:13	 -7.22		 -7.35		 -7.09		 -7.22		 2.64		 19.29
15:42:14	 -7.22		 -7.35		 -7.09		 -7.22		 2.70		 18.91
15:42:15	 -7.18		 -7.35		 -6.96		 -7.22		 2.72		 18.91
15:42:16	 -7.22		 -7.35		 -7.22		 -7.09		 2.72		 18.92
15:42:17	 -7.22		 -7.35		 -7.09		 -7.22		 2.72		 18.92
15:42:18	 -7.26		 -7.35		 -7.22		 -7.22		 2.71		 18.92
15:42:19	 -7.22		 -7.35		 -6.96		 -7.35		 2.67		 18.91
15:42:20	 -7.22		 -7.35		 -7.22		 -7.09		 2.64		 18.92
15:42:21	 -7.26		 -7.22		 -7.22		 -7.35		 2.62		 18.92
15:42:22	 -7.31		 -7.48		 -7.22		 -7.22		 2.58		 18.92
15:42:23	 -7.26		 -7.35		 -7.22		 -7.22		 2.56		 18.91
15:42:24	 -7.18		 -7.22		 -7.09		 -7.22		 2.59		 18.91
15:42:25	 -7.22		 -7.35		 -7.09		 -7.22		 2.63		 124.99
15:42:26	 -7.35		 -7.48		 -7.22		 -7.35		 2.63		 18.92
15:42:27	 -7.31		 -7.35		 -7.22		 -7.35		 2.59		 18.91
15:42:28	 -7.31		 -7.48		 -7.09		 -7.35		 2.59		 18.91
15:42:29	 -7.13		 -7.09		 -7.09		 -7.22		 2.62		 124.99
15:42:30	 -7.26		 -7.22		 -7.22		 -7.35		 2.62		 18.91
15:42:31	 -7.18		 -7.22		 -7.09		 -7.22		 2.62		 18.91
15:42:32	 -7.26		 -7.48		 -7.09		 -7.22		 2.64		 18.92
15:42:33	 -7.22		 -7.48		 -6.96		 -7.22		 2.66		 18.91
15:42:34	 -7.09		 -7.22		 -7.09		 -6.96		 2.67		 18.91
15:42:35	 -7.22		 -7.22		 -7.22		 -7.22		 2.70		 18.91
15:42:36	 -7.22		 -7.22		 -7.22		 -7.22		 2.71		 18.92
15:42:37	 -7.26		 -7.35		 -7.09		 -7.35		 2.71		 18.91
15:42:38	 -7.22		 -7.35		 -7.22		 -7.09		 2.70		 18.92
15:42:39	 -7.18		 -7.22		 -7.09		 -7.22		 2.70		 18.91
15:42:40	 -7.26		 -7.48		 -7.09		 -7.22		 2.72		 18.91
15:42:41	 -7.13		 -7.22		 -7.09		 -7.09		 2.75		 18.91
15:42:42	 -7.22		 -7.35		 -7.09		 -7.22		 2.75		 18.91
15:42:43	 -7.35		 -7.35		 -7.22		 -7.48		 2.72		 18.91
15:42:44	 -7.22		 -7.22		 -7.22		 -7.22		 2.67		 18.92
15:42:45	 -7.31		 -7.61		 -7.09		 -7.22		 2.66		 18.91
15:42:46	 -7.31		 -7.35		 -7.22		 -7.35		 2.63		 18.91
15:42:47	 -7.26		 -7.35		 -7.22		 -7.22		 2.63		 18.92
15:42:48	 -7.22		 -7.35		 -7.09		 -7.22		 2.62		 18.91
15:42:49	 -7.13		 -7.22		 -6.96		 -7.22		 2.61		 124.99
15:42:50	 -7.22		 -7.22		 -7.22		 -7.22		 2.63		 18.92
15:42:51	 -7.31		 -7.35		 -7.09		 -7.48		 2.63		 18.92
15:42:52	 -7.26		 -7.22		 -7.09		 -7.48		 2.62		 18.91
15:42:53	 -7.26		 -7.48		 -7.09		 -7.22		 2.62		 18.91
15:42:54	 -7.26		 -7.48		 -6.96		 -7.35		 2.58		 18.91
15:42:55	 -7.18		 -7.22		 -6.96		 -7.35		 2.54		 18.92
15:42:56	 -7.13		 -7.35		 -7.09		 -6.96		 2.51		 18.91
15:42:57	 -7.26		 -7.35		 -7.35		 -7.09		 2.51		 18.92
15:42:58	 -7.31		 -7.35		 -7.22		 -7.35		 2.48		 18.91
15:42:59	 -7.26		 -7.48		 -7.09		 -7.22		 2.47		 18.92
15:43:00	 -7.26		 -7.35		 -7.22		 -7.22		 2.47		 18.92
15:43:01	 -7.22		 -7.22		 -6.96		 -7.48		 2.46		 18.91
15:43:02	 -7.22		 -7.48		 -7.09		 -7.09		 2.46		 18.92
15:43:03	 -7.22		 -7.35		 -7.22		 -7.09		 2.47		 18.92
15:43:04	 -7.26		 -7.35		 -7.22		 -7.22		 2.48		 18.91
15:43:05	 -7.26		 -7.35		 -7.09		 -7.35		 2.51		 18.91
15:43:06	 -7.26		 -7.35		 -7.09		 -7.35		 2.54		 18.92
15:43:07	 -7.26		 -7.22		 -7.22		 -7.35		 2.55		 18.92
15:43:08	 -7.31		 -7.61		 -7.09		 -7.22		 2.55		 18.91
15:43:09	 -7.26		 -7.48		 -7.09		 -7.22		 2.56		 18.91
15:43:10	 -7.22		 -7.22		 -7.22		 -7.22		 2.58		 18.91
15:43:11	 -7.22		 -7.22		 -7.22		 -7.22		 2.59		 18.92
15:43:12	 -7.35		 -7.48		 -7.22		 -7.35		 2.59		 18.91
15:43:13	 -7.26		 -7.35		 -7.09		 -7.35		 2.62		 18.92
15:43:14	 -7.26		 -7.22		 -7.22		 -7.35		 2.59		 18.91
15:43:15	 -7.18		 -7.35		 -7.09		 -7.09		 2.58		 18.91
15:43:16	 -7.26		 -7.35		 -7.09		 -7.35		 2.59		 18.92
15:43:17	 -7.31		 -7.35		 -7.22		 -7.35		 2.62		 18.91
15:43:18	 -7.22		 -7.35		 -7.09		 -7.22		 2.59		 18.91
15:43:19	 -7.18		 -7.22		 -7.09		 -7.22		 2.59		 18.92
15:43:20	 -7.26		 -7.35		 -7.22		 -7.22		 2.55		 18.91
15:43:21	 -7.26		 -7.22		 -7.22		 -7.35		 2.51		 18.91
15:43:22	 -7.26		 -7.35		 -7.22		 -7.22		 2.47		 18.91
15:43:23	 -7.35		 -7.35		 -7.35		 -7.35		 2.40		 18.91
15:43:24	 -7.35		 -7.35		 -7.22		 -7.48		 2.39		 18.91
15:43:25	 -7.22		 -7.35		 -7.09		 -7.22		 2.39		 18.91
15:43:26	 -7.26		 -7.48		 -7.09		 -7.22		 2.40		 18.91
15:43:27	 -7.31		 -7.35		 -7.22		 -7.35		 2.38		 18.92
15:43:28	 -7.31		 -7.35		 -7.09		 -7.48		 2.33		 18.91
15:43:29	 -7.31		 -7.48		 -7.22		 -7.22		 2.30		 18.91
15:43:30	 -7.35		 -7.48		 -7.22		 -7.35		 2.26		 18.91
15:43:31	 -7.35		 -7.48		 -7.22		 -7.35		 2.23		 18.91
15:43:32	 -7.22		 -7.22		 -7.22		 -7.22		 2.20		 19.29
15:43:33	 -7.35		 -7.35		 -7.35		 -7.35		 2.19		 18.89
15:43:34	 -7.35		 -7.74		 -7.22		 -7.09		 2.19		 18.91
15:43:35	 -7.35		 -7.35		 -7.22		 -7.48		 2.23		 18.91
15:43:36	 -7.26		 -7.35		 -7.09		 -7.35		 2.24		 -40.01
15:43:37	 -7.22		 -7.35		 -7.22		 -7.09		 2.32		 18.91
15:43:38	 -7.39		 -7.35		 -7.48		 -7.35		 2.34		 18.91
15:43:39	 -7.05		 -7.22		 -7.22		 -6.71		 2.36		 18.91
15:43:40	 -7.31		 -7.35		 -7.22		 -7.35		 2.39		 18.91
15:43:41	 -7.26		 -7.35		 -7.09		 -7.35		 2.40		 18.89
15:43:42	 -7.26		 -7.35		 -7.35		 -7.09		 2.44		 18.91
15:43:43	 -7.31		 -7.48		 -7.09		 -7.35		 2.47		 18.91
15:43:44	 -7.26		 -7.35		 -7.22		 -7.22		 2.47		 18.91
15:43:45	 -7.31		 -7.35		 -7.09		 -7.48		 2.42		 18.89
15:43:46	 -7.22		 -7.35		 -7.09		 -7.22		 2.38		 18.89
15:43:47	 -7.35		 -7.48		 -7.22		 -7.35		 2.39		 18.89
15:43:48	 -7.31		 -7.48		 -7.22		 -7.22		 2.40		 18.89
15:43:49	 -7.31		 -7.35		 -7.35		 -7.22		 2.42		 18.91
15:43:50	 -7.31		 -7.35		 -7.22		 -7.35		 2.40		 18.91
15:43:51	 -7.35		 -7.48		 -7.22		 -7.35		 2.40		 18.89
15:43:52	 -7.22		 -7.22		 -7.22		 -7.22		 2.44		 16.71
15:43:53	 -7.26		 -7.35		 -7.22		 -7.22		 2.46		 18.91
15:43:54	 -7.22		 -7.22		 -7.09		 -7.35		 2.47		 18.89
15:43:55	 -7.18		 -7.22		 -7.22		 -7.09		 2.48		 18.89
15:43:56	 -7.31		 -7.35		 -7.22		 -7.35		 2.47		 -40.01
15:43:57	 -7.31		 -7.35		 -7.22		 -7.35		 2.46		 18.88
15:43:58	 -7.31		 -7.35		 -7.22		 -7.35		 2.47		 18.89
15:43:59	 -7.22		 -7.35		 -6.96		 -7.35		 2.48		 18.89
15:44:00	 -7.26		 -7.35		 -7.35		 -7.09		 2.51		 18.89
15:44:01	 -7.31		 -7.48		 -6.96		 -7.48		 2.56		 18.89
15:44:02	 -7.35		 -7.61		 -7.22		 -7.22		 2.59		 18.88
15:44:03	 -7.39		 -7.35		 -7.48		 -7.35		 2.59		 18.89
15:44:04	 -7.35		 -7.35		 -7.35		 -7.35		 2.58		 124.99
15:44:05	 -7.35		 -7.35		 -7.35		 -7.35		 2.58		 18.89
15:44:06	 -7.35		 -7.35		 -7.22		 -7.48		 2.59		 18.88
15:44:07	 -7.35		 -7.48		 -7.22		 -7.35		 2.58		 18.88
15:44:08	 -7.39		 -7.35		 -7.48		 -7.35		 2.59		 124.99
15:44:09	 -7.31		 -7.48		 -7.22		 -7.22		 2.59		 18.88
15:44:10	 -7.31		 -7.35		 -7.22		 -7.35		 2.62		 18.88
15:44:11	 -7.31		 -7.48		 -7.22		 -7.22		 2.64		 18.88
15:44:12	 -7.26		 -7.35		 -7.09		 -7.35		 2.62		 18.88
15:44:13	 -7.26		 -7.35		 -7.22		 -7.22		 2.59		 18.88
15:44:14	 -7.39		 -7.35		 -7.35		 -7.48		 2.59		 18.88
15:44:15	 -7.44		 -7.61		 -7.22		 -7.48		 2.59		 18.88
15:44:16	 -7.31		 -7.35		 -7.35		 -7.22		 2.63		 18.89
15:44:17	 -7.31		 -7.48		 -7.09		 -7.35		 2.64		 18.88
15:44:18	 -7.35		 -7.48		 -7.22		 -7.35		 2.63		 18.88
15:44:19	 -7.31		 -7.35		 -7.35		 -7.22		 2.63		 18.88
15:44:20	 -7.31		 -7.35		 -7.22		 -7.35		 2.66		 18.88
15:44:21	 -7.26		 -7.35		 -7.09		 -7.35		 2.66		 18.88
15:44:22	 -7.18		 -7.35		 -7.09		 -7.09		 2.63		 18.87
15:44:23	 -7.35		 -7.48		 -7.22		 -7.35		 2.62		 18.88
15:44:24	 -7.26		 -7.35		 -7.09		 -7.35		 2.62		 16.71
15:44:25	 -7.22		 -7.35		 -7.22		 -7.09		 2.59		 18.88
15:44:26	 -7.26		 -7.35		 -7.22		 -7.22		 2.59		 18.88
15:44:27	 -7.26		 -7.48		 -7.09		 -7.22		 2.62		 18.88
15:44:28	 -7.39		 -7.35		 -7.48		 -7.35		 2.62		 18.88
15:44:29	 -7.26		 -7.35		 -7.22		 -7.22		 2.62		 18.88
15:44:30	 -7.35		 -7.35		 -7.35		 -7.35		 2.59		 18.89
15:44:31	 -7.35		 -7.48		 -7.35		 -7.22		 2.59		 18.88
15:44:32	 -7.44		 -7.48		 -7.48		 -7.35		 2.62		 18.89
15:44:33	 -7.22		 -7.35		 -7.22		 -7.09		 2.59		 18.89
15:44:34	 -7.26		 -7.35		 -7.22		 -7.22		 2.59		 18.88
15:44:35	 -7.39		 -7.35		 -7.35		 -7.48		 2.59		 18.89
15:44:36	 -7.31		 -7.48		 -7.22		 -7.22		 2.59		 18.89
15:44:37	 -7.31		 -7.35		 -7.09		 -7.48		 2.59		 18.88
15:44:38	 -7.35		 -7.48		 -7.22		 -7.35		 2.58		 18.89
15:44:39	 -7.35		 -7.48		 -7.35		 -7.22		 2.58		 18.88
15:44:40	 -7.26		 -7.35		 -7.09		 -7.35		 2.62		 18.89
15:44:41	 -7.31		 -7.48		 -7.22		 -7.22		 2.62		 18.89
15:44:42	 -7.26		 -7.35		 -7.09		 -7.35		 2.58		 18.89
15:44:43	 -7.35		 -7.48		 -7.22		 -7.35		 2.54		 18.89
15:44:44	 -7.22		 -7.22		 -7.22		 -7.22		 2.51		 -40.01
15:44:45	 -7.26		 -7.48		 -7.35		 -6.96		 2.51		 18.88
15:44:46	 -7.39		 -7.48		 -7.22		 -7.48		 2.51		 18.88
15:44:47	 -7.31		 -7.48		 -7.35		 -7.09		 2.54		 18.89
15:44:48	 -7.26		 -7.48		 -7.09		 -7.22		 2.55		 124.99
15:44:50	 -7.26		 -7.22		 -7.22		 -7.35		 2.58		 18.88
15:44:51	 -7.35		 -7.48		 -7.22		 -7.35		 2.58		 18.88
15:44:52	 -7.31		 -7.35		 -7.22		 -7.35		 2.55		 18.88
15:44:53	 -7.35		 -7.22		 -7.48		 -7.35		 2.50		 18.88
15:44:54	 -7.31		 -7.48		 -7.22		 -7.22		 2.47		 18.87
15:44:55	 -7.31		 -7.35		 -7.22		 -7.35		 2.54		 18.88
15:44:56	 -7.31		 -7.22		 -7.22		 -7.48		 2.55		 18.88
15:44:57	 -7.35		 -7.35		 -7.22		 -7.48		 2.58		 18.88
15:44:58	 -7.31		 -7.35		 -7.22		 -7.35		 2.59		 18.88
15:44:59	 -7.44		 -7.61		 -7.35		 -7.35		 2.58		 18.89
15:45:00	 -7.35		 -7.35		 -7.22		 -7.48		 2.51		 18.89
15:45:01	 -7.31		 -7.48		 -7.35		 -7.09		 2.47		 18.88
15:45:02	 -7.26		 -7.48		 -7.22		 -7.09		 2.46		 18.88
15:45:03	 -7.31		 -7.35		 -7.35		 -7.22		 2.44		 18.89
15:45:04	 -7.26		 -7.48		 -7.09		 -7.22		 2.40		 18.89
15:45:05	 -7.31		 -7.48		 -7.22		 -7.22		 2.39		 18.89
15:45:06	 -7.31		 -7.48		 -7.09		 -7.35		 2.40		 18.89
15:45:07	 -7.35		 -7.48		 -7.22		 -7.35		 2.44		 18.89
15:45:08	 -7.35		 -7.48		 -7.22		 -7.35		 2.46		 18.88
15:45:09	 -7.39		 -7.48		 -7.35		 -7.35		 2.46		 -40.01
15:45:10	 -7.39		 -7.48		 -7.22		 -7.48		 2.44		 18.89
15:45:11	 -7.31		 -7.35		 -7.22		 -7.35		 2.42		 18.88
15:45:12	 -7.31		 -7.35		 -7.22		 -7.35		 2.39		 18.88
15:45:13	 -7.35		 -7.48		 -7.22		 -7.35		 2.38		 18.88
15:45:14	 -7.39		 -7.48		 -7.22		 -7.48		 2.38		 18.89
15:45:15	 -7.31		 -7.48		 -7.22		 -7.22		 2.36		 18.89
15:45:16	 -7.31		 -7.48		 -7.22		 -7.22		 2.34		 18.88
15:45:17	 -7.09		 -7.22		 -7.35		 -6.71		 2.33		 124.99
