Temperature and humidity log started on 30/06/2021 at 18:10:54

Time 		 Average T (C) 	 T0 (C) 	 T1 (C) 	 T2 (C) 	 RH (%) 	 HYT T (C) 
------------------------------------------------------------------------
18:10:54	 20.27		 20.42		 20.33		 20.07		 0.00		 20.97
18:10:54	 20.24		 20.24		 20.24		 20.24		 0.00		 97.00
18:10:55	 20.13		 20.24		 19.98		 20.16		 0.00		 20.96
18:11:14	 20.16		 20.50		 20.07		 19.90		 99.99		 -40.01
