Temperature log started on 12/05/2021 at 15:14:16

Time 		 Average T (C) 	 T0 (C) 	 T1 (C) 	 T2 (C) 
------------------------------------------------------------------------
15:14:16	 16.91		 16.62		 16.97		 17.14
15:14:17	 16.91		 16.62		 17.05		 17.05
15:14:18	 16.85		 16.45		 17.14		 16.97
15:14:19	 16.88		 16.53		 17.14		 16.97
15:14:20	 16.97		 16.62		 17.14		 17.14
15:14:20	 16.96		 16.62		 17.05		 17.22
15:14:21	 16.94		 16.62		 17.14		 17.05
15:14:22	 16.79		 16.45		 17.05		 16.88
15:14:23	 16.82		 16.36		 17.14		 16.97
15:14:24	 16.94		 16.62		 17.05		 17.14
15:14:25	 16.97		 16.71		 17.05		 17.14
15:14:26	 16.88		 16.45		 17.22		 16.97
15:14:27	 16.76		 16.45		 17.05		 16.79
15:14:28	 16.88		 16.53		 17.05		 17.05
15:14:29	 16.97		 16.71		 17.05		 17.14
15:14:29	 16.94		 16.62		 17.14		 17.05
15:14:30	 16.76		 16.45		 17.05		 16.79
15:14:31	 16.85		 16.53		 17.05		 16.97
15:14:32	 16.99		 16.62		 17.14		 17.22
15:14:33	 16.88		 16.53		 17.05		 17.05
15:14:34	 16.76		 16.45		 17.05		 16.79
15:14:35	 16.79		 16.36		 17.05		 16.97
15:14:36	 16.94		 16.62		 17.05		 17.14
15:14:37	 16.91		 16.62		 17.05		 17.05
15:14:38	 16.79		 16.45		 17.05		 16.88
15:14:38	 16.76		 16.27		 17.14		 16.88
15:14:39	 16.88		 16.53		 17.05		 17.05
15:14:40	 16.74		 16.53		 16.97		 16.71
15:14:41	 16.82		 16.53		 17.05		 16.88
15:14:42	 16.76		 16.36		 17.14		 16.79
15:14:43	 16.85		 16.45		 17.05		 17.05
15:14:44	 16.94		 16.62		 17.05		 17.14
15:14:45	 16.82		 16.45		 17.14		 16.88
15:14:46	 16.73		 16.36		 17.05		 16.79
15:14:47	 16.85		 16.45		 17.05		 17.05
15:14:48	 16.88		 16.53		 16.97		 17.14
15:14:48	 16.85		 16.53		 17.05		 16.97
15:14:49	 16.73		 16.36		 17.05		 16.79
15:14:50	 16.77		 16.36		 16.97		 16.97
15:14:51	 16.88		 16.62		 16.97		 17.05
15:14:52	 16.85		 16.62		 17.05		 16.88
15:14:53	 16.71		 16.36		 17.05		 16.71
15:14:54	 16.79		 16.36		 17.05		 16.97
15:14:55	 16.91		 16.53		 17.05		 17.14
