Temperature log started on 26/05/2021 at 10:15:00

Time 		 Average T (C) 	 T0 (C) 	 T1 (C) 	 T2 (C) 
------------------------------------------------------------------------
10:15:00	 20.13		 19.64		 20.50		 20.24
10:15:01	 20.10		 19.64		 20.50		 20.16
10:15:02	 20.07		 19.55		 20.59		 20.07
10:15:03	 20.01		 19.55		 20.50		 19.98
10:15:04	 19.93		 19.47		 20.33		 19.98
10:15:05	 19.90		 19.47		 20.24		 19.98
10:15:06	 19.90		 19.38		 20.33		 19.98
10:15:07	 19.87		 19.38		 20.24		 19.98
10:15:08	 19.81		 19.38		 20.07		 19.98
10:15:08	 19.73		 19.30		 19.98		 19.90
10:15:09	 19.67		 19.21		 19.90		 19.90
10:15:10	 19.50		 19.04		 19.73		 19.73
10:15:11	 19.44		 18.86		 19.81		 19.64
10:15:12	 19.27		 18.78		 19.64		 19.38
10:15:13	 19.09		 18.61		 19.55		 19.12
10:15:14	 18.95		 18.35		 19.47		 19.04
10:15:15	 18.78		 18.26		 19.21		 18.86
10:15:16	 18.72		 18.17		 19.21		 18.78
10:15:17	 18.55		 18.09		 18.86		 18.69
10:15:17	 17.94		 17.92		 18.86		 17.05
10:15:18	 18.38		 17.92		 18.61		 18.61
10:15:19	 18.20		 17.66		 18.43		 18.52
10:15:20	 18.12		 17.66		 18.35		 18.35
10:15:21	 17.94		 17.40		 18.26		 18.17
10:15:22	 17.69		 17.14		 18.00		 17.92
10:15:23	 17.48		 16.88		 17.83		 17.74
10:15:24	 17.34		 16.71		 17.83		 17.48
10:15:25	 17.05		 16.45		 17.57		 17.14
10:15:26	 16.91		 16.27		 17.40		 17.05
10:15:27	 16.76		 16.10		 17.22		 16.97
10:15:27	 16.56		 16.01		 16.97		 16.71
10:15:28	 16.47		 15.84		 16.79		 16.79
10:15:29	 16.36		 15.84		 16.62		 16.62
10:15:30	 16.10		 15.49		 16.36		 16.45
10:15:31	 15.98		 15.40		 16.27		 16.27
10:15:32	 15.75		 15.06		 16.10		 16.10
10:15:33	 15.52		 14.79		 15.93		 15.84
10:15:34	 15.35		 14.71		 15.75		 15.58
10:15:35	 15.14		 14.36		 15.66		 15.40
10:15:36	 14.97		 14.36		 15.40		 15.14
10:15:36	 14.73		 14.18		 15.14		 14.88
10:15:37	 14.59		 13.92		 14.97		 14.88
10:15:38	 14.50		 13.92		 14.88		 14.71
10:15:39	 14.33		 13.74		 14.53		 14.71
10:15:40	 14.12		 13.57		 14.27		 14.53
10:15:41	 13.95		 13.30		 14.36		 14.18
10:15:42	 13.77		 13.22		 14.09		 14.01
10:15:43	 13.60		 12.95		 14.01		 13.83
10:15:44	 13.36		 12.78		 13.74		 13.57
10:15:45	 13.22		 12.60		 13.66		 13.39
10:15:45	 13.04		 12.51		 13.39		 13.22
10:15:46	 12.92		 12.33		 13.30		 13.13
10:15:47	 12.78		 12.16		 13.22		 12.95
10:15:48	 12.69		 12.07		 13.13		 12.86
10:15:49	 12.54		 11.98		 12.86		 12.78
10:15:50	 12.39		 11.80		 12.69		 12.69
10:15:51	 12.30		 11.80		 12.60		 12.51
10:15:52	 12.21		 11.62		 12.51		 12.51
10:15:53	 12.15		 11.53		 12.42		 12.51
10:15:54	 11.95		 11.35		 12.33		 12.16
10:15:55	 11.86		 11.26		 12.24		 12.07
10:15:55	 11.74		 11.17		 12.16		 11.89
10:15:56	 11.59		 11.00		 11.98		 11.80
10:15:57	 11.59		 11.00		 12.07		 11.71
10:15:58	 11.47		 11.00		 11.89		 11.53
10:15:59	 11.35		 10.73		 11.80		 11.53
10:16:00	 11.35		 10.82		 11.80		 11.44
10:16:01	 11.29		 10.73		 11.80		 11.35
10:16:02	 11.23		 10.73		 11.62		 11.35
10:16:03	 11.23		 10.73		 11.62		 11.35
10:16:04	 11.20		 10.73		 11.53		 11.35
10:16:04	 11.17		 10.64		 11.53		 11.35
10:16:05	 11.20		 10.73		 11.53		 11.35
10:16:06	 11.23		 10.73		 11.62		 11.35
10:16:07	 11.17		 10.73		 11.53		 11.26
10:16:08	 11.20		 10.73		 11.53		 11.35
10:16:09	 11.17		 10.73		 11.53		 11.26
10:16:10	 11.20		 10.82		 11.53		 11.26
10:16:11	 11.23		 10.82		 11.62		 11.26
10:16:12	 11.17		 10.73		 11.53		 11.26
10:16:13	 11.20		 10.73		 11.62		 11.26
10:16:13	 11.23		 10.82		 11.62		 11.26
10:16:14	 11.29		 10.82		 11.80		 11.26
10:16:15	 11.32		 10.82		 11.80		 11.35
10:16:16	 11.35		 11.00		 11.71		 11.35
10:16:17	 11.35		 10.91		 11.80		 11.35
10:16:18	 11.41		 11.00		 11.80		 11.44
10:16:19	 11.41		 11.00		 11.80		 11.44
10:16:20	 11.44		 11.09		 11.80		 11.44
10:16:21	 11.50		 11.09		 11.89		 11.53
10:16:22	 11.56		 11.17		 11.89		 11.62
10:16:23	 11.56		 11.17		 11.89		 11.62
10:16:23	 11.62		 11.26		 11.89		 11.71
10:16:24	 11.65		 11.26		 11.98		 11.71
10:16:25	 11.65		 11.26		 11.89		 11.80
10:16:26	 11.74		 11.35		 12.07		 11.80
10:16:27	 11.71		 11.35		 11.98		 11.80
10:16:28	 11.74		 11.26		 12.16		 11.80
10:16:29	 11.77		 11.35		 12.16		 11.80
10:16:30	 11.77		 11.35		 12.16		 11.80
10:16:31	 11.80		 11.35		 12.24		 11.80
10:16:32	 11.80		 11.35		 12.24		 11.80
10:16:32	 11.86		 11.44		 12.33		 11.80
10:16:33	 11.89		 11.44		 12.33		 11.89
10:16:34	 11.92		 11.53		 12.24		 11.98
10:16:35	 11.95		 11.53		 12.24		 12.07
10:16:36	 11.98		 11.62		 12.33		 11.98
10:16:37	 12.07		 11.71		 12.42		 12.07
10:16:38	 12.13		 11.80		 12.42		 12.16
10:16:39	 12.09		 11.71		 12.33		 12.24
10:16:40	 12.15		 11.80		 12.42		 12.24
10:16:41	 12.21		 11.71		 12.60		 12.33
10:16:41	 12.15		 11.71		 12.51		 12.24
10:16:42	 12.18		 11.80		 12.51		 12.24
10:16:43	 12.24		 11.80		 12.69		 12.24
10:16:44	 12.21		 11.80		 12.60		 12.24
10:16:45	 12.24		 11.80		 12.69		 12.24
10:16:46	 12.33		 11.89		 12.78		 12.33
10:16:47	 12.27		 11.89		 12.69		 12.24
10:16:48	 12.33		 11.98		 12.69		 12.33
10:16:49	 12.36		 11.98		 12.69		 12.42
10:16:50	 12.48		 12.07		 12.78		 12.60
10:16:51	 12.51		 12.07		 12.86		 12.60
10:16:51	 12.51		 12.16		 12.78		 12.60
10:16:52	 12.54		 12.24		 12.78		 12.60
10:16:53	 12.66		 12.24		 12.95		 12.78
10:16:54	 12.63		 12.24		 12.95		 12.69
10:16:55	 12.66		 12.24		 13.04		 12.69
10:16:56	 12.63		 12.16		 13.13		 12.60
10:16:57	 12.63		 12.24		 13.04		 12.60
10:16:58	 12.60		 12.16		 13.04		 12.60
10:16:59	 12.66		 12.24		 13.04		 12.69
10:17:00	 12.69		 12.33		 13.04		 12.69
10:17:00	 12.78		 12.42		 13.13		 12.78
10:17:01	 12.80		 12.42		 13.13		 12.86
10:17:02	 12.86		 12.42		 13.22		 12.95
10:17:03	 12.89		 12.51		 13.22		 12.95
10:17:04	 12.89		 12.51		 13.13		 13.04
10:17:05	 12.95		 12.60		 13.13		 13.13
10:17:06	 12.95		 12.60		 13.22		 13.04
10:17:07	 12.95		 12.51		 13.30		 13.04
10:17:08	 13.01		 12.60		 13.39		 13.04
10:17:09	 13.01		 12.60		 13.39		 13.04
10:17:09	 13.01		 12.60		 13.39		 13.04
10:17:10	 13.07		 12.60		 13.48		 13.13
10:17:11	 12.95		 12.51		 13.39		 12.95
10:17:12	 13.04		 12.60		 13.48		 13.04
10:17:13	 13.13		 12.69		 13.57		 13.13
10:17:14	 13.10		 12.69		 13.48		 13.13
10:17:15	 13.16		 12.69		 13.57		 13.22
10:17:16	 13.19		 12.78		 13.57		 13.22
10:17:17	 13.22		 12.86		 13.57		 13.22
10:17:18	 13.22		 12.86		 13.57		 13.22
10:17:19	 13.27		 12.86		 13.57		 13.39
10:17:19	 13.33		 13.04		 13.57		 13.39
10:17:20	 13.39		 13.04		 13.74		 13.39
10:17:21	 13.39		 13.04		 13.66		 13.48
10:17:22	 13.51		 13.13		 13.74		 13.66
10:17:23	 13.45		 13.04		 13.74		 13.57
10:17:24	 13.45		 13.04		 13.83		 13.48
10:17:25	 13.48		 13.13		 13.83		 13.48
10:17:26	 13.48		 13.04		 13.92		 13.48
10:17:27	 13.48		 13.04		 13.92		 13.48
10:17:28	 13.48		 13.04		 13.92		 13.48
10:17:28	 13.48		 13.04		 13.92		 13.48
10:17:29	 13.51		 13.04		 13.92		 13.57
10:17:30	 13.54		 13.13		 14.01		 13.48
10:17:31	 13.60		 13.22		 14.01		 13.57
10:17:32	 13.63		 13.22		 14.01		 13.66
10:17:33	 13.63		 13.22		 14.01		 13.66
10:17:34	 13.74		 13.39		 14.09		 13.74
10:17:35	 13.71		 13.39		 14.01		 13.74
10:17:36	 13.77		 13.39		 14.09		 13.83
10:17:37	 13.80		 13.48		 14.01		 13.92
10:17:37	 13.83		 13.48		 14.09		 13.92
10:17:38	 13.86		 13.48		 14.09		 14.01
10:17:39	 13.83		 13.48		 14.09		 13.92
10:17:40	 13.86		 13.48		 14.18		 13.92
10:17:41	 13.92		 13.57		 14.27		 13.92
10:17:42	 13.86		 13.39		 14.27		 13.92
10:17:43	 13.86		 13.48		 14.27		 13.83
10:17:44	 13.92		 13.48		 14.36		 13.92
10:17:45	 13.92		 13.57		 14.27		 13.92
10:17:46	 13.92		 13.48		 14.36		 13.92
10:17:47	 13.95		 13.48		 14.36		 14.01
10:17:47	 14.04		 13.66		 14.44		 14.01
10:17:48	 13.98		 13.57		 14.36		 14.01
10:17:49	 14.06		 13.66		 14.44		 14.09
10:17:50	 14.06		 13.74		 14.36		 14.09
10:17:51	 14.12		 13.83		 14.36		 14.18
10:17:52	 14.18		 13.83		 14.44		 14.27
10:17:53	 14.18		 13.83		 14.44		 14.27
10:17:54	 14.21		 13.92		 14.44		 14.27
10:17:55	 14.18		 13.83		 14.44		 14.27
10:17:56	 14.27		 13.92		 14.53		 14.36
10:17:56	 14.27		 13.92		 14.53		 14.36
10:17:57	 14.30		 13.92		 14.62		 14.36
10:17:58	 14.33		 13.92		 14.62		 14.44
10:17:59	 14.30		 13.92		 14.62		 14.36
10:18:00	 14.33		 13.92		 14.71		 14.36
10:18:01	 14.36		 13.92		 14.79		 14.36
10:18:02	 14.36		 14.01		 14.71		 14.36
10:18:03	 14.36		 13.92		 14.79		 14.36
10:18:04	 14.33		 13.92		 14.79		 14.27
10:18:05	 14.36		 13.92		 14.79		 14.36
10:18:05	 14.42		 14.01		 14.88		 14.36
10:18:06	 14.44		 14.01		 14.88		 14.44
10:18:07	 14.44		 14.01		 14.88		 14.44
10:18:08	 14.50		 14.09		 14.88		 14.53
10:18:09	 14.50		 14.09		 14.88		 14.53
10:18:10	 14.53		 14.09		 14.88		 14.62
10:18:11	 14.62		 14.27		 14.88		 14.71
10:18:12	 14.59		 14.18		 14.88		 14.71
10:18:13	 14.62		 14.27		 14.88		 14.71
10:18:14	 14.62		 14.27		 14.88		 14.71
10:18:14	 14.68		 14.27		 14.97		 14.79
10:18:15	 14.71		 14.36		 14.97		 14.79
10:18:16	 14.71		 14.27		 14.97		 14.88
10:18:17	 14.76		 14.44		 14.97		 14.88
10:18:18	 14.77		 14.36		 15.06		 14.88
10:18:19	 14.76		 14.36		 15.14		 14.79
10:18:20	 14.79		 14.36		 15.14		 14.88
10:18:21	 14.76		 14.27		 15.14		 14.88
10:18:22	 14.79		 14.36		 15.23		 14.79
10:18:23	 14.79		 14.36		 15.23		 14.79
10:18:24	 14.82		 14.44		 15.23		 14.79
10:18:24	 14.82		 14.36		 15.32		 14.79
10:18:25	 14.85		 14.36		 15.32		 14.88
10:18:26	 14.91		 14.44		 15.32		 14.97
10:18:27	 14.85		 14.44		 15.32		 14.79
10:18:28	 14.94		 14.53		 15.32		 14.97
10:18:29	 14.91		 14.53		 15.23		 14.97
10:18:30	 14.97		 14.53		 15.40		 14.97
10:18:31	 15.00		 14.62		 15.32		 15.06
10:18:32	 15.05		 14.62		 15.40		 15.14
10:18:33	 15.08		 14.71		 15.40		 15.14
10:18:33	 15.08		 14.71		 15.40		 15.14
10:18:34	 15.11		 14.71		 15.40		 15.23
10:18:35	 15.14		 14.79		 15.40		 15.23
10:18:36	 15.17		 14.79		 15.40		 15.32
10:18:37	 15.14		 14.79		 15.40		 15.23
10:18:38	 15.14		 14.71		 15.49		 15.23
10:18:39	 15.14		 14.71		 15.49		 15.23
10:18:40	 15.14		 14.71		 15.49		 15.23
10:18:41	 15.17		 14.71		 15.58		 15.23
10:18:42	 15.17		 14.71		 15.58		 15.23
10:18:42	 15.20		 14.79		 15.58		 15.23
10:18:43	 15.17		 14.79		 15.58		 15.14
10:18:44	 15.26		 14.79		 15.66		 15.32
10:18:45	 15.20		 14.79		 15.66		 15.14
10:18:46	 15.26		 14.79		 15.75		 15.23
10:18:47	 15.26		 14.88		 15.66		 15.23
10:18:48	 15.32		 14.97		 15.66		 15.32
10:18:49	 15.35		 14.97		 15.75		 15.32
10:18:50	 15.40		 15.06		 15.66		 15.49
10:18:51	 15.37		 14.97		 15.75		 15.40
10:18:52	 15.43		 15.06		 15.75		 15.49
10:18:52	 15.49		 15.14		 15.75		 15.58
10:18:53	 15.49		 15.14		 15.75		 15.58
10:18:54	 15.46		 15.14		 15.66		 15.58
10:18:55	 15.52		 15.23		 15.75		 15.58
10:18:56	 15.55		 15.14		 15.84		 15.66
10:18:57	 15.58		 15.23		 15.84		 15.66
10:18:58	 15.58		 15.23		 15.84		 15.66
10:18:59	 15.61		 15.23		 15.93		 15.66
10:19:00	 15.55		 15.14		 15.93		 15.58
10:19:01	 15.58		 15.14		 15.93		 15.66
10:19:01	 15.58		 15.14		 16.01		 15.58
10:19:02	 15.55		 15.14		 15.93		 15.58
10:19:03	 15.63		 15.23		 16.01		 15.66
10:19:04	 15.64		 15.23		 16.10		 15.58
10:19:05	 15.63		 15.14		 16.10		 15.66
10:19:06	 15.63		 15.23		 16.01		 15.66
10:19:07	 15.64		 15.23		 16.10		 15.58
10:19:08	 15.66		 15.23		 16.10		 15.66
10:19:09	 15.66		 15.23		 16.10		 15.66
10:19:10	 15.69		 15.32		 16.10		 15.66
10:19:11	 15.78		 15.32		 16.19		 15.84
10:19:11	 15.78		 15.40		 16.10		 15.84
10:19:12	 15.75		 15.32		 16.10		 15.84
10:19:13	 15.84		 15.49		 16.10		 15.93
10:19:14	 15.84		 15.49		 16.10		 15.93
10:19:15	 15.87		 15.49		 16.10		 16.01
10:19:16	 15.87		 15.58		 16.10		 15.93
10:19:17	 15.96		 15.58		 16.19		 16.10
10:19:18	 15.96		 15.58		 16.19		 16.10
10:19:19	 15.98		 15.58		 16.27		 16.10
10:19:20	 15.98		 15.58		 16.36		 16.01
10:19:20	 15.98		 15.58		 16.36		 16.01
10:19:21	 15.96		 15.58		 16.36		 15.93
10:19:22	 15.93		 15.49		 16.36		 15.93
10:19:23	 15.96		 15.58		 16.36		 15.93
10:19:24	 15.96		 15.58		 16.36		 15.93
10:19:25	 15.98		 15.58		 16.36		 16.01
10:19:26	 16.01		 15.58		 16.45		 16.01
10:19:27	 16.04		 15.66		 16.45		 16.01
10:19:28	 16.04		 15.66		 16.36		 16.10
10:19:29	 16.13		 15.75		 16.45		 16.19
10:19:29	 16.16		 15.84		 16.45		 16.19
10:19:30	 16.19		 15.84		 16.45		 16.27
10:19:31	 16.19		 15.84		 16.36		 16.36
10:19:32	 16.19		 15.84		 16.45		 16.27
10:19:33	 16.19		 15.84		 16.45		 16.27
10:19:34	 16.21		 15.84		 16.53		 16.27
10:19:35	 16.16		 15.75		 16.45		 16.27
10:19:36	 16.21		 15.84		 16.53		 16.27
10:19:37	 16.22		 15.84		 16.62		 16.19
10:19:38	 16.19		 15.75		 16.62		 16.19
10:19:38	 16.19		 15.75		 16.62		 16.19
10:19:39	 16.19		 15.75		 16.62		 16.19
10:19:40	 16.27		 15.84		 16.71		 16.27
10:19:41	 16.24		 15.75		 16.71		 16.27
10:19:42	 16.27		 15.84		 16.62		 16.36
10:19:43	 16.30		 15.93		 16.62		 16.36
10:19:44	 16.33		 15.93		 16.62		 16.45
10:19:45	 16.39		 16.01		 16.62		 16.53
10:19:46	 16.45		 16.01		 16.71		 16.62
10:19:47	 16.48		 16.10		 16.71		 16.62
10:19:48	 16.48		 16.10		 16.71		 16.62
10:19:48	 16.42		 16.01		 16.71		 16.53
10:19:49	 16.42		 16.01		 16.79		 16.45
10:19:50	 16.42		 16.01		 16.79		 16.45
10:19:51	 16.42		 15.93		 16.88		 16.45
10:19:52	 16.45		 16.01		 16.88		 16.45
10:19:53	 16.39		 16.01		 16.71		 16.45
10:19:54	 16.45		 16.01		 16.88		 16.45
10:19:55	 16.47		 16.01		 16.88		 16.53
10:19:56	 16.50		 16.10		 16.88		 16.53
10:19:57	 16.53		 16.19		 16.79		 16.62
10:19:57	 16.59		 16.19		 16.88		 16.71
10:19:58	 16.62		 16.27		 16.88		 16.71
10:19:59	 16.59		 16.19		 16.79		 16.79
10:20:00	 16.65		 16.27		 16.88		 16.79
10:20:01	 16.62		 16.27		 16.88		 16.71
10:20:02	 16.68		 16.27		 16.97		 16.79
10:20:03	 16.68		 16.27		 17.05		 16.71
10:20:04	 16.59		 16.19		 16.97		 16.62
10:20:05	 16.59		 16.19		 17.05		 16.53
10:20:06	 16.59		 16.19		 16.97		 16.62
10:20:06	 16.59		 16.19		 17.05		 16.53
10:20:07	 16.68		 16.19		 17.14		 16.71
10:20:08	 16.68		 16.27		 17.05		 16.71
10:20:09	 16.68		 16.36		 16.97		 16.71
10:20:10	 16.73		 16.36		 17.05		 16.79
10:20:11	 16.79		 16.45		 17.05		 16.88
10:20:12	 16.85		 16.45		 17.14		 16.97
10:20:13	 16.82		 16.53		 17.05		 16.88
10:20:14	 16.85		 16.45		 17.05		 17.05
10:20:15	 16.76		 16.36		 17.05		 16.88
10:20:16	 16.85		 16.53		 17.14		 16.88
10:20:16	 16.82		 16.36		 17.22		 16.88
10:20:17	 16.85		 16.36		 17.31		 16.88
10:20:18	 16.85		 16.45		 17.31		 16.79
10:20:19	 16.79		 16.36		 17.31		 16.71
10:20:20	 16.88		 16.53		 17.22		 16.88
10:20:21	 16.88		 16.53		 17.22		 16.88
10:20:22	 16.93		 16.53		 17.22		 17.05
10:20:23	 16.93		 16.53		 17.22		 17.05
10:20:24	 17.02		 16.71		 17.22		 17.14
10:20:25	 17.05		 16.71		 17.31		 17.14
10:20:25	 16.99		 16.71		 17.22		 17.05
10:20:26	 16.99		 16.71		 17.22		 17.05
10:20:27	 17.02		 16.62		 17.31		 17.14
10:20:28	 17.02		 16.62		 17.40		 17.05
10:20:29	 16.99		 16.53		 17.40		 17.05
10:20:30	 17.00		 16.62		 17.40		 16.97
10:20:31	 16.99		 16.53		 17.48		 16.97
10:20:32	 16.99		 16.53		 17.48		 16.97
10:20:33	 17.02		 16.62		 17.48		 16.97
10:20:34	 17.05		 16.62		 17.48		 17.05
10:20:34	 17.02		 16.62		 17.40		 17.05
10:20:35	 17.11		 16.71		 17.48		 17.14
10:20:36	 17.14		 16.79		 17.40		 17.22
10:20:37	 17.16		 16.79		 17.48		 17.22
10:20:38	 17.17		 16.79		 17.40		 17.31
10:20:39	 17.22		 16.79		 17.57		 17.31
10:20:40	 17.17		 16.79		 17.40		 17.31
10:20:41	 17.22		 16.88		 17.48		 17.31
10:20:42	 17.25		 16.88		 17.48		 17.40
10:20:43	 17.25		 16.88		 17.57		 17.31
10:20:44	 17.25		 16.88		 17.57		 17.31
10:20:44	 17.25		 16.88		 17.57		 17.31
10:20:45	 17.25		 16.88		 17.57		 17.31
10:20:46	 17.25		 16.79		 17.66		 17.31
10:20:47	 17.22		 16.79		 17.57		 17.31
10:20:48	 17.25		 16.79		 17.66		 17.31
10:20:49	 17.22		 16.79		 17.57		 17.31
10:20:50	 17.28		 16.79		 17.74		 17.31
10:20:51	 17.25		 16.79		 17.66		 17.31
10:20:52	 17.25		 16.88		 17.66		 17.22
10:20:53	 17.22		 16.79		 17.66		 17.22
10:20:53	 17.22		 16.79		 17.66		 17.22
10:20:54	 17.22		 16.79		 17.66		 17.22
10:20:55	 17.19		 16.79		 17.57		 17.22
10:20:56	 17.20		 16.79		 17.66		 17.14
10:20:57	 17.22		 16.79		 17.57		 17.31
10:20:58	 17.19		 16.79		 17.48		 17.31
10:20:59	 17.22		 16.79		 17.57		 17.31
10:21:00	 17.22		 16.79		 17.48		 17.40
10:21:01	 17.22		 16.79		 17.48		 17.40
10:21:02	 17.23		 16.88		 17.40		 17.40
10:21:02	 17.20		 16.79		 17.40		 17.40
10:21:03	 17.14		 16.71		 17.40		 17.31
10:21:04	 17.11		 16.62		 17.40		 17.31
10:21:05	 17.05		 16.53		 17.40		 17.22
10:21:06	 16.96		 16.53		 17.31		 17.05
10:21:07	 16.88		 16.45		 17.22		 16.97
10:21:08	 16.79		 16.27		 17.22		 16.88
10:21:09	 16.73		 16.27		 17.14		 16.79
10:21:10	 16.71		 16.19		 17.14		 16.79
10:21:11	 16.62		 16.19		 16.97		 16.71
10:21:12	 16.53		 16.01		 16.97		 16.62
10:21:12	 16.48		 15.93		 16.97		 16.53
10:21:13	 16.33		 15.84		 16.79		 16.36
10:21:14	 16.30		 15.84		 16.79		 16.27
10:21:15	 16.24		 15.75		 16.71		 16.27
10:21:16	 16.24		 15.75		 16.71		 16.27
10:21:17	 16.13		 15.66		 16.45		 16.27
10:21:18	 16.13		 15.66		 16.45		 16.27
10:21:19	 16.01		 15.58		 16.27		 16.19
10:21:20	 16.01		 15.58		 16.27		 16.19
10:21:21	 15.98		 15.58		 16.27		 16.10
10:21:21	 15.87		 15.40		 16.10		 16.10
10:21:22	 15.81		 15.32		 16.10		 16.01
10:21:23	 15.72		 15.23		 16.01		 15.93
10:21:24	 15.61		 15.14		 15.93		 15.75
10:21:25	 15.52		 15.06		 15.75		 15.75
10:21:26	 15.43		 14.97		 15.66		 15.66
10:21:27	 15.34		 14.79		 15.66		 15.58
10:21:28	 15.26		 14.79		 15.58		 15.40
10:21:29	 15.17		 14.62		 15.58		 15.32
10:21:30	 15.05		 14.53		 15.49		 15.14
10:21:30	 14.94		 14.36		 15.40		 15.06
10:21:31	 14.88		 14.27		 15.40		 14.97
10:21:32	 14.73		 14.27		 15.14		 14.79
10:21:33	 14.67		 14.09		 15.14		 14.79
10:21:34	 14.56		 14.01		 14.97		 14.71
10:21:35	 14.56		 14.01		 14.97		 14.71
10:21:36	 14.47		 13.92		 14.88		 14.62
10:21:37	 14.44		 13.92		 14.79		 14.62
10:21:38	 14.39		 13.92		 14.71		 14.53
10:21:39	 14.33		 13.92		 14.62		 14.44
10:21:40	 14.33		 13.83		 14.62		 14.53
10:21:40	 14.18		 13.66		 14.44		 14.44
10:21:41	 14.21		 13.66		 14.53		 14.44
10:21:42	 14.07		 13.57		 14.36		 14.27
10:21:43	 14.07		 13.57		 14.36		 14.27
10:21:44	 13.95		 13.39		 14.36		 14.09
10:21:45	 13.89		 13.39		 14.27		 14.01
10:21:46	 13.80		 13.30		 14.27		 13.83
10:21:47	 13.71		 13.13		 14.18		 13.83
10:21:48	 13.71		 13.22		 14.18		 13.74
10:21:49	 13.63		 13.13		 14.09		 13.66
10:21:49	 13.63		 13.13		 14.01		 13.74
10:21:50	 13.60		 13.13		 14.01		 13.66
10:21:51	 13.57		 13.13		 13.83		 13.74
10:21:52	 13.60		 13.13		 13.92		 13.74
10:21:53	 13.54		 13.13		 13.83		 13.66
10:21:54	 13.54		 13.13		 13.83		 13.66
10:21:55	 13.54		 13.13		 13.74		 13.74
10:21:56	 13.45		 13.04		 13.74		 13.57
10:21:57	 13.54		 13.04		 13.92		 13.66
10:21:58	 13.45		 13.04		 13.83		 13.48
10:21:58	 13.42		 12.95		 13.83		 13.48
10:21:59	 13.39		 12.95		 13.83		 13.39
10:22:00	 13.45		 13.04		 13.83		 13.48
10:22:01	 13.33		 12.86		 13.74		 13.39
10:22:02	 13.39		 12.95		 13.83		 13.39
10:22:03	 13.39		 12.95		 13.74		 13.48
10:22:04	 13.42		 13.04		 13.83		 13.39
10:22:05	 13.42		 13.04		 13.83		 13.39
10:22:06	 13.45		 13.04		 13.83		 13.48
10:22:07	 13.45		 13.04		 13.83		 13.48
10:22:08	 13.51		 13.13		 13.83		 13.57
10:22:08	 13.57		 13.22		 13.83		 13.66
10:22:09	 13.60		 13.22		 13.92		 13.66
10:22:10	 13.63		 13.22		 13.92		 13.74
10:22:11	 13.66		 13.22		 13.92		 13.83
10:22:12	 13.71		 13.39		 13.92		 13.83
10:22:13	 13.71		 13.39		 13.92		 13.83
10:22:14	 13.74		 13.30		 14.01		 13.92
10:22:15	 13.74		 13.30		 14.01		 13.92
10:22:16	 13.71		 13.30		 14.01		 13.83
10:22:17	 13.77		 13.39		 14.09		 13.83
10:22:17	 13.77		 13.30		 14.18		 13.83
10:22:18	 13.77		 13.39		 14.09		 13.83
10:22:19	 13.80		 13.39		 14.18		 13.83
10:22:20	 13.83		 13.39		 14.27		 13.83
10:22:21	 13.80		 13.39		 14.18		 13.83
10:22:22	 13.80		 13.39		 14.18		 13.83
10:22:23	 13.92		 13.48		 14.36		 13.92
10:22:24	 13.86		 13.48		 14.18		 13.92
10:22:25	 13.92		 13.48		 14.36		 13.92
10:22:26	 13.98		 13.57		 14.36		 14.01
10:22:26	 14.04		 13.66		 14.36		 14.09
10:22:27	 14.06		 13.66		 14.44		 14.09
10:22:28	 14.09		 13.74		 14.36		 14.18
10:22:29	 14.18		 13.83		 14.44		 14.27
10:22:30	 14.12		 13.74		 14.36		 14.27
10:22:31	 14.21		 13.83		 14.53		 14.27
10:22:32	 14.24		 13.83		 14.53		 14.36
10:22:33	 14.24		 13.83		 14.53		 14.36
10:22:34	 14.27		 13.83		 14.62		 14.36
10:22:35	 14.21		 13.74		 14.62		 14.27
10:22:36	 14.21		 13.74		 14.62		 14.27
10:22:36	 14.21		 13.83		 14.62		 14.18
10:22:37	 14.24		 13.83		 14.71		 14.18
10:22:38	 14.24		 13.92		 14.62		 14.18
10:22:39	 14.30		 13.92		 14.62		 14.36
10:22:40	 14.30		 14.01		 14.62		 14.27
10:22:41	 14.33		 13.92		 14.71		 14.36
10:22:42	 14.44		 14.09		 14.71		 14.53
10:22:43	 14.44		 14.09		 14.71		 14.53
10:22:44	 14.44		 14.09		 14.71		 14.53
10:22:45	 14.50		 14.18		 14.79		 14.53
10:22:45	 14.53		 14.18		 14.79		 14.62
10:22:46	 14.53		 14.18		 14.79		 14.62
10:22:47	 14.59		 14.18		 14.88		 14.71
10:22:48	 14.62		 14.27		 14.88		 14.71
10:22:49	 14.62		 14.27		 14.97		 14.62
10:22:50	 14.62		 14.27		 14.97		 14.62
10:22:51	 14.59		 14.18		 14.97		 14.62
10:22:52	 14.62		 14.18		 15.06		 14.62
10:22:53	 14.65		 14.18		 15.06		 14.71
10:22:54	 14.62		 14.18		 15.06		 14.62
10:22:54	 14.62		 14.18		 15.06		 14.62
10:22:55	 14.68		 14.27		 15.06		 14.71
10:22:56	 14.71		 14.27		 15.14		 14.71
10:22:57	 14.74		 14.36		 15.06		 14.79
10:22:58	 14.79		 14.44		 15.06		 14.88
10:22:59	 14.82		 14.44		 15.14		 14.88
10:23:00	 14.88		 14.53		 15.14		 14.97
10:23:01	 14.91		 14.53		 15.14		 15.06
10:23:02	 14.91		 14.53		 15.23		 14.97
10:23:03	 14.88		 14.53		 15.14		 14.97
10:23:04	 14.94		 14.53		 15.32		 14.97
10:23:04	 14.91		 14.44		 15.32		 14.97
10:23:05	 14.97		 14.53		 15.40		 14.97
10:23:06	 14.97		 14.62		 15.40		 14.88
10:23:07	 14.94		 14.53		 15.40		 14.88
10:23:08	 14.97		 14.53		 15.40		 14.97
10:23:09	 15.00		 14.53		 15.40		 15.06
10:23:10	 15.03		 14.62		 15.40		 15.06
10:23:11	 15.06		 14.71		 15.40		 15.06
10:23:12	 15.08		 14.71		 15.40		 15.14
10:23:13	 15.14		 14.79		 15.40		 15.23
10:23:13	 15.17		 14.79		 15.40		 15.32
10:23:14	 15.20		 14.88		 15.40		 15.32
10:23:15	 15.20		 14.79		 15.49		 15.32
10:23:16	 15.26		 14.79		 15.58		 15.40
10:23:17	 15.26		 14.88		 15.58		 15.32
10:23:18	 15.23		 14.79		 15.58		 15.32
10:23:19	 15.23		 14.79		 15.66		 15.23
10:23:20	 15.20		 14.79		 15.58		 15.23
10:23:21	 15.20		 14.79		 15.58		 15.23
10:23:22	 15.20		 14.79		 15.66		 15.14
10:23:22	 15.26		 14.88		 15.66		 15.23
10:23:23	 15.34		 14.97		 15.66		 15.40
10:23:24	 15.31		 14.88		 15.66		 15.40
10:23:25	 15.43		 15.06		 15.75		 15.49
10:23:26	 15.43		 15.14		 15.66		 15.49
10:23:27	 15.49		 15.14		 15.75		 15.58
10:23:28	 15.52		 15.23		 15.66		 15.66
10:23:29	 15.52		 15.14		 15.75		 15.66
10:23:30	 15.46		 15.06		 15.75		 15.58
10:23:31	 15.49		 15.06		 15.84		 15.58
10:23:31	 15.46		 15.06		 15.84		 15.49
10:23:32	 15.46		 15.06		 15.84		 15.49
10:23:33	 15.46		 15.06		 15.93		 15.40
10:23:34	 15.49		 15.06		 15.93		 15.49
10:23:35	 15.52		 15.14		 15.84		 15.58
10:23:36	 15.58		 15.14		 15.93		 15.66
10:23:37	 15.61		 15.23		 15.93		 15.66
10:23:38	 15.67		 15.32		 15.84		 15.84
10:23:39	 15.67		 15.32		 15.93		 15.75
10:23:40	 15.64		 15.23		 15.93		 15.75
10:23:41	 15.69		 15.32		 16.10		 15.66
10:23:41	 15.66		 15.23		 16.10		 15.66
10:23:42	 15.64		 15.23		 16.10		 15.58
10:23:43	 15.69		 15.32		 16.10		 15.66
10:23:44	 15.69		 15.32		 16.01		 15.75
10:23:45	 15.75		 15.40		 16.10		 15.75
10:23:46	 15.84		 15.49		 16.10		 15.93
10:23:47	 15.78		 15.40		 16.01		 15.93
10:23:48	 15.87		 15.49		 16.10		 16.01
10:23:49	 15.84		 15.49		 16.10		 15.93
10:23:50	 15.87		 15.49		 16.19		 15.93
10:23:50	 15.81		 15.40		 16.19		 15.84
10:23:51	 15.84		 15.40		 16.27		 15.84
10:23:52	 15.84		 15.40		 16.27		 15.84
10:23:53	 15.84		 15.40		 16.27		 15.84
10:23:54	 15.84		 15.40		 16.27		 15.84
10:23:55	 15.87		 15.49		 16.19		 15.93
10:23:56	 15.90		 15.49		 16.19		 16.01
10:23:57	 15.95		 15.66		 16.19		 16.01
10:23:58	 16.01		 15.58		 16.27		 16.19
10:23:59	 16.01		 15.66		 16.27		 16.10
10:23:59	 15.98		 15.58		 16.36		 16.01
10:24:00	 15.95		 15.58		 16.27		 16.01
10:24:01	 15.93		 15.49		 16.36		 15.93
10:24:02	 15.96		 15.58		 16.36		 15.93
10:24:03	 15.90		 15.49		 16.27		 15.93
10:24:04	 15.98		 15.58		 16.27		 16.10
10:24:05	 16.01		 15.66		 16.27		 16.10
10:24:06	 16.04		 15.66		 16.27		 16.19
10:24:07	 16.01		 15.66		 16.19		 16.19
10:24:08	 15.90		 15.40		 16.19		 16.10
10:24:09	 15.92		 15.49		 16.27		 16.01
10:24:09	 15.90		 15.49		 16.27		 15.93
10:24:10	 15.84		 15.40		 16.27		 15.84
10:24:11	 15.90		 15.40		 16.36		 15.93
10:24:12	 15.87		 15.40		 16.27		 15.93
10:24:13	 15.87		 15.49		 16.19		 15.93
10:24:14	 15.96		 15.58		 16.19		 16.10
10:24:15	 15.93		 15.49		 16.19		 16.10
10:24:16	 15.93		 15.49		 16.19		 16.10
10:24:17	 15.92		 15.49		 16.27		 16.01
10:24:18	 15.78		 15.32		 16.19		 15.84
10:24:18	 15.69		 15.23		 16.10		 15.75
10:24:19	 15.78		 15.32		 16.19		 15.84
10:24:20	 15.69		 15.23		 16.10		 15.75
10:24:21	 15.69		 15.23		 16.10		 15.75
10:24:22	 15.72		 15.32		 16.01		 15.84
10:24:23	 15.78		 15.40		 16.10		 15.84
10:24:24	 15.73		 15.32		 15.93		 15.93
10:24:25	 15.75		 15.32		 16.01		 15.93
10:24:26	 15.66		 15.23		 16.01		 15.75
10:24:27	 15.63		 15.14		 16.01		 15.75
10:24:27	 15.52		 15.06		 15.93		 15.58
10:24:28	 15.52		 15.06		 16.01		 15.49
10:24:29	 15.46		 14.97		 15.93		 15.49
10:24:30	 15.49		 15.06		 15.84		 15.58
10:24:31	 15.46		 15.06		 15.75		 15.58
10:24:32	 15.46		 14.97		 15.75		 15.66
10:24:33	 15.49		 15.06		 15.75		 15.66
10:24:34	 15.46		 15.06		 15.75		 15.58
10:24:35	 15.40		 14.88		 15.75		 15.58
10:24:36	 15.34		 14.88		 15.75		 15.40
10:24:37	 15.23		 14.79		 15.58		 15.32
10:24:37	 15.20		 14.71		 15.66		 15.23
10:24:38	 15.23		 14.79		 15.58		 15.32
10:24:39	 15.20		 14.71		 15.58		 15.32
10:24:40	 15.20		 14.79		 15.49		 15.32
10:24:41	 15.20		 14.79		 15.49		 15.32
10:24:42	 15.26		 14.88		 15.49		 15.40
10:24:43	 15.20		 14.71		 15.49		 15.40
10:24:44	 15.11		 14.71		 15.40		 15.23
10:24:45	 15.05		 14.62		 15.40		 15.14
10:24:46	 14.97		 14.53		 15.40		 14.97
10:24:46	 14.97		 14.53		 15.40		 14.97
10:24:47	 15.00		 14.53		 15.40		 15.06
10:24:48	 15.00		 14.62		 15.32		 15.06
10:24:49	 15.03		 14.62		 15.32		 15.14
10:24:50	 14.97		 14.53		 15.23		 15.14
10:24:51	 14.94		 14.53		 15.23		 15.06
10:24:52	 14.91		 14.44		 15.23		 15.06
10:24:53	 14.88		 14.44		 15.32		 14.88
10:24:54	 14.82		 14.36		 15.32		 14.79
10:24:55	 14.79		 14.27		 15.23		 14.88
10:24:55	 14.79		 14.27		 15.14		 14.97
10:24:56	 14.80		 14.36		 15.06		 14.97
10:24:57	 14.77		 14.36		 15.06		 14.88
10:24:58	 14.80		 14.36		 15.06		 14.97
10:24:59	 14.82		 14.44		 15.06		 14.97
10:25:00	 14.76		 14.27		 15.14		 14.88
10:25:01	 14.68		 14.27		 15.06		 14.71
10:25:02	 14.65		 14.18		 15.06		 14.71
10:25:03	 14.65		 14.27		 15.06		 14.62
10:25:04	 14.71		 14.27		 15.14		 14.71
10:25:05	 14.59		 14.27		 14.71		 14.79
10:25:05	 15.17		 15.75		 14.97		 14.79
10:25:06	 14.74		 14.36		 14.97		 14.88
10:25:07	 14.74		 14.36		 14.97		 14.88
10:25:08	 14.71		 14.27		 14.97		 14.88
10:25:09	 14.68		 14.27		 14.97		 14.79
10:25:10	 14.71		 14.27		 15.14		 14.71
10:25:11	 14.71		 14.27		 15.14		 14.71
10:25:12	 14.59		 14.09		 15.06		 14.62
10:25:13	 14.59		 14.18		 14.97		 14.62
10:25:14	 14.65		 14.18		 15.06		 14.71
10:25:14	 14.53		 14.27		 14.97		 14.36
10:25:15	 14.71		 14.36		 14.97		 14.79
10:25:16	 14.76		 14.44		 14.97		 14.88
10:25:17	 14.71		 14.27		 15.06		 14.79
10:25:18	 14.65		 14.27		 14.97		 14.71
10:25:19	 14.68		 14.27		 15.06		 14.71
10:25:20	 14.68		 14.18		 15.14		 14.71
10:25:21	 14.71		 14.27		 15.14		 14.71
10:25:22	 14.68		 14.27		 15.06		 14.71
10:25:23	 14.74		 14.36		 15.06		 14.79
10:25:23	 14.79		 14.44		 15.06		 14.88
10:25:24	 14.79		 14.44		 15.06		 14.88
10:25:25	 14.85		 14.44		 15.14		 14.97
10:25:26	 14.85		 14.53		 15.06		 14.97
10:25:27	 14.85		 14.44		 15.23		 14.88
10:25:28	 14.79		 14.36		 15.14		 14.88
10:25:29	 14.79		 14.44		 15.14		 14.79
10:25:30	 14.82		 14.44		 15.23		 14.79
10:25:31	 14.79		 14.36		 15.23		 14.79
10:25:32	 14.85		 14.36		 15.32		 14.88
10:25:33	 14.85		 14.44		 15.23		 14.88
10:25:33	 14.94		 14.62		 15.23		 14.97
10:25:34	 14.94		 14.53		 15.23		 15.06
10:25:35	 15.06		 14.71		 15.32		 15.14
10:25:36	 15.06		 14.71		 15.32		 15.14
10:25:37	 15.03		 14.62		 15.32		 15.14
10:25:38	 15.05		 14.62		 15.40		 15.14
10:25:39	 15.06		 14.71		 15.40		 15.06
10:25:40	 15.03		 14.62		 15.40		 15.06
10:25:41	 15.06		 14.62		 15.49		 15.06
10:25:42	 15.06		 14.71		 15.40		 15.06
10:25:42	 15.08		 14.71		 15.40		 15.14
10:25:43	 15.14		 14.71		 15.49		 15.23
10:25:44	 15.20		 14.88		 15.40		 15.32
10:25:45	 15.26		 14.97		 15.49		 15.32
10:25:46	 15.26		 14.88		 15.49		 15.40
10:25:47	 15.29		 14.88		 15.58		 15.40
10:25:48	 15.26		 14.88		 15.58		 15.32
10:25:49	 15.23		 14.79		 15.66		 15.23
10:25:50	 15.23		 14.79		 15.66		 15.23
10:25:51	 15.26		 14.88		 15.66		 15.23
10:25:51	 15.26		 14.88		 15.66		 15.23
10:25:52	 15.34		 14.97		 15.66		 15.40
10:25:53	 15.86		 16.53		 15.66		 15.40
10:25:54	 15.40		 15.06		 15.66		 15.49
10:25:55	 15.40		 15.06		 15.66		 15.49
10:25:56	 15.40		 15.06		 15.75		 15.40
10:25:57	 15.40		 15.06		 15.66		 15.49
10:25:58	 15.29		 14.71		 15.75		 15.40
10:25:59	 15.40		 15.06		 15.75		 15.40
10:26:00	 15.40		 14.97		 15.84		 15.40
10:26:00	 15.43		 15.06		 15.75		 15.49
10:26:01	 15.46		 15.14		 15.75		 15.49
10:26:02	 15.55		 15.14		 15.84		 15.66
10:26:03	 15.55		 15.14		 15.75		 15.75
10:26:04	 15.58		 15.23		 15.84		 15.66
10:26:05	 15.55		 15.23		 15.84		 15.58
10:26:06	 15.55		 15.14		 15.93		 15.58
10:26:07	 15.49		 15.06		 15.93		 15.49
10:26:08	 15.58		 15.14		 16.01		 15.58
10:26:09	 15.61		 15.23		 15.93		 15.66
10:26:10	 15.58		 15.23		 15.93		 15.58
10:26:10	 15.67		 15.32		 15.93		 15.75
10:26:11	 15.70		 15.32		 15.93		 15.84
10:26:12	 15.70		 15.32		 15.93		 15.84
10:26:13	 15.69		 15.32		 16.01		 15.75
10:26:14	 15.63		 15.23		 16.01		 15.66
10:26:15	 15.58		 15.14		 16.01		 15.58
10:26:16	 15.60		 15.14		 16.01		 15.66
10:26:17	 15.58		 15.14		 16.01		 15.58
10:26:18	 15.67		 15.32		 15.93		 15.75
10:26:19	 15.70		 15.32		 15.93		 15.84
10:26:19	 15.70		 15.32		 15.93		 15.84
10:26:20	 15.69		 15.32		 16.01		 15.75
10:26:21	 15.66		 15.23		 16.01		 15.75
10:26:22	 15.63		 15.23		 16.01		 15.66
10:26:23	 15.58		 15.14		 16.01		 15.58
10:26:24	 15.55		 15.06		 16.01		 15.58
10:26:25	 15.58		 15.14		 15.93		 15.66
10:26:26	 15.64		 15.23		 15.93		 15.75
10:26:27	 15.70		 15.32		 15.93		 15.84
10:26:28	 15.58		 15.23		 16.01		 15.49
10:26:29	 15.64		 15.23		 15.93		 15.75
10:26:29	 15.58		 15.14		 15.93		 15.66
10:26:30	 15.52		 15.06		 15.93		 15.58
10:26:31	 15.52		 15.06		 15.93		 15.58
10:26:32	 15.49		 15.06		 15.84		 15.58
10:26:33	 15.49		 15.14		 15.84		 15.49
10:26:34	 15.52		 15.14		 15.75		 15.66
10:26:35	 15.52		 15.14		 15.75		 15.66
10:26:36	 15.55		 15.14		 15.84		 15.66
10:26:37	 15.52		 15.14		 15.84		 15.58
10:26:38	 15.40		 14.97		 15.84		 15.40
10:26:38	 15.37		 14.88		 15.84		 15.40
10:26:39	 15.37		 14.97		 15.75		 15.40
10:26:40	 15.40		 14.97		 15.75		 15.49
10:26:41	 15.41		 15.06		 15.58		 15.58
10:26:42	 15.38		 14.97		 15.58		 15.58
10:26:43	 15.40		 15.06		 15.66		 15.49
10:26:44	 15.34		 14.97		 15.66		 15.40
10:26:45	 15.23		 14.79		 15.66		 15.23
10:26:46	 15.26		 14.79		 15.66		 15.32
10:26:47	 15.23		 14.79		 15.58		 15.32
10:26:47	 15.23		 14.79		 15.49		 15.40
10:26:48	 15.29		 14.88		 15.49		 15.49
10:26:49	 15.26		 14.88		 15.49		 15.40
10:26:50	 15.17		 14.79		 15.49		 15.23
10:26:51	 15.17		 14.71		 15.58		 15.23
10:26:52	 15.11		 14.71		 15.49		 15.14
10:26:53	 15.11		 14.71		 15.49		 15.14
10:26:54	 15.14		 14.71		 15.49		 15.23
10:26:55	 15.14		 14.71		 15.40		 15.32
10:26:56	 15.14		 14.71		 15.40		 15.32
10:26:57	 15.09		 14.71		 15.32		 15.23
10:26:57	 15.08		 14.71		 15.40		 15.14
10:26:58	 15.03		 14.62		 15.40		 15.06
10:26:59	 14.97		 14.53		 15.40		 14.97
10:27:00	 15.00		 14.53		 15.40		 15.06
10:27:01	 15.00		 14.62		 15.32		 15.06
10:27:02	 15.03		 14.62		 15.32		 15.14
10:27:03	 15.03		 14.62		 15.23		 15.23
10:27:04	 14.97		 14.53		 15.23		 15.14
10:27:05	 14.97		 14.53		 15.32		 15.06
10:27:06	 14.91		 14.44		 15.32		 14.97
10:27:06	 14.85		 14.44		 15.23		 14.88
10:27:07	 14.88		 14.44		 15.32		 14.88
10:27:08	 14.88		 14.44		 15.23		 14.97
10:27:09	 14.88		 14.53		 15.06		 15.06
10:27:10	 14.91		 14.53		 15.14		 15.06
10:27:11	 14.91		 14.53		 15.14		 15.06
10:27:12	 14.85		 14.44		 15.14		 14.97
10:27:13	 14.82		 14.36		 15.23		 14.88
10:27:14	 14.79		 14.36		 15.23		 14.79
10:27:15	 14.76		 14.36		 15.14		 14.79
10:27:15	 14.85		 14.44		 15.23		 14.88
10:27:16	 14.85		 14.44		 15.14		 14.97
10:27:17	 14.88		 14.44		 15.14		 15.06
10:27:18	 14.97		 14.62		 15.23		 15.06
10:27:19	 14.88		 14.53		 15.14		 14.97
10:27:20	 14.85		 14.44		 15.14		 14.97
10:27:21	 14.85		 14.44		 15.23		 14.88
10:27:22	 14.79		 14.44		 15.14		 14.79
10:27:23	 14.82		 14.36		 15.23		 14.88
10:27:24	 14.82		 14.44		 15.14		 14.88
10:27:24	 14.85		 14.44		 15.23		 14.88
10:27:25	 14.94		 14.62		 15.14		 15.06
10:27:26	 14.97		 14.53		 15.23		 15.14
10:27:27	 14.97		 14.62		 15.23		 15.06
10:27:28	 14.91		 14.53		 15.23		 14.97
10:27:29	 14.88		 14.53		 15.23		 14.88
10:27:30	 14.91		 14.53		 15.32		 14.88
10:27:31	 14.91		 14.53		 15.23		 14.97
10:27:32	 15.00		 14.62		 15.32		 15.06
10:27:33	 15.03		 14.62		 15.32		 15.14
10:27:34	 15.00		 14.71		 15.23		 15.06
10:27:34	 15.03		 14.62		 15.40		 15.06
10:27:35	 14.94		 14.53		 15.32		 14.97
10:27:36	 14.97		 14.53		 15.40		 14.97
10:27:37	 15.00		 14.62		 15.40		 14.97
10:27:38	 15.00		 14.62		 15.32		 15.06
10:27:39	 15.11		 14.71		 15.40		 15.23
10:27:40	 15.17		 14.79		 15.40		 15.32
10:27:41	 15.14		 14.79		 15.32		 15.32
10:27:42	 15.17		 14.79		 15.49		 15.23
10:27:43	 15.11		 14.71		 15.49		 15.14
10:27:43	 15.09		 14.71		 15.49		 15.06
10:27:44	 15.17		 14.71		 15.58		 15.23
10:27:45	 15.23		 14.88		 15.49		 15.32
10:27:46	 15.23		 14.88		 15.49		 15.32
10:27:47	 15.29		 14.97		 15.49		 15.40
10:27:48	 15.32		 14.97		 15.58		 15.40
10:27:49	 15.34		 14.97		 15.66		 15.40
10:27:50	 15.29		 14.88		 15.58		 15.40
10:27:51	 15.32		 14.97		 15.66		 15.32
10:27:52	 15.29		 14.88		 15.66		 15.32
10:27:52	 15.26		 14.88		 15.66		 15.23
10:27:53	 15.34		 14.88		 15.75		 15.40
10:27:54	 15.34		 14.97		 15.66		 15.40
10:27:55	 15.37		 15.06		 15.66		 15.40
10:27:56	 15.40		 15.06		 15.66		 15.49
10:27:57	 15.43		 15.14		 15.66		 15.49
10:27:58	 15.49		 15.14		 15.75		 15.58
10:27:59	 15.49		 15.14		 15.75		 15.58
10:28:00	 15.49		 15.06		 15.75		 15.66
10:28:01	 15.52		 15.14		 15.84		 15.58
10:28:02	 15.46		 15.06		 15.84		 15.49
10:28:02	 15.46		 15.06		 15.84		 15.49
10:28:03	 15.49		 15.06		 15.93		 15.49
10:28:04	 15.52		 15.06		 15.93		 15.58
10:28:05	 15.58		 15.23		 15.84		 15.66
10:28:06	 15.58		 15.23		 15.84		 15.66
10:28:07	 15.64		 15.32		 15.84		 15.75
10:28:08	 15.64		 15.32		 15.84		 15.75
10:28:09	 15.69		 15.32		 16.01		 15.75
10:28:10	 15.60		 15.14		 16.01		 15.66
10:28:11	 15.58		 15.14		 16.01		 15.58
10:28:11	 15.58		 15.23		 15.93		 15.58
10:28:12	 15.61		 15.23		 15.93		 15.66
10:28:13	 15.69		 15.32		 16.01		 15.75
10:28:14	 15.75		 15.40		 16.01		 15.84
10:28:15	 15.72		 15.32		 16.01		 15.84
10:28:16	 15.69		 15.32		 16.01		 15.75
10:28:17	 15.63		 15.23		 16.01		 15.66
10:28:18	 15.61		 15.23		 16.01		 15.58
10:28:19	 15.63		 15.23		 16.01		 15.66
10:28:20	 15.69		 15.32		 16.01		 15.75
10:28:20	 15.72		 15.40		 15.93		 15.84
10:28:21	 15.72		 15.32		 16.01		 15.84
10:28:22	 15.69		 15.32		 16.01		 15.75
10:28:23	 15.63		 15.23		 16.01		 15.66
10:28:24	 15.58		 15.14		 16.01		 15.58
10:28:25	 15.61		 15.23		 16.01		 15.58
10:28:26	 15.63		 15.23		 16.01		 15.66
10:28:27	 15.64		 15.23		 15.93		 15.75
10:28:28	 15.64		 15.32		 15.84		 15.75
10:28:29	 15.66		 15.23		 16.01		 15.75
10:28:30	 15.58		 15.14		 16.01		 15.58
10:28:30	 15.58		 15.14		 16.01		 15.58
10:28:31	 15.52		 15.14		 15.84		 15.58
10:28:32	 15.55		 15.14		 15.84		 15.66
10:28:33	 15.61		 15.23		 15.84		 15.75
10:28:34	 15.58		 15.32		 15.75		 15.66
10:28:35	 15.49		 15.06		 15.84		 15.58
10:28:36	 15.46		 14.97		 15.84		 15.58
10:28:37	 15.43		 14.97		 15.84		 15.49
10:28:38	 15.46		 15.06		 15.75		 15.58
10:28:39	 15.52		 15.14		 15.75		 15.66
10:28:39	 15.55		 15.14		 15.75		 15.75
10:28:40	 15.40		 14.97		 15.75		 15.49
10:28:41	 15.32		 14.88		 15.75		 15.32
10:28:42	 15.34		 14.88		 15.75		 15.40
10:28:43	 15.35		 14.97		 15.58		 15.49
10:28:44	 15.38		 14.97		 15.58		 15.58
10:28:45	 15.34		 14.88		 15.66		 15.49
10:28:46	 15.20		 14.79		 15.58		 15.23
10:28:47	 15.17		 14.71		 15.58		 15.23
10:28:48	 15.23		 14.79		 15.58		 15.32
10:28:48	 15.26		 14.88		 15.49		 15.40
10:28:49	 15.29		 14.88		 15.49		 15.49
10:28:50	 15.26		 14.79		 15.58		 15.40
10:28:51	 15.20		 14.79		 15.58		 15.23
10:28:52	 15.11		 14.62		 15.58		 15.14
10:28:53	 15.14		 14.62		 15.58		 15.23
10:28:54	 15.17		 14.79		 15.49		 15.23
10:28:55	 15.14		 14.71		 15.40		 15.32
10:28:56	 15.17		 14.79		 15.40		 15.32
10:28:57	 15.11		 14.71		 15.49		 15.14
10:28:58	 15.03		 14.62		 15.40		 15.06
10:28:58	 14.97		 14.53		 15.32		 15.06
10:28:59	 15.03		 14.62		 15.32		 15.14
10:29:00	 14.62		 13.22		 15.40		 15.23
10:29:01	 15.06		 14.71		 15.32		 15.14
10:29:02	 15.00		 14.53		 15.32		 15.14
10:29:03	 14.91		 14.53		 15.32		 14.88
10:29:04	 14.88		 14.44		 15.23		 14.97
10:29:05	 14.91		 14.44		 15.32		 14.97
10:29:06	 14.97		 14.53		 15.23		 15.14
10:29:07	 14.97		 14.53		 15.23		 15.14
10:29:07	 14.94		 14.53		 15.23		 15.06
10:29:08	 14.85		 14.44		 15.23		 14.88
10:29:09	 14.82		 14.36		 15.23		 14.88
10:29:10	 14.88		 14.44		 15.23		 14.97
10:29:11	 14.91		 14.53		 15.14		 15.06
10:29:12	 14.91		 14.53		 15.14		 15.06
10:29:13	 14.88		 14.53		 15.14		 14.97
10:29:14	 14.94		 14.44		 15.23		 15.14
10:29:15	 14.82		 14.36		 15.23		 14.88
10:29:16	 14.85		 14.36		 15.32		 14.88
10:29:16	 14.85		 14.44		 15.14		 14.97
10:29:17	 14.88		 14.44		 15.14		 15.06
10:29:18	 14.88		 14.44		 15.23		 14.97
10:29:19	 14.85		 14.36		 15.23		 14.97
10:29:20	 14.76		 14.36		 15.14		 14.79
10:29:21	 14.82		 14.36		 15.23		 14.88
10:29:22	 14.91		 14.53		 15.14		 15.06
10:29:23	 14.88		 14.44		 15.14		 15.06
10:29:24	 14.91		 14.53		 15.23		 14.97
10:29:25	 14.82		 14.36		 15.23		 14.88
10:29:26	 14.82		 14.36		 15.32		 14.79
10:29:26	 14.79		 14.36		 15.14		 14.88
10:29:27	 14.91		 14.62		 15.14		 14.97
10:29:28	 14.94		 14.62		 15.14		 15.06
10:29:29	 14.94		 14.62		 15.23		 14.97
10:29:30	 14.88		 14.44		 15.32		 14.88
10:29:31	 14.85		 14.44		 15.23		 14.88
10:29:32	 14.91		 14.44		 15.23		 15.06
10:29:33	 15.03		 14.62		 15.32		 15.14
10:29:34	 15.00		 14.62		 15.23		 15.14
10:29:35	 15.00		 14.62		 15.32		 15.06
10:29:35	 14.97		 14.53		 15.40		 14.97
10:29:36	 15.00		 14.53		 15.40		 15.06
10:29:37	 15.09		 14.71		 15.32		 15.23
10:29:38	 15.14		 14.79		 15.40		 15.23
10:29:39	 15.11		 14.79		 15.40		 15.14
10:29:40	 15.03		 14.62		 15.40		 15.06
10:29:41	 15.03		 14.62		 15.40		 15.06
10:29:42	 15.14		 14.71		 15.49		 15.23
10:29:43	 15.23		 14.88		 15.49		 15.32
10:29:44	 15.23		 14.88		 15.49		 15.32
10:29:44	 15.17		 14.79		 15.49		 15.23
10:29:45	 15.14		 14.71		 15.58		 15.14
10:29:46	 15.17		 14.71		 15.58		 15.23
10:29:47	 15.20		 14.79		 15.49		 15.32
10:29:48	 15.32		 14.97		 15.49		 15.49
10:29:49	 15.26		 14.97		 15.49		 15.32
10:29:50	 15.26		 14.88		 15.66		 15.23
10:29:51	 15.23		 14.88		 15.66		 15.14
10:29:52	 15.26		 14.88		 15.58		 15.32
10:29:53	 15.35		 14.97		 15.58		 15.49
10:29:53	 15.40		 15.06		 15.66		 15.49
10:29:54	 15.43		 15.06		 15.75		 15.49
10:29:55	 15.37		 14.97		 15.75		 15.40
10:29:56	 15.29		 14.88		 15.75		 15.23
10:29:57	 15.40		 14.97		 15.84		 15.40
10:29:58	 15.43		 15.06		 15.75		 15.49
10:29:59	 15.46		 15.14		 15.66		 15.58
10:30:00	 15.49		 15.06		 15.75		 15.66
10:30:01	 15.49		 15.14		 15.84		 15.49
10:30:02	 15.49		 15.14		 15.84		 15.49
10:30:03	 15.46		 15.06		 15.84		 15.49
10:30:03	 15.46		 15.06		 15.84		 15.49
10:30:04	 15.52		 15.14		 15.84		 15.58
10:30:05	 15.64		 15.23		 15.84		 15.84
10:30:06	 15.64		 15.32		 15.84		 15.75
10:30:07	 15.61		 15.23		 15.93		 15.66
10:30:08	 15.58		 15.14		 16.01		 15.58
10:30:09	 15.58		 15.14		 16.01		 15.58
10:30:10	 15.55		 15.14		 15.93		 15.58
10:30:11	 15.64		 15.32		 15.84		 15.75
10:30:12	 15.69		 15.40		 15.84		 15.84
10:30:12	 15.67		 15.32		 15.93		 15.75
10:30:13	 15.66		 15.32		 16.01		 15.66
10:30:14	 15.63		 15.23		 16.01		 15.66
10:30:15	 15.58		 15.14		 16.01		 15.58
10:30:16	 15.63		 15.23		 16.01		 15.66
10:30:17	 15.67		 15.32		 15.93		 15.75
10:30:18	 15.72		 15.40		 15.93		 15.84
10:30:19	 15.72		 15.40		 15.93		 15.84
10:30:20	 15.67		 15.32		 15.93		 15.75
10:30:21	 15.63		 15.23		 16.01		 15.66
10:30:22	 15.69		 15.14		 16.01		 15.93
10:30:22	 15.66		 15.23		 16.01		 15.75
10:30:23	 15.60		 15.14		 16.01		 15.66
10:30:24	 15.67		 15.32		 15.93		 15.75
10:30:25	 15.70		 15.32		 15.93		 15.84
10:30:26	 15.70		 15.32		 15.93		 15.84
10:30:27	 15.66		 15.23		 16.01		 15.75
10:30:28	 15.58		 15.14		 15.93		 15.66
10:30:29	 15.52		 15.06		 15.93		 15.58
10:30:30	 15.58		 15.23		 15.93		 15.58
10:30:31	 15.55		 15.14		 15.84		 15.66
10:30:31	 15.61		 15.14		 15.93		 15.75
10:30:32	 15.61		 15.23		 15.84		 15.75
10:30:33	 15.61		 15.23		 15.93		 15.66
10:30:34	 15.52		 15.14		 15.84		 15.58
10:30:35	 15.49		 14.97		 15.93		 15.58
10:30:36	 15.43		 14.97		 15.84		 15.49
10:30:37	 15.46		 15.06		 15.84		 15.49
10:30:38	 15.46		 15.06		 15.75		 15.58
10:30:39	 15.46		 15.06		 15.75		 15.58
10:30:40	 15.52		 15.14		 15.66		 15.75
10:30:40	 15.46		 15.06		 15.75		 15.58
10:30:41	 15.31		 14.88		 15.66		 15.40
10:30:42	 15.40		 15.14		 15.66		 15.40
10:30:43	 15.32		 14.88		 15.75		 15.32
10:30:44	 15.34		 14.97		 15.66		 15.40
10:30:45	 15.32		 14.97		 15.58		 15.40
10:30:46	 15.35		 14.97		 15.58		 15.49
10:30:47	 15.37		 14.97		 15.66		 15.49
10:30:48	 15.29		 14.97		 15.49		 15.40
10:30:49	 15.23		 14.79		 15.58		 15.32
10:30:50	 15.17		 14.71		 15.58		 15.23
10:30:50	 15.11		 14.71		 15.49		 15.14
10:30:51	 15.11		 14.71		 15.49		 15.14
10:30:52	 15.17		 14.79		 15.49		 15.23
10:30:53	 15.20		 14.79		 15.49		 15.32
10:30:54	 15.17		 14.79		 15.40		 15.32
10:30:55	 15.14		 14.71		 15.40		 15.32
10:30:56	 15.11		 14.71		 15.40		 15.23
10:30:57	 15.14		 14.71		 15.49		 15.23
10:30:58	 15.03		 14.62		 15.40		 15.06
10:30:59	 15.03		 14.53		 15.49		 15.06
10:30:59	 15.03		 14.71		 15.32		 15.06
10:31:00	 15.02		 14.53		 15.40		 15.14
10:31:01	 15.06		 14.62		 15.32		 15.23
10:31:02	 15.09		 14.71		 15.32		 15.23
10:31:03	 15.03		 14.62		 15.32		 15.14
10:31:04	 15.00		 14.53		 15.32		 15.14
10:31:05	 14.97		 14.53		 15.32		 15.06
10:31:06	 14.88		 14.36		 15.32		 14.97
10:31:07	 14.82		 14.36		 15.23		 14.88
10:31:08	 14.88		 14.53		 15.23		 14.88
10:31:08	 14.88		 14.53		 15.14		 14.97
10:31:09	 14.94		 14.53		 15.23		 15.06
10:31:10	 14.94		 14.53		 15.23		 15.06
10:31:11	 14.91		 14.53		 15.14		 15.06
10:31:12	 14.88		 14.44		 15.23		 14.97
10:31:13	 14.85		 14.44		 15.23		 14.88
10:31:14	 14.91		 14.36		 15.23		 15.14
10:31:15	 14.79		 14.36		 15.23		 14.79
10:31:16	 14.85		 14.44		 15.23		 14.88
10:31:17	 14.82		 14.44		 15.06		 14.97
10:31:17	 14.88		 14.53		 15.06		 15.06
10:31:18	 14.85		 14.53		 15.06		 14.97
10:31:19	 14.91		 14.53		 15.23		 14.97
10:31:20	 14.82		 14.44		 15.14		 14.88
10:31:21	 14.76		 14.36		 15.14		 14.79
10:31:22	 14.76		 14.27		 15.23		 14.79
10:31:23	 14.76		 14.36		 15.14		 14.79
10:31:24	 14.79		 14.44		 15.14		 14.79
10:31:25	 14.82		 14.44		 15.14		 14.88
10:31:26	 14.67		 14.44		 15.14		 14.44
10:31:27	 14.88		 14.53		 15.14		 14.97
10:31:27	 14.94		 14.53		 15.14		 15.14
10:31:28	 14.94		 14.62		 15.14		 15.06
10:31:29	 14.91		 14.53		 15.23		 14.97
10:31:30	 14.88		 14.44		 15.23		 14.97
10:31:31	 14.85		 14.44		 15.23		 14.88
10:31:32	 14.88		 14.44		 15.32		 14.88
10:31:33	 14.85		 14.44		 15.23		 14.88
10:31:34	 14.88		 14.53		 15.23		 14.88
10:31:35	 14.91		 14.53		 15.23		 14.97
10:31:36	 14.97		 14.62		 15.23		 15.06
10:31:36	 15.03		 14.71		 15.23		 15.14
10:31:37	 15.03		 14.71		 15.23		 15.14
10:31:38	 15.09		 14.71		 15.32		 15.23
10:31:39	 15.03		 14.62		 15.32		 15.14
10:31:40	 15.05		 14.62		 15.40		 15.14
10:31:41	 15.00		 14.62		 15.32		 15.06
10:31:42	 15.03		 14.62		 15.49		 14.97
10:31:43	 15.09		 14.71		 15.49		 15.06
10:31:44	 15.06		 14.71		 15.40		 15.06
10:31:45	 15.08		 14.71		 15.40		 15.14
10:31:45	 15.20		 14.88		 15.40		 15.32
10:31:46	 15.20		 14.88		 15.40		 15.32
10:31:47	 15.26		 14.88		 15.49		 15.40
10:31:48	 15.26		 14.97		 15.49		 15.32
10:31:49	 15.23		 14.88		 15.49		 15.32
10:31:50	 15.20		 14.79		 15.58		 15.23
10:31:51	 15.20		 14.79		 15.58		 15.23
10:31:52	 15.20		 14.79		 15.66		 15.14
10:31:53	 15.26		 14.88		 15.58		 15.32
10:31:54	 15.26		 14.88		 15.58		 15.32
10:31:55	 15.32		 14.97		 15.58		 15.40
10:31:55	 15.35		 14.97		 15.58		 15.49
10:31:56	 15.43		 15.14		 15.66		 15.49
10:31:57	 15.40		 15.06		 15.66		 15.49
10:31:58	 15.40		 15.06		 15.66		 15.49
10:31:59	 15.43		 15.06		 15.75		 15.49
10:32:00	 15.49		 15.06		 16.01		 15.40
10:32:01	 15.40		 14.97		 15.84		 15.40
10:32:02	 15.40		 14.97		 15.84		 15.40
10:32:03	 15.43		 15.06		 15.75		 15.49
10:32:04	 15.43		 15.06		 15.75		 15.49
10:32:04	 15.43		 15.06		 15.75		 15.49
10:32:05	 15.55		 15.23		 15.75		 15.66
10:32:06	 15.61		 15.23		 15.84		 15.75
10:32:07	 15.58		 15.23		 15.75		 15.75
10:32:08	 15.64		 15.32		 15.84		 15.75
10:32:09	 15.64		 15.23		 15.93		 15.75
10:32:10	 15.61		 15.23		 15.93		 15.66
10:32:11	 15.58		 15.23		 15.84		 15.66
10:32:12	 15.61		 15.23		 16.01		 15.58
10:32:13	 15.52		 15.14		 15.84		 15.58
10:32:13	 15.55		 15.14		 15.93		 15.58
10:32:14	 15.58		 15.23		 15.93		 15.58
10:32:15	 15.64		 15.23		 15.93		 15.75
10:32:16	 15.64		 15.32		 15.84		 15.75
10:32:17	 15.70		 15.32		 15.93		 15.84
10:32:18	 15.70		 15.32		 15.93		 15.84
10:32:19	 15.69		 15.32		 16.01		 15.75
10:32:20	 15.69		 15.32		 16.01		 15.75
10:32:21	 15.61		 15.14		 15.93		 15.75
10:32:22	 15.58		 15.23		 15.93		 15.58
10:32:23	 15.63		 15.23		 16.01		 15.66
10:32:23	 15.55		 15.14		 15.93		 15.58
10:32:24	 15.58		 15.23		 15.93		 15.58
10:32:25	 16.10		 16.62		 16.01		 15.66
10:32:26	 15.58		 15.23		 15.84		 15.66
10:32:27	 15.61		 15.23		 15.93		 15.66
10:32:28	 15.64		 15.32		 15.84		 15.75
10:32:29	 15.64		 15.23		 15.93		 15.75
10:32:30	 15.67		 15.32		 15.93		 15.75
10:32:31	 15.58		 15.23		 15.84		 15.66
10:32:32	 15.61		 15.23		 15.93		 15.66
10:32:32	 15.52		 15.06		 15.84		 15.66
10:32:33	 15.49		 15.06		 15.93		 15.49
10:32:34	 15.49		 15.06		 15.93		 15.49
10:32:35	 15.46		 14.97		 15.93		 15.49
10:32:36	 15.43		 14.97		 15.84		 15.49
10:32:37	 15.40		 14.97		 15.75		 15.49
10:32:38	 15.49		 15.06		 15.84		 15.58
10:32:39	 15.46		 15.06		 15.75		 15.58
10:32:40	 15.46		 15.06		 15.66		 15.66
10:32:41	 15.49		 15.14		 15.75		 15.58
10:32:41	 15.43		 15.06		 15.66		 15.58
10:32:42	 15.37		 14.97		 15.66		 15.49
10:32:43	 14.76		 14.97		 15.66		 13.66
10:32:44	 15.34		 14.88		 15.75		 15.40
10:32:45	 15.23		 14.71		 15.66		 15.32
10:32:46	 15.29		 14.88		 15.66		 15.32
10:32:47	 15.29		 14.88		 15.58		 15.40
10:32:48	 15.32		 14.97		 15.58		 15.40
10:32:49	 15.35		 14.97		 15.58		 15.49
10:32:50	 15.29		 14.97		 15.49		 15.40
10:32:51	 15.35		 14.97		 15.58		 15.49
10:32:51	 15.32		 14.97		 15.49		 15.49
10:32:52	 15.26		 14.88		 15.58		 15.32
10:32:53	 15.20		 14.79		 15.58		 15.23
10:32:54	 15.20		 14.79		 15.58		 15.23
10:32:55	 15.17		 14.79		 15.58		 15.14
10:32:56	 15.11		 14.71		 15.49		 15.14
10:32:57	 15.17		 14.79		 15.49		 15.23
10:32:58	 15.20		 14.79		 15.49		 15.32
10:32:59	 15.17		 14.79		 15.40		 15.32
10:33:00	 15.20		 14.79		 15.49		 15.32
10:33:00	 15.17		 14.79		 15.40		 15.32
10:33:01	 15.14		 14.71		 15.49		 15.23
10:33:02	 15.14		 14.79		 15.40		 15.23
10:33:03	 15.11		 14.71		 15.49		 15.14
10:33:04	 15.03		 14.62		 15.40		 15.06
10:33:05	 15.00		 14.53		 15.40		 15.06
10:33:06	 15.08		 14.71		 15.40		 15.14
10:33:07	 15.03		 14.62		 15.40		 15.06
10:33:08	 15.09		 14.71		 15.32		 15.23
10:33:09	 15.11		 14.71		 15.40		 15.23
10:33:09	 15.09		 14.71		 15.32		 15.23
10:33:10	 15.14		 14.79		 15.40		 15.23
10:33:11	 15.06		 14.62		 15.32		 15.23
10:33:12	 15.03		 14.62		 15.32		 15.14
10:33:13	 15.03		 14.62		 15.32		 15.14
10:33:14	 15.00		 14.53		 15.40		 15.06
10:33:15	 14.94		 14.44		 15.40		 14.97
10:33:16	 14.94		 14.44		 15.40		 14.97
10:33:17	 14.88		 14.44		 15.32		 14.88
10:33:18	 14.88		 14.44		 15.23		 14.97
10:33:19	 14.88		 14.44		 15.23		 14.97
10:33:19	 14.88		 14.44		 15.23		 14.97
10:33:20	 14.97		 14.53		 15.32		 15.06
10:33:21	 14.94		 14.53		 15.23		 15.06
10:33:22	 14.91		 14.53		 15.23		 14.97
10:33:23	 14.97		 14.62		 15.23		 15.06
10:33:24	 15.00		 14.62		 15.23		 15.14
10:33:25	 15.00		 14.62		 15.23		 15.14
10:33:26	 15.00		 14.62		 15.23		 15.14
10:33:27	 14.97		 14.53		 15.32		 15.06
10:33:28	 14.94		 14.53		 15.23		 15.06
10:33:28	 14.97		 14.62		 15.23		 15.06
10:33:29	 14.94		 14.44		 15.32		 15.06
10:33:30	 15.06		 14.53		 15.58		 15.06
10:33:31	 14.94		 14.53		 15.32		 14.97
10:33:32	 14.91		 14.44		 15.32		 14.97
10:33:33	 14.94		 14.53		 15.32		 14.97
10:33:34	 14.88		 14.44		 15.32		 14.88
10:33:35	 14.88		 14.53		 15.32		 14.79
10:33:36	 14.97		 14.62		 15.32		 14.97
10:33:37	 14.97		 14.53		 15.40		 14.97
10:33:37	 15.00		 14.62		 15.32		 15.06
10:33:38	 15.03		 14.62		 15.32		 15.14
10:33:39	 15.00		 14.62		 15.32		 15.06
10:33:40	 15.06		 14.71		 15.32		 15.14
10:33:41	 15.11		 14.79		 15.40		 15.14
10:33:42	 15.09		 14.71		 15.32		 15.23
10:33:43	 15.17		 14.88		 15.32		 15.32
10:33:44	 15.17		 14.79		 15.40		 15.32
10:33:45	 15.23		 14.88		 15.40		 15.40
10:33:46	 15.20		 14.88		 15.40		 15.32
10:33:47	 15.23		 14.88		 15.49		 15.32
10:33:47	 15.17		 14.79		 15.40		 15.32
10:33:48	 15.23		 14.88		 15.49		 15.32
10:33:49	 15.23		 14.79		 15.58		 15.32
10:33:50	 15.23		 14.79		 15.58		 15.32
10:33:51	 15.23		 14.79		 15.58		 15.32
10:33:52	 15.20		 14.79		 15.58		 15.23
10:33:53	 15.26		 14.88		 15.58		 15.32
10:33:54	 15.26		 14.88		 15.66		 15.23
10:33:55	 15.23		 14.88		 15.66		 15.14
10:33:56	 15.29		 14.88		 15.66		 15.32
10:33:56	 15.29		 14.88		 15.66		 15.32
10:33:57	 15.32		 14.97		 15.66		 15.32
10:33:58	 15.32		 14.97		 15.66		 15.32
10:33:59	 15.35		 14.97		 15.75		 15.32
10:34:00	 15.37		 15.06		 15.66		 15.40
10:34:01	 15.37		 14.97		 15.75		 15.40
10:34:02	 15.34		 14.97		 15.66		 15.40
10:34:03	 15.40		 15.06		 15.75		 15.40
10:34:04	 15.46		 15.14		 15.66		 15.58
10:34:05	 15.46		 15.14		 15.75		 15.49
10:34:05	 15.49		 15.14		 15.75		 15.58
10:34:06	 15.52		 15.14		 15.75		 15.66
10:34:07	 15.49		 15.14		 15.75		 15.58
10:34:08	 15.55		 15.23		 15.75		 15.66
10:34:09	 15.55		 15.14		 15.84		 15.66
10:34:10	 15.61		 15.32		 15.84		 15.66
10:34:11	 15.61		 15.23		 15.84		 15.75
10:34:12	 15.64		 15.32		 15.84		 15.75
10:34:13	 15.67		 15.32		 15.84		 15.84
10:34:14	 15.61		 15.23		 15.84		 15.75
10:34:15	 15.64		 15.32		 15.84		 15.75
10:34:15	 15.61		 15.23		 15.84		 15.75
10:34:16	 15.61		 15.23		 15.84		 15.75
10:34:17	 15.70		 15.32		 15.93		 15.84
10:34:18	 15.67		 15.32		 15.93		 15.75
10:34:19	 15.61		 15.23		 15.84		 15.75
10:34:20	 15.64		 15.23		 15.93		 15.75
10:34:21	 15.64		 15.23		 15.93		 15.75
10:34:22	 15.64		 15.23		 15.93		 15.75
10:34:23	 15.64		 15.23		 15.93		 15.75
10:34:24	 15.64		 15.23		 15.93		 15.75
10:34:24	 15.58		 15.23		 15.84		 15.66
10:34:25	 15.64		 15.23		 15.93		 15.75
10:34:26	 15.61		 15.23		 15.93		 15.66
10:34:27	 15.58		 15.14		 15.93		 15.66
10:34:28	 15.61		 15.23		 15.93		 15.66
10:34:29	 15.58		 15.14		 15.93		 15.66
10:34:30	 15.52		 15.14		 15.84		 15.58
10:34:31	 15.52		 15.06		 15.93		 15.58
10:34:32	 15.52		 15.06		 15.93		 15.58
10:34:33	 15.49		 15.06		 15.93		 15.49
10:34:33	 15.49		 15.06		 15.93		 15.49
10:34:34	 15.43		 14.97		 15.84		 15.49
10:34:35	 15.40		 14.88		 15.84		 15.49
10:34:36	 15.46		 15.06		 15.84		 15.49
10:34:37	 15.40		 14.97		 15.84		 15.40
10:34:38	 15.49		 15.06		 15.84		 15.58
10:34:39	 15.37		 14.97		 15.75		 15.40
10:34:40	 15.35		 14.97		 15.75		 15.32
10:34:41	 15.40		 14.97		 15.75		 15.49
10:34:42	 15.37		 14.97		 15.75		 15.40
10:34:43	 15.37		 14.97		 15.75		 15.40
10:34:43	 15.34		 14.97		 15.66		 15.40
10:34:44	 15.34		 14.97		 15.66		 15.40
10:34:45	 15.37		 15.06		 15.66		 15.40
10:34:46	 15.34		 14.97		 15.66		 15.40
10:34:47	 15.35		 14.97		 15.58		 15.49
10:34:48	 15.35		 14.97		 15.58		 15.49
10:34:49	 15.35		 14.97		 15.58		 15.49
10:34:50	 15.35		 14.97		 15.58		 15.49
10:34:51	 15.35		 14.97		 15.58		 15.49
10:34:52	 15.38		 14.97		 15.58		 15.58
10:34:52	 15.11		 14.88		 15.40		 15.06
10:34:53	 15.23		 14.79		 15.49		 15.40
10:34:54	 15.17		 14.71		 15.49		 15.32
10:34:55	 15.23		 14.79		 15.58		 15.32
10:34:56	 15.23		 14.79		 15.58		 15.32
10:34:57	 15.20		 14.71		 15.58		 15.32
10:34:58	 15.14		 14.71		 15.49		 15.23
10:34:59	 15.11		 14.71		 15.49		 15.14
10:35:00	 15.14		 14.71		 15.58		 15.14
10:35:01	 15.08		 14.71		 15.40		 15.14
10:35:01	 15.11		 14.71		 15.49		 15.14
10:35:02	 15.09		 14.71		 15.49		 15.06
10:35:03	 15.05		 14.62		 15.40		 15.14
10:35:04	 15.00		 14.53		 15.40		 15.06
10:35:05	 15.06		 14.62		 15.49		 15.06
10:35:06	 15.06		 14.62		 15.49		 15.06
10:35:07	 15.03		 14.62		 15.40		 15.06
10:35:08	 15.06		 14.71		 15.40		 15.06
10:35:09	 15.00		 14.62		 15.32		 15.06
10:35:10	 15.03		 14.62		 15.40		 15.06
10:35:10	 15.00		 14.62		 15.32		 15.06
10:35:11	 15.00		 14.62		 15.32		 15.06
10:35:12	 15.06		 14.71		 15.32		 15.14
10:35:13	 15.00		 14.62		 15.23		 15.14
10:35:14	 15.09		 14.71		 15.32		 15.23
10:35:15	 15.06		 14.71		 15.23		 15.23
10:35:16	 15.06		 14.71		 15.23		 15.23
10:35:17	 15.03		 14.62		 15.32		 15.14
10:35:18	 15.06		 14.71		 15.32		 15.14
10:35:19	 15.00		 14.62		 15.23		 15.14
10:35:20	 15.03		 14.62		 15.32		 15.14
10:35:20	 14.97		 14.53		 15.32		 15.06
10:35:21	 14.97		 14.53		 15.40		 14.97
10:35:22	 14.94		 14.53		 15.32		 14.97
10:35:23	 14.91		 14.44		 15.32		 14.97
10:35:24	 14.94		 14.53		 15.32		 14.97
10:35:25	 14.91		 14.53		 15.32		 14.88
10:35:26	 14.94		 14.53		 15.23		 15.06
10:35:27	 15.00		 14.62		 15.32		 15.06
10:35:28	 15.00		 14.71		 15.23		 15.06
10:35:29	 15.00		 14.62		 15.23		 15.14
10:35:29	 15.03		 14.62		 15.32		 15.14
10:35:30	 15.06		 14.71		 15.23		 15.23
10:35:31	 15.06		 14.62		 15.32		 15.23
10:35:32	 15.03		 14.62		 15.32		 15.14
10:35:33	 14.97		 14.53		 15.32		 15.06
10:35:34	 14.94		 14.53		 15.32		 14.97
10:35:35	 14.97		 14.53		 15.40		 14.97
10:35:36	 14.94		 14.53		 15.32		 14.97
10:35:37	 14.97		 14.62		 15.32		 14.97
10:35:38	 15.00		 14.62		 15.32		 15.06
10:35:39	 15.11		 14.71		 15.40		 15.23
10:35:39	 15.08		 14.79		 15.32		 15.14
10:35:40	 15.12		 14.71		 15.32		 15.32
10:35:41	 15.06		 14.71		 15.32		 15.14
10:35:42	 15.11		 14.71		 15.40		 15.23
10:35:43	 14.94		 14.71		 15.40		 14.71
10:35:44	 15.05		 14.62		 15.40		 15.14
10:35:45	 15.03		 14.53		 15.49		 15.06
10:35:46	 15.09		 14.71		 15.49		 15.06
10:35:47	 15.08		 14.71		 15.40		 15.14
10:35:48	 15.08		 14.71		 15.40		 15.14
10:35:48	 15.14		 14.79		 15.40		 15.23
10:35:49	 15.23		 14.88		 15.49		 15.32
10:35:50	 15.23		 14.88		 15.40		 15.40
10:35:51	 15.23		 14.88		 15.40		 15.40
10:35:52	 15.26		 14.88		 15.49		 15.40
10:35:53	 15.20		 14.79		 15.49		 15.32
10:35:54	 15.23		 14.79		 15.58		 15.32
10:35:55	 15.20		 14.71		 15.66		 15.23
10:35:56	 15.17		 14.79		 15.58		 15.14
10:35:57	 15.20		 14.79		 15.58		 15.23
10:35:57	 15.20		 14.79		 15.58		 15.23
10:35:58	 15.23		 14.88		 15.58		 15.23
10:35:59	 15.26		 14.97		 15.49		 15.32
10:36:00	 15.29		 14.88		 15.58		 15.40
10:36:01	 15.29		 14.97		 15.49		 15.40
10:36:02	 15.38		 15.06		 15.58		 15.49
10:36:03	 15.40		 15.06		 15.66		 15.49
10:36:04	 15.40		 15.06		 15.66		 15.49
10:36:05	 15.40		 14.97		 15.66		 15.58
10:36:06	 15.37		 14.97		 15.66		 15.49
10:36:07	 15.84		 16.36		 15.75		 15.40
10:36:07	 15.34		 14.88		 15.75		 15.40
10:36:08	 15.35		 14.97		 15.75		 15.32
10:36:09	 15.32		 14.97		 15.66		 15.32
10:36:10	 15.40		 14.97		 15.75		 15.49
10:36:11	 15.37		 15.06		 15.66		 15.40
10:36:12	 15.46		 15.14		 15.75		 15.49
10:36:13	 15.46		 15.14		 15.66		 15.58
10:36:14	 15.49		 15.14		 15.75		 15.58
10:36:15	 15.52		 15.14		 15.75		 15.66
10:36:16	 15.49		 15.14		 15.66		 15.66
10:36:16	 15.52		 15.14		 15.75		 15.66
10:36:17	 15.55		 15.14		 15.84		 15.66
10:36:18	 15.49		 15.14		 15.75		 15.58
10:36:19	 15.46		 15.06		 15.75		 15.58
10:36:20	 15.46		 15.06		 15.84		 15.49
10:36:21	 15.43		 14.97		 15.84		 15.49
10:36:22	 15.46		 15.06		 15.84		 15.49
10:36:23	 15.46		 15.06		 15.84		 15.49
10:36:24	 15.46		 15.06		 15.84		 15.49
10:36:25	 15.46		 15.06		 15.75		 15.58
10:36:25	 15.58		 15.23		 15.93		 15.58
10:36:26	 15.58		 15.23		 15.84		 15.66
10:36:27	 15.55		 15.23		 15.75		 15.66
10:36:28	 15.61		 15.32		 15.75		 15.75
10:36:29	 15.64		 15.32		 15.84		 15.75
10:36:30	 15.64		 15.32		 15.84		 15.75
10:36:31	 15.40		 15.23		 15.84		 15.14
10:36:32	 15.55		 15.14		 15.84		 15.66
10:36:33	 15.55		 15.14		 15.93		 15.58
10:36:34	 15.46		 15.06		 15.84		 15.49
10:36:34	 15.46		 15.06		 15.84		 15.49
10:36:35	 15.46		 15.06		 15.84		 15.49
10:36:36	 15.52		 15.06		 15.93		 15.58
10:36:37	 15.49		 15.14		 15.84		 15.49
10:36:38	 15.52		 15.14		 15.84		 15.58
10:36:39	 15.58		 15.23		 15.75		 15.75
10:36:40	 15.52		 15.14		 15.75		 15.66
10:36:41	 15.61		 15.23		 15.84		 15.75
10:36:42	 15.58		 15.23		 15.84		 15.66
10:36:43	 15.52		 15.14		 15.84		 15.58
10:36:44	 15.49		 15.06		 15.84		 15.58
10:36:44	 15.49		 15.06		 15.93		 15.49
10:36:45	 15.43		 15.06		 15.84		 15.40
10:36:46	 15.43		 15.06		 15.75		 15.49
10:36:47	 15.46		 15.06		 15.75		 15.58
10:36:48	 15.49		 15.06		 15.75		 15.66
10:36:49	 15.46		 15.06		 15.66		 15.66
10:36:50	 15.46		 15.14		 15.66		 15.58
10:36:51	 15.49		 15.14		 15.75		 15.58
10:36:52	 15.46		 15.06		 15.75		 15.58
10:36:53	 15.43		 14.97		 15.84		 15.49
10:36:53	 15.40		 14.97		 15.84		 15.40
10:36:54	 15.35		 14.97		 15.75		 15.32
10:36:55	 15.37		 14.97		 15.66		 15.49
10:36:56	 15.40		 15.06		 15.66		 15.49
10:36:57	 15.43		 15.06		 15.66		 15.58
10:36:58	 15.43		 15.06		 15.66		 15.58
10:36:59	 15.40		 14.97		 15.66		 15.58
10:37:00	 15.37		 14.97		 15.66		 15.49
10:37:01	 15.31		 14.88		 15.66		 15.40
10:37:02	 15.29		 14.88		 15.75		 15.23
10:37:02	 15.28		 14.79		 15.66		 15.40
10:37:03	 15.34		 14.97		 15.66		 15.40
10:37:04	 15.40		 14.97		 15.58		 15.66
10:37:05	 15.35		 14.97		 15.58		 15.49
10:37:06	 15.35		 14.97		 15.58		 15.49
10:37:07	 15.35		 14.97		 15.58		 15.49
10:37:08	 15.29		 14.88		 15.66		 15.32
10:37:09	 15.23		 14.79		 15.66		 15.23
10:37:10	 15.23		 14.79		 15.66		 15.23
10:37:11	 15.26		 14.79		 15.66		 15.32
10:37:12	 15.26		 14.88		 15.49		 15.40
10:37:12	 15.26		 14.88		 15.49		 15.40
10:37:13	 15.32		 14.88		 15.58		 15.49
10:37:14	 15.29		 14.88		 15.58		 15.40
10:37:15	 15.23		 14.79		 15.58		 15.32
10:37:16	 15.17		 14.71		 15.58		 15.23
10:37:17	 15.14		 14.71		 15.58		 15.14
10:37:18	 15.17		 14.79		 15.58		 15.14
10:37:19	 15.20		 14.79		 15.49		 15.32
10:37:20	 15.17		 14.79		 15.40		 15.32
10:37:21	 15.29		 14.97		 15.49		 15.40
10:37:21	 15.26		 14.88		 15.49		 15.40
10:37:22	 15.20		 14.79		 15.58		 15.23
10:37:23	 15.17		 14.71		 15.58		 15.23
10:37:24	 15.12		 14.71		 15.58		 15.06
10:37:25	 15.14		 14.71		 15.49		 15.23
10:37:26	 15.17		 14.79		 15.40		 15.32
10:37:27	 15.17		 14.79		 15.40		 15.32
10:37:28	 15.23		 14.88		 15.49		 15.32
10:37:29	 15.17		 14.79		 15.49		 15.23
10:37:30	 15.08		 14.71		 15.40		 15.14
10:37:30	 15.09		 14.71		 15.49		 15.06
10:37:31	 15.11		 14.71		 15.49		 15.14
10:37:32	 15.20		 14.79		 15.49		 15.32
10:37:33	 15.20		 14.88		 15.32		 15.40
10:37:34	 15.08		 14.62		 15.40		 15.23
10:37:35	 15.09		 14.71		 15.49		 15.06
10:37:36	 15.06		 14.62		 15.49		 15.06
10:37:37	 15.05		 14.62		 15.40		 15.14
10:37:38	 15.11		 14.79		 15.32		 15.23
10:37:39	 15.20		 14.88		 15.40		 15.32
10:37:40	 15.06		 14.71		 15.32		 15.14
10:37:40	 15.03		 14.62		 15.40		 15.06
10:37:41	 15.00		 14.53		 15.40		 15.06
10:37:42	 15.11		 14.71		 15.40		 15.23
10:37:43	 15.09		 14.71		 15.32		 15.23
10:37:44	 15.09		 14.71		 15.32		 15.23
10:37:45	 15.06		 14.71		 15.32		 15.14
10:37:46	 14.94		 14.53		 15.32		 14.97
10:37:47	 15.00		 14.62		 15.40		 14.97
10:37:48	 15.06		 14.62		 15.32		 15.23
10:37:49	 15.09		 14.71		 15.32		 15.23
10:37:49	 15.08		 14.71		 15.40		 15.14
10:37:50	 14.94		 14.53		 15.32		 14.97
10:37:51	 14.94		 14.53		 15.32		 14.97
10:37:52	 15.00		 14.62		 15.23		 15.14
10:37:53	 15.09		 14.71		 15.32		 15.23
10:37:54	 15.03		 14.62		 15.32		 15.14
10:37:55	 15.00		 14.62		 15.40		 14.97
10:37:56	 15.00		 14.53		 15.40		 15.06
10:37:57	 15.03		 14.62		 15.32		 15.14
10:37:58	 15.09		 14.71		 15.32		 15.23
10:37:58	 15.03		 14.71		 15.23		 15.14
10:37:59	 15.03		 14.62		 15.40		 15.06
10:38:00	 14.97		 14.53		 15.32		 15.06
10:38:01	 15.03		 14.62		 15.32		 15.14
10:38:02	 15.09		 14.71		 15.32		 15.23
10:38:03	 15.05		 14.62		 15.40		 15.14
10:38:04	 15.00		 14.62		 15.40		 14.97
10:38:05	 15.03		 14.62		 15.40		 15.06
10:38:06	 15.03		 14.62		 15.32		 15.14
10:38:07	 15.06		 14.62		 15.32		 15.23
10:38:08	 15.06		 14.71		 15.32		 15.14
10:38:08	 15.00		 14.62		 15.40		 14.97
10:38:09	 15.00		 14.53		 15.40		 15.06
10:38:10	 15.05		 14.62		 15.40		 15.14
10:38:11	 15.09		 14.71		 15.32		 15.23
10:38:12	 15.08		 14.71		 15.40		 15.14
10:38:13	 15.05		 14.62		 15.40		 15.14
10:38:14	 15.06		 14.62		 15.49		 15.06
10:38:15	 15.05		 14.62		 15.40		 15.14
10:38:16	 15.11		 14.71		 15.40		 15.23
10:38:17	 15.17		 14.79		 15.40		 15.32
10:38:17	 15.14		 14.79		 15.40		 15.23
10:38:18	 15.06		 14.71		 15.40		 15.06
10:38:19	 15.03		 14.62		 15.40		 15.06
10:38:20	 15.05		 14.62		 15.40		 15.14
10:38:21	 15.17		 14.79		 15.40		 15.32
10:38:22	 15.17		 14.79		 15.40		 15.32
10:38:23	 15.08		 14.71		 15.40		 15.14
10:38:24	 15.06		 14.62		 15.49		 15.06
10:38:25	 15.08		 14.62		 15.49		 15.14
10:38:26	 15.14		 14.79		 15.40		 15.23
10:38:26	 15.20		 14.88		 15.32		 15.40
10:38:27	 15.20		 14.79		 15.49		 15.32
10:38:28	 15.14		 14.71		 15.49		 15.23
10:38:29	 15.09		 14.62		 15.58		 15.06
10:38:30	 15.14		 14.79		 15.40		 15.23
10:38:31	 15.23		 14.79		 15.49		 15.40
10:38:32	 15.17		 14.79		 15.40		 15.32
10:38:33	 15.17		 14.71		 15.58		 15.23
10:38:34	 15.11		 14.71		 15.49		 15.14
10:38:35	 15.14		 14.71		 15.49		 15.23
10:38:36	 15.29		 14.97		 15.49		 15.40
10:38:36	 15.23		 14.88		 15.49		 15.32
10:38:37	 15.20		 14.79		 15.58		 15.23
10:38:38	 15.17		 14.79		 15.58		 15.14
10:38:39	 15.23		 14.79		 15.58		 15.32
10:38:40	 15.29		 14.88		 15.49		 15.49
10:38:41	 15.29		 14.97		 15.49		 15.40
10:38:42	 15.23		 14.88		 15.58		 15.23
10:38:43	 15.14		 14.79		 15.58		 15.06
10:38:44	 15.23		 14.79		 15.58		 15.32
10:38:45	 15.32		 14.97		 15.49		 15.49
10:38:45	 15.29		 14.88		 15.58		 15.40
10:38:46	 15.08		 14.44		 15.58		 15.23
10:38:47	 15.20		 14.79		 15.58		 15.23
10:38:48	 15.26		 14.79		 15.58		 15.40
10:38:49	 15.32		 14.97		 15.49		 15.49
10:38:50	 15.32		 14.97		 15.58		 15.40
10:38:51	 15.23		 14.79		 15.58		 15.32
10:38:52	 15.20		 14.79		 15.58		 15.23
10:38:53	 15.29		 14.88		 15.49		 15.49
10:38:54	 15.35		 14.97		 15.58		 15.49
10:38:54	 15.26		 14.88		 15.58		 15.32
10:38:55	 15.23		 14.88		 15.58		 15.23
10:38:56	 15.34		 14.97		 15.66		 15.40
10:38:57	 15.38		 15.06		 15.58		 15.49
10:38:58	 15.32		 14.97		 15.49		 15.49
10:38:59	 15.29		 14.88		 15.66		 15.32
10:39:00	 15.29		 14.97		 15.66		 15.23
10:39:01	 15.34		 14.97		 15.66		 15.40
10:39:02	 15.38		 14.97		 15.58		 15.58
10:39:03	 15.37		 15.06		 15.66		 15.40
10:39:04	 15.34		 14.97		 15.66		 15.40
10:39:04	 15.26		 14.88		 15.58		 15.32
10:39:05	 15.35		 14.97		 15.58		 15.49
10:39:06	 15.38		 14.97		 15.58		 15.58
10:39:07	 15.40		 15.06		 15.66		 15.49
10:39:08	 15.35		 14.97		 15.75		 15.32
10:39:09	 15.37		 14.97		 15.75		 15.40
10:39:10	 15.38		 15.06		 15.58		 15.49
10:39:11	 15.41		 15.06		 15.58		 15.58
10:39:12	 15.37		 15.06		 15.66		 15.40
10:39:13	 15.34		 14.88		 15.75		 15.40
10:39:13	 15.37		 14.97		 15.66		 15.49
10:39:14	 15.43		 15.14		 15.58		 15.58
10:39:15	 15.40		 15.06		 15.66		 15.49
10:39:16	 15.34		 14.97		 15.66		 15.40
10:39:17	 15.37		 14.97		 15.75		 15.40
10:39:18	 15.43		 14.97		 15.75		 15.58
10:39:19	 15.52		 15.14		 15.75		 15.66
10:39:20	 15.34		 14.97		 15.66		 15.40
10:39:21	 15.35		 14.97		 15.75		 15.32
10:39:22	 15.40		 14.97		 15.75		 15.49
10:39:22	 15.46		 15.06		 15.66		 15.66
10:39:23	 15.43		 15.14		 15.66		 15.49
10:39:24	 15.37		 14.97		 15.75		 15.40
10:39:25	 15.37		 14.97		 15.75		 15.40
10:39:26	 15.46		 15.14		 15.66		 15.58
10:39:27	 15.02		 13.74		 15.66		 15.66
10:39:28	 15.46		 15.06		 15.84		 15.49
10:39:29	 15.37		 14.97		 15.75		 15.40
10:39:30	 15.43		 15.06		 15.75		 15.49
10:39:31	 15.49		 15.14		 15.66		 15.66
10:39:32	 15.52		 15.14		 15.84		 15.58
10:39:32	 15.37		 14.97		 15.75		 15.40
10:39:33	 15.37		 14.97		 15.75		 15.40
10:39:34	 15.43		 15.06		 15.66		 15.58
10:39:35	 15.52		 15.14		 15.75		 15.66
10:39:36	 15.43		 15.06		 15.75		 15.49
10:39:37	 15.35		 14.97		 15.75		 15.32
10:39:38	 15.46		 15.06		 15.75		 15.58
10:39:39	 15.49		 15.14		 15.66		 15.66
10:39:40	 15.43		 15.14		 15.66		 15.49
10:39:41	 15.43		 15.06		 15.84		 15.40
10:39:41	 15.40		 14.97		 15.75		 15.49
10:39:42	 15.49		 15.14		 15.75		 15.58
10:39:43	 15.49		 15.14		 15.75		 15.58
10:39:44	 15.40		 14.97		 15.84		 15.40
10:39:45	 15.37		 14.97		 15.75		 15.40
10:39:46	 15.46		 15.14		 15.66		 15.58
10:39:47	 15.49		 15.14		 15.75		 15.58
10:39:48	 15.40		 15.06		 15.75		 15.40
10:39:49	 15.34		 14.88		 15.75		 15.40
10:39:50	 15.46		 15.06		 15.75		 15.58
10:39:50	 15.46		 15.14		 15.66		 15.58
10:39:51	 15.46		 15.14		 15.75		 15.49
10:39:52	 15.37		 14.97		 15.75		 15.40
10:39:53	 15.43		 15.06		 15.75		 15.49
10:39:54	 15.46		 15.06		 15.66		 15.66
10:39:55	 15.49		 15.14		 15.75		 15.58
10:39:56	 15.40		 15.06		 15.75		 15.40
10:39:57	 15.40		 14.97		 15.75		 15.49
10:39:58	 15.35		 15.06		 15.75		 15.23
10:39:59	 15.49		 15.14		 15.66		 15.66
10:40:00	 15.43		 15.06		 15.75		 15.49
10:40:00	 15.37		 14.97		 15.75		 15.40
10:40:01	 15.43		 15.06		 15.75		 15.49
10:40:02	 15.49		 15.06		 15.75		 15.66
10:40:03	 15.49		 15.14		 15.66		 15.66
10:40:04	 15.98		 15.06		 15.75		 17.14
10:40:05	 15.40		 14.97		 15.84		 15.40
10:40:06	 15.40		 15.06		 15.66		 15.49
10:40:07	 15.49		 15.14		 15.66		 15.66
10:40:08	 15.43		 15.06		 15.75		 15.49
10:40:09	 15.40		 15.06		 15.75		 15.40
10:40:09	 15.34		 14.88		 15.66		 15.49
10:40:10	 15.46		 15.06		 15.75		 15.58
10:40:11	 15.52		 15.14		 15.75		 15.66
10:40:12	 15.43		 15.06		 15.75		 15.49
10:40:13	 15.29		 14.88		 15.58		 15.40
10:40:14	 15.40		 14.97		 15.75		 15.49
10:40:15	 15.46		 15.14		 15.66		 15.58
10:40:16	 15.49		 15.14		 15.75		 15.58
10:40:17	 15.40		 14.97		 15.75		 15.49
10:40:18	 15.32		 14.88		 15.75		 15.32
10:40:18	 15.40		 15.06		 15.66		 15.49
10:40:19	 15.49		 15.06		 15.75		 15.66
10:40:20	 15.49		 15.14		 15.75		 15.58
10:40:21	 15.37		 14.97		 15.75		 15.40
10:40:22	 15.34		 14.88		 15.75		 15.40
10:40:23	 15.46		 15.06		 15.66		 15.66
10:40:24	 15.43		 15.06		 15.66		 15.58
10:40:25	 15.35		 14.97		 15.75		 15.32
10:40:26	 15.34		 14.88		 15.75		 15.40
10:40:27	 15.37		 14.97		 15.66		 15.49
10:40:28	 15.46		 15.06		 15.66		 15.66
10:40:28	 14.94		 13.66		 15.66		 15.49
10:40:29	 15.34		 14.97		 15.66		 15.40
10:40:30	 15.31		 14.88		 15.66		 15.40
10:40:31	 15.40		 14.97		 15.75		 15.49
10:40:32	 15.46		 15.06		 15.66		 15.66
10:40:33	 15.43		 15.06		 15.75		 15.49
10:40:34	 15.31		 14.88		 15.66		 15.40
10:40:35	 15.37		 14.88		 15.75		 15.49
10:40:36	 15.46		 15.06		 15.75		 15.58
10:40:37	 15.37		 14.97		 15.66		 15.49
10:40:37	 15.34		 14.97		 15.66		 15.40
10:40:38	 15.32		 14.97		 15.66		 15.32
10:40:39	 15.43		 15.06		 15.66		 15.58
10:40:40	 15.46		 15.14		 15.66		 15.58
10:40:41	 15.37		 14.97		 15.75		 15.40
10:40:42	 15.32		 14.97		 15.66		 15.32
10:40:43	 15.43		 15.06		 15.66		 15.58
10:40:44	 15.43		 15.06		 15.66		 15.58
10:40:45	 15.40		 15.06		 15.66		 15.49
10:40:46	 15.37		 14.97		 15.75		 15.40
10:40:46	 15.37		 14.97		 15.66		 15.49
10:40:47	 15.43		 15.06		 15.66		 15.58
10:40:48	 15.37		 14.97		 15.66		 15.49
10:40:49	 15.31		 14.88		 15.66		 15.40
10:40:50	 15.34		 14.97		 15.66		 15.40
10:40:51	 15.43		 15.14		 15.66		 15.49
10:40:52	 15.40		 15.06		 15.75		 15.40
10:40:53	 15.32		 14.88		 15.75		 15.32
10:40:54	 15.37		 14.97		 15.66		 15.49
10:40:55	 15.46		 15.06		 15.66		 15.66
10:40:56	 15.40		 15.06		 15.66		 15.49
10:40:56	 15.35		 14.97		 15.75		 15.32
10:40:57	 15.40		 15.06		 15.66		 15.49
10:40:58	 15.49		 15.14		 15.66		 15.66
10:40:59	 15.37		 15.06		 15.66		 15.40
10:41:00	 15.32		 14.97		 15.66		 15.32
10:41:01	 15.37		 14.97		 15.66		 15.49
10:41:02	 15.46		 15.14		 15.66		 15.58
10:41:03	 15.37		 14.97		 15.66		 15.49
10:41:04	 15.32		 14.88		 15.75		 15.32
10:41:05	 15.37		 14.97		 15.66		 15.49
10:41:05	 15.43		 15.06		 15.66		 15.58
10:41:06	 15.34		 14.97		 15.66		 15.40
10:41:07	 15.38		 14.97		 15.84		 15.32
10:41:08	 15.40		 14.97		 15.66		 15.58
10:41:09	 15.46		 15.14		 15.66		 15.58
10:41:10	 15.34		 14.97		 15.66		 15.40
10:41:11	 15.34		 14.88		 15.75		 15.40
10:41:12	 15.40		 14.97		 15.66		 15.58
10:41:13	 15.43		 15.06		 15.66		 15.58
10:41:14	 15.40		 15.06		 15.75		 15.40
10:41:14	 15.29		 14.88		 15.66		 15.32
10:41:15	 15.40		 14.97		 15.66		 15.58
10:41:16	 15.43		 15.06		 15.66		 15.58
10:41:17	 15.37		 14.97		 15.75		 15.40
10:41:18	 15.29		 14.88		 15.66		 15.32
10:41:19	 15.34		 14.97		 15.66		 15.40
10:41:20	 15.46		 15.14		 15.66		 15.58
10:41:21	 15.32		 14.97		 15.58		 15.40
10:41:22	 15.26		 14.79		 15.66		 15.32
10:41:23	 15.31		 14.79		 15.66		 15.49
10:41:24	 15.38		 15.06		 15.58		 15.49
10:41:24	 15.32		 14.97		 15.66		 15.32
10:41:25	 15.34		 14.88		 15.75		 15.40
10:41:26	 15.40		 14.97		 15.66		 15.58
10:41:27	 15.38		 15.06		 15.58		 15.49
10:41:28	 15.35		 14.97		 15.75		 15.32
10:41:29	 15.35		 15.06		 15.66		 15.32
10:41:30	 15.35		 14.97		 15.58		 15.49
10:41:31	 15.38		 15.06		 15.58		 15.49
10:41:32	 15.29		 14.88		 15.66		 15.32
10:41:33	 15.34		 14.97		 15.66		 15.40
10:41:33	 15.40		 15.06		 15.66		 15.49
10:41:34	 15.37		 14.97		 15.66		 15.49
10:41:35	 15.29		 14.88		 15.66		 15.32
10:41:36	 15.28		 14.79		 15.66		 15.40
10:41:37	 15.41		 15.06		 15.58		 15.58
10:41:38	 15.37		 14.97		 15.75		 15.40
10:41:39	 15.31		 14.88		 15.66		 15.40
10:41:40	 15.37		 14.97		 15.66		 15.49
10:41:41	 15.41		 15.06		 15.58		 15.58
10:41:42	 15.34		 14.97		 15.66		 15.40
10:41:42	 15.32		 14.97		 15.66		 15.32
10:41:43	 15.35		 14.97		 15.58		 15.49
10:41:44	 15.38		 15.06		 15.58		 15.49
10:41:45	 15.32		 14.97		 15.66		 15.32
10:41:46	 15.26		 14.79		 15.66		 15.32
10:41:47	 15.35		 14.97		 15.58		 15.49
10:41:48	 15.43		 15.06		 15.66		 15.58
10:41:49	 15.32		 14.97		 15.66		 15.32
10:41:50	 15.26		 14.79		 15.66		 15.32
10:41:51	 15.41		 15.06		 15.58		 15.58
10:41:52	 15.37		 15.06		 15.66		 15.40
10:41:52	 15.32		 14.88		 15.75		 15.32
10:41:53	 15.37		 14.97		 15.66		 15.49
10:41:54	 15.43		 15.06		 15.66		 15.58
10:41:55	 15.32		 14.97		 15.66		 15.32
10:41:56	 15.75		 16.19		 15.66		 15.40
10:41:57	 15.38		 14.97		 15.58		 15.58
10:41:58	 15.34		 14.97		 15.66		 15.40
10:41:59	 15.29		 14.88		 15.66		 15.32
10:42:00	 15.29		 14.88		 15.66		 15.32
10:42:01	 15.40		 14.97		 15.66		 15.58
10:42:01	 15.32		 14.97		 15.66		 15.32
10:42:02	 15.23		 14.79		 15.66		 15.23
10:42:03	 15.35		 14.97		 15.58		 15.49
10:42:04	 15.43		 15.06		 15.66		 15.58
