Temperature log started on 03/06/2021 at 17:00:05

Time 		 Average T (C) 	 T0 (C) 	 T1 (C) 	 T2 (C) 
------------------------------------------------------------------------
17:00:05	 11.14		 12.60		 10.18		 10.64
17:00:06	 10.34		 10.09		 10.28		 10.64
17:00:07	 9.91		 8.82		 10.37		 10.55
17:00:08	 10.25		 9.73		 10.37		 10.64
17:00:09	 11.11		 12.24		 10.28		 10.82
17:00:10	 11.73		 14.01		 10.28		 10.91
17:00:11	 11.44		 13.04		 10.37		 10.91
17:00:12	 10.58		 10.46		 10.46		 10.82
17:00:13	 10.15		 9.18		 10.55		 10.73
17:00:14	 10.52		 10.28		 10.46		 10.82
17:00:15	 11.50		 13.04		 10.46		 11.00
17:00:16	 11.79		 13.83		 10.46		 11.09
17:00:17	 11.38		 12.51		 10.55		 11.09
17:00:18	 10.73		 10.55		 10.73		 10.91
17:00:19	 10.40		 9.55		 10.73		 10.91
17:00:20	 11.03		 11.35		 10.64		 11.09
17:00:21	 11.71		 13.22		 10.64		 11.26
17:00:22	 12.03		 14.18		 10.73		 11.17
17:00:23	 10.82		 10.55		 10.82		 11.09
17:00:24	 10.55		 9.82		 10.82		 11.00
17:00:25	 11.03		 11.00		 10.91		 11.17
17:00:26	 11.77		 13.22		 10.82		 11.26
17:00:27	 12.03		 13.83		 10.91		 11.35
17:00:28	 11.47		 12.16		 11.00		 11.26
17:00:29	 10.91		 10.46		 11.00		 11.26
17:00:30	 11.03		 10.82		 11.00		 11.26
17:00:31	 11.44		 11.98		 11.00		 11.35
17:00:32	 12.15		 13.92		 11.00		 11.53
17:00:33	 12.24		 14.18		 11.00		 11.53
17:00:34	 11.68		 12.42		 11.09		 11.53
17:00:35	 11.02		 10.46		 11.17		 11.44
17:00:36	 10.93		 10.09		 11.17		 11.53
17:00:37	 11.41		 11.44		 11.17		 11.62
17:00:38	 12.09		 13.39		 11.17		 11.71
17:00:39	 12.39		 14.36		 11.09		 11.71
17:00:40	 12.03		 13.13		 11.26		 11.71
17:00:41	 11.32		 11.09		 11.26		 11.62
17:00:42	 11.02		 10.00		 11.44		 11.62
17:00:43	 11.50		 11.44		 11.35		 11.71
17:00:44	 12.21		 13.48		 11.35		 11.80
17:00:45	 12.62		 14.53		 11.35		 11.98
17:00:46	 12.18		 13.30		 11.35		 11.89
17:00:47	 11.44		 11.09		 11.44		 11.80
17:00:48	 11.08		 9.91		 11.53		 11.80
17:00:49	 11.17		 10.18		 11.53		 11.80
17:00:50	 12.04		 12.69		 11.44		 11.98
17:00:51	 12.62		 14.36		 11.44		 12.07
17:00:52	 12.71		 14.62		 11.44		 12.07
17:00:53	 12.39		 13.48		 11.62		 12.07
17:00:54	 11.65		 11.35		 11.62		 11.98
17:00:55	 11.32		 10.28		 11.71		 11.98
17:00:56	 11.68		 11.35		 11.62		 12.07
17:00:57	 12.48		 13.57		 11.62		 12.24
17:00:58	 12.97		 15.06		 11.62		 12.24
17:00:59	 12.83		 14.44		 11.71		 12.33
17:01:00	 12.24		 12.86		 11.71		 12.16
17:01:01	 11.74		 11.35		 11.80		 12.07
17:01:02	 11.53		 10.64		 11.89		 12.07
17:01:03	 11.86		 11.53		 11.80		 12.24
17:01:04	 12.39		 13.04		 11.89		 12.24
17:01:05	 12.92		 14.53		 11.89		 12.33
17:01:06	 13.12		 15.06		 11.89		 12.42
17:01:07	 12.71		 13.83		 11.89		 12.42
17:01:08	 12.24		 12.42		 11.98		 12.33
17:01:09	 11.92		 11.35		 12.07		 12.33
17:01:10	 11.77		 11.00		 11.98		 12.33
17:01:11	 12.19		 12.07		 12.07		 12.42
17:01:12	 12.95		 14.18		 12.07		 12.60
17:01:13	 13.30		 15.32		 11.98		 12.60
17:01:14	 13.18		 14.88		 12.07		 12.60
17:01:15	 12.72		 13.48		 12.16		 12.51
17:01:16	 12.27		 12.07		 12.24		 12.51
17:01:17	 11.98		 11.35		 12.16		 12.42
17:01:18	 12.33		 12.24		 12.16		 12.60
17:01:19	 13.13		 14.53		 12.16		 12.69
17:01:20	 13.51		 15.58		 12.16		 12.78
17:01:21	 13.18		 14.62		 12.24		 12.69
17:01:22	 12.51		 12.60		 12.33		 12.60
17:01:23	 11.98		 10.91		 12.42		 12.60
17:01:24	 12.12		 11.44		 12.33		 12.60
17:01:25	 12.78		 13.22		 12.33		 12.78
17:01:26	 13.30		 14.79		 12.24		 12.86
17:01:27	 13.56		 15.49		 12.33		 12.86
17:01:28	 13.12		 14.18		 12.33		 12.86
17:01:29	 12.54		 12.42		 12.42		 12.78
17:01:30	 12.18		 11.35		 12.42		 12.78
17:01:31	 12.21		 11.35		 12.51		 12.78
17:01:32	 12.63		 12.60		 12.42		 12.86
17:01:33	 13.42		 14.79		 12.42		 13.04
17:01:34	 13.80		 15.84		 12.42		 13.13
17:01:35	 13.68		 15.40		 12.60		 13.04
17:01:36	 13.36		 14.53		 12.51		 13.04
17:01:37	 12.98		 13.39		 12.60		 12.95
17:01:38	 12.60		 12.24		 12.60		 12.95
17:01:39	 12.33		 11.44		 12.60		 12.95
17:01:40	 12.30		 11.35		 12.60		 12.95
17:01:41	 12.95		 13.22		 12.60		 13.04
17:01:42	 13.51		 14.79		 12.60		 13.13
17:01:43	 13.97		 16.10		 12.60		 13.22
17:01:44	 13.51		 14.71		 12.69		 13.13
17:01:45	 13.48		 14.53		 12.69		 13.22
17:01:46	 12.78		 12.51		 12.69		 13.13
17:01:47	 12.39		 11.26		 12.78		 13.13
17:01:48	 12.57		 11.80		 12.78		 13.13
17:01:49	 12.92		 12.78		 12.86		 13.13
17:01:50	 13.60		 14.71		 12.78		 13.30
17:01:51	 13.86		 15.40		 12.78		 13.39
17:01:52	 13.89		 15.58		 12.78		 13.30
17:01:53	 13.71		 14.97		 12.86		 13.30
17:01:54	 13.30		 13.66		 12.86		 13.39
17:01:55	 12.89		 12.51		 12.95		 13.22
17:01:56	 12.56		 11.44		 12.95		 13.30
17:01:57	 12.89		 12.42		 12.95		 13.30
17:01:58	 13.13		 13.13		 12.95		 13.30
17:01:59	 13.74		 14.97		 12.86		 13.39
17:02:00	 13.92		 15.32		 12.95		 13.48
17:02:01	 14.15		 16.01		 12.86		 13.57
17:02:02	 14.18		 16.10		 12.95		 13.48
17:02:03	 13.71		 14.62		 13.04		 13.48
17:02:04	 13.07		 12.69		 13.04		 13.48
17:02:05	 13.10		 12.78		 13.04		 13.48
17:02:06	 12.80		 11.98		 13.04		 13.39
17:02:07	 12.83		 11.89		 13.22		 13.39
17:02:08	 13.42		 13.57		 13.13		 13.57
17:02:09	 14.06		 15.40		 13.13		 13.66
17:02:10	 14.27		 16.10		 13.04		 13.66
17:02:11	 14.30		 16.19		 13.04		 13.66
17:02:12	 14.15		 15.49		 13.22		 13.74
17:02:13	 13.66		 14.09		 13.22		 13.66
17:02:14	 13.31		 13.04		 13.22		 13.66
17:02:15	 13.04		 12.16		 13.30		 13.66
17:02:16	 13.25		 12.86		 13.22		 13.66
17:02:17	 13.45		 13.39		 13.30		 13.66
17:02:18	 14.06		 15.14		 13.22		 13.83
17:02:19	 14.35		 16.01		 13.30		 13.74
17:02:20	 14.44		 16.27		 13.30		 13.74
17:02:21	 14.24		 15.58		 13.30		 13.83
17:02:22	 13.80		 14.27		 13.39		 13.74
17:02:23	 13.42		 13.13		 13.39		 13.74
17:02:24	 13.13		 12.16		 13.48		 13.74
17:02:25	 13.13		 12.16		 13.48		 13.74
17:02:26	 13.83		 14.18		 13.48		 13.83
17:02:27	 14.27		 15.40		 13.39		 14.01
17:02:28	 14.70		 16.79		 13.30		 14.01
17:02:29	 14.61		 16.53		 13.39		 13.92
17:02:30	 13.89		 14.27		 13.48		 13.92
17:02:31	 13.42		 12.95		 13.48		 13.83
17:02:32	 13.36		 12.60		 13.57		 13.92
17:02:33	 13.83		 14.01		 13.57		 13.92
17:02:34	 14.38		 15.66		 13.48		 14.01
17:02:35	 14.70		 16.62		 13.48		 14.01
17:02:36	 14.33		 15.40		 13.57		 14.01
17:02:37	 13.66		 13.39		 13.57		 14.01
17:02:38	 13.33		 12.33		 13.66		 14.01
17:02:39	 13.75		 13.66		 13.57		 14.01
17:02:40	 14.53		 15.93		 13.57		 14.09
17:02:41	 14.88		 16.88		 13.66		 14.09
17:02:42	 14.65		 16.10		 13.66		 14.18
17:02:43	 13.92		 14.01		 13.66		 14.09
17:02:44	 13.39		 12.24		 13.83		 14.09
17:02:45	 13.56		 12.86		 13.74		 14.09
17:02:46	 14.15		 14.62		 13.66		 14.18
17:02:47	 14.73		 16.19		 13.74		 14.27
17:02:48	 14.96		 16.88		 13.74		 14.27
17:02:49	 14.56		 15.66		 13.74		 14.27
17:02:51	 13.86		 13.57		 13.83		 14.18
17:02:52	 13.48		 12.33		 13.92		 14.18
17:02:53	 13.95		 13.74		 13.83		 14.27
17:02:54	 14.09		 14.18		 13.83		 14.27
17:02:55	 14.73		 16.01		 13.83		 14.36
17:02:56	 15.02		 16.71		 13.92		 14.44
17:02:57	 14.76		 16.01		 13.83		 14.44
17:02:58	 14.13		 14.01		 14.01		 14.36
17:02:59	 13.66		 12.60		 14.01		 14.36
17:03:00	 14.04		 13.83		 13.92		 14.36
17:03:01	 14.30		 14.44		 14.01		 14.44
17:03:02	 14.88		 16.10		 14.01		 14.53
17:03:03	 15.14		 16.88		 14.01		 14.53
17:03:04	 14.96		 16.27		 14.09		 14.53
17:03:05	 14.33		 14.44		 14.01		 14.53
17:03:06	 13.80		 12.78		 14.09		 14.53
17:03:07	 14.21		 13.92		 14.18		 14.53
17:03:08	 14.53		 14.88		 14.09		 14.62
17:03:09	 15.05		 16.45		 14.09		 14.62
17:03:10	 15.28		 17.05		 14.09		 14.71
17:03:11	 15.00		 16.19		 14.09		 14.71
17:03:12	 14.39		 14.36		 14.18		 14.62
17:03:13	 14.12		 13.57		 14.18		 14.62
17:03:14	 14.01		 13.13		 14.18		 14.71
17:03:15	 14.33		 14.01		 14.27		 14.71
17:03:16	 14.79		 15.40		 14.27		 14.71
17:03:17	 15.34		 16.97		 14.27		 14.79
17:03:18	 15.40		 17.22		 14.18		 14.79
17:03:19	 15.17		 16.45		 14.27		 14.79
17:03:20	 14.73		 14.97		 14.44		 14.79
17:03:21	 14.27		 13.66		 14.36		 14.79
17:03:22	 14.15		 13.22		 14.44		 14.79
17:03:23	 14.41		 14.01		 14.44		 14.79
17:03:24	 14.91		 15.58		 14.36		 14.79
17:03:25	 15.32		 16.71		 14.36		 14.88
17:03:26	 15.55		 17.31		 14.36		 14.97
17:03:27	 15.29		 16.45		 14.44		 14.97
17:03:28	 14.79		 15.06		 14.44		 14.88
17:03:29	 14.53		 14.18		 14.53		 14.88
17:03:30	 14.30		 13.48		 14.53		 14.88
17:03:31	 14.71		 14.62		 14.53		 14.97
17:03:32	 15.34		 16.53		 14.44		 15.06
17:03:33	 15.63		 17.40		 14.44		 15.06
17:03:34	 15.35		 16.45		 14.53		 15.06
17:03:35	 14.56		 14.09		 14.53		 15.06
17:03:36	 14.21		 12.95		 14.71		 14.97
17:03:37	 14.30		 13.13		 14.71		 15.06
17:03:38	 15.17		 15.84		 14.62		 15.06
17:03:39	 15.69		 17.40		 14.53		 15.14
17:03:40	 15.75		 17.48		 14.62		 15.14
17:03:41	 15.40		 16.45		 14.62		 15.14
17:03:42	 14.70		 14.18		 14.79		 15.14
17:03:43	 14.33		 13.22		 14.71		 15.06
17:03:44	 14.50		 13.66		 14.71		 15.14
17:03:45	 15.14		 15.40		 14.79		 15.23
17:03:46	 15.58		 16.71		 14.79		 15.23
17:03:47	 15.90		 17.66		 14.71		 15.32
17:03:48	 15.72		 17.14		 14.71		 15.32
17:03:49	 15.17		 15.49		 14.79		 15.23
17:03:50	 14.76		 14.18		 14.88		 15.23
17:03:51	 14.68		 13.83		 14.88		 15.32
17:03:52	 15.17		 15.32		 14.88		 15.32
17:03:53	 15.72		 16.88		 14.88		 15.40
17:03:54	 16.04		 17.83		 14.88		 15.40
17:03:55	 15.60		 16.53		 14.88		 15.40
17:03:56	 14.97		 14.71		 14.88		 15.32
17:03:57	 14.74		 13.92		 14.97		 15.32
17:03:58	 15.08		 14.88		 14.97		 15.40
17:03:59	 15.83		 17.22		 14.88		 15.40
17:04:00	 16.21		 18.26		 14.88		 15.49
17:04:01	 15.89		 17.22		 14.97		 15.49
17:04:02	 15.17		 15.06		 15.06		 15.40
17:04:03	 14.65		 13.48		 15.06		 15.40
17:04:04	 14.76		 13.74		 15.06		 15.49
17:04:05	 15.49		 15.93		 14.97		 15.58
17:04:06	 16.15		 18.00		 14.97		 15.49
17:04:07	 16.16		 17.92		 14.97		 15.58
17:04:08	 15.49		 15.93		 15.06		 15.49
17:04:09	 15.11		 14.62		 15.14		 15.58
17:04:10	 15.00		 14.36		 15.14		 15.49
17:04:11	 15.52		 15.84		 15.14		 15.58
17:04:12	 16.12		 17.57		 15.14		 15.66
17:04:13	 16.13		 17.74		 15.06		 15.58
17:04:14	 15.78		 16.53		 15.14		 15.66
17:04:15	 15.17		 14.62		 15.23		 15.66
17:04:16	 14.99		 14.09		 15.23		 15.66
17:04:17	 15.40		 15.40		 15.14		 15.66
17:04:18	 16.04		 17.22		 15.14		 15.75
17:04:19	 16.38		 18.17		 15.23		 15.75
17:04:20	 15.98		 16.97		 15.23		 15.75
17:04:21	 15.32		 14.97		 15.32		 15.66
17:04:22	 15.08		 14.27		 15.32		 15.66
17:04:23	 15.40		 15.14		 15.32		 15.75
17:04:24	 16.24		 17.57		 15.32		 15.84
17:04:25	 16.53		 18.52		 15.23		 15.84
17:04:26	 16.47		 18.26		 15.32		 15.84
17:04:27	 15.70		 15.93		 15.32		 15.84
17:04:28	 15.29		 14.71		 15.32		 15.84
17:04:29	 15.49		 15.23		 15.40		 15.84
17:04:30	 15.72		 16.01		 15.32		 15.84
17:04:31	 16.30		 17.74		 15.32		 15.84
17:04:32	 16.50		 18.17		 15.40		 15.93
17:04:33	 16.07		 16.88		 15.40		 15.93
17:04:34	 15.46		 15.06		 15.40		 15.93
17:04:35	 15.20		 14.27		 15.49		 15.84
17:04:36	 15.66		 15.66		 15.40		 15.93
17:04:37	 16.33		 17.48		 15.49		 16.01
17:04:38	 16.53		 18.17		 15.40		 16.01
17:04:39	 16.13		 16.79		 15.58		 16.01
17:04:40	 15.38		 14.71		 15.49		 15.93
17:04:41	 15.29		 14.44		 15.49		 15.93
17:04:42	 15.90		 16.10		 15.58		 16.01
17:04:43	 16.47		 17.92		 15.49		 16.01
17:04:44	 16.65		 18.35		 15.58		 16.01
17:04:45	 16.24		 17.14		 15.58		 16.01
17:04:46	 15.64		 15.32		 15.58		 16.01
17:04:47	 15.32		 14.27		 15.58		 16.10
17:04:48	 15.61		 15.14		 15.58		 16.10
17:04:49	 16.10		 16.71		 15.58		 16.01
17:04:50	 16.39		 17.48		 15.58		 16.10
17:04:51	 16.73		 18.35		 15.66		 16.19
17:04:52	 16.33		 17.31		 15.58		 16.10
17:04:53	 15.78		 15.49		 15.75		 16.10
17:04:54	 15.34		 14.18		 15.75		 16.10
17:04:55	 15.52		 14.79		 15.66		 16.10
17:04:56	 16.16		 16.62		 15.66		 16.19
17:04:57	 16.62		 18.00		 15.66		 16.19
17:04:58	 16.82		 18.52		 15.66		 16.27
17:04:59	 16.47		 17.48		 15.75		 16.19
17:05:00	 15.87		 15.58		 15.75		 16.27
17:05:01	 15.46		 14.36		 15.84		 16.19
17:05:02	 15.58		 14.71		 15.84		 16.19
17:05:03	 15.98		 15.84		 15.84		 16.27
17:05:04	 16.65		 17.83		 15.75		 16.36
17:05:05	 17.02		 18.95		 15.75		 16.36
17:05:06	 16.99		 18.86		 15.75		 16.36
17:05:07	 16.24		 16.62		 15.75		 16.36
17:05:08	 15.84		 15.40		 15.84		 16.27
17:05:09	 15.66		 14.79		 15.93		 16.27
17:05:10	 15.93		 15.49		 15.93		 16.36
17:05:11	 16.36		 16.88		 15.84		 16.36
17:05:12	 16.82		 18.17		 15.93		 16.36
17:05:13	 16.96		 18.69		 15.84		 16.36
17:05:14	 16.99		 18.69		 15.84		 16.45
17:05:15	 16.53		 17.22		 15.93		 16.45
17:05:16	 16.01		 15.66		 16.01		 16.36
17:05:17	 15.58		 14.44		 15.93		 16.36
17:05:18	 15.75		 14.88		 16.01		 16.36
17:05:19	 16.13		 15.93		 16.01		 16.45
17:05:20	 16.56		 17.14		 16.01		 16.53
17:05:21	 16.85		 18.17		 15.93		 16.45
17:05:22	 17.11		 18.78		 16.01		 16.53
17:05:23	 17.02		 18.61		 15.93		 16.53
17:05:24	 16.39		 16.79		 15.93		 16.45
17:05:25	 16.90		 18.17		 16.01		 16.53
17:05:26	 15.84		 15.06		 16.01		 16.45
17:05:27	 15.72		 14.71		 16.01		 16.45
17:05:28	 16.28		 16.45		 15.93		 16.45
17:05:29	 16.79		 17.92		 15.93		 16.53
17:05:30	 17.17		 19.04		 15.93		 16.53
17:05:31	 16.94		 18.35		 15.93		 16.53
17:05:32	 18.96		 24.49		 15.93		 16.45
17:05:33	 16.30		 16.71		 15.84		 16.36
17:05:34	 15.61		 14.53		 15.93		 16.36
17:05:35	 15.75		 14.88		 15.93		 16.45
17:05:36	 16.10		 16.01		 15.93		 16.36
17:05:37	 16.71		 17.83		 15.93		 16.36
17:05:38	 15.72		 14.97		 15.84		 16.36
17:05:39	 17.19		 19.47		 15.75		 16.36
17:05:40	 16.76		 18.09		 15.84		 16.36
17:05:41	 16.27		 16.62		 15.84		 16.36
17:05:42	 15.92		 15.66		 15.84		 16.27
17:05:43	 15.55		 14.44		 15.84		 16.36
17:05:44	 14.01		 10.00		 15.75		 16.27
17:05:45	 16.33		 16.88		 15.75		 16.36
17:05:46	 16.79		 18.17		 15.84		 16.36
17:05:47	 16.93		 19.04		 15.75		 16.01
17:05:48	 16.85		 18.52		 15.66		 16.36
17:05:49	 16.50		 17.48		 15.75		 16.27
17:05:50	 12.52		 5.63		 15.75		 16.19
17:05:51	 15.40		 14.27		 15.75		 16.19
17:05:52	 15.61		 14.97		 15.66		 16.19
17:05:53	 15.98		 16.01		 15.75		 16.19
17:05:54	 16.62		 17.74		 15.75		 16.36
17:05:55	 16.93		 18.95		 15.66		 16.19
17:05:56	 16.64		 18.00		 15.66		 16.27
17:05:57	 15.29		 14.01		 15.66		 16.19
17:05:58	 15.87		 15.66		 15.75		 16.19
17:05:59	 15.69		 15.23		 15.75		 16.10
17:06:00	 16.01		 16.27		 15.66		 16.10
17:06:01	 16.48		 17.66		 15.58		 16.19
17:06:02	 16.70		 18.43		 15.49		 16.19
17:06:03	 15.11		 13.74		 15.49		 16.10
17:06:04	 16.99		 19.30		 15.58		 16.10
17:06:05	 16.96		 19.21		 15.58		 16.10
17:06:06	 17.10		 19.64		 15.66		 16.01
17:06:07	 17.16		 19.90		 15.58		 16.01
17:06:08	 17.28		 20.33		 15.49		 16.01
17:06:09	 17.16		 20.07		 15.40		 16.01
17:06:10	 17.31		 20.33		 15.58		 16.01
17:06:11	 16.29		 19.47		 15.49		 13.92
17:06:12	 16.76		 18.95		 15.40		 15.93
17:06:13	 16.79		 19.21		 15.40		 15.75
17:06:14	 16.90		 19.55		 15.32		 15.84
17:06:15	 16.99		 19.90		 15.32		 15.75
17:06:16	 17.39		 21.19		 15.23		 15.75
17:06:17	 17.08		 20.16		 15.23		 15.84
17:06:18	 16.64		 19.04		 15.23		 15.66
17:06:19	 16.39		 18.35		 15.23		 15.58
17:06:20	 14.97		 14.18		 15.14		 15.58
17:06:21	 16.42		 18.61		 15.06		 15.58
17:06:22	 16.67		 19.47		 15.06		 15.49
17:06:23	 16.70		 19.55		 14.97		 15.58
17:06:24	 16.44		 19.04		 14.88		 15.40
17:06:25	 16.12		 18.09		 14.88		 15.40
17:06:26	 15.86		 17.40		 14.79		 15.40
17:06:27	 15.78		 17.22		 14.79		 15.32
17:06:28	 16.18		 18.52		 14.79		 15.23
17:06:29	 16.27		 18.78		 14.79		 15.23
17:06:30	 16.32		 19.12		 14.62		 15.23
17:06:31	 15.98		 18.17		 14.62		 15.14
17:06:32	 15.63		 17.22		 14.53		 15.14
17:06:33	 15.34		 16.53		 14.53		 14.97
17:06:34	 16.06		 18.69		 14.44		 15.06
17:06:35	 15.92		 18.35		 14.36		 15.06
17:06:36	 15.95		 18.61		 14.36		 14.88
17:06:37	 15.66		 17.92		 14.27		 14.79
17:06:38	 15.26		 16.62		 14.36		 14.79
17:06:39	 14.53		 14.53		 14.27		 14.79
17:06:40	 16.55		 20.59		 14.27		 14.79
17:06:41	 15.63		 17.92		 14.18		 14.79
17:06:42	 15.63		 18.00		 14.09		 14.79
17:06:43	 15.34		 17.31		 14.09		 14.62
17:06:44	 14.70		 15.49		 14.09		 14.53
17:06:45	 12.51		 8.91		 14.09		 14.53
17:06:46	 16.12		 19.81		 14.01		 14.53
17:06:47	 15.17		 16.97		 14.01		 14.53
17:06:48	 15.25		 17.31		 13.92		 14.53
17:06:49	 15.25		 17.40		 13.92		 14.44
17:06:50	 14.73		 15.93		 13.83		 14.44
17:06:51	 14.07		 14.01		 13.83		 14.36
17:06:52	 13.36		 11.89		 13.92		 14.27
17:06:53	 14.24		 15.32		 13.13		 14.27
17:06:54	 14.88		 16.45		 13.83		 14.36
17:06:55	 15.02		 17.14		 13.66		 14.27
17:06:56	 14.82		 16.45		 13.74		 14.27
17:06:57	 14.06		 14.27		 13.74		 14.18
17:06:58	 12.61		 9.91		 13.74		 14.18
17:06:59	 14.12		 14.44		 13.74		 14.18
17:07:00	 14.24		 14.79		 13.74		 14.18
17:07:01	 14.62		 16.10		 13.57		 14.18
17:07:02	 14.88		 16.79		 13.66		 14.18
17:07:03	 14.59		 16.01		 13.57		 14.18
17:07:04	 12.89		 10.91		 13.66		 14.09
17:07:05	 13.57		 12.95		 13.66		 14.09
17:07:06	 13.68		 13.30		 13.66		 14.09
17:07:07	 14.06		 14.44		 13.66		 14.09
17:07:08	 14.53		 15.93		 13.57		 14.09
17:07:09	 14.82		 16.71		 13.57		 14.18
17:07:10	 13.71		 13.48		 13.57		 14.09
17:07:11	 14.24		 14.88		 13.66		 14.18
17:07:12	 13.63		 13.13		 13.66		 14.09
17:07:13	 13.51		 12.69		 13.74		 14.09
17:07:14	 13.80		 13.57		 13.66		 14.18
17:07:15	 14.27		 15.06		 13.66		 14.09
17:07:16	 14.73		 16.36		 13.66		 14.18
17:07:17	 15.20		 17.66		 13.66		 14.27
17:07:18	 14.33		 15.23		 13.57		 14.18
17:07:19	 -5.67		 13.39		 13.57		 -43.97
17:07:21	 -7.20		 12.69		 13.48		 -47.76
17:07:21	 -7.02		 14.09		 13.48		 -48.64
17:07:23	 -4.80		 16.01		 13.57		 -43.97
17:07:24	 -5.52		 16.79		 13.57		 -46.93
17:07:25	 -5.81		 15.23		 13.48		 -46.14
17:07:26	 14.01		 13.83		 13.92		 14.27
17:07:27	 13.69		 12.78		 14.01		 14.27
17:07:28	 14.21		 14.36		 13.92		 14.36
17:07:29	 14.85		 16.19		 13.92		 14.44
17:07:30	 15.17		 17.22		 13.92		 14.36
17:07:31	 15.11		 16.88		 14.01		 14.44
17:07:32	 14.73		 15.84		 13.92		 14.44
17:07:33	 14.07		 13.83		 14.01		 14.36
17:07:34	 13.74		 12.69		 14.09		 14.44
17:07:35	 14.00		 13.48		 14.09		 14.44
17:07:36	 14.68		 15.49		 14.01		 14.53
17:07:37	 15.31		 17.40		 14.01		 14.53
17:07:38	 15.25		 17.05		 14.09		 14.62
17:07:39	 14.73		 15.49		 14.18		 14.53
17:07:40	 13.80		 12.69		 14.18		 14.53
17:07:41	 13.95		 13.04		 14.27		 14.53
17:07:42	 14.82		 15.66		 14.18		 14.62
17:07:43	 15.37		 17.40		 14.09		 14.62
17:07:44	 15.29		 16.97		 14.18		 14.71
17:07:45	 14.56		 14.71		 14.27		 14.71
17:07:46	 15.54		 17.40		 14.44		 14.79
17:07:47	 15.60		 17.74		 14.36		 14.71
17:07:48	 15.92		 18.69		 14.36		 14.71
17:07:49	 17.24		 22.57		 14.36		 14.79
17:07:50	 16.06		 19.04		 14.36		 14.79
17:07:51	 15.89		 18.52		 14.36		 14.79
17:07:52	 -6.73		 -48.64		 13.66		 14.79
17:07:53	 -9.82		 -58.25		 14.27		 14.53
17:07:54	 -8.84		 -55.23		 14.18		 14.53
17:07:55	 -8.75		 -55.23		 14.09		 14.88
17:07:56	 -6.89		 -49.56		 13.66		 15.23
17:07:57	 16.44		 19.90		 14.53		 14.88
17:07:58	 16.01		 18.61		 14.53		 14.88
17:07:59	 15.92		 18.26		 14.53		 14.97
17:08:00	 16.03		 18.78		 14.44		 14.88
17:08:01	 15.23		 16.19		 14.53		 14.97
17:08:02	 16.61		 20.33		 14.53		 14.97
17:08:03	 16.18		 18.95		 14.53		 15.06
17:08:04	 15.89		 18.17		 14.53		 14.97
17:08:05	 15.89		 18.09		 14.53		 15.06
17:08:06	 16.09		 18.69		 14.62		 14.97
17:08:07	 16.32		 19.38		 14.62		 14.97
17:08:08	 16.35		 19.47		 14.53		 15.06
17:08:09	 16.67		 20.33		 14.62		 15.06
17:08:10	 15.84		 17.83		 14.71		 14.97
17:08:11	 15.75		 17.57		 14.62		 15.06
17:08:12	 15.86		 18.09		 14.53		 14.97
17:08:13	 16.15		 18.86		 14.53		 15.06
17:08:14	 16.21		 19.04		 14.53		 15.06
17:08:15	 15.81		 17.92		 14.53		 14.97
17:08:16	 15.78		 17.83		 14.53		 14.97
17:08:17	 15.63		 17.31		 14.62		 14.97
17:08:18	 15.78		 17.74		 14.53		 15.06
17:08:19	 16.07		 18.61		 14.53		 15.06
17:08:20	 16.18		 19.04		 14.53		 14.97
17:08:21	 15.14		 16.01		 14.44		 14.97
17:08:22	 15.69		 17.57		 14.53		 14.97
17:08:23	 15.60		 17.22		 14.62		 14.97
17:08:24	 15.81		 17.92		 14.53		 14.97
17:08:25	 16.01		 18.61		 14.44		 14.97
17:08:26	 16.09		 18.78		 14.53		 14.97
17:08:27	 15.92		 18.26		 14.53		 14.97
17:08:28	 16.33		 19.30		 14.62		 15.06
17:08:29	 15.55		 17.14		 14.53		 14.97
17:08:30	 15.69		 17.57		 14.53		 14.97
17:08:31	 15.98		 18.43		 14.53		 14.97
17:08:32	 16.12		 18.86		 14.53		 14.97
17:08:33	 15.92		 18.26		 14.53		 14.97
17:08:34	 18.85		 27.04		 14.53		 14.97
17:08:35	 15.51		 17.22		 14.44		 14.88
17:08:36	 15.60		 17.40		 14.44		 14.97
17:08:37	 15.86		 18.26		 14.44		 14.88
17:08:38	 15.98		 18.61		 14.44		 14.88
17:08:39	 15.83		 18.17		 14.36		 14.97
17:08:40	 15.11		 16.10		 14.36		 14.88
17:08:41	 15.40		 16.88		 14.44		 14.88
17:08:42	 15.57		 17.40		 14.44		 14.88
17:08:43	 15.66		 18.26		 14.36		 14.36
17:08:44	 15.95		 18.61		 14.36		 14.88
17:08:45	 15.75		 17.92		 14.44		 14.88
17:08:46	 15.31		 16.79		 14.36		 14.79
17:08:47	 15.63		 17.74		 14.36		 14.79
17:08:48	 15.63		 17.57		 14.44		 14.88
17:08:49	 15.83		 18.26		 14.36		 14.88
17:08:50	 15.89		 18.52		 14.36		 14.79
17:08:51	 15.54		 17.48		 14.36		 14.79
17:08:52	 15.28		 16.62		 14.44		 14.79
17:08:53	 16.21		 19.47		 14.36		 14.79
17:08:54	 15.57		 17.48		 14.36		 14.88
17:08:55	 15.80		 18.35		 14.27		 14.79
17:08:56	 15.83		 18.35		 14.36		 14.79
17:08:57	 15.60		 17.66		 14.36		 14.79
17:08:58	 15.34		 16.79		 14.44		 14.79
17:08:59	 14.76		 15.14		 14.36		 14.79
17:09:00	 15.43		 17.14		 14.36		 14.79
17:09:01	 15.66		 17.92		 14.27		 14.79
17:09:02	 15.89		 18.52		 14.27		 14.88
17:09:03	 15.83		 18.43		 14.27		 14.79
17:09:04	 15.40		 17.14		 14.27		 14.79
17:09:05	 13.56		 11.62		 14.27		 14.79
17:09:06	 15.14		 16.36		 14.36		 14.71
17:09:07	 15.17		 16.53		 14.27		 14.71
17:09:08	 15.54		 17.57		 14.27		 14.79
17:09:09	 15.75		 18.26		 14.27		 14.71
17:09:10	 15.60		 17.66		 14.36		 14.79
17:09:11	 15.40		 17.14		 14.27		 14.79
17:09:12	 16.12		 19.12		 14.44		 14.79
17:09:13	 15.00		 16.01		 14.27		 14.71
17:09:14	 15.20		 16.53		 14.36		 14.71
17:09:15	 15.51		 17.48		 14.27		 14.79
17:09:16	 15.74		 18.17		 14.27		 14.79
17:09:17	 15.54		 17.57		 14.27		 14.79
17:09:18	 14.74		 15.06		 14.36		 14.79
17:09:19	 15.14		 16.45		 14.27		 14.71
17:09:20	 14.91		 15.58		 14.36		 14.79
17:09:21	 14.82		 15.66		 14.36		 14.44
17:09:22	 15.34		 16.88		 14.36		 14.79
17:09:23	 15.63		 17.74		 14.36		 14.79
17:09:24	 15.72		 18.00		 14.36		 14.79
17:09:25	 15.92		 18.69		 14.27		 14.79
17:09:26	 15.26		 16.71		 14.27		 14.79
17:09:27	 14.94		 15.66		 14.36		 14.79
17:09:28	 14.85		 15.40		 14.36		 14.79
17:09:29	 15.00		 15.93		 14.27		 14.79
17:09:30	 15.40		 17.05		 14.36		 14.79
17:09:31	 17.21		 22.40		 14.36		 14.88
17:09:32	 15.75		 18.09		 14.27		 14.88
17:09:33	 15.29		 16.62		 14.36		 14.88
17:09:34	 14.91		 15.49		 14.36		 14.88
17:09:35	 14.68		 14.88		 14.36		 14.79
17:09:36	 14.94		 15.75		 14.27		 14.79
17:09:37	 12.87		 9.37		 14.36		 14.88
17:09:38	 15.77		 18.17		 14.27		 14.88
17:09:39	 15.54		 17.31		 14.44		 14.88
17:09:40	 15.37		 16.88		 14.36		 14.88
17:09:41	 14.15		 15.23		 14.44		 12.78
17:09:42	 14.53		 14.18		 14.53		 14.88
17:09:43	 14.88		 15.32		 14.44		 14.88
17:09:44	 14.91		 15.40		 14.44		 14.88
17:09:45	 15.49		 17.05		 14.44		 14.97
17:09:46	 15.80		 18.00		 14.44		 14.97
17:09:47	 15.98		 18.61		 14.36		 14.97
17:09:48	 15.26		 16.27		 14.53		 14.97
17:09:49	 14.74		 14.71		 14.53		 14.97
17:09:50	 14.56		 14.18		 14.53		 14.97
17:09:51	 14.82		 14.88		 14.53		 15.06
17:09:52	 15.43		 16.71		 14.53		 15.06
17:09:53	 15.86		 17.92		 14.53		 15.14
17:09:54	 15.52		 16.88		 14.62		 15.06
17:09:55	 15.26		 16.10		 14.62		 15.06
17:09:56	 14.88		 14.88		 14.62		 15.14
17:09:57	 14.56		 14.01		 14.62		 15.06
17:09:58	 14.83		 14.71		 14.71		 15.06
17:09:59	 15.52		 16.71		 14.71		 15.14
17:10:00	 15.98		 18.09		 14.71		 15.14
17:10:01	 15.81		 17.48		 14.71		 15.23
17:10:02	 16.01		 15.93		 14.79		 17.31
17:10:03	 14.88		 14.62		 14.79		 15.23
17:10:04	 14.65		 13.92		 14.88		 15.14
17:10:05	 14.94		 14.88		 14.79		 15.14
17:10:06	 15.66		 16.88		 14.79		 15.32
17:10:07	 16.04		 18.09		 14.71		 15.32
17:10:08	 16.41		 19.04		 14.88		 15.32
17:10:09	 15.78		 17.14		 14.79		 15.40
17:10:10	 15.00		 14.79		 14.88		 15.32
17:10:11	 14.68		 13.83		 14.88		 15.32
17:10:12	 14.76		 14.09		 14.88		 15.32
17:10:13	 15.14		 15.14		 14.97		 15.32
17:10:14	 15.69		 16.79		 14.88		 15.40
17:10:15	 15.81		 17.14		 14.88		 15.40
17:10:16	 16.10		 17.92		 14.97		 15.40
17:10:17	 15.81		 16.97		 14.97		 15.49
17:10:18	 16.13		 17.92		 14.97		 15.49
17:10:19	 15.23		 15.32		 14.97		 15.40
17:10:20	 14.91		 14.44		 14.88		 15.40
17:10:21	 15.17		 15.06		 14.97		 15.49
17:10:22	 15.64		 16.45		 14.97		 15.49
17:10:23	 16.04		 17.66		 14.97		 15.49
17:10:24	 16.21		 18.09		 15.06		 15.49
17:10:25	 15.90		 17.14		 14.97		 15.58
17:10:26	 15.43		 15.75		 15.06		 15.49
17:10:27	 15.11		 14.79		 15.06		 15.49
17:10:28	 15.09		 14.62		 15.06		 15.58
17:10:29	 15.75		 16.45		 15.23		 15.58
17:10:30	 16.56		 18.86		 15.23		 15.58
17:10:31	 16.70		 19.38		 15.14		 15.58
17:10:32	 16.87		 19.73		 15.23		 15.66
17:10:33	 -5.77		 -47.76		 14.53		 15.93
17:10:34	 -9.38		 -58.25		 14.27		 15.84
17:10:35	 -39.19		 -83.45		 14.53		 -48.64
17:10:36	 -39.07		 -83.45		 14.88		 -48.64
17:10:37	 -39.19		 -83.45		 14.53		 -48.64
17:10:38	 -38.81		 -83.45		 14.79		 -47.76
17:10:39	 -35.04		 -75.58		 14.44		 -43.97
17:10:40	 -38.50		 -83.45		 14.09		 -46.14
17:10:41	 -39.19		 -83.45		 14.53		 -48.64
17:10:42	 -100.83		 -273.15		 14.62		 -43.97
17:10:43	 -16.34		 -83.45		 14.79		 19.64
17:10:44	 -4.30		 -47.76		 15.06		 19.81
17:10:45	 -5.54		 -51.59		 15.06		 19.90
17:10:46	 -5.14		 -50.55		 15.06		 20.07
17:10:47	 -6.38		 -53.92		 14.97		 19.81
17:10:48	 16.85		 15.93		 15.40		 19.21
17:10:49	 16.73		 15.93		 15.49		 18.78
17:10:50	 15.26		 15.84		 15.40		 14.53
17:10:51	 17.16		 15.93		 15.40		 20.16
17:10:52	 16.93		 15.93		 15.40		 19.47
17:10:53	 17.10		 15.93		 15.40		 19.98
17:10:54	 17.08		 15.93		 15.32		 19.98
17:10:55	 16.96		 15.84		 15.40		 19.64
17:10:56	 16.62		 15.84		 15.32		 18.69
17:10:57	 17.91		 15.93		 15.40		 22.40
17:10:58	 16.76		 15.84		 15.40		 19.04
17:10:59	 16.67		 15.84		 15.23		 18.95
17:11:00	 16.93		 15.93		 15.32		 19.55
17:11:01	 17.05		 15.84		 15.32		 19.98
17:11:02	 16.99		 15.84		 15.14		 19.98
17:11:03	 16.67		 15.75		 15.23		 19.04
17:11:04	 16.56		 15.75		 15.23		 18.69
17:11:05	 16.41		 15.66		 15.23		 18.35
17:11:06	 16.56		 15.66		 15.23		 18.78
17:11:07	 16.70		 15.75		 15.14		 19.21
17:11:08	 16.73		 15.66		 15.06		 19.47
17:11:09	 16.73		 15.58		 15.06		 19.55
17:11:10	 16.70		 15.66		 15.06		 19.38
17:11:11	 16.33		 15.58		 15.06		 18.35
17:11:12	 16.19		 15.58		 15.06		 17.92
17:11:13	 16.18		 15.49		 14.97		 18.09
17:11:14	 16.33		 15.49		 14.97		 18.52
17:11:15	 16.53		 15.49		 14.88		 19.21
17:11:16	 16.73		 15.49		 14.79		 19.90
17:11:17	 16.58		 15.40		 14.88		 19.47
17:11:18	 16.35		 15.40		 14.79		 18.86
17:11:19	 16.09		 15.32		 14.79		 18.17
17:11:20	 15.98		 15.40		 14.79		 17.74
17:11:21	 15.78		 15.23		 14.71		 17.40
17:11:22	 16.47		 15.32		 14.71		 19.38
17:11:23	 16.38		 15.32		 14.71		 19.12
17:11:24	 16.41		 15.23		 14.62		 19.38
17:11:25	 16.18		 15.23		 14.18		 19.12
17:11:26	 15.95		 15.14		 14.53		 18.17
17:11:27	 15.38		 15.06		 14.62		 16.45
17:11:28	 16.50		 15.06		 14.53		 19.90
17:11:29	 15.98		 15.06		 14.44		 18.43
17:11:30	 16.09		 15.06		 14.36		 18.86
17:11:31	 16.03		 14.88		 14.36		 18.86
17:11:32	 15.89		 14.88		 14.44		 18.35
17:11:33	 14.59		 14.79		 14.36		 14.62
17:11:34	 15.49		 14.88		 14.27		 17.31
17:11:35	 15.69		 14.79		 14.27		 18.00
17:11:36	 15.86		 14.79		 14.18		 18.61
17:11:37	 15.91		 14.79		 14.09		 18.86
17:11:38	 15.86		 14.71		 14.18		 18.69
17:11:39	 15.52		 14.62		 14.01		 17.92
17:11:40	 15.26		 14.71		 14.01		 17.05
17:11:41	 15.48		 14.62		 14.09		 17.74
17:11:42	 15.34		 14.53		 14.01		 17.48
17:11:43	 15.63		 14.53		 14.01		 18.35
17:11:44	 15.04		 14.53		 11.89		 18.69
17:11:45	 15.63		 14.44		 13.92		 18.52
17:11:46	 14.97		 14.36		 13.92		 16.62
17:11:47	 15.97		 14.44		 13.92		 19.55
17:11:48	 15.17		 14.36		 13.83		 17.31
17:11:49	 15.28		 14.44		 13.83		 17.57
17:11:50	 15.48		 14.36		 13.83		 18.26
17:11:51	 15.42		 14.27		 13.74		 18.26
17:11:52	 14.15		 14.36		 13.74		 14.36
17:11:53	 16.26		 14.27		 13.66		 20.85
17:11:54	 14.88		 14.18		 13.66		 16.79
17:11:55	 14.96		 14.09		 13.66		 17.14
17:11:56	 15.16		 14.09		 13.57		 17.83
17:11:57	 15.28		 14.09		 13.66		 18.09
17:11:58	 15.11		 14.09		 13.57		 17.66
17:12:00	 14.64		 14.09		 13.57		 16.27
17:12:01	 14.79		 14.09		 13.57		 16.71
17:12:02	 14.82		 14.01		 13.57		 16.88
17:12:03	 15.11		 14.01		 13.48		 17.83
17:12:04	 15.19		 14.01		 13.48		 18.09
17:12:05	 15.02		 14.01		 13.48		 17.57
17:12:06	 13.66		 13.92		 13.39		 13.66
17:12:07	 14.99		 13.92		 13.48		 17.57
17:12:08	 14.73		 13.92		 13.39		 16.88
17:12:09	 14.99		 14.01		 13.39		 17.57
17:12:10	 15.08		 14.01		 13.30		 17.92
17:12:11	 14.87		 13.92		 13.30		 17.40
17:12:12	 14.64		 13.92		 13.39		 16.62
17:12:13	 14.35		 13.83		 13.30		 15.93
17:12:14	 14.67		 13.92		 13.30		 16.79
17:12:15	 14.93		 13.83		 13.30		 17.66
17:12:16	 15.05		 13.92		 13.30		 17.92
17:12:17	 14.84		 13.83		 13.48		 17.22
17:12:18	 14.53		 13.83		 13.30		 16.45
17:12:19	 14.09		 13.83		 13.30		 15.14
17:12:20	 14.76		 13.83		 13.30		 17.14
17:12:21	 14.90		 13.83		 13.30		 17.57
17:12:22	 14.93		 13.83		 13.22		 17.74
17:12:23	 14.73		 13.74		 13.30		 17.14
17:12:24	 14.50		 13.83		 13.30		 16.36
17:12:25	 13.68		 13.74		 13.22		 14.09
17:12:26	 14.67		 13.83		 13.30		 16.88
17:12:27	 14.90		 13.83		 13.22		 17.66
17:12:28	 14.93		 13.74		 13.30		 17.74
17:12:29	 14.73		 13.74		 13.30		 17.14
17:12:30	 14.47		 13.74		 13.30		 16.36
17:12:31	 12.50		 13.92		 13.30		 10.28
17:12:32	 14.64		 13.74		 13.30		 16.88
17:12:33	 14.93		 13.74		 13.30		 17.74
17:12:34	 15.02		 13.83		 13.39		 17.83
17:12:35	 14.79		 13.92		 13.39		 17.05
17:12:36	 14.56		 13.83		 13.48		 16.36
17:12:37	 14.50		 13.83		 13.39		 16.27
17:12:38	 14.76		 13.83		 13.39		 17.05
17:12:39	 15.39		 13.92		 13.48		 18.78
17:12:40	 15.02		 14.01		 13.48		 17.57
17:12:41	 14.88		 14.01		 13.48		 17.14
17:12:42	 14.70		 14.01		 13.48		 16.62
17:12:43	 14.67		 13.92		 13.57		 16.53
17:12:44	 14.93		 14.01		 13.57		 17.22
17:12:45	 15.22		 14.09		 13.57		 18.00
17:12:46	 15.22		 14.01		 13.66		 18.00
17:12:47	 14.99		 14.01		 13.48		 17.48
17:12:48	 14.82		 14.09		 13.57		 16.79
17:12:49	 14.99		 14.09		 13.66		 17.22
17:12:50	 14.96		 14.09		 13.66		 17.14
17:12:51	 15.22		 14.09		 13.57		 18.00
17:12:52	 15.39		 14.18		 13.74		 18.26
17:12:53	 15.25		 14.09		 13.74		 17.92
17:12:54	 14.99		 14.18		 13.74		 17.05
17:12:55	 14.85		 14.18		 13.83		 16.53
17:12:56	 15.05		 14.27		 13.74		 17.14
17:12:57	 15.34		 14.27		 13.74		 18.00
17:12:58	 15.54		 14.36		 13.74		 18.52
17:12:59	 15.51		 14.36		 13.74		 18.43
17:13:00	 15.83		 14.36		 13.83		 19.30
17:13:01	 15.05		 14.36		 13.92		 16.88
17:13:02	 15.08		 14.44		 13.92		 16.88
17:13:03	 15.37		 14.36		 13.92		 17.83
17:13:04	 15.60		 14.44		 13.92		 18.43
17:13:05	 15.63		 14.44		 13.92		 18.52
17:13:06	 15.51		 14.44		 14.01		 18.09
17:13:07	 15.28		 14.44		 14.01		 17.40
17:13:08	 15.14		 14.44		 14.01		 16.97
17:13:09	 15.28		 14.53		 14.01		 17.31
17:13:10	 15.57		 14.62		 14.09		 18.00
17:13:11	 15.69		 14.53		 14.01		 18.52
17:13:12	 16.00		 14.62		 14.09		 19.30
17:13:13	 15.66		 14.62		 14.09		 18.26
17:13:14	 15.46		 14.62		 14.18		 17.57
17:13:15	 15.31		 14.62		 14.18		 17.14
17:13:16	 15.40		 14.71		 14.18		 17.31
17:13:17	 15.63		 14.71		 14.27		 17.92
17:13:18	 15.83		 14.71		 14.18		 18.61
17:13:19	 15.94		 14.79		 14.18		 18.86
17:13:20	 15.86		 14.71		 14.18		 18.69
17:13:21	 15.60		 14.79		 14.18		 17.83
17:13:22	 16.24		 14.71		 14.27		 19.73
17:13:23	 15.49		 14.79		 14.27		 17.40
17:13:24	 15.78		 14.88		 14.36		 18.09
17:13:25	 15.83		 14.71		 14.27		 18.52
17:13:26	 15.95		 14.79		 14.27		 18.78
17:13:27	 15.83		 14.79		 14.27		 18.43
17:13:28	 15.54		 14.79		 14.36		 17.48
17:13:29	 15.43		 14.79		 14.36		 17.14
17:13:30	 15.60		 14.88		 14.36		 17.57
17:13:31	 15.77		 14.88		 14.44		 18.00
17:13:32	 14.24		 14.97		 14.44		 13.30
17:13:33	 16.06		 14.88		 14.36		 18.95
17:13:34	 15.95		 14.97		 14.36		 18.52
17:13:35	 15.78		 14.97		 14.44		 17.92
17:13:36	 15.60		 14.88		 14.44		 17.48
17:13:37	 15.63		 14.97		 14.53		 17.40
17:13:38	 15.80		 14.97		 14.44		 18.00
17:13:39	 16.09		 15.06		 14.53		 18.69
17:13:40	 16.15		 15.06		 14.44		 18.95
17:13:41	 16.01		 14.97		 14.62		 18.43
17:13:42	 16.18		 15.06		 14.53		 18.95
17:13:43	 15.69		 14.97		 14.62		 17.48
17:13:44	 15.81		 14.97		 14.53		 17.92
17:13:45	 15.92		 15.14		 14.53		 18.09
17:13:46	 16.12		 15.06		 14.53		 18.78
17:13:47	 16.24		 15.14		 14.53		 19.04
17:13:48	 16.29		 15.14		 14.62		 19.12
17:13:49	 15.43		 15.06		 14.62		 16.62
17:13:50	 15.81		 15.06		 14.53		 17.83
17:13:51	 15.69		 15.06		 14.62		 17.40
17:13:52	 15.81		 15.06		 14.53		 17.83
17:13:53	 16.01		 15.14		 14.53		 18.35
17:13:54	 16.21		 15.14		 14.62		 18.86
17:13:55	 16.18		 15.06		 14.53		 18.95
17:13:56	 18.38		 15.06		 14.53		 25.54
17:13:57	 15.89		 15.06		 14.62		 18.00
17:13:58	 15.72		 15.06		 14.62		 17.48
17:13:59	 15.83		 15.14		 14.53		 17.83
17:14:00	 16.09		 15.14		 14.53		 18.61
17:14:01	 16.26		 15.14		 14.53		 19.12
17:14:02	 15.57		 15.14		 14.53		 17.05
17:14:03	 16.03		 15.14		 14.53		 18.43
17:14:04	 15.72		 15.06		 14.62		 17.48
17:14:05	 15.66		 15.06		 14.53		 17.40
17:14:06	 15.81		 15.06		 14.53		 17.83
17:14:07	 16.12		 15.06		 14.53		 18.78
17:14:08	 13.80		 15.06		 14.44		 11.89
17:14:09	 16.33		 15.06		 14.62		 19.30
17:14:10	 15.98		 15.06		 14.62		 18.26
17:14:11	 15.75		 15.06		 14.53		 17.66
17:14:12	 15.72		 15.40		 14.53		 17.22
17:14:13	 15.72		 15.06		 14.53		 17.57
17:14:14	 16.01		 15.14		 14.62		 18.26
17:14:15	 15.63		 15.14		 14.53		 17.22
17:14:16	 16.24		 15.14		 14.53		 19.04
17:14:17	 16.01		 15.06		 14.62		 18.35
17:14:18	 15.75		 15.06		 14.62		 17.57
17:14:19	 15.55		 15.06		 14.53		 17.05
17:14:20	 15.63		 15.06		 14.53		 17.31
17:14:21	 13.50		 15.06		 14.53		 10.91
17:14:22	 16.29		 15.14		 14.44		 19.30
17:14:23	 16.18		 15.14		 14.53		 18.86
17:14:24	 16.01		 15.14		 14.53		 18.35
17:14:25	 15.69		 14.97		 14.53		 17.57
17:14:26	 14.85		 15.06		 12.51		 16.97
17:14:27	 15.60		 14.97		 14.44		 17.40
17:14:28	 15.23		 15.06		 14.53		 16.10
17:14:29	 16.12		 15.06		 14.44		 18.86
17:14:30	 16.09		 15.06		 14.44		 18.78
17:14:31	 15.95		 15.14		 14.44		 18.26
17:14:32	 15.72		 14.97		 14.53		 17.66
17:14:33	 15.57		 14.97		 14.53		 17.22
17:14:34	 15.55		 15.06		 14.44		 17.14
17:14:35	 15.98		 15.06		 14.44		 18.43
17:14:36	 15.86		 14.97		 14.53		 18.09
17:14:37	 15.98		 14.97		 14.44		 18.52
17:14:38	 16.06		 15.06		 14.44		 18.69
17:14:39	 15.98		 15.06		 14.44		 18.43
17:14:40	 15.81		 15.06		 14.44		 17.92
17:14:41	 15.32		 15.06		 14.44		 16.45
17:14:42	 15.60		 14.97		 14.53		 17.31
17:14:43	 15.69		 14.97		 14.44		 17.66
17:14:44	 15.98		 15.06		 14.44		 18.43
17:14:45	 16.09		 14.97		 14.36		 18.95
17:14:46	 15.95		 14.97		 14.36		 18.52
17:14:47	 14.74		 14.97		 14.36		 14.88
17:14:48	 15.72		 14.97		 14.36		 17.83
17:14:49	 15.46		 14.88		 14.44		 17.05
17:14:50	 14.99		 13.04		 14.44		 17.48
17:14:51	 15.92		 14.97		 14.36		 18.43
17:14:52	 16.09		 14.97		 14.36		 18.95
17:14:53	 15.98		 14.88		 14.36		 18.69
17:14:54	 17.24		 14.88		 14.36		 22.49
17:14:55	 15.57		 14.88		 14.36		 17.48
17:14:56	 15.40		 14.88		 14.36		 16.97
17:14:57	 15.49		 14.79		 14.27		 17.40
17:14:58	 15.86		 14.97		 14.36		 18.26
17:14:59	 15.95		 14.88		 14.27		 18.69
17:15:00	 15.40		 14.88		 14.27		 17.05
17:15:01	 15.77		 14.88		 14.27		 18.17
17:15:02	 15.40		 14.79		 14.27		 17.14
17:15:03	 15.37		 14.88		 14.36		 16.88
17:15:04	 15.52		 14.88		 14.27		 17.40
17:15:05	 15.83		 14.88		 14.27		 18.35
17:15:06	 14.62		 14.79		 14.27		 14.79
17:15:07	 16.06		 14.88		 14.18		 19.12
17:15:08	 15.63		 14.79		 14.36		 17.74
17:15:09	 15.43		 14.88		 14.27		 17.14
17:15:10	 15.29		 14.71		 14.27		 16.88
17:15:11	 15.40		 14.79		 14.27		 17.14
17:15:12	 15.57		 14.79		 14.27		 17.66
17:15:13	 16.49		 14.79		 14.27		 20.42
17:15:14	 15.83		 14.71		 14.18		 18.61
17:15:15	 15.69		 14.71		 14.27		 18.09
17:15:16	 15.49		 14.71		 14.18		 17.57
17:15:17	 15.31		 14.79		 14.18		 16.97
17:15:18	 15.20		 14.71		 14.18		 16.71
17:15:19	 15.03		 14.71		 14.18		 16.19
17:15:20	 15.60		 14.71		 14.18		 17.92
17:15:21	 15.68		 14.79		 14.09		 18.17
17:15:22	 15.75		 14.71		 14.18		 18.35
17:15:23	 15.54		 14.71		 14.18		 17.74
17:15:24	 15.31		 14.62		 14.18		 17.14
17:15:25	 14.50		 14.71		 14.18		 14.62
17:15:26	 15.26		 14.62		 14.18		 16.97
17:15:27	 15.31		 14.71		 14.09		 17.14
17:15:28	 15.52		 14.71		 14.18		 17.66
17:15:29	 15.66		 14.62		 14.18		 18.17
17:15:30	 15.72		 14.79		 14.01		 18.35
17:15:31	 13.77		 14.71		 14.09		 12.51
17:15:32	 15.51		 14.62		 14.09		 17.83
17:15:33	 15.26		 14.62		 14.18		 16.97
17:15:34	 15.08		 14.62		 14.18		 16.45
17:15:35	 15.08		 14.62		 14.18		 16.45
17:15:36	 15.31		 14.71		 14.01		 17.22
17:15:37	 15.54		 14.71		 14.09		 17.83
17:15:38	 15.34		 14.71		 14.09		 17.22
17:15:39	 15.77		 14.71		 14.18		 18.43
17:15:40	 15.37		 14.62		 14.09		 17.40
17:15:41	 15.17		 14.62		 14.09		 16.79
17:15:42	 15.11		 14.62		 14.18		 16.53
17:15:43	 15.23		 14.62		 14.09		 16.97
17:15:44	 14.41		 14.62		 14.09		 14.53
17:15:45	 15.83		 14.71		 14.09		 18.69
17:15:46	 15.72		 14.71		 14.09		 18.35
17:15:47	 15.31		 14.62		 14.09		 17.22
17:15:48	 15.11		 14.62		 14.18		 16.53
17:15:49	 15.08		 14.62		 14.09		 16.53
17:15:50	 15.26		 14.71		 14.09		 16.97
17:15:51	 16.43		 14.71		 14.09		 20.50
17:15:52	 15.72		 14.71		 14.09		 18.35
17:15:53	 15.46		 14.62		 14.09		 17.66
17:15:54	 15.14		 14.53		 14.18		 16.71
17:15:55	 15.05		 14.62		 14.27		 16.27
17:15:56	 14.99		 14.53		 14.09		 16.36
17:15:57	 14.88		 14.71		 14.09		 15.84
17:15:58	 15.66		 14.71		 14.09		 18.17
17:15:59	 15.60		 14.62		 14.09		 18.09
17:16:00	 15.34		 14.62		 14.09		 17.31
17:16:01	 15.14		 14.62		 14.18		 16.62
17:16:02	 15.11		 14.62		 14.18		 16.53
17:16:03	 15.23		 14.71		 14.09		 16.88
17:16:04	 15.89		 14.62		 14.09		 18.95
17:16:05	 15.69		 14.71		 14.09		 18.26
17:16:06	 15.63		 14.71		 14.09		 18.09
17:16:07	 15.43		 14.62		 14.09		 17.57
17:16:08	 15.17		 14.62		 14.18		 16.71
17:16:09	 15.02		 14.62		 14.18		 16.27
17:16:10	 14.53		 14.62		 14.09		 14.88
17:16:11	 15.43		 14.62		 14.18		 17.48
17:16:12	 15.54		 14.62		 14.09		 17.92
17:16:13	 15.66		 14.62		 14.09		 18.26
17:16:14	 15.43		 14.62		 14.09		 17.57
17:16:15	 15.11		 14.53		 14.09		 16.71
17:16:16	 13.44		 14.62		 14.09		 11.62
17:16:17	 15.20		 14.62		 14.18		 16.79
17:16:18	 15.40		 14.71		 14.18		 17.31
17:16:19	 15.57		 14.71		 14.09		 17.92
17:16:20	 15.69		 14.71		 14.18		 18.17
17:16:21	 15.43		 14.62		 14.01		 17.66
17:16:22	 15.14		 14.62		 14.18		 16.62
17:16:23	 17.13		 14.71		 14.18		 22.49
17:16:24	 15.31		 14.62		 14.18		 17.14
17:16:25	 15.54		 14.71		 14.09		 17.83
17:16:26	 15.69		 14.71		 14.18		 18.17
17:16:27	 15.57		 14.71		 14.18		 17.83
17:16:28	 15.23		 14.71		 14.09		 16.88
17:16:29	 14.30		 14.71		 14.18		 14.01
17:16:30	 15.08		 14.62		 14.18		 16.45
17:16:31	 15.40		 14.71		 14.09		 17.40
17:16:32	 15.51		 14.36		 14.09		 18.09
17:16:33	 15.49		 14.71		 14.18		 17.57
17:16:35	 15.34		 14.71		 14.18		 17.14
17:16:36	 15.14		 14.62		 14.18		 16.62
17:16:37	 15.57		 14.53		 14.18		 18.00
17:16:38	 15.43		 14.79		 14.27		 17.22
17:16:39	 15.60		 14.79		 14.18		 17.83
17:16:40	 15.74		 14.79		 14.27		 18.17
17:16:41	 15.63		 14.79		 14.27		 17.83
17:16:42	 15.29		 14.71		 14.18		 16.97
17:16:43	 16.15		 14.71		 14.27		 19.47
17:16:44	 15.23		 14.71		 14.27		 16.71
17:16:45	 15.48		 14.79		 14.18		 17.48
17:16:46	 15.63		 14.71		 14.18		 18.00
17:16:47	 15.72		 14.71		 14.27		 18.17
17:16:48	 15.46		 14.71		 14.18		 17.48
17:16:49	 15.52		 14.71		 14.18		 17.66
17:16:50	 15.14		 14.71		 14.18		 16.53
17:16:51	 15.37		 14.79		 14.27		 17.05
17:16:52	 15.60		 14.71		 14.18		 17.92
17:16:53	 15.71		 14.79		 14.18		 18.17
17:16:54	 15.11		 14.71		 14.27		 16.36
17:16:55	 15.28		 14.79		 14.18		 16.88
17:16:56	 15.14		 14.71		 14.18		 16.53
17:16:57	 15.34		 14.79		 14.27		 16.97
17:16:58	 15.63		 14.79		 14.18		 17.92
17:16:59	 15.72		 14.71		 14.18		 18.26
17:17:00	 16.06		 14.71		 14.27		 19.21
17:17:01	 15.26		 14.71		 14.18		 16.88
17:17:02	 15.11		 14.71		 14.27		 16.36
17:17:03	 15.29		 14.71		 14.27		 16.88
17:17:04	 15.63		 14.79		 14.18		 17.92
17:17:05	 14.76		 14.79		 14.18		 15.32
17:17:06	 15.72		 14.79		 14.27		 18.09
17:17:07	 15.28		 14.79		 14.18		 16.88
17:17:08	 15.14		 14.79		 14.27		 16.36
17:17:09	 15.20		 14.79		 14.27		 16.53
17:17:10	 15.51		 14.79		 14.27		 17.48
17:17:11	 16.69		 14.79		 14.27		 21.02
17:17:12	 15.63		 14.71		 14.27		 17.92
17:17:13	 15.37		 14.71		 14.18		 17.22
17:17:14	 15.17		 14.71		 14.27		 16.53
17:17:15	 15.14		 14.71		 14.27		 16.45
17:17:16	 14.27		 14.79		 14.27		 13.74
17:17:17	 15.63		 14.79		 14.18		 17.92
17:17:18	 15.66		 14.79		 14.18		 18.00
17:17:19	 15.60		 14.88		 14.27		 17.66
17:17:20	 15.20		 14.79		 14.18		 16.62
17:17:21	 15.11		 14.79		 14.27		 16.27
17:17:22	 15.78		 14.71		 14.27		 18.35
