Temperature log started on 12/05/2021 at 13:52:29

Time 		 Average T (C) 	 T0 (C) 	 T1 (C) 	 T2 (C) 
------------------------------------------------------------------------
13:52:29	 19.10		 18.69		 19.30		 19.30
13:52:30	 19.38		 19.47		 19.30		 19.38
13:52:31	 19.44		 19.73		 19.30		 19.30
13:52:32	 19.24		 19.30		 19.30		 19.12
13:52:33	 19.04		 18.86		 19.30		 18.95
13:52:34	 18.92		 18.61		 19.21		 18.95
13:52:34	 18.84		 18.35		 19.21		 18.95
13:52:35	 18.86		 18.35		 19.12		 19.12
13:52:36	 18.89		 18.35		 19.12		 19.21
13:52:37	 18.81		 18.26		 19.12		 19.04
13:52:38	 18.64		 18.09		 19.04		 18.78
13:52:39	 18.63		 18.00		 19.12		 18.78
13:52:40	 18.63		 18.00		 19.04		 18.86
13:52:41	 18.72		 18.17		 18.95		 19.04
13:52:42	 18.72		 18.26		 18.95		 18.95
13:52:43	 18.58		 18.00		 18.95		 18.78
13:52:43	 18.55		 18.00		 18.95		 18.69
13:52:44	 18.40		 17.74		 18.95		 18.52
13:52:45	 18.46		 17.83		 18.86		 18.69
13:52:46	 18.52		 18.00		 18.69		 18.86
13:52:47	 18.55		 18.09		 18.78		 18.78
13:52:48	 18.41		 17.83		 18.78		 18.61
13:52:49	 18.35		 17.83		 18.78		 18.43
13:52:50	 18.20		 17.57		 18.61		 18.43
13:52:51	 18.29		 17.66		 18.69		 18.52
13:52:52	 18.32		 17.74		 18.61		 18.61
13:52:53	 18.32		 17.83		 18.61		 18.52
13:52:53	 18.15		 17.57		 18.52		 18.35
13:52:54	 18.09		 17.48		 18.61		 18.17
13:52:55	 18.03		 17.40		 18.43		 18.26
13:52:56	 18.12		 17.57		 18.43		 18.35
13:52:57	 18.20		 17.74		 18.35		 18.52
13:52:58	 18.09		 17.48		 18.43		 18.35
13:52:59	 17.95		 17.40		 18.35		 18.09
13:53:00	 17.83		 17.05		 18.43		 18.00
13:53:01	 17.95		 17.40		 18.35		 18.09
13:53:02	 17.97		 17.48		 18.26		 18.17
13:53:02	 18.06		 17.57		 18.26		 18.35
13:53:03	 17.94		 17.31		 18.26		 18.26
13:53:04	 17.86		 17.22		 18.35		 18.00
13:53:05	 17.83		 17.31		 18.26		 17.92
13:53:06	 17.77		 17.14		 18.17		 18.00
13:53:07	 17.88		 17.31		 18.17		 18.17
13:53:08	 17.83		 17.22		 18.09		 18.17
13:53:09	 17.80		 17.14		 18.17		 18.09
13:53:10	 17.71		 17.14		 18.17		 17.83
13:53:11	 17.68		 17.14		 18.17		 17.74
13:53:11	 17.66		 17.05		 18.00		 17.92
13:53:12	 17.80		 17.31		 18.09		 18.00
13:53:13	 17.83		 17.31		 18.09		 18.09
13:53:14	 17.63		 16.97		 18.00		 17.92
13:53:15	 17.48		 16.79		 18.00		 17.66
13:53:16	 17.51		 16.88		 18.00		 17.66
13:53:17	 17.60		 17.05		 17.92		 17.83
13:53:18	 17.60		 17.05		 17.83		 17.92
13:53:19	 17.57		 17.05		 17.83		 17.83
13:53:20	 17.49		 16.97		 17.83		 17.66
13:53:21	 17.43		 16.79		 17.92		 17.57
13:53:21	 17.43		 16.79		 17.83		 17.66
13:53:22	 17.48		 16.97		 17.74		 17.74
13:53:23	 17.57		 17.05		 17.83		 17.83
13:53:24	 17.43		 16.88		 17.74		 17.66
13:53:25	 17.28		 16.62		 17.74		 17.48
13:53:26	 17.28		 16.71		 17.74		 17.40
13:53:27	 17.28		 16.62		 17.74		 17.48
13:53:28	 17.40		 16.88		 17.57		 17.74
13:53:29	 17.40		 16.88		 17.66		 17.66
13:53:30	 17.34		 16.79		 17.66		 17.57
13:53:30	 17.26		 16.71		 17.66		 17.40
13:53:31	 17.23		 16.71		 17.66		 17.31
13:53:32	 17.28		 16.79		 17.66		 17.40
13:53:33	 17.25		 16.71		 17.48		 17.57
13:53:34	 17.31		 16.79		 17.57		 17.57
13:53:35	 17.17		 16.62		 17.48		 17.40
13:53:36	 17.11		 16.53		 17.57		 17.22
13:53:37	 16.96		 16.27		 17.48		 17.14
13:53:38	 17.22		 16.79		 17.48		 17.40
13:53:39	 17.20		 16.71		 17.40		 17.48
13:53:39	 17.17		 16.62		 17.48		 17.40
13:53:40	 17.02		 16.45		 17.40		 17.22
13:53:41	 17.02		 16.53		 17.40		 17.14
13:53:42	 16.91		 16.19		 17.31		 17.22
13:53:43	 17.14		 16.79		 17.31		 17.31
13:53:44	 17.05		 16.53		 17.31		 17.31
13:53:45	 16.97		 16.36		 17.40		 17.14
13:53:46	 17.05		 16.88		 17.31		 16.97
13:53:47	 16.85		 16.27		 17.22		 17.05
13:53:48	 17.11		 16.88		 17.22		 17.22
13:53:49	 16.93		 16.27		 17.22		 17.31
13:53:49	 17.02		 16.71		 17.22		 17.14
13:53:50	 16.73		 16.01		 17.22		 16.97
13:53:51	 16.93		 16.53		 17.22		 17.05
13:53:52	 16.97		 16.71		 17.14		 17.05
13:53:53	 16.94		 16.53		 17.14		 17.14
13:53:54	 16.97		 16.62		 17.14		 17.14
13:53:55	 16.96		 16.62		 17.22		 17.05
13:53:56	 16.88		 16.62		 17.14		 16.88
13:53:57	 16.85		 16.71		 17.05		 16.79
13:53:58	 16.79		 16.36		 17.14		 16.88
13:53:58	 16.91		 16.71		 16.97		 17.05
13:53:59	 16.82		 16.45		 16.97		 17.05
13:54:00	 16.80		 16.45		 16.97		 16.97
13:54:01	 16.68		 16.27		 16.97		 16.79
13:54:02	 16.65		 16.27		 16.97		 16.71
13:54:03	 16.65		 16.36		 16.97		 16.62
13:54:04	 16.71		 16.45		 16.88		 16.79
13:54:05	 16.62		 16.27		 16.79		 16.79
13:54:06	 16.62		 16.27		 16.79		 16.79
13:54:07	 16.65		 16.45		 16.79		 16.71
13:54:07	 16.47		 16.01		 16.79		 16.62
13:54:08	 16.45		 16.19		 16.71		 16.45
13:54:09	 16.42		 16.01		 16.71		 16.53
13:54:10	 16.48		 16.10		 16.62		 16.71
13:54:11	 16.48		 16.10		 16.62		 16.71
13:54:12	 16.39		 16.01		 16.62		 16.53
13:54:13	 16.42		 16.10		 16.71		 16.45
13:54:14	 16.39		 16.19		 16.62		 16.36
13:54:15	 16.24		 15.84		 16.62		 16.27
13:54:16	 16.24		 15.84		 16.53		 16.36
13:54:17	 16.28		 15.93		 16.45		 16.45
13:54:17	 16.28		 15.93		 16.45		 16.45
13:54:18	 16.22		 15.84		 16.45		 16.36
13:54:19	 16.16		 15.75		 16.45		 16.27
13:54:20	 16.10		 15.66		 16.45		 16.19
13:54:21	 16.10		 15.66		 16.45		 16.19
13:54:22	 16.13		 15.75		 16.36		 16.27
13:54:23	 16.13		 15.84		 16.27		 16.27
13:54:24	 16.13		 15.84		 16.27		 16.27
13:54:25	 16.13		 15.75		 16.36		 16.27
13:54:26	 16.07		 15.75		 16.36		 16.10
13:54:26	 15.95		 15.58		 16.27		 16.01
13:54:27	 16.04		 15.84		 16.19		 16.10
13:54:28	 16.04		 15.84		 16.10		 16.19
13:54:29	 16.04		 15.84		 16.10		 16.19
13:54:30	 16.01		 15.75		 16.19		 16.10
13:54:31	 15.81		 15.49		 16.10		 15.84
13:54:32	 15.84		 15.49		 16.10		 15.93
13:54:33	 15.84		 15.49		 16.01		 16.01
13:54:34	 15.92		 15.66		 16.01		 16.10
13:54:35	 15.90		 15.66		 16.10		 15.93
13:54:35	 15.69		 15.32		 16.01		 15.75
13:54:36	 15.67		 15.23		 15.93		 15.84
13:54:37	 15.73		 15.32		 15.93		 15.93
13:54:38	 15.70		 15.32		 15.84		 15.93
13:54:39	 15.67		 15.23		 15.93		 15.84
13:54:40	 15.61		 15.40		 15.84		 15.58
13:54:41	 15.55		 15.23		 15.84		 15.58
13:54:42	 15.58		 15.14		 15.75		 15.84
13:54:43	 15.61		 15.23		 15.75		 15.84
13:54:44	 15.55		 15.14		 15.84		 15.66
13:54:45	 15.49		 15.06		 15.84		 15.58
13:54:45	 15.46		 15.06		 15.75		 15.58
13:54:46	 15.46		 15.06		 15.66		 15.66
13:54:47	 15.52		 15.14		 15.66		 15.75
13:54:48	 15.43		 15.06		 15.66		 15.58
13:54:49	 15.43		 15.06		 15.75		 15.49
13:54:50	 15.40		 15.14		 15.66		 15.40
13:54:51	 15.38		 14.97		 15.58		 15.58
13:54:52	 15.38		 14.97		 15.58		 15.58
13:54:53	 15.35		 15.06		 15.49		 15.49
13:54:54	 15.29		 14.97		 15.58		 15.32
13:54:54	 15.23		 14.97		 15.49		 15.23
13:54:55	 15.23		 14.79		 15.49		 15.40
13:54:56	 15.29		 14.97		 15.40		 15.49
13:54:57	 15.23		 14.79		 15.40		 15.49
13:54:58	 15.17		 14.79		 15.40		 15.32
13:54:59	 15.05		 14.62		 15.40		 15.14
13:55:00	 15.06		 14.71		 15.32		 15.14
13:55:01	 15.14		 14.71		 15.40		 15.32
13:55:02	 15.17		 14.79		 15.40		 15.32
13:55:03	 15.12		 14.71		 15.32		 15.32
13:55:03	 15.08		 14.88		 15.23		 15.14
13:55:04	 14.97		 14.62		 15.32		 14.97
13:55:05	 14.97		 14.53		 15.32		 15.06
13:55:06	 15.00		 14.71		 15.14		 15.14
13:55:07	 15.05		 14.79		 15.14		 15.23
13:55:08	 15.05		 14.88		 15.14		 15.14
13:55:09	 14.91		 14.53		 15.23		 14.97
13:55:10	 14.94		 14.62		 15.23		 14.97
13:55:11	 14.82		 14.44		 15.06		 14.97
13:55:12	 14.88		 14.44		 15.06		 15.14
13:55:13	 14.94		 14.62		 15.06		 15.14
13:55:13	 14.82		 14.44		 15.06		 14.97
13:55:14	 14.74		 14.36		 15.06		 14.79
13:55:15	 14.68		 14.18		 15.06		 14.79
13:55:16	 14.68		 14.27		 14.97		 14.79
13:55:17	 14.82		 14.62		 14.88		 14.97
13:55:18	 14.79		 14.44		 14.97		 14.97
13:55:19	 14.68		 14.36		 14.88		 14.79
13:55:20	 14.68		 14.36		 14.97		 14.71
13:55:21	 14.53		 14.09		 14.88		 14.62
13:55:22	 14.59		 14.18		 14.88		 14.71
13:55:22	 14.62		 14.27		 14.79		 14.79
13:55:23	 14.70		 14.44		 14.79		 14.88
13:55:24	 14.59		 14.27		 14.79		 14.71
13:55:25	 14.56		 14.27		 14.79		 14.62
13:55:26	 14.47		 14.09		 14.79		 14.53
13:55:27	 14.50		 14.27		 14.71		 14.53
13:55:28	 14.56		 14.18		 14.71		 14.79
13:55:29	 14.47		 14.09		 14.71		 14.62
13:55:30	 14.47		 14.18		 14.71		 14.53
13:55:31	 14.36		 13.92		 14.71		 14.44
13:55:31	 14.44		 14.27		 14.62		 14.44
13:55:32	 14.33		 13.92		 14.53		 14.53
13:55:33	 14.42		 14.01		 14.62		 14.62
13:55:34	 14.36		 14.01		 14.62		 14.44
13:55:35	 14.24		 13.83		 14.62		 14.27
13:55:36	 14.24		 13.74		 14.62		 14.36
13:55:37	 14.30		 13.92		 14.44		 14.53
13:55:38	 14.33		 14.01		 14.44		 14.53
13:55:39	 14.30		 13.92		 14.53		 14.44
13:55:40	 14.24		 13.92		 14.53		 14.27
13:55:41	 14.24		 14.01		 14.44		 14.27
13:55:41	 14.12		 13.74		 14.36		 14.27
13:55:42	 14.21		 13.83		 14.36		 14.44
13:55:43	 14.24		 14.01		 14.36		 14.36
13:55:44	 14.12		 13.74		 14.36		 14.27
13:55:45	 14.04		 13.57		 14.36		 14.18
13:55:46	 14.12		 13.83		 14.44		 14.09
13:55:47	 14.04		 13.57		 14.36		 14.18
13:55:48	 14.07		 13.66		 14.27		 14.27
13:55:49	 14.09		 13.74		 14.27		 14.27
13:55:50	 14.06		 13.83		 14.18		 14.18
13:55:50	 13.98		 13.57		 14.36		 14.01
13:55:51	 14.04		 13.92		 14.18		 14.01
13:55:52	 13.92		 13.48		 14.18		 14.09
13:55:53	 14.21		 14.27		 14.18		 14.18
13:55:54	 13.98		 13.66		 14.18		 14.09
13:55:55	 14.27		 14.44		 14.18		 14.18
13:55:56	 13.92		 13.57		 14.18		 14.01
13:55:57	 13.98		 13.74		 14.27		 13.92
13:55:58	 14.15		 14.27		 14.18		 14.01
13:55:59	 13.98		 13.66		 14.18		 14.09
13:55:59	 14.27		 14.53		 14.09		 14.18
13:56:00	 14.01		 13.66		 14.18		 14.18
13:56:01	 14.01		 13.66		 14.27		 14.09
13:56:02	 13.95		 13.66		 14.27		 13.92
13:56:03	 14.33		 14.71		 14.27		 14.01
13:56:04	 13.86		 13.48		 14.09		 14.01
13:56:05	 14.01		 13.92		 14.09		 14.01
13:56:06	 13.92		 13.57		 14.09		 14.09
13:56:07	 14.12		 14.09		 14.09		 14.18
13:56:08	 13.89		 13.48		 14.09		 14.09
13:56:09	 14.01		 13.83		 14.18		 14.01
13:56:09	 13.83		 13.48		 14.09		 13.92
13:56:10	 14.04		 14.01		 14.18		 13.92
13:56:11	 13.92		 13.48		 14.18		 14.09
13:56:12	 14.27		 14.62		 14.09		 14.09
13:56:13	 13.98		 13.66		 14.18		 14.09
13:56:14	 14.18		 14.27		 14.18		 14.09
13:56:15	 13.92		 13.57		 14.18		 14.01
13:56:16	 14.01		 13.83		 14.27		 13.92
13:56:17	 13.86		 13.48		 14.18		 13.92
13:56:18	 14.01		 13.83		 14.18		 14.01
13:56:18	 13.92		 13.57		 14.09		 14.09
13:56:19	 14.12		 14.01		 14.18		 14.18
13:56:20	 13.98		 13.66		 14.18		 14.09
13:56:21	 14.18		 14.27		 14.18		 14.09
13:56:22	 13.92		 13.57		 14.18		 14.01
13:56:23	 14.01		 13.83		 14.18		 14.01
13:56:24	 13.89		 13.57		 14.18		 13.92
13:56:25	 14.27		 14.71		 14.09		 14.01
13:56:26	 13.98		 13.66		 14.09		 14.18
13:56:27	 14.44		 15.06		 14.18		 14.09
13:56:27	 13.95		 13.57		 14.18		 14.09
13:56:28	 14.15		 14.27		 14.18		 14.01
13:56:29	 13.89		 13.48		 14.27		 13.92
13:56:30	 14.01		 13.83		 14.18		 14.01
13:56:31	 13.95		 13.66		 14.09		 14.09
13:56:32	 14.18		 14.18		 14.18		 14.18
13:56:33	 14.01		 13.66		 14.18		 14.18
13:56:34	 13.98		 13.66		 14.18		 14.09
13:56:35	 14.04		 13.83		 14.27		 14.01
13:56:36	 13.89		 13.48		 14.27		 13.92
13:56:37	 14.30		 14.79		 14.18		 13.92
13:56:37	 13.95		 13.66		 14.09		 14.09
13:56:38	 14.12		 14.01		 14.18		 14.18
13:56:39	 14.01		 13.66		 14.18		 14.18
13:56:40	 14.01		 13.66		 14.18		 14.18
13:56:41	 13.95		 13.48		 14.27		 14.09
13:56:42	 14.33		 14.79		 14.18		 14.01
13:56:43	 13.86		 13.39		 14.27		 13.92
13:56:44	 14.18		 14.36		 14.18		 14.01
13:56:45	 13.92		 13.57		 14.09		 14.09
13:56:46	 14.15		 14.09		 14.18		 14.18
13:56:46	 13.95		 13.57		 14.09		 14.18
13:56:47	 14.27		 14.53		 14.18		 14.09
13:56:48	 13.92		 13.57		 14.18		 14.01
13:56:49	 14.01		 13.92		 14.18		 13.92
13:56:50	 13.92		 13.48		 14.27		 14.01
13:56:51	 14.06		 13.92		 14.18		 14.09
13:56:52	 13.92		 13.57		 14.09		 14.09
13:56:53	 14.09		 13.92		 14.18		 14.18
13:56:54	 13.98		 13.66		 14.09		 14.18
13:56:55	 14.38		 14.79		 14.18		 14.18
13:56:55	 13.89		 13.48		 14.18		 14.01
13:56:56	 14.01		 13.83		 14.27		 13.92
13:56:57	 13.89		 13.48		 14.18		 14.01
13:56:58	 14.12		 14.01		 14.27		 14.09
13:56:59	 13.98		 13.57		 14.18		 14.18
13:57:00	 14.33		 14.62		 14.18		 14.18
13:57:01	 14.01		 13.66		 14.18		 14.18
13:57:02	 14.00		 13.74		 14.18		 14.09
13:57:03	 13.92		 13.57		 14.18		 14.01
13:57:04	 14.04		 13.83		 14.27		 14.01
13:57:05	 13.89		 13.48		 14.27		 13.92
13:57:05	 14.01		 13.83		 14.18		 14.01
13:57:06	 13.95		 13.57		 14.18		 14.09
13:57:07	 14.44		 14.97		 14.18		 14.18
13:57:08	 13.95		 13.66		 14.09		 14.09
13:57:09	 14.12		 14.09		 14.09		 14.18
13:57:10	 13.98		 13.66		 14.18		 14.09
13:57:11	 14.35		 14.79		 14.18		 14.09
13:57:12	 13.92		 13.48		 14.27		 14.01
13:57:13	 14.01		 13.83		 14.27		 13.92
13:57:14	 13.89		 13.57		 14.18		 13.92
13:57:14	 14.24		 14.53		 14.18		 14.01
13:57:15	 13.92		 13.66		 14.09		 14.01
13:57:16	 14.21		 14.36		 14.18		 14.09
13:57:17	 14.01		 13.66		 14.18		 14.18
13:57:18	 14.09		 13.92		 14.18		 14.18
13:57:19	 14.06		 13.83		 14.27		 14.09
13:57:20	 13.86		 13.48		 14.09		 14.01
13:57:21	 14.01		 13.83		 14.18		 14.01
13:57:22	 13.86		 13.48		 14.18		 13.92
13:57:23	 14.12		 14.18		 14.18		 14.01
13:57:23	 13.92		 13.57		 14.09		 14.09
13:57:24	 14.09		 14.01		 14.09		 14.18
13:57:25	 13.95		 13.57		 14.18		 14.09
13:57:26	 14.38		 14.88		 14.18		 14.09
13:57:27	 13.92		 13.48		 14.27		 14.01
13:57:28	 13.95		 13.74		 14.18		 13.92
13:57:29	 14.18		 14.44		 14.18		 13.92
13:57:30	 13.92		 13.57		 14.18		 14.01
13:57:31	 14.12		 14.09		 14.18		 14.09
13:57:32	 13.95		 13.57		 14.18		 14.09
13:57:32	 14.09		 14.01		 14.09		 14.18
13:57:33	 13.92		 13.57		 14.09		 14.09
13:57:34	 14.09		 14.01		 14.18		 14.09
13:57:35	 13.89		 13.48		 14.18		 14.01
13:57:36	 14.04		 13.83		 14.27		 14.01
13:57:37	 13.89		 13.48		 14.18		 14.01
13:57:38	 14.06		 14.09		 14.09		 14.01
13:57:39	 13.92		 13.57		 14.09		 14.09
13:57:40	 14.09		 14.01		 14.09		 14.18
13:57:41	 14.01		 13.66		 14.18		 14.18
13:57:42	 13.98		 13.57		 14.18		 14.18
13:57:42	 14.24		 14.53		 14.18		 14.01
13:57:43	 13.92		 13.48		 14.27		 14.01
13:57:44	 14.04		 13.92		 14.18		 14.01
13:57:45	 13.89		 13.48		 14.18		 14.01
13:57:46	 14.09		 14.01		 14.18		 14.09
13:57:47	 13.98		 13.66		 14.18		 14.09
13:57:48	 14.12		 14.01		 14.18		 14.18
13:57:49	 13.98		 13.66		 14.18		 14.09
13:57:50	 14.35		 14.79		 14.18		 14.09
13:57:51	 13.89		 13.57		 14.18		 13.92
13:57:51	 14.27		 14.62		 14.27		 13.92
13:57:52	 13.92		 13.57		 14.18		 14.01
13:57:53	 14.09		 14.01		 14.18		 14.09
13:57:54	 14.03		 13.74		 14.18		 14.18
13:57:55	 14.06		 13.92		 14.09		 14.18
13:57:56	 13.98		 13.57		 14.27		 14.09
13:57:57	 14.36		 14.88		 14.18		 14.01
13:57:58	 13.89		 13.48		 14.18		 14.01
13:57:59	 13.98		 13.83		 14.18		 13.92
13:58:00	 14.12		 14.18		 14.18		 14.01
13:58:00	 13.92		 13.57		 14.09		 14.09
13:58:01	 14.09		 14.01		 14.09		 14.18
13:58:02	 13.95		 13.57		 14.09		 14.18
13:58:03	 14.38		 14.79		 14.27		 14.09
13:58:04	 13.98		 13.57		 14.27		 14.09
13:58:05	 14.12		 14.09		 14.27		 14.01
13:58:06	 13.92		 13.48		 14.27		 14.01
13:58:07	 14.12		 14.09		 14.27		 14.01
13:58:08	 13.92		 13.57		 14.09		 14.09
13:58:09	 14.09		 14.01		 14.09		 14.18
13:58:10	 14.01		 13.66		 14.18		 14.18
13:58:10	 14.06		 13.83		 14.27		 14.09
13:58:11	 13.95		 13.57		 14.27		 14.01
13:58:12	 14.04		 13.83		 14.27		 14.01
13:58:13	 13.89		 13.48		 14.18		 14.01
13:58:14	 14.04		 13.92		 14.18		 14.01
13:58:15	 13.95		 13.66		 14.09		 14.09
13:58:16	 14.12		 14.01		 14.18		 14.18
13:58:17	 13.92		 13.57		 14.09		 14.09
13:58:18	 14.04		 13.92		 14.18		 14.01
13:58:19	 13.92		 13.57		 14.18		 14.01
13:58:19	 14.01		 13.92		 14.18		 13.92
13:58:20	 13.89		 13.48		 14.18		 14.01
13:58:21	 14.09		 14.01		 14.18		 14.09
13:58:22	 14.01		 13.66		 14.18		 14.18
13:58:23	 14.01		 13.66		 14.18		 14.18
13:58:24	 14.06		 13.74		 14.18		 14.27
13:58:25	 13.98		 13.74		 14.18		 14.01
13:58:26	 14.07		 13.92		 14.27		 14.01
13:58:27	 13.83		 13.39		 14.18		 13.92
13:58:28	 13.98		 13.83		 14.18		 13.92
13:58:28	 14.18		 14.36		 14.09		 14.09
13:58:29	 13.95		 13.57		 14.18		 14.09
13:58:30	 14.06		 14.01		 14.09		 14.09
13:58:31	 13.98		 13.66		 14.18		 14.09
13:58:32	 14.24		 14.44		 14.18		 14.09
13:58:33	 13.89		 13.48		 14.18		 14.01
13:58:34	 14.09		 14.09		 14.18		 14.01
13:58:35	 13.89		 13.48		 14.18		 14.01
13:58:36	 14.01		 13.83		 14.18		 14.01
13:58:37	 13.92		 13.57		 14.09		 14.09
13:58:38	 14.15		 14.09		 14.18		 14.18
13:58:38	 13.98		 13.57		 14.18		 14.18
13:58:39	 14.30		 14.62		 14.18		 14.09
13:58:40	 13.89		 13.48		 14.18		 14.01
13:58:41	 13.98		 13.83		 14.18		 13.92
13:58:42	 14.47		 15.14		 14.27		 14.01
13:58:43	 13.95		 13.57		 14.27		 14.01
13:58:44	 14.30		 14.62		 14.18		 14.09
13:58:45	 14.03		 13.74		 14.18		 14.18
13:58:46	 14.27		 14.44		 14.18		 14.18
13:58:47	 14.30		 14.44		 14.27		 14.18
13:58:47	 14.21		 14.27		 14.27		 14.09
13:58:48	 14.21		 14.36		 14.27		 14.01
13:58:49	 14.18		 14.27		 14.27		 14.01
13:58:50	 14.21		 14.27		 14.27		 14.09
13:58:51	 14.30		 14.44		 14.27		 14.18
