Temperature log started on 12/05/2021 at 15:15:13

Time 		 Average T (C) 	 T0 (C) 	 T1 (C) 	 T2 (C) 
------------------------------------------------------------------------
15:15:13	 16.88		 16.53		 17.14		 16.97
15:15:14	 16.96		 16.62		 17.05		 17.22
15:15:15	 16.94		 16.71		 17.05		 17.05
15:15:16	 16.91		 16.53		 17.22		 16.97
15:15:17	 16.85		 16.45		 17.14		 16.97
15:15:18	 16.97		 16.62		 17.14		 17.14
15:15:19	 17.05		 16.79		 17.14		 17.22
15:15:20	 16.99		 16.71		 17.22		 17.05
15:15:21	 16.94		 16.53		 17.31		 16.97
15:15:22	 16.99		 16.62		 17.22		 17.14
15:15:23	 17.11		 16.79		 17.22		 17.31
15:15:23	 17.02		 16.79		 17.22		 17.05
15:15:24	 16.97		 16.62		 17.31		 16.97
15:15:25	 17.05		 16.71		 17.31		 17.14
15:15:26	 17.14		 16.79		 17.22		 17.40
15:15:27	 17.11		 16.79		 17.31		 17.22
15:15:28	 17.05		 16.71		 17.40		 17.05
15:15:29	 17.05		 16.62		 17.31		 17.22
15:15:30	 17.20		 16.88		 17.31		 17.40
15:15:31	 17.23		 16.97		 17.40		 17.31
15:15:32	 17.08		 16.71		 17.40		 17.14
15:15:32	 17.14		 16.79		 17.48		 17.14
15:15:33	 17.20		 16.79		 17.40		 17.40
15:15:34	 17.26		 16.97		 17.40		 17.40
15:15:35	 17.23		 16.97		 17.40		 17.31
15:15:36	 17.16		 16.79		 17.48		 17.22
15:15:37	 17.20		 16.88		 17.40		 17.31
15:15:38	 17.34		 17.05		 17.40		 17.57
15:15:39	 17.28		 17.05		 17.40		 17.40
15:15:40	 17.19		 16.88		 17.48		 17.22
15:15:41	 17.19		 16.88		 17.48		 17.22
15:15:41	 17.34		 16.97		 17.57		 17.48
15:15:42	 17.40		 17.14		 17.48		 17.57
15:15:43	 17.28		 16.97		 17.57		 17.31
15:15:44	 17.22		 16.88		 17.57		 17.22
15:15:45	 17.34		 16.97		 17.48		 17.57
15:15:46	 17.43		 17.14		 17.48		 17.66
15:15:47	 17.31		 16.97		 17.57		 17.40
15:15:48	 17.28		 16.97		 17.57		 17.31
15:15:49	 17.34		 16.97		 17.57		 17.48
15:15:50	 17.43		 17.14		 17.48		 17.66
15:15:51	 17.40		 17.14		 17.57		 17.48
15:15:51	 17.34		 17.05		 17.66		 17.31
15:15:52	 17.37		 16.97		 17.66		 17.48
15:15:53	 17.49		 17.14		 17.66		 17.66
15:15:54	 17.48		 17.22		 17.57		 17.66
15:15:55	 17.40		 17.05		 17.74		 17.40
15:15:56	 17.40		 17.05		 17.74		 17.40
15:15:57	 17.37		 17.14		 17.74		 17.22
15:15:58	 17.51		 17.22		 17.66		 17.66
15:15:59	 17.45		 17.14		 17.74		 17.48
15:16:00	 17.40		 16.97		 17.74		 17.48
15:16:00	 17.46		 17.05		 17.66		 17.66
15:16:01	 17.60		 17.22		 17.74		 17.83
15:16:02	 17.54		 17.14		 17.74		 17.74
15:16:03	 17.45		 17.05		 17.74		 17.57
15:16:04	 17.45		 17.05		 17.74		 17.57
15:16:05	 17.60		 17.31		 17.74		 17.74
15:16:06	 17.60		 17.31		 17.74		 17.74
15:16:07	 17.54		 17.22		 17.83		 17.57
15:16:08	 17.45		 17.05		 17.83		 17.48
15:16:09	 17.57		 17.22		 17.74		 17.74
15:16:09	 17.69		 17.40		 17.83		 17.83
15:16:10	 17.66		 17.40		 17.83		 17.74
15:16:11	 17.54		 17.22		 17.83		 17.57
15:16:12	 17.54		 17.14		 17.92		 17.57
15:16:13	 17.63		 17.31		 17.83		 17.74
15:16:14	 17.66		 17.31		 17.74		 17.92
15:16:15	 17.66		 17.40		 17.83		 17.74
15:16:16	 17.57		 17.22		 17.92		 17.57
15:16:17	 17.54		 17.14		 17.83		 17.66
15:16:18	 17.66		 17.31		 17.74		 17.92
15:16:18	 17.74		 17.48		 17.83		 17.92
15:16:19	 17.69		 17.40		 17.92		 17.74
15:16:20	 17.63		 17.31		 18.00		 17.57
15:16:21	 17.63		 17.22		 17.92		 17.74
15:16:22	 17.72		 17.40		 17.83		 17.92
15:16:23	 17.75		 17.40		 17.92		 17.92
15:16:24	 17.69		 17.40		 17.92		 17.74
15:16:25	 17.60		 17.22		 18.00		 17.57
15:16:26	 17.66		 17.31		 17.92		 17.74
15:16:27	 17.80		 17.48		 17.92		 18.00
15:16:28	 17.77		 17.48		 17.92		 17.92
15:16:28	 17.69		 17.40		 17.92		 17.74
15:16:29	 17.60		 17.22		 17.92		 17.66
15:16:30	 17.69		 17.31		 17.92		 17.83
15:16:31	 17.80		 17.48		 17.92		 18.00
15:16:32	 17.77		 17.40		 18.00		 17.92
15:16:33	 17.71		 17.31		 18.09		 17.74
15:16:34	 17.66		 17.31		 17.92		 17.74
15:16:35	 17.80		 17.40		 18.00		 18.00
15:16:36	 17.86		 17.57		 18.00		 18.00
15:16:37	 17.74		 17.40		 18.09		 17.74
15:16:37	 17.86		 17.74		 18.09		 17.74
15:16:38	 17.75		 17.40		 17.92		 17.92
15:16:39	 17.88		 17.48		 18.00		 18.17
15:16:40	 17.80		 17.57		 17.83		 18.00
15:16:41	 17.74		 17.40		 18.00		 17.83
15:16:42	 17.74		 17.31		 18.09		 17.83
15:16:43	 17.80		 17.48		 18.00		 17.92
15:16:44	 17.89		 17.57		 18.00		 18.09
15:16:45	 17.92		 17.57		 18.09		 18.09
15:16:46	 17.77		 17.48		 18.00		 17.83
15:16:46	 17.71		 17.40		 18.00		 17.74
15:16:47	 17.83		 17.48		 18.00		 18.00
15:16:48	 17.86		 17.57		 17.92		 18.09
15:16:49	 17.89		 17.57		 18.00		 18.09
15:16:50	 17.77		 17.40		 18.09		 17.83
15:16:51	 17.77		 17.31		 18.17		 17.83
15:16:52	 17.86		 17.48		 18.09		 18.00
15:16:53	 17.92		 17.57		 18.09		 18.09
15:16:54	 17.89		 17.57		 18.00		 18.09
15:16:55	 17.80		 17.48		 18.09		 17.83
15:16:56	 17.77		 17.40		 18.09		 17.83
15:16:56	 17.86		 17.48		 18.09		 18.00
15:16:57	 17.97		 17.66		 18.09		 18.17
15:16:58	 17.92		 17.57		 18.09		 18.09
15:16:59	 17.80		 17.40		 18.09		 17.92
15:17:00	 17.86		 17.48		 18.17		 17.92
15:17:01	 17.86		 17.48		 18.00		 18.09
15:17:02	 17.92		 17.66		 18.00		 18.09
15:17:03	 17.89		 17.57		 18.09		 18.00
15:17:04	 17.89		 17.57		 18.17		 17.92
15:17:05	 17.80		 17.40		 18.17		 17.83
15:17:05	 17.94		 17.57		 18.09		 18.17
15:17:06	 18.03		 17.74		 18.17		 18.17
15:17:07	 17.97		 17.66		 18.17		 18.09
15:17:08	 17.89		 17.48		 18.26		 17.92
15:17:09	 17.83		 17.40		 18.17		 17.92
15:17:10	 17.97		 17.66		 18.09		 18.17
15:17:11	 17.97		 17.66		 18.09		 18.17
15:17:12	 17.97		 17.66		 18.17		 18.09
