Temperature log started on 12/05/2021 at 14:54:13

Time 		 Average T (C) 	 T0 (C) 	 T1 (C) 	 T2 (C) 
------------------------------------------------------------------------
14:54:14	 14.91		 14.62		 15.06		 15.06
14:54:14	 14.88		 14.53		 15.06		 15.06
14:54:15	 14.88		 14.53		 15.14		 14.97
14:54:16	 14.91		 14.53		 15.23		 14.97
14:54:17	 14.88		 14.53		 15.23		 14.88
14:54:18	 14.91		 14.53		 15.23		 14.97
14:54:19	 14.94		 14.53		 15.23		 15.06
14:54:20	 14.97		 14.62		 15.23		 15.06
14:54:21	 15.09		 14.71		 15.32		 15.23
14:54:22	 15.11		 14.79		 15.32		 15.23
14:54:23	 15.17		 14.88		 15.32		 15.32
14:54:23	 15.14		 14.79		 15.32		 15.32
14:54:24	 15.20		 14.97		 15.32		 15.32
14:54:25	 15.17		 14.88		 15.32		 15.32
14:54:26	 15.17		 14.79		 15.40		 15.32
14:54:27	 15.17		 14.88		 15.40		 15.23
14:54:28	 15.14		 14.79		 15.40		 15.23
14:54:29	 15.17		 14.88		 15.49		 15.14
14:54:30	 15.17		 14.88		 15.40		 15.23
14:54:31	 15.20		 14.88		 15.49		 15.23
14:54:32	 15.26		 14.88		 15.49		 15.40
14:54:32	 15.32		 15.06		 15.49		 15.40
14:54:33	 15.38		 15.06		 15.58		 15.49
14:54:34	 15.38		 15.06		 15.49		 15.58
14:54:35	 15.43		 15.06		 15.58		 15.66
14:54:36	 15.41		 15.06		 15.58		 15.58
14:54:37	 15.40		 15.06		 15.66		 15.49
14:54:38	 15.37		 15.06		 15.66		 15.40
14:54:39	 15.32		 14.97		 15.58		 15.40
14:54:40	 15.40		 15.06		 15.66		 15.49
14:54:41	 15.41		 15.06		 15.58		 15.58
14:54:42	 15.49		 15.23		 15.66		 15.58
14:54:42	 15.58		 15.32		 15.66		 15.75
14:54:43	 15.58		 15.23		 15.66		 15.84
14:54:44	 15.55		 15.23		 15.66		 15.75
14:54:45	 15.55		 15.23		 15.75		 15.66
14:54:46	 15.55		 15.14		 15.84		 15.66
14:54:47	 15.49		 15.14		 15.84		 15.49
14:54:48	 15.55		 15.23		 15.75		 15.66
14:54:49	 15.64		 15.32		 15.84		 15.75
14:54:50	 15.61		 15.32		 15.75		 15.75
14:54:51	 15.75		 15.49		 15.84		 15.93
14:54:51	 15.75		 15.49		 15.84		 15.93
14:54:52	 15.69		 15.40		 15.84		 15.84
14:54:53	 15.70		 15.32		 15.93		 15.84
14:54:54	 15.64		 15.32		 15.93		 15.66
14:54:55	 15.67		 15.32		 15.93		 15.75
14:54:56	 15.72		 15.40		 15.93		 15.84
14:54:57	 15.75		 15.49		 15.93		 15.84
14:54:58	 15.81		 15.49		 15.93		 16.01
14:54:59	 15.87		 15.49		 16.01		 16.10
14:55:00	 15.90		 15.58		 16.01		 16.10
14:55:00	 15.87		 15.49		 16.10		 16.01
14:55:01	 15.84		 15.49		 16.10		 15.93
14:55:02	 15.78		 15.40		 16.10		 15.84
14:55:03	 15.78		 15.40		 16.10		 15.84
14:55:04	 15.87		 15.49		 16.19		 15.93
14:55:05	 15.84		 15.49		 16.10		 15.93
14:55:06	 15.90		 15.58		 16.10		 16.01
14:55:07	 15.95		 15.66		 16.10		 16.10
14:55:08	 15.98		 15.66		 16.10		 16.19
14:55:09	 16.07		 15.75		 16.19		 16.27
14:55:10	 16.07		 15.84		 16.10		 16.27
14:55:10	 16.10		 15.75		 16.27		 16.27
14:55:11	 16.01		 15.66		 16.19		 16.19
14:55:12	 16.07		 15.75		 16.36		 16.10
14:55:13	 16.01		 15.58		 16.36		 16.10
14:55:14	 16.01		 15.66		 16.27		 16.10
14:55:15	 16.01		 15.66		 16.36		 16.01
