Temperature log started on 27/05/2021 at 16:55:16

Time 		 Average T (C) 	 T0 (C) 	 T1 (C) 	 T2 (C) 
------------------------------------------------------------------------
16:55:16	 19.41		 19.12		 19.64		 19.47
16:55:17	 19.50		 19.21		 19.64		 19.64
16:55:18	 19.41		 19.12		 19.55		 19.55
16:55:19	 19.30		 18.95		 19.30		 19.64
16:55:20	 19.18		 18.78		 19.30		 19.47
16:55:21	 19.04		 18.61		 19.21		 19.30
16:55:22	 18.72		 18.17		 18.95		 19.04
16:55:23	 18.46		 17.83		 18.86		 18.69
16:55:24	 18.17		 17.57		 18.52		 18.43
16:55:25	 17.97		 17.40		 18.35		 18.17
16:55:25	 17.71		 17.14		 18.17		 17.83
16:55:26	 17.51		 16.88		 17.92		 17.74
16:55:27	 17.37		 16.71		 17.74		 17.66
16:55:28	 17.19		 16.62		 17.48		 17.48
16:55:29	 17.08		 16.53		 17.31		 17.40
16:55:30	 16.91		 16.45		 16.97		 17.31
16:55:31	 16.70		 16.27		 16.79		 17.05
16:55:32	 16.45		 15.84		 16.71		 16.79
16:55:33	 16.16		 15.58		 16.45		 16.45
16:55:34	 15.90		 15.32		 16.27		 16.10
16:55:35	 15.67		 14.97		 16.10		 15.93
16:55:35	 15.52		 14.88		 15.93		 15.75
16:55:36	 15.29		 14.62		 15.66		 15.58
16:55:37	 15.20		 14.71		 15.40		 15.49
16:55:38	 15.00		 14.53		 15.06		 15.40
16:55:39	 14.82		 14.27		 14.97		 15.23
16:55:40	 14.62		 14.01		 14.88		 14.97
16:55:41	 14.33		 13.74		 14.53		 14.71
16:55:42	 14.15		 13.66		 14.36		 14.44
16:55:43	 13.86		 13.22		 14.18		 14.18
16:55:44	 13.63		 12.95		 14.01		 13.92
16:55:44	 13.48		 12.86		 13.92		 13.66
16:55:45	 13.25		 12.69		 13.57		 13.48
16:55:46	 13.07		 12.51		 13.22		 13.48
16:55:47	 12.89		 12.33		 13.04		 13.30
16:55:48	 12.75		 12.16		 12.95		 13.13
16:55:49	 12.54		 11.89		 12.78		 12.95
16:55:50	 12.39		 11.89		 12.51		 12.78
16:55:51	 12.15		 11.53		 12.42		 12.51
16:55:52	 11.89		 11.26		 12.24		 12.16
16:55:53	 11.65		 11.00		 12.07		 11.89
16:55:53	 11.50		 10.91		 11.89		 11.71
16:55:54	 11.29		 10.73		 11.62		 11.53
16:55:55	 11.17		 10.64		 11.44		 11.44
16:55:56	 10.96		 10.46		 11.17		 11.26
16:55:57	 10.81		 10.18		 11.09		 11.17
16:55:58	 10.70		 10.18		 10.82		 11.09
16:55:59	 10.43		 9.82		 10.64		 10.82
16:56:00	 10.25		 9.73		 10.37		 10.64
16:56:01	 10.03		 9.46		 10.18		 10.46
16:56:02	 9.85		 9.18		 10.18		 10.18
16:56:03	 9.61		 9.00		 9.91		 9.91
16:56:03	 9.37		 8.73		 9.73		 9.64
16:56:04	 9.18		 8.63		 9.46		 9.46
16:56:05	 9.06		 8.45		 9.37		 9.37
16:56:06	 8.88		 8.27		 9.18		 9.18
16:56:07	 8.75		 8.17		 9.00		 9.09
16:56:08	 8.60		 8.08		 8.82		 8.91
16:56:09	 8.42		 7.80		 8.63		 8.82
16:56:10	 8.20		 7.71		 8.36		 8.54
16:56:11	 7.99		 7.43		 8.17		 8.36
16:56:12	 7.86		 7.24		 8.08		 8.27
16:56:12	 7.68		 7.05		 7.99		 7.99
16:56:13	 7.43		 6.77		 7.71		 7.80
16:56:14	 7.21		 6.68		 7.52		 7.43
16:56:15	 7.09		 6.49		 7.43		 7.34
16:56:16	 6.93		 6.30		 7.34		 7.15
16:56:17	 6.74		 6.11		 7.05		 7.05
16:56:18	 6.58		 6.11		 6.77		 6.87
16:56:19	 6.42		 5.82		 6.68		 6.77
16:56:20	 6.30		 5.82		 6.39		 6.68
16:56:21	 6.04		 5.44		 6.20		 6.49
16:56:21	 5.95		 5.34		 6.11		 6.39
16:56:22	 5.76		 5.15		 6.01		 6.11
16:56:23	 5.56		 5.05		 5.82		 5.82
16:56:24	 5.44		 4.86		 5.73		 5.73
16:56:25	 5.18		 4.57		 5.53		 5.44
16:56:26	 5.02		 4.47		 5.34		 5.25
16:56:27	 4.89		 4.27		 5.15		 5.25
16:56:28	 4.73		 4.18		 4.96		 5.05
16:56:29	 4.60		 4.08		 4.76		 4.96
16:56:30	 4.44		 3.88		 4.57		 4.86
16:56:31	 4.27		 3.68		 4.47		 4.66
16:56:31	 4.14		 3.58		 4.27		 4.57
16:56:32	 4.01		 3.48		 4.27		 4.27
16:56:33	 3.78		 3.28		 3.98		 4.08
16:56:34	 3.65		 2.98		 4.08		 3.88
16:56:35	 3.45		 2.88		 3.78		 3.68
16:56:36	 3.28		 2.68		 3.68		 3.48
16:56:37	 3.11		 2.48		 3.48		 3.38
16:56:38	 3.05		 2.48		 3.28		 3.38
16:56:39	 2.88		 2.38		 2.98		 3.28
16:56:40	 2.75		 2.28		 2.88		 3.08
16:56:40	 2.51		 1.97		 2.68		 2.88
16:56:41	 2.41		 1.87		 2.58		 2.78
16:56:42	 2.17		 1.56		 2.48		 2.48
16:56:43	 2.11		 1.46		 2.48		 2.38
16:56:44	 1.86		 1.25		 2.17		 2.17
16:56:45	 1.83		 1.25		 2.17		 2.07
16:56:46	 1.63		 1.04		 1.97		 1.87
16:56:47	 1.46		 0.83		 1.77		 1.77
16:56:48	 1.32		 0.73		 1.56		 1.66
16:56:49	 1.21		 0.73		 1.35		 1.56
16:56:49	 1.04		 0.52		 1.25		 1.35
16:56:50	 0.90		 0.41		 1.15		 1.15
16:56:51	 0.80		 0.20		 1.15		 1.04
16:56:52	 0.66		 -0.01		 1.04		 0.94
16:56:53	 0.45		 -0.12		 0.73		 0.73
16:56:54	 0.34		 -0.23		 0.62		 0.62
16:56:55	 0.20		 -0.33		 0.52		 0.41
16:56:56	 -0.01		 -0.76		 0.41		 0.31
16:56:57	 -0.16		 -0.66		 0.09		 0.09
16:56:58	 -0.23		 -0.87		 0.09		 0.09
16:56:59	 -0.37		 -0.98		 -0.12		 -0.01
16:56:59	 -0.59		 -1.09		 -0.44		 -0.23
16:57:00	 -0.69		 -1.20		 -0.55		 -0.33
16:57:01	 -0.73		 -1.31		 -0.44		 -0.44
16:57:02	 -0.95		 -1.64		 -0.55		 -0.66
16:57:03	 -1.09		 -1.75		 -0.66		 -0.87
16:57:04	 -1.24		 -1.86		 -0.87		 -0.98
16:57:05	 -1.39		 -2.09		 -0.98		 -1.09
16:57:06	 -1.46		 -2.09		 -1.09		 -1.20
16:57:07	 -1.64		 -2.31		 -1.31		 -1.31
16:57:08	 -1.79		 -2.31		 -1.64		 -1.42
16:57:08	 -1.86		 -2.31		 -1.86		 -1.42
16:57:09	 -2.01		 -2.54		 -1.75		 -1.75
16:57:10	 -2.16		 -2.65		 -1.97		 -1.86
16:57:11	 -2.31		 -2.99		 -1.97		 -1.97
16:57:12	 -2.42		 -3.10		 -1.97		 -2.20
16:57:13	 -2.50		 -3.22		 -2.09		 -2.20
16:57:14	 -2.69		 -3.33		 -2.31		 -2.42
16:57:15	 -2.84		 -3.57		 -2.42		 -2.54
16:57:16	 -2.92		 -3.45		 -2.65		 -2.65
16:57:17	 -3.07		 -3.57		 -2.76		 -2.88
16:57:17	 -3.18		 -3.91		 -2.76		 -2.88
16:57:18	 -3.26		 -3.91		 -2.88		 -2.99
16:57:19	 -3.41		 -4.03		 -3.10		 -3.10
16:57:20	 -3.49		 -4.03		 -3.33		 -3.10
16:57:21	 -3.57		 -4.03		 -3.45		 -3.22
16:57:22	 -3.76		 -4.39		 -3.68		 -3.22
16:57:23	 -3.84		 -4.39		 -3.68		 -3.45
16:57:24	 -3.95		 -4.50		 -3.68		 -3.68
16:57:25	 -4.19		 -4.74		 -3.91		 -3.91
16:57:26	 -4.27		 -4.98		 -3.80		 -4.03
16:57:26	 -4.35		 -4.98		 -4.03		 -4.03
16:57:27	 -4.51		 -5.22		 -4.03		 -4.27
16:57:28	 -4.63		 -5.35		 -4.15		 -4.39
16:57:29	 -4.79		 -5.47		 -4.39		 -4.50
16:57:30	 -4.83		 -5.47		 -4.39		 -4.62
16:57:31	 -4.86		 -5.47		 -4.50		 -4.62
16:57:32	 -5.06		 -5.59		 -4.86		 -4.74
16:57:33	 -5.10		 -5.59		 -4.98		 -4.74
16:57:34	 -5.27		 -5.84		 -4.98		 -4.98
16:57:35	 -5.35		 -5.96		 -5.10		 -4.98
16:57:36	 -5.47		 -5.96		 -5.10		 -5.35
16:57:36	 -5.63		 -6.21		 -5.22		 -5.47
16:57:37	 -5.80		 -6.46		 -5.35		 -5.59
16:57:38	 -5.84		 -6.46		 -5.47		 -5.59
16:57:39	 -5.92		 -6.58		 -5.35		 -5.84
16:57:40	 -6.04		 -6.58		 -5.71		 -5.84
16:57:41	 -6.17		 -6.58		 -6.08		 -5.84
16:57:42	 -6.29		 -6.84		 -6.08		 -5.96
16:57:43	 -6.38		 -6.96		 -6.21		 -5.96
16:57:44	 -6.42		 -6.96		 -6.33		 -5.96
16:57:45	 -6.67		 -7.22		 -6.46		 -6.33
16:57:45	 -6.80		 -7.35		 -6.58		 -6.46
16:57:46	 -6.84		 -7.48		 -6.46		 -6.58
16:57:47	 -7.01		 -7.74		 -6.46		 -6.84
16:57:48	 -6.97		 -7.61		 -6.58		 -6.71
16:57:49	 -7.14		 -7.74		 -6.71		 -6.96
16:57:50	 -7.27		 -8.00		 -6.96		 -6.84
16:57:51	 -7.31		 -7.74		 -7.22		 -6.96
16:57:52	 -7.48		 -8.00		 -7.48		 -6.96
16:57:53	 -7.52		 -8.00		 -7.48		 -7.09
16:57:54	 -7.61		 -8.26		 -7.35		 -7.22
16:57:54	 -7.74		 -8.39		 -7.35		 -7.48
16:57:55	 -7.83		 -8.66		 -7.22		 -7.61
16:57:56	 -8.01		 -8.80		 -7.35		 -7.87
16:57:57	 -8.05		 -8.80		 -7.48		 -7.87
16:57:58	 -8.14		 -8.80		 -7.74		 -7.87
16:57:59	 -8.22		 -8.66		 -8.00		 -8.00
16:58:00	 -8.31		 -8.66		 -8.39		 -7.87
16:58:01	 -8.44		 -8.93		 -8.39		 -8.00
16:58:02	 -8.53		 -9.20		 -8.26		 -8.13
16:58:03	 -8.67		 -9.34		 -8.13		 -8.53
16:58:04	 -8.84		 -9.61		 -8.26		 -8.66
16:58:04	 -8.89		 -9.89		 -8.13		 -8.66
16:58:05	 -9.07		 -9.75		 -8.53		 -8.93
16:58:06	 -9.07		 -9.75		 -8.66		 -8.80
16:58:07	 -9.07		 -9.61		 -8.93		 -8.66
16:58:08	 -9.20		 -9.61		 -9.34		 -8.66
16:58:09	 -9.29		 -9.75		 -9.20		 -8.93
16:58:10	 -9.43		 -10.03		 -9.07		 -9.20
16:58:11	 -9.53		 -10.17		 -8.93		 -9.48
16:58:12	 -9.67		 -10.60		 -8.93		 -9.48
16:58:13	 -9.67		 -10.45		 -9.07		 -9.48
16:58:13	 -9.85		 -10.45		 -9.61		 -9.48
16:58:14	 -9.85		 -10.31		 -9.89		 -9.34
16:58:15	 -9.94		 -10.45		 -9.89		 -9.48
16:58:16	 -10.03		 -10.45		 -10.03		 -9.61
16:58:17	 -10.22		 -10.88		 -9.75		 -10.03
16:58:18	 -10.27		 -11.03		 -9.61		 -10.17
16:58:19	 -10.32		 -11.17		 -9.61		 -10.17
16:58:20	 -10.46		 -11.32		 -9.75		 -10.31
16:58:21	 -10.46		 -11.17		 -10.17		 -10.03
16:58:22	 -10.55		 -10.88		 -10.74		 -10.03
16:58:23	 -10.60		 -10.88		 -10.74		 -10.17
16:58:23	 -10.74		 -11.17		 -10.60		 -10.45
16:58:24	 -10.79		 -11.46		 -10.31		 -10.60
16:58:25	 -10.99		 -11.91		 -10.17		 -10.88
16:58:26	 -11.18		 -12.06		 -10.31		 -11.17
16:58:27	 -11.08		 -11.76		 -10.45		 -11.03
16:58:28	 -11.03		 -11.46		 -10.88		 -10.74
16:58:29	 -11.08		 -11.32		 -11.32		 -10.60
16:58:30	 -11.17		 -11.46		 -11.32		 -10.74
16:58:31	 -11.27		 -11.76		 -11.03		 -11.03
16:58:32	 -11.38		 -12.21		 -10.60		 -11.32
16:58:32	 -11.52		 -12.36		 -10.60		 -11.61
16:58:33	 -11.38		 -12.21		 -10.60		 -11.32
16:58:34	 -11.37		 -11.76		 -11.17		 -11.17
16:58:35	 -11.42		 -11.76		 -11.61		 -10.88
16:58:36	 -11.37		 -11.61		 -11.61		 -10.88
16:58:37	 -11.37		 -11.76		 -11.17		 -11.17
16:58:38	 -11.47		 -12.21		 -10.74		 -11.46
16:58:39	 -11.43		 -12.36		 -10.31		 -11.61
16:58:40	 -11.42		 -12.06		 -10.74		 -11.46
16:58:41	 -11.27		 -11.76		 -10.88		 -11.17
16:58:41	 -11.13		 -11.32		 -11.46		 -10.60
16:58:42	 -11.08		 -11.17		 -11.46		 -10.60
16:58:43	 -11.12		 -11.61		 -10.88		 -10.88
16:58:44	 -10.98		 -11.61		 -10.17		 -11.17
16:58:45	 -11.04		 -11.76		 -10.03		 -11.32
16:58:46	 -10.79		 -11.46		 -10.03		 -10.88
16:58:47	 -10.64		 -10.88		 -10.60		 -10.45
16:58:48	 -10.41		 -10.45		 -10.88		 -9.89
16:58:49	 -10.41		 -10.45		 -10.74		 -10.03
16:58:50	 -10.36		 -10.74		 -10.03		 -10.31
16:58:50	 -10.27		 -11.03		 -9.34		 -10.45
16:58:51	 -10.18		 -11.03		 -9.07		 -10.45
16:58:52	 -10.04		 -10.60		 -9.48		 -10.03
16:58:53	 -9.80		 -9.89		 -10.03		 -9.48
16:58:54	 -9.66		 -9.61		 -10.17		 -9.20
16:58:55	 -9.66		 -9.75		 -9.89		 -9.34
16:58:56	 -9.57		 -9.89		 -9.20		 -9.61
16:58:57	 -9.53		 -10.17		 -8.53		 -9.89
16:58:58	 -9.44		 -10.31		 -8.26		 -9.75
16:58:59	 -9.21		 -9.75		 -8.53		 -9.34
16:59:00	 -9.02		 -9.20		 -9.07		 -8.80
16:59:00	 -8.89		 -8.93		 -9.34		 -8.39
16:59:01	 -8.80		 -8.80		 -9.20		 -8.39
16:59:02	 -8.84		 -9.07		 -8.80		 -8.66
16:59:03	 -8.67		 -9.20		 -8.00		 -8.80
16:59:04	 -8.68		 -9.48		 -7.48		 -9.07
16:59:05	 -8.54		 -9.34		 -7.48		 -8.80
16:59:06	 -8.31		 -8.80		 -7.74		 -8.39
16:59:07	 -8.13		 -8.39		 -8.26		 -7.74
16:59:08	 -7.87		 -7.87		 -8.39		 -7.35
16:59:09	 -7.83		 -7.87		 -8.39		 -7.22
16:59:09	 -7.87		 -8.13		 -7.87		 -7.61
16:59:10	 -7.83		 -8.39		 -7.22		 -7.87
16:59:11	 -7.79		 -8.53		 -6.71		 -8.13
16:59:12	 -7.66		 -8.39		 -6.46		 -8.13
16:59:13	 -7.44		 -8.13		 -6.58		 -7.61
16:59:14	 -7.31		 -7.74		 -7.22		 -6.96
16:59:15	 -7.09		 -7.09		 -7.61		 -6.58
16:59:16	 -7.01		 -6.96		 -7.74		 -6.33
16:59:17	 -6.92		 -7.09		 -7.09		 -6.58
16:59:18	 -6.97		 -7.48		 -6.33		 -7.09
16:59:18	 -6.93		 -7.74		 -5.71		 -7.35
16:59:19	 -6.85		 -7.61		 -5.59		 -7.35
16:59:20	 -6.67		 -7.22		 -6.08		 -6.71
16:59:21	 -6.42		 -6.58		 -6.71		 -5.96
16:59:22	 -6.25		 -6.21		 -6.96		 -5.59
16:59:23	 -6.21		 -6.21		 -6.71		 -5.71
16:59:24	 -6.21		 -6.58		 -5.84		 -6.21
16:59:25	 -6.22		 -6.96		 -4.98		 -6.71
16:59:26	 -6.09		 -6.84		 -4.86		 -6.58
16:59:27	 -5.92		 -6.46		 -5.47		 -5.84
16:59:28	 -5.67		 -5.71		 -6.21		 -5.10
16:59:28	 -5.55		 -5.47		 -6.33		 -4.86
16:59:29	 -5.59		 -5.84		 -5.59		 -5.35
16:59:30	 -5.60		 -6.21		 -4.50		 -6.08
16:59:31	 -5.56		 -6.33		 -4.15		 -6.21
16:59:32	 -5.35		 -5.84		 -4.74		 -5.47
16:59:33	 -5.11		 -5.35		 -5.47		 -4.50
16:59:34	 -5.03		 -4.98		 -5.84		 -4.27
16:59:35	 -4.98		 -5.22		 -4.98		 -4.74
16:59:36	 -5.11		 -5.71		 -4.15		 -5.47
16:59:37	 -5.08		 -5.84		 -3.68		 -5.71
16:59:37	 -4.87		 -5.47		 -4.15		 -4.98
16:59:38	 -4.54		 -4.74		 -4.86		 -4.03
16:59:39	 -4.39		 -4.27		 -5.22		 -3.68
16:59:40	 -4.46		 -4.62		 -4.50		 -4.27
16:59:41	 -4.51		 -5.10		 -3.57		 -4.86
16:59:42	 -4.47		 -5.10		 -3.22		 -5.10
16:59:43	 -4.31		 -4.86		 -3.68		 -4.39
16:59:44	 -4.07		 -4.27		 -4.50		 -3.45
16:59:45	 -3.88		 -3.91		 -4.62		 -3.10
16:59:46	 -3.91		 -4.15		 -3.91		 -3.68
16:59:46	 -4.00		 -4.50		 -2.99		 -4.50
16:59:47	 -3.93		 -4.62		 -2.54		 -4.62
16:59:48	 -3.68		 -4.15		 -3.22		 -3.68
16:59:49	 -3.45		 -3.68		 -3.91		 -2.76
16:59:50	 -3.38		 -3.45		 -4.15		 -2.54
16:59:51	 -3.49		 -3.80		 -3.22		 -3.45
16:59:52	 -3.42		 -4.03		 -2.09		 -4.15
16:59:53	 -3.38		 -4.03		 -2.20		 -3.91
16:59:54	 -3.07		 -3.45		 -3.10		 -2.65
16:59:55	 -2.88		 -2.99		 -3.68		 -1.97
16:59:55	 -2.95		 -3.10		 -3.22		 -2.54
16:59:56	 -3.00		 -3.45		 -1.97		 -3.57
16:59:57	 -3.00		 -3.68		 -1.64		 -3.68
16:59:58	 -2.73		 -3.22		 -2.54		 -2.42
16:59:59	 -2.50		 -2.65		 -3.33		 -1.53
17:00:00	 -2.54		 -2.65		 -2.65		 -2.31
17:00:01	 -2.58		 -3.10		 -1.42		 -3.22
17:00:02	 -2.58		 -3.22		 -1.42		 -3.10
17:00:03	 -2.24		 -2.65		 -2.31		 -1.75
17:00:04	 -2.06		 -2.09		 -2.99		 -1.09
17:00:05	 -2.24		 -2.54		 -2.09		 -2.09
17:00:05	 -2.28		 -2.88		 -0.87		 -3.10
17:00:06	 -2.05		 -2.76		 -1.09		 -2.31
17:00:07	 -1.72		 -1.97		 -2.31		 -0.87
17:00:08	 -1.72		 -1.75		 -2.42		 -0.98
17:00:09	 -1.90		 -2.20		 -1.09		 -2.42
17:00:10	 -1.84		 -2.42		 -0.55		 -2.54
17:00:11	 -1.61		 -2.09		 -1.53		 -1.20
17:00:12	 -1.35		 -1.53		 -2.20		 -0.33
17:00:13	 -1.53		 -1.86		 -1.31		 -1.42
17:00:14	 -1.62		 -2.09		 -0.23		 -2.54
17:00:14	 -1.38		 -1.86		 -0.87		 -1.42
17:00:15	 -1.06		 -1.31		 -1.75		 -0.12
17:00:16	 -1.06		 -1.20		 -1.31		 -0.66
17:00:17	 -1.28		 -1.75		 -0.01		 -2.09
17:00:18	 -1.10		 -1.75		 -0.01		 -1.53
17:00:19	 -0.77		 -1.20		 -1.20		 0.09
17:00:20	 -0.77		 -0.98		 -1.31		 -0.01
17:00:21	 -0.95		 -1.20		 -0.23		 -1.42
17:00:22	 -0.88		 -1.42		 0.41		 -1.64
17:00:23	 -0.52		 -1.09		 -0.55		 0.09
17:00:23	 -0.38		 -0.55		 -1.20		 0.62
17:00:24	 -0.58		 -0.76		 -0.01		 -0.98
17:00:25	 -0.67		 -1.20		 0.62		 -1.42
17:00:26	 -0.19		 -0.76		 -0.23		 0.41
17:00:27	 -0.09		 -0.33		 -0.87		 0.94
17:00:28	 -0.33		 -0.55		 0.31		 -0.76
17:00:29	 -0.27		 -0.87		 1.04		 -0.98
17:00:30	 0.09		 -0.44		 -0.12		 0.83
17:00:31	 0.16		 -0.01		 -0.44		 0.94
17:00:32	 -0.05		 -0.33		 0.83		 -0.66
17:00:33	 -0.02		 -0.55		 1.15		 -0.66
17:00:33	 0.37		 -0.12		 0.09		 1.15
17:00:34	 0.41		 0.20		 -0.23		 1.25
17:00:35	 0.20		 -0.12		 1.15		 -0.44
17:00:36	 0.33		 -0.23		 1.56		 -0.33
17:00:37	 0.69		 0.20		 0.41		 1.46
17:00:38	 0.72		 0.52		 0.09		 1.56
17:00:39	 0.41		 0.20		 1.15		 -0.12
17:00:40	 0.54		 0.09		 1.77		 -0.23
17:00:41	 0.90		 0.41		 0.94		 1.35
17:00:42	 1.04		 0.73		 0.31		 2.07
17:00:42	 0.83		 0.62		 1.15		 0.73
17:00:43	 0.68		 0.31		 1.97		 -0.23
17:00:44	 1.08		 0.52		 1.56		 1.15
17:00:45	 1.38		 1.04		 0.62		 2.48
17:00:46	 1.22		 1.04		 1.15		 1.46
17:00:47	 0.93		 0.62		 2.07		 0.09
17:00:48	 1.28		 0.73		 1.87		 1.25
17:00:49	 1.62		 1.25		 0.94		 2.68
17:00:50	 1.46		 1.25		 1.35		 1.77
17:00:51	 1.28		 0.94		 2.48		 0.41
17:00:51	 1.56		 1.04		 2.17		 1.46
17:00:52	 1.90		 1.46		 1.25		 2.98
17:00:53	 1.73		 1.56		 1.66		 1.97
17:00:54	 1.41		 1.04		 2.58		 0.62
17:00:55	 1.80		 1.25		 2.48		 1.66
17:00:56	 2.14		 1.77		 1.56		 3.08
17:00:57	 2.04		 1.87		 1.77		 2.48
17:00:58	 1.73		 1.46		 2.78		 0.94
17:00:59	 1.93		 1.56		 2.78		 1.46
17:01:00	 2.34		 1.87		 1.97		 3.18
17:01:01	 2.34		 2.07		 1.87		 3.08
17:01:01	 2.04		 1.87		 2.78		 1.46
17:01:02	 2.10		 1.77		 3.18		 1.35
17:01:03	 2.54		 2.07		 2.38		 3.18
17:01:04	 2.64		 2.28		 2.07		 3.58
17:01:05	 2.27		 2.07		 2.78		 1.97
17:01:06	 2.30		 1.97		 3.48		 1.46
17:01:07	 2.71		 2.17		 2.78		 3.18
17:01:08	 2.91		 2.58		 2.17		 3.98
17:01:09	 2.65		 2.38		 2.98		 2.58
17:01:10	 2.47		 2.17		 3.68		 1.56
17:01:10	 2.88		 2.48		 3.18		 2.98
17:01:11	 3.18		 2.78		 2.48		 4.27
17:01:12	 3.01		 2.68		 2.98		 3.38
17:01:13	 2.71		 2.48		 3.68		 1.97
17:01:14	 2.85		 2.48		 3.78		 2.28
17:01:15	 3.31		 2.78		 3.18		 3.98
17:01:16	 3.44		 3.08		 2.78		 4.47
17:01:17	 3.21		 2.88		 3.38		 3.38
17:01:18	 2.98		 2.68		 3.98		 2.28
17:01:19	 3.18		 2.88		 3.98		 2.68
17:01:19	 3.61		 3.18		 3.38		 4.27
17:01:20	 3.77		 3.38		 3.18		 4.76
17:01:21	 3.45		 3.18		 3.68		 3.48
17:01:22	 3.21		 2.98		 4.27		 2.38
17:01:23	 3.54		 3.18		 4.27		 3.18
17:01:24	 3.91		 3.38		 3.58		 4.76
17:01:25	 3.94		 3.58		 3.48		 4.76
17:01:26	 3.58		 3.28		 4.18		 3.28
17:01:27	 3.47		 3.18		 4.66		 2.58
17:01:28	 3.85		 3.38		 4.18		 3.98
17:01:29	 4.24		 3.78		 3.68		 5.25
17:01:29	 4.04		 3.68		 3.88		 4.57
17:01:30	 3.77		 3.48		 4.66		 3.18
17:01:31	 3.81		 3.48		 4.86		 3.08
17:01:32	 4.21		 3.78		 4.27		 4.57
17:01:33	 4.50		 4.08		 3.98		 5.44
17:01:34	 4.31		 4.08		 4.27		 4.57
17:01:35	 4.07		 3.88		 4.96		 3.38
17:01:36	 4.14		 3.88		 4.96		 3.58
17:01:37	 4.60		 4.18		 4.47		 5.15
17:01:38	 4.73		 4.27		 4.18		 5.73
17:01:38	 4.47		 4.18		 4.57		 4.66
17:01:39	 4.20		 3.98		 5.15		 3.48
17:01:40	 4.40		 4.08		 5.15		 3.98
17:01:41	 4.89		 4.47		 4.66		 5.53
17:01:42	 5.02		 4.57		 4.57		 5.92
17:01:43	 4.70		 4.47		 4.86		 4.76
17:01:44	 4.46		 4.27		 5.44		 3.68
17:01:45	 4.69		 4.37		 5.34		 4.37
17:01:46	 5.15		 4.66		 4.86		 5.92
17:01:47	 5.21		 4.76		 4.76		 6.11
17:01:47	 4.95		 4.66		 5.34		 4.86
17:01:48	 4.69		 4.47		 5.73		 3.88
17:01:49	 4.98		 4.66		 5.53		 4.76
17:01:50	 5.40		 4.96		 5.05		 6.20
17:01:51	 5.44		 5.05		 4.96		 6.30
17:01:52	 5.15		 4.96		 5.53		 4.96
17:01:53	 4.98		 4.86		 6.01		 4.08
17:01:54	 5.28		 4.96		 5.73		 5.15
17:01:55	 5.60		 5.15		 5.25		 6.39
17:01:56	 5.63		 5.25		 5.25		 6.39
17:01:56	 5.40		 5.05		 5.82		 5.34
17:01:57	 5.18		 4.96		 6.11		 4.47
17:01:58	 5.37		 5.05		 6.01		 5.05
17:01:59	 5.73		 5.25		 5.63		 6.30
17:02:00	 5.98		 5.53		 5.53		 6.87
17:02:01	 5.88		 5.53		 5.82		 6.30
17:02:02	 5.56		 5.34		 6.20		 5.15
17:02:03	 5.43		 5.25		 6.39		 4.66
17:02:04	 5.69		 5.44		 6.20		 5.44
17:02:05	 6.01		 5.53		 5.92		 6.58
17:02:06	 6.20		 5.73		 5.73		 7.15
17:02:06	 6.17		 5.82		 5.92		 6.77
17:02:07	 5.92		 5.63		 6.30		 5.82
17:02:08	 5.82		 5.63		 6.68		 5.15
17:02:09	 5.79		 5.53		 6.68		 5.15
17:02:10	 6.11		 5.82		 6.39		 6.11
17:02:11	 6.39		 6.01		 6.11		 7.05
17:02:12	 6.49		 5.92		 6.11		 7.43
17:02:13	 6.33		 6.01		 6.30		 6.68
17:02:14	 6.11		 5.82		 6.58		 5.92
17:02:15	 5.95		 5.73		 6.87		 5.25
17:02:15	 6.04		 5.73		 6.87		 5.53
17:02:16	 6.24		 5.92		 6.49		 6.30
17:02:17	 6.49		 5.92		 6.20		 7.34
17:02:18	 6.51		 6.01		 6.01		 7.52
17:02:19	 6.36		 5.82		 6.39		 6.87
17:02:20	 6.04		 5.63		 6.68		 5.82
17:02:21	 5.82		 5.63		 6.68		 5.15
17:02:22	 5.95		 5.73		 6.68		 5.44
17:02:23	 6.08		 5.73		 6.39		 6.11
17:02:24	 6.23		 5.63		 6.11		 6.96
17:02:24	 6.30		 5.73		 6.01		 7.15
17:02:25	 6.11		 5.63		 5.92		 6.77
17:02:26	 5.88		 5.53		 6.11		 6.01
17:02:27	 5.63		 5.25		 6.39		 5.25
17:02:28	 5.53		 5.15		 6.39		 5.05
17:02:29	 5.63		 5.25		 6.20		 5.44
17:02:30	 5.82		 5.34		 5.82		 6.30
17:02:31	 5.85		 5.25		 5.53		 6.77
17:02:32	 5.69		 5.05		 5.44		 6.58
17:02:33	 5.50		 5.05		 5.73		 5.73
17:02:34	 5.11		 4.66		 6.01		 4.66
17:02:34	 4.95		 4.66		 5.82		 4.37
17:02:35	 5.05		 4.66		 5.53		 4.96
17:02:36	 5.34		 4.76		 5.15		 6.11
17:02:37	 5.31		 4.57		 4.96		 6.39
17:02:38	 5.02		 4.37		 5.05		 5.63
17:02:39	 4.66		 4.18		 5.15		 4.66
17:02:40	 4.43		 4.08		 5.34		 3.88
17:02:41	 4.37		 3.98		 4.96		 4.18
17:02:42	 4.60		 4.08		 4.76		 4.96
17:02:43	 4.66		 3.98		 4.47		 5.53
17:02:43	 4.47		 3.88		 4.27		 5.25
17:02:44	 4.11		 3.58		 4.37		 4.37
17:02:45	 3.78		 3.38		 4.57		 3.38
17:02:46	 3.68		 3.28		 4.37		 3.38
17:02:47	 3.81		 3.38		 4.08		 3.98
17:02:48	 3.91		 3.28		 3.78		 4.66
17:02:49	 3.84		 3.18		 3.58		 4.76
17:02:50	 3.38		 2.78		 3.58		 3.78
17:02:51	 3.11		 2.58		 3.78		 2.98
17:02:52	 2.95		 2.58		 3.78		 2.48
17:02:52	 2.91		 2.38		 3.48		 2.88
17:02:53	 3.08		 2.38		 3.18		 3.68
17:02:54	 3.08		 2.48		 2.78		 3.98
17:02:55	 2.88		 2.17		 2.78		 3.68
17:02:56	 2.44		 1.87		 2.88		 2.58
17:02:57	 2.14		 1.66		 2.88		 1.87
17:02:58	 2.04		 1.56		 2.78		 1.77
17:02:59	 2.07		 1.46		 2.48		 2.28
17:03:00	 2.20		 1.46		 2.07		 3.08
17:03:01	 2.20		 1.56		 2.07		 2.98
17:03:02	 1.80		 1.15		 1.97		 2.28
17:03:02	 1.46		 0.94		 1.97		 1.46
17:03:03	 1.21		 0.73		 2.07		 0.83
17:03:04	 1.21		 0.73		 1.87		 1.04
17:03:05	 1.28		 0.73		 1.56		 1.56
17:03:06	 1.31		 0.62		 1.25		 2.07
17:03:07	 1.24		 0.62		 1.04		 2.07
17:03:08	 0.94		 0.31		 0.94		 1.56
17:03:09	 0.62		 0.09		 1.15		 0.62
17:03:10	 0.30		 -0.23		 1.15		 -0.01
17:03:11	 0.37		 -0.23		 1.04		 0.31
17:03:11	 0.41		 -0.23		 0.62		 0.83
17:03:12	 0.55		 -0.12		 0.31		 1.46
17:03:13	 0.30		 -0.23		 -0.01		 1.15
17:03:14	 -0.09		 -0.66		 0.20		 0.20
17:03:15	 -0.30		 -0.66		 0.52		 -0.76
17:03:16	 -0.44		 -0.87		 0.20		 -0.66
17:03:17	 -0.26		 -0.87		 -0.12		 0.20
17:03:18	 -0.27		 -0.98		 -0.44		 0.62
17:03:19	 -0.44		 -1.09		 -0.55		 0.31
17:03:20	 -0.80		 -1.31		 -0.33		 -0.76
17:03:20	 -0.99		 -1.42		 -0.12		 -1.42
17:03:21	 -1.02		 -1.53		 -0.55		 -0.98
17:03:22	 -0.91		 -1.53		 -0.87		 -0.33
17:03:23	 -0.81		 -1.42		 -1.09		 0.09
17:03:24	 -1.13		 -1.75		 -0.98		 -0.66
17:03:25	 -1.60		 -1.97		 -0.87		 -1.97
17:03:26	 -1.57		 -2.09		 -0.76		 -1.86
17:03:27	 -1.53		 -2.09		 -1.09		 -1.42
17:03:28	 -1.35		 -1.97		 -1.53		 -0.55
17:03:29	 -1.46		 -2.09		 -1.64		 -0.66
17:03:30	 -1.68		 -2.20		 -1.53		 -1.31
17:03:30	 -1.90		 -2.42		 -1.20		 -2.09
17:03:31	 -2.17		 -2.65		 -1.31		 -2.54
17:03:32	 -2.09		 -2.54		 -1.75		 -1.97
17:03:33	 -1.94		 -2.54		 -1.97		 -1.31
17:03:34	 -1.83		 -2.42		 -2.20		 -0.87
17:03:35	 -2.05		 -2.65		 -2.09		 -1.42
17:03:36	 -2.39		 -2.88		 -1.75		 -2.54
17:03:37	 -2.61		 -3.10		 -1.75		 -2.99
17:03:38	 -2.54		 -2.88		 -1.97		 -2.76
17:03:39	 -2.35		 -2.88		 -2.42		 -1.75
17:03:39	 -2.17		 -2.76		 -2.54		 -1.20
17:03:40	 -2.39		 -2.88		 -2.42		 -1.86
17:03:41	 -2.72		 -3.10		 -2.31		 -2.76
17:03:42	 -2.77		 -3.22		 -1.86		 -3.22
17:03:43	 -2.76		 -3.33		 -2.20		 -2.76
17:03:44	 -2.54		 -2.99		 -2.65		 -1.97
17:03:45	 -2.50		 -2.99		 -2.76		 -1.75
17:03:46	 -2.69		 -3.22		 -2.65		 -2.20
17:03:47	 -2.88		 -3.33		 -2.20		 -3.10
17:03:48	 -3.08		 -3.57		 -2.09		 -3.57
17:03:48	 -2.92		 -3.45		 -2.42		 -2.88
17:03:49	 -2.73		 -3.22		 -2.88		 -2.09
17:03:50	 -2.69		 -3.10		 -3.10		 -1.86
17:03:51	 -2.72		 -3.10		 -2.76		 -2.31
17:03:52	 -3.03		 -3.45		 -2.42		 -3.22
17:03:53	 -3.11		 -3.57		 -2.20		 -3.57
17:03:54	 -3.11		 -3.57		 -2.42		 -3.33
17:03:55	 -2.84		 -3.22		 -2.99		 -2.31
17:03:56	 -2.65		 -3.10		 -3.10		 -1.75
17:03:57	 -2.73		 -3.22		 -2.99		 -1.97
17:03:57	 -2.95		 -3.33		 -2.54		 -2.99
17:03:58	 -3.15		 -3.57		 -2.31		 -3.57
17:03:59	 -3.08		 -3.57		 -2.09		 -3.57
17:04:00	 -2.92		 -3.45		 -2.54		 -2.76
17:04:01	 -2.65		 -3.10		 -2.88		 -1.97
17:04:02	 -2.65		 -3.10		 -3.10		 -1.75
17:04:03	 -2.88		 -3.33		 -2.65		 -2.65
17:04:04	 -3.00		 -3.45		 -2.09		 -3.45
17:04:05	 -3.03		 -3.45		 -1.97		 -3.68
17:04:06	 -2.73		 -3.10		 -2.54		 -2.54
17:04:07	 -2.47		 -2.88		 -2.88		 -1.64
17:04:07	 -2.39		 -2.76		 -2.76		 -1.64
17:04:08	 -2.72		 -2.99		 -2.42		 -2.76
17:04:09	 -2.80		 -3.10		 -1.97		 -3.33
17:04:10	 -2.77		 -3.22		 -1.86		 -3.22
17:04:11	 -2.43		 -2.88		 -2.31		 -2.09
17:04:12	 -2.17		 -2.54		 -2.65		 -1.31
17:04:13	 -2.05		 -2.65		 -1.97		 -1.53
17:04:14	 -2.38		 -2.76		 -1.97		 -2.42
17:04:15	 -2.54		 -2.88		 -1.64		 -3.10
17:04:16	 -2.39		 -2.76		 -1.42		 -2.99
17:04:16	 -2.20		 -2.65		 -1.75		 -2.20
17:04:17	 -1.90		 -2.31		 -2.20		 -1.20
17:04:18	 -1.72		 -2.09		 -2.20		 -0.87
17:04:19	 -1.90		 -2.20		 -1.97		 -1.53
17:04:20	 -2.09		 -2.42		 -1.31		 -2.54
17:04:21	 -2.09		 -2.42		 -1.09		 -2.76
17:04:22	 -1.90		 -2.31		 -1.31		 -2.09
17:04:23	 -1.49		 -1.97		 -1.75		 -0.76
17:04:24	 -1.39		 -1.75		 -1.97		 -0.44
17:04:25	 -1.42		 -1.75		 -1.64		 -0.87
17:04:25	 -1.60		 -1.86		 -1.09		 -1.86
17:04:26	 -1.69		 -2.09		 -0.55		 -2.42
17:04:27	 -1.50		 -1.86		 -0.55		 -2.09
17:04:28	 -1.20		 -1.64		 -0.87		 -1.09
17:04:29	 -0.95		 -1.20		 -1.42		 -0.23
17:04:30	 -0.84		 -1.20		 -1.42		 0.09
17:04:31	 -0.95		 -1.31		 -0.98		 -0.55
17:04:32	 -1.17		 -1.53		 -0.55		 -1.42
17:04:33	 -1.17		 -1.53		 -0.12		 -1.86
17:04:34	 -1.10		 -1.42		 -0.23		 -1.64
17:04:35	 -0.80		 -1.20		 -0.33		 -0.87
17:04:35	 -0.55		 -0.87		 -0.76		 -0.01
17:04:36	 -0.30		 -0.66		 -0.87		 0.62
17:04:37	 -0.26		 -0.55		 -0.76		 0.52
17:04:38	 -0.41		 -0.76		 -0.23		 -0.23
17:04:39	 -0.55		 -0.87		 0.31		 -1.09
17:04:40	 -0.56		 -0.98		 0.62		 -1.31
17:04:41	 -0.41		 -0.76		 0.52		 -0.98
17:04:42	 -0.12		 -0.44		 0.09		 -0.01
17:04:43	 0.16		 -0.23		 -0.23		 0.94
17:04:44	 0.30		 -0.12		 -0.23		 1.25
17:04:44	 0.16		 -0.23		 0.09		 0.62
17:04:45	 0.02		 -0.33		 0.73		 -0.33
17:04:46	 -0.05		 -0.33		 1.04		 -0.87
17:04:47	 0.12		 -0.23		 1.04		 -0.44
17:04:48	 0.41		 -0.01		 0.62		 0.62
17:04:49	 0.73		 0.31		 0.31		 1.56
17:04:50	 0.76		 0.41		 0.20		 1.66
17:04:51	 0.66		 0.41		 0.62		 0.94
17:04:52	 0.51		 0.20		 1.25		 0.09
17:04:53	 0.44		 0.20		 1.46		 -0.33
17:04:53	 0.59		 0.31		 1.46		 -0.01
17:04:54	 0.90		 0.52		 1.15		 1.04
17:04:55	 1.18		 0.73		 0.83		 1.97
17:04:56	 1.28		 0.94		 0.62		 2.28
17:04:57	 1.18		 0.83		 1.15		 1.56
17:04:58	 0.97		 0.62		 1.66		 0.62
17:04:59	 0.89		 0.52		 2.07		 0.09
17:05:00	 1.00		 0.62		 1.97		 0.41
17:05:01	 1.32		 0.94		 1.56		 1.46
17:05:02	 1.59		 1.15		 1.25		 2.38
17:05:02	 1.69		 1.25		 1.15		 2.68
17:05:03	 1.59		 1.25		 1.35		 2.17
17:05:04	 1.39		 1.04		 1.87		 1.25
17:05:05	 1.35		 1.04		 2.38		 0.62
17:05:06	 1.35		 1.04		 2.38		 0.62
17:05:07	 1.66		 1.35		 2.07		 1.56
17:05:08	 1.83		 1.46		 1.56		 2.48
17:05:09	 2.03		 1.66		 1.35		 3.08
17:05:10	 2.03		 1.56		 1.66		 2.88
17:05:11	 1.90		 1.56		 1.97		 2.17
17:05:12	 1.76		 1.46		 2.48		 1.35
17:05:12	 1.62		 1.35		 2.68		 0.83
17:05:13	 0.85		 -0.98		 2.58		 0.94
17:05:14	 1.97		 1.66		 2.28		 1.97
17:05:15	 1.94		 1.87		 1.97		 1.97
17:05:16	 2.23		 1.97		 1.35		 3.38
17:05:17	 2.34		 1.97		 1.87		 3.18
17:05:18	 2.18		 1.77		 2.38		 2.38
17:05:19	 1.79		 1.66		 2.78		 0.94
17:05:20	 1.83		 1.56		 2.78		 1.15
17:05:21	 2.07		 1.66		 2.68		 1.87
17:05:21	 2.38		 1.87		 2.38		 2.88
17:05:22	 2.51		 2.07		 2.07		 3.38
17:05:23	 2.44		 1.97		 1.97		 3.38
17:05:24	 2.34		 1.97		 2.58		 2.48
17:05:25	 2.07		 1.77		 2.88		 1.56
17:05:26	 1.93		 1.77		 3.08		 0.94
17:05:27	 2.24		 1.87		 2.98		 1.87
17:05:28	 2.48		 2.07		 2.48		 2.88
17:05:29	 2.64		 2.07		 2.28		 3.58
17:05:30	 2.64		 2.17		 2.28		 3.48
17:05:30	 2.51		 2.07		 2.38		 3.08
17:05:31	 2.27		 1.87		 2.78		 2.17
17:05:32	 2.14		 1.87		 2.98		 1.56
17:05:33	 2.00		 1.77		 3.08		 1.15
17:05:34	 2.14		 1.87		 2.78		 1.77
17:05:35	 2.41		 1.97		 2.58		 2.68
17:05:36	 2.64		 2.07		 2.38		 3.48
17:05:37	 2.64		 2.07		 2.17		 3.68
17:05:38	 2.61		 2.07		 2.17		 3.58
17:05:39	 2.41		 1.97		 2.58		 2.68
17:05:40	 2.14		 1.77		 2.88		 1.77
17:05:40	 1.96		 1.77		 3.08		 1.04
17:05:41	 2.00		 1.66		 2.88		 1.46
17:05:42	 2.24		 1.87		 2.68		 2.17
17:05:43	 2.41		 1.87		 2.38		 2.98
17:05:44	 2.47		 1.97		 2.17		 3.28
17:05:45	 2.51		 1.97		 2.07		 3.48
17:05:46	 2.41		 1.87		 2.17		 3.18
17:05:47	 2.21		 1.77		 2.48		 2.38
17:05:48	 1.97		 1.56		 2.78		 1.56
17:05:49	 1.73		 1.46		 2.78		 0.94
17:05:49	 1.79		 1.56		 2.78		 1.04
17:05:50	 2.07		 1.77		 2.58		 1.87
17:05:51	 2.11		 1.56		 2.28		 2.48
17:05:52	 2.30		 1.66		 2.07		 3.18
17:05:53	 2.27		 1.66		 1.87		 3.28
17:05:54	 2.17		 1.66		 1.87		 2.98
17:05:55	 2.04		 1.46		 1.97		 2.68
17:05:56	 1.87		 1.35		 2.28		 1.97
17:05:57	 1.52		 0.83		 2.48		 1.25
17:05:58	 1.49		 1.15		 2.58		 0.73
17:05:58	 1.49		 1.25		 2.38		 0.83
17:05:59	 1.66		 1.35		 2.17		 1.46
17:06:00	 1.76		 1.25		 1.97		 2.07
17:06:01	 1.93		 1.35		 1.77		 2.68
17:06:02	 1.96		 1.35		 1.56		 2.98
17:06:03	 1.80		 1.25		 1.56		 2.58
17:06:04	 1.73		 1.15		 1.77		 2.28
17:06:05	 1.52		 1.04		 1.97		 1.56
17:06:06	 1.17		 0.83		 2.07		 0.62
17:06:07	 1.07		 0.83		 2.07		 0.31
17:06:08	 1.11		 0.83		 1.87		 0.62
17:06:08	 1.32		 0.83		 1.56		 1.56
17:06:09	 1.52		 0.83		 1.35		 2.38
17:06:10	 1.56		 0.94		 1.15		 2.58
17:06:11	 1.45		 0.94		 1.04		 2.38
17:06:12	 1.25		 0.73		 1.25		 1.77
17:06:13	 1.00		 0.62		 1.56		 0.83
17:06:14	 0.87		 0.52		 1.77		 0.31
17:06:15	 0.65		 0.41		 1.56		 -0.01
17:06:16	 0.80		 0.52		 1.25		 0.62
17:06:17	 1.04		 0.52		 0.94		 1.66
17:06:17	 1.17		 0.52		 0.83		 2.17
17:06:18	 1.17		 0.62		 0.73		 2.17
17:06:19	 1.00		 0.41		 0.83		 1.77
17:06:20	 0.76		 0.31		 1.04		 0.94
17:06:21	 0.58		 0.09		 1.25		 0.41
17:06:22	 0.41		 -0.01		 1.35		 -0.12
17:06:23	 0.30		 -0.01		 1.35		 -0.44
17:06:24	 0.34		 0.09		 1.04		 -0.12
17:06:25	 0.27		 0.09		 0.73		 -0.01
17:06:26	 0.72		 0.09		 0.52		 1.56
17:06:26	 0.79		 0.20		 0.31		 1.87
17:06:27	 0.76		 0.09		 0.52		 1.66
17:06:28	 0.52		 -0.01		 0.52		 1.04
17:06:29	 0.30		 -0.23		 0.73		 0.41
17:06:30	 0.13		 -0.23		 0.94		 -0.33
17:06:31	 -0.02		 -0.44		 0.94		 -0.55
17:06:32	 0.06		 -0.33		 0.83		 -0.33
17:06:33	 0.20		 -0.23		 0.52		 0.31
17:06:34	 0.40		 -0.23		 0.09		 1.35
17:06:35	 0.51		 -0.12		 -0.01		 1.66
17:06:36	 0.30		 -0.33		 0.09		 1.15
17:06:36	 -0.01		 -0.44		 0.20		 0.20
17:06:37	 -0.23		 -0.55		 0.52		 -0.66
17:06:38	 -0.37		 -0.76		 0.62		 -0.98
17:06:39	 -0.26		 -0.76		 0.52		 -0.55
17:06:40	 -0.09		 -0.55		 0.20		 0.09
17:06:41	 0.09		 -0.44		 -0.23		 0.94
17:06:42	 0.16		 -0.55		 -0.23		 1.25
17:06:43	 0.05		 -0.55		 -0.23		 0.94
17:06:44	 -0.19		 -0.76		 0.09		 0.09
17:06:45	 -0.48		 -0.87		 0.31		 -0.87
17:06:45	 -0.66		 -0.87		 0.41		 -1.53
17:06:46	 -0.59		 -0.98		 0.31		 -1.09
17:06:47	 -0.37		 -0.87		 0.09		 -0.33
17:06:48	 -0.23		 -0.66		 -0.33		 0.31
17:06:49	 -0.12		 -0.66		 -0.44		 0.73
17:06:50	 -0.16		 -0.66		 -0.66		 0.83
17:06:51	 -0.26		 -0.87		 -0.44		 0.52
17:06:52	 -0.44		 -0.98		 -0.12		 -0.23
17:06:53	 -0.77		 -1.09		 0.09		 -1.31
17:06:54	 -0.81		 -1.20		 0.41		 -1.64
17:06:54	 -0.77		 -1.09		 0.09		 -1.31
17:06:55	 -0.62		 -1.09		 -0.01		 -0.76
17:06:56	 -0.41		 -0.98		 -0.33		 0.09
17:06:57	 -0.30		 -0.76		 -0.55		 0.41
17:06:58	 -0.30		 -0.76		 -0.76		 0.62
17:06:59	 -0.12		 -0.33		 -0.76		 0.73
17:07:00	 -0.44		 -0.98		 -0.44		 0.09
17:07:01	 -0.62		 -1.09		 -0.23		 -0.55
17:07:02	 -0.88		 -1.20		 -0.01		 -1.42
17:07:03	 -0.95		 -1.31		 -0.01		 -1.53
17:07:04	 -0.95		 -1.31		 0.09		 -1.64
17:07:04	 -0.80		 -1.09		 -0.12		 -1.20
17:07:05	 -0.66		 -1.09		 -0.23		 -0.66
17:07:06	 -0.41		 -0.87		 -0.55		 0.20
17:07:07	 -0.37		 -0.98		 -0.76		 0.62
17:07:08	 -0.23		 -0.76		 -0.76		 0.83
17:07:09	 -0.37		 -0.87		 -0.55		 0.31
17:07:10	 -0.62		 -1.09		 -0.55		 -0.23
17:07:11	 -0.80		 -1.31		 -0.12		 -0.98
17:07:12	 -0.84		 -1.20		 0.09		 -1.42
17:07:13	 -1.10		 -1.31		 -0.01		 -1.97
17:07:13	 -0.95		 -1.20		 -0.23		 -1.42
17:07:14	 -0.70		 -1.20		 -0.23		 -0.66
17:07:15	 -0.44		 -0.87		 -0.55		 0.09
17:07:16	 -0.37		 -0.87		 -0.66		 0.41
17:07:17	 -0.30		 -0.76		 -0.98		 0.83
17:07:18	 -0.30		 -0.87		 -0.66		 0.62
17:07:19	 -0.51		 -1.09		 -0.44		 -0.01
17:07:20	 -0.80		 -1.20		 -0.12		 -1.09
17:07:21	 -0.91		 -1.31		 -0.01		 -1.42
17:07:22	 -0.95		 -1.31		 0.09		 -1.64
17:07:22	 -0.77		 -1.20		 -0.01		 -1.09
17:07:23	 -0.55		 -0.87		 -0.33		 -0.44
17:07:24	 -0.34		 -0.87		 -0.76		 0.62
17:07:25	 -0.16		 -0.76		 -0.76		 1.04
17:07:26	 -0.34		 -0.87		 -0.66		 0.52
17:07:27	 -0.48		 -0.87		 -0.23		 -0.33
17:07:28	 -0.66		 -0.98		 -0.01		 -0.98
17:07:29	 -0.77		 -1.20		 0.31		 -1.42
17:07:30	 -0.77		 -1.09		 0.31		 -1.53
17:07:31	 -0.70		 -0.98		 0.20		 -1.31
17:07:31	 -0.51		 -0.87		 -0.33		 -0.33
17:07:32	 -0.26		 -0.76		 -0.55		 0.52
17:07:33	 -0.09		 -0.66		 -0.55		 0.94
17:07:34	 -0.13		 -0.66		 -0.55		 0.83
17:07:35	 -0.16		 -0.66		 -0.55		 0.73
17:07:36	 -0.26		 -0.76		 -0.12		 0.09
17:07:37	 -0.44		 -0.87		 0.20		 -0.66
17:07:38	 -1.77		 -0.87		 0.41		 -4.86
17:07:39	 -0.55		 -0.87		 0.52		 -1.31
17:07:40	 -0.45		 -0.66		 0.41		 -1.09
17:07:41	 -0.34		 -0.66		 0.09		 -0.44
17:07:41	 -1.30		 -0.55		 -0.01		 -3.33
17:07:42	 0.09		 -0.33		 -0.33		 0.94
17:07:43	 -0.69		 -2.88		 -0.44		 1.25
17:07:44	 0.23		 -0.33		 -0.23		 1.25
17:07:45	 0.09		 -0.44		 -0.12		 0.83
17:07:46	 -0.01		 -0.44		 0.09		 0.31
17:07:47	 -0.12		 -0.44		 0.52		 -0.44
17:07:48	 -0.23		 -0.55		 0.62		 -0.76
17:07:49	 -0.20		 -0.44		 0.94		 -1.09
17:07:50	 -0.16		 -0.44		 0.83		 -0.87
17:07:50	 -0.05		 -0.44		 0.73		 -0.44
17:07:51	 0.13		 -0.23		 0.41		 0.20
17:07:52	 0.34		 -0.01		 0.20		 0.83
17:07:53	 0.44		 -0.01		 -0.01		 1.35
17:07:54	 0.55		 -0.01		 -0.01		 1.66
17:07:55	 0.51		 0.09		 0.20		 1.25
17:07:56	 0.41		 -0.01		 0.41		 0.83
17:07:57	 0.23		 -0.23		 0.73		 0.20
17:07:58	 0.12		 -0.12		 1.04		 -0.55
17:07:59	 0.01		 -0.23		 1.25		 -0.98
17:07:59	 0.12		 -0.12		 1.04		 -0.55
17:08:00	 0.34		 -0.01		 0.83		 0.20
17:08:01	 0.55		 0.20		 0.62		 0.83
17:08:02	 0.62		 0.20		 0.41		 1.25
17:08:03	 0.79		 0.31		 0.20		 1.87
17:08:04	 0.86		 0.31		 0.31		 1.97
17:08:05	 0.86		 0.31		 0.62		 1.66
17:08:06	 0.62		 0.20		 0.83		 0.83
17:08:07	 0.62		 0.20		 1.15		 0.52
17:08:08	 0.51		 0.20		 1.35		 -0.01
17:08:09	 0.41		 0.09		 1.46		 -0.33
17:08:09	 0.40		 0.20		 1.56		 -0.55
17:08:10	 0.51		 0.20		 1.35		 -0.01
17:08:11	 0.73		 0.31		 1.15		 0.73
17:08:12	 0.97		 0.52		 0.94		 1.46
17:08:13	 1.08		 0.73		 0.73		 1.77
17:08:14	 1.10		 0.62		 0.41		 2.28
17:08:15	 1.17		 0.62		 0.73		 2.17
17:08:16	 1.04		 0.52		 1.04		 1.56
17:08:17	 0.79		 0.41		 1.35		 0.62
17:08:18	 0.65		 0.41		 1.46		 0.09
17:08:18	 0.62		 0.31		 1.77		 -0.23
17:08:19	 0.72		 0.52		 1.66		 -0.01
17:08:20	 0.86		 0.62		 1.56		 0.41
17:08:21	 1.07		 0.62		 1.25		 1.35
17:08:22	 1.31		 0.73		 1.04		 2.17
17:08:23	 1.49		 0.94		 0.94		 2.58
17:08:24	 1.35		 0.94		 0.94		 2.17
17:08:25	 1.21		 0.62		 1.15		 1.87
17:08:26	 1.11		 0.73		 1.46		 1.15
17:08:27	 0.97		 0.62		 1.77		 0.52
17:08:27	 0.79		 0.52		 1.97		 -0.12
17:08:28	 0.86		 0.62		 1.77		 0.20
17:08:29	 1.08		 0.73		 1.77		 0.73
17:08:30	 1.25		 0.83		 1.35		 1.56
17:08:31	 1.35		 0.94		 1.15		 1.97
17:08:32	 1.55		 1.04		 0.94		 2.68
17:08:33	 1.48		 0.83		 1.04		 2.58
17:08:34	 1.45		 0.94		 1.25		 2.17
17:08:35	 1.21		 0.73		 1.56		 1.35
17:08:36	 1.08		 0.73		 1.77		 0.73
17:08:36	 0.93		 0.62		 1.97		 0.20
17:08:37	 0.97		 0.73		 1.97		 0.20
17:08:38	 0.97		 0.83		 1.87		 0.20
17:08:39	 1.21		 0.94		 1.66		 1.04
17:08:40	 1.39		 0.83		 1.56		 1.77
17:08:41	 1.52		 1.15		 1.25		 2.17
17:08:42	 1.56		 1.15		 1.04		 2.48
17:08:43	 1.65		 1.04		 1.04		 2.88
17:08:44	 1.56		 0.94		 1.15		 2.58
17:08:45	 1.35		 0.94		 1.46		 1.66
17:08:46	 1.14		 0.83		 1.66		 0.94
17:08:46	 1.04		 0.73		 1.77		 0.62
17:08:47	 1.00		 0.73		 1.97		 0.31
17:08:48	 0.90		 0.73		 1.97		 -0.01
17:08:49	 1.00		 0.83		 1.77		 0.41
17:08:50	 1.22		 0.94		 1.46		 1.25
17:08:51	 1.42		 0.94		 1.46		 1.87
17:08:52	 1.45		 1.04		 1.15		 2.17
17:08:53	 1.25		 1.04		 1.04		 1.66
17:08:54	 1.66		 1.04		 1.15		 2.78
17:08:55	 1.45		 0.73		 1.25		 2.38
17:08:55	 1.28		 0.83		 1.46		 1.56
17:08:56	 1.00		 0.73		 1.66		 0.62
17:08:57	 0.93		 0.62		 1.77		 0.41
17:08:58	 0.82		 0.41		 1.97		 0.09
17:08:59	 0.83		 0.62		 1.87		 -0.01
17:09:00	 1.04		 0.73		 1.56		 0.83
17:09:01	 1.22		 0.73		 1.46		 1.46
17:09:02	 1.24		 0.31		 1.25		 2.17
17:09:03	 1.38		 0.83		 1.04		 2.28
17:09:04	 1.48		 0.94		 0.83		 2.68
17:09:04	 1.42		 0.73		 1.04		 2.48
17:09:05	 1.35		 0.73		 1.15		 2.17
17:09:06	 1.14		 0.62		 1.35		 1.46
17:09:07	 0.97		 0.62		 1.35		 0.94
17:09:08	 0.90		 0.52		 1.56		 0.62
17:09:09	 0.79		 0.41		 1.77		 0.20
17:09:10	 0.68		 0.41		 1.87		 -0.23
17:09:11	 0.72		 0.52		 1.66		 -0.01
17:09:12	 0.83		 0.52		 1.66		 0.31
17:09:13	 0.97		 0.52		 1.46		 0.94
17:09:14	 1.04		 0.62		 1.25		 1.25
17:09:14	 1.18		 0.73		 0.83		 1.97
17:09:15	 1.28		 0.62		 0.83		 2.38
17:09:16	 1.24		 0.52		 0.73		 2.48
17:09:17	 1.17		 0.62		 0.83		 2.07
17:09:18	 1.01		 0.52		 0.94		 1.56
17:09:19	 0.93		 0.41		 1.04		 1.35
17:09:20	 0.69		 0.20		 1.25		 0.62
17:09:21	 0.66		 0.31		 1.46		 0.20
17:09:22	 0.51		 0.31		 1.66		 -0.44
17:09:23	 0.37		 0.20		 1.35		 -0.44
17:09:23	 0.55		 0.31		 1.35		 -0.01
17:09:24	 0.66		 0.20		 1.15		 0.62
17:09:25	 0.76		 0.41		 1.04		 0.83
17:09:26	 0.90		 0.31		 0.83		 1.56
17:09:27	 1.00		 0.41		 0.52		 2.07
17:09:28	 1.04		 0.31		 0.52		 2.28
17:09:29	 0.20		 -2.09		 0.62		 2.07
17:09:30	 0.83		 0.31		 0.73		 1.46
17:09:31	 0.66		 0.20		 0.73		 1.04
17:09:32	 0.52		 -0.01		 0.94		 0.62
17:09:32	 0.48		 -0.01		 1.25		 0.20
17:09:33	 0.23		 -0.01		 1.25		 -0.55
17:09:34	 0.13		 -0.01		 1.15		 -0.76
17:09:35	 0.27		 0.09		 1.15		 -0.44
17:09:36	 0.30		 -0.01		 1.25		 -0.33
17:09:37	 0.34		 0.09		 1.04		 -0.12
17:09:38	 0.38		 0.09		 0.73		 0.31
17:09:39	 0.62		 0.20		 0.52		 1.15
17:09:40	 0.76		 0.20		 0.41		 1.66
17:09:41	 0.65		 -0.33		 0.31		 1.97
17:09:42	 0.72		 0.09		 0.31		 1.77
17:09:42	 0.55		 -0.01		 0.20		 1.46
17:09:43	 0.52		 0.09		 0.52		 0.94
17:09:44	 0.27		 -0.12		 0.94		 -0.01
17:09:45	 0.02		 -0.23		 1.04		 -0.76
17:09:46	 -0.02		 -0.33		 1.15		 -0.87
17:09:47	 0.09		 -0.23		 0.73		 -0.23
17:09:48	 0.41		 -0.12		 0.73		 0.62
17:09:49	 0.62		 0.09		 0.20		 1.56
17:09:50	 0.62		 0.09		 0.20		 1.56
17:09:51	 0.48		 -0.01		 0.41		 1.04
17:09:51	 0.02		 -0.33		 0.52		 -0.12
17:09:52	 -0.09		 -0.44		 0.94		 -0.76
17:09:53	 -0.02		 -0.33		 0.83		 -0.55
17:09:54	 0.34		 -0.12		 0.31		 0.83
17:09:55	 0.58		 -0.01		 -0.01		 1.77
17:09:56	 0.44		 -0.12		 0.09		 1.35
17:09:57	 -0.01		 -0.33		 0.62		 -0.33
17:09:58	 -0.16		 -0.44		 0.83		 -0.87
17:09:59	 0.06		 -0.44		 0.62		 -0.01
17:10:00	 0.51		 -0.12		 0.20		 1.46
17:10:00	 0.41		 -0.12		 0.09		 1.25
17:10:01	 0.09		 -0.33		 0.52		 0.09
17:10:02	 -0.20		 -0.55		 0.83		 -0.87
17:10:03	 0.06		 -0.44		 0.62		 -0.01
17:10:04	 0.34		 -0.23		 0.09		 1.15
17:10:05	 0.37		 -0.23		 -0.23		 1.56
17:10:06	 0.10		 -0.33		 0.31		 0.31
17:10:07	 -0.16		 -0.44		 0.83		 -0.87
17:10:08	 -0.19		 -0.44		 0.73		 -0.87
17:10:09	 0.20		 -0.33		 0.20		 0.73
17:10:10	 0.47		 -0.23		 -0.01		 1.66
17:10:10	 0.30		 -0.23		 -0.01		 1.15
17:10:11	 -0.12		 -0.44		 0.52		 -0.44
17:10:12	 -0.30		 -0.55		 0.73		 -1.09
17:10:13	 -0.16		 -0.55		 0.52		 -0.44
17:10:14	 0.30		 -0.33		 0.20		 1.04
17:10:15	 1.13		 -0.23		 2.28		 1.35
17:10:16	 0.13		 -0.44		 0.09		 0.73
17:10:17	 -0.16		 -0.55		 0.62		 -0.55
17:10:18	 -0.38		 -0.55		 0.73		 -1.31
17:10:19	 -0.09		 -0.44		 0.41		 -0.23
17:10:19	 0.27		 -0.33		 -0.12		 1.25
17:10:20	 0.30		 -0.33		 -0.23		 1.46
17:10:21	 -0.08		 -0.44		 0.20		 -0.01
17:10:22	 -0.38		 -0.55		 0.62		 -1.20
17:10:23	 -0.27		 -0.66		 0.62		 -0.76
17:10:24	 0.09		 -0.44		 0.20		 0.52
17:10:25	 0.33		 -0.23		 -0.23		 1.46
17:10:26	 0.16		 -0.33		 -0.01		 0.83
17:10:27	 -0.15		 -0.33		 0.31		 -0.44
17:10:28	 -0.34		 -0.66		 0.83		 -1.20
17:10:28	 -0.12		 -0.55		 0.52		 -0.33
17:10:29	 0.20		 -0.33		 -0.01		 0.94
17:10:30	 0.34		 -0.12		 -0.33		 1.46
17:10:31	 0.06		 -0.44		 0.09		 0.52
17:10:32	 -0.27		 -0.44		 0.62		 -0.98
17:10:33	 -0.34		 -0.66		 0.62		 -0.98
17:10:34	 -0.01		 -0.44		 0.31		 0.09
17:10:35	 0.37		 -0.23		 -0.12		 1.46
17:10:36	 0.30		 -0.23		 -0.12		 1.25
17:10:37	 -0.01		 -0.33		 0.20		 0.09
17:10:38	 -0.30		 -0.66		 0.73		 -0.98
17:10:38	 -0.19		 -0.55		 0.73		 -0.76
17:10:39	 0.06		 -0.33		 0.31		 0.20
17:10:40	 0.44		 -0.12		 -0.01		 1.46
17:10:41	 0.41		 -0.01		 -0.12		 1.35
17:10:42	 0.02		 -0.44		 0.41		 0.09
17:10:43	 -0.23		 -0.44		 0.73		 -0.98
17:10:44	 -0.23		 -0.55		 0.62		 -0.76
17:10:45	 0.16		 -0.44		 0.31		 0.62
17:10:46	 0.48		 -0.12		 -0.01		 1.56
17:10:47	 0.34		 -0.12		 0.09		 1.04
17:10:47	 0.02		 -0.33		 0.52		 -0.12
17:10:48	 -0.23		 -0.44		 0.83		 -1.09
17:10:49	 0.02		 -0.44		 0.62		 -0.12
17:10:50	 0.41		 -0.01		 0.20		 1.04
17:10:51	 0.47		 -0.12		 -0.12		 1.66
17:10:52	 0.23		 -0.23		 0.31		 0.62
17:10:53	 -0.12		 -0.44		 0.83		 -0.76
17:10:54	 -0.09		 -0.44		 0.94		 -0.76
17:10:55	 0.30		 -0.23		 0.20		 0.94
17:10:56	 0.58		 -0.01		 0.09		 1.66
17:10:56	 0.31		 -0.12		 0.31		 0.73
17:10:57	 -0.09		 -0.33		 0.94		 -0.87
17:10:58	 -0.09		 -0.44		 0.83		 -0.66
17:10:59	 0.41		 -0.23		 0.52		 0.94
17:11:00	 0.68		 0.09		 0.09		 1.87
17:11:01	 0.31		 -0.01		 0.31		 0.62
17:11:02	 0.02		 -0.23		 0.73		 -0.44
17:11:03	 -0.02		 -0.33		 1.04		 -0.76
17:11:04	 0.31		 -0.01		 0.62		 0.31
17:11:05	 0.65		 0.09		 0.09		 1.77
17:11:05	 0.69		 0.20		 0.31		 1.56
17:11:06	 0.27		 -0.12		 0.73		 0.20
17:11:07	 0.02		 -0.12		 1.15		 -0.98
17:11:08	 0.23		 -0.12		 0.94		 -0.12
17:11:09	 0.65		 0.20		 0.41		 1.35
17:11:10	 0.79		 0.20		 0.20		 1.97
17:11:11	 0.55		 0.20		 0.52		 0.94
17:11:12	 0.27		 -0.01		 0.94		 -0.12
17:11:13	 0.09		 -0.12		 1.15		 -0.76
17:11:14	 0.30		 -0.12		 0.94		 0.09
17:11:15	 0.62		 0.09		 0.52		 1.25
17:11:15	 0.79		 0.20		 0.20		 1.97
17:11:16	 0.62		 0.20		 0.52		 1.15
17:11:17	 0.27		 -0.12		 1.04		 -0.12
17:11:18	 0.16		 -0.12		 1.35		 -0.76
17:11:19	 0.52		 0.09		 0.94		 0.52
17:11:20	 0.86		 0.31		 0.41		 1.87
17:11:21	 0.90		 0.41		 0.31		 1.97
17:11:22	 0.41		 0.09		 0.73		 0.41
17:11:23	 0.19		 -0.12		 1.25		 -0.55
17:11:24	 0.37		 -0.12		 1.25		 -0.01
17:11:24	 0.79		 0.20		 0.62		 1.56
17:11:25	 0.90		 0.41		 0.31		 1.97
17:11:26	 0.69		 0.20		 0.73		 1.15
17:11:27	 0.37		 0.09		 1.25		 -0.23
17:11:28	 0.34		 -0.01		 1.35		 -0.33
17:11:29	 0.69		 0.31		 0.83		 0.94
17:11:30	 0.96		 0.41		 0.31		 2.17
17:11:31	 0.93		 0.41		 0.73		 1.66
17:11:32	 0.55		 0.20		 1.25		 0.20
17:11:33	 0.23		 0.09		 1.35		 -0.76
17:11:33	 0.62		 0.20		 1.15		 0.52
17:11:34	 0.93		 0.31		 0.62		 1.87
17:11:35	 1.00		 0.52		 0.52		 1.97
17:11:36	 0.73		 0.31		 0.83		 1.04
17:11:37	 0.27		 0.20		 0.73		 -0.12
17:11:38	 0.41		 0.09		 1.46		 -0.33
17:11:39	 0.66		 0.31		 1.15		 0.52
17:11:40	 1.00		 0.41		 0.62		 1.97
17:11:41	 1.07		 0.52		 0.52		 2.17
17:11:42	 0.80		 0.31		 0.94		 1.15
17:11:43	 0.41		 0.20		 1.46		 -0.44
17:11:43	 0.48		 0.20		 1.46		 -0.23
17:11:44	 0.76		 0.31		 1.04		 0.94
17:11:45	 1.14		 0.52		 0.73		 2.17
17:11:46	 1.04		 0.52		 0.62		 1.97
17:11:47	 0.69		 0.31		 0.94		 0.83
17:11:48	 0.48		 0.20		 1.56		 -0.33
17:11:49	 0.62		 0.20		 1.46		 0.20
17:11:50	 0.97		 0.41		 1.04		 1.46
17:11:51	 1.14		 0.62		 0.52		 2.28
17:11:52	 1.04		 0.62		 0.94		 1.56
17:11:52	 0.58		 0.31		 1.35		 0.09
17:11:53	 0.48		 0.20		 1.56		 -0.33
17:11:54	 0.83		 0.31		 1.04		 1.15
17:11:55	 1.18		 0.52		 0.73		 2.28
17:11:56	 1.11		 0.62		 0.73		 1.97
17:11:57	 0.55		 0.31		 1.25		 0.09
17:11:58	 0.44		 0.20		 1.46		 -0.33
17:11:59	 0.80		 0.41		 1.25		 0.73
17:12:00	 1.14		 0.52		 0.73		 2.17
17:12:01	 1.07		 0.52		 0.62		 2.07
17:12:01	 0.83		 0.41		 0.94		 1.15
17:12:02	 0.48		 0.20		 1.46		 -0.23
17:12:03	 0.48		 0.09		 1.46		 -0.12
17:12:04	 0.80		 0.31		 1.15		 0.94
17:12:05	 1.04		 0.62		 0.52		 1.97
17:12:06	 1.07		 0.52		 0.62		 2.07
17:12:07	 0.76		 0.41		 1.04		 0.83
17:12:08	 0.51		 0.20		 1.46		 -0.12
17:12:09	 0.48		 0.20		 1.46		 -0.23
17:12:10	 0.87		 0.31		 1.04		 1.25
17:12:11	 1.10		 0.41		 0.62		 2.28
17:12:11	 1.11		 0.52		 0.73		 2.07
17:12:12	 0.69		 0.31		 1.25		 0.52
17:12:13	 0.44		 0.20		 1.46		 -0.33
17:12:14	 0.55		 0.20		 1.46		 -0.01
17:12:15	 0.76		 -0.01		 0.94		 1.35
17:12:16	 1.03		 0.41		 0.62		 2.07
17:12:17	 0.93		 0.41		 0.62		 1.77
17:12:18	 0.69		 0.31		 0.94		 0.83
17:12:19	 0.48		 0.20		 1.46		 -0.23
17:12:20	 0.51		 0.20		 1.46		 -0.12
17:12:20	 0.73		 0.41		 1.15		 0.62
17:12:21	 1.00		 0.41		 0.62		 1.97
17:12:22	 1.00		 0.31		 0.52		 2.17
17:12:23	 0.80		 0.31		 0.83		 1.25
17:12:24	 0.37		 0.09		 1.35		 -0.33
17:12:25	 0.41		 0.09		 1.46		 -0.33
17:12:26	 0.69		 0.31		 1.04		 0.73
17:12:27	 1.03		 0.41		 0.62		 2.07
17:12:28	 0.97		 0.41		 0.62		 1.87
17:12:29	 0.66		 0.31		 0.83		 0.83
17:12:29	 0.37		 0.09		 1.35		 -0.33
17:12:30	 0.44		 -0.01		 1.46		 -0.12
17:12:31	 0.73		 0.31		 0.83		 1.04
17:12:32	 0.93		 0.41		 0.31		 2.07
17:12:33	 0.86		 0.41		 0.41		 1.77
17:12:34	 0.55		 0.20		 1.15		 0.31
17:12:35	 0.30		 -0.01		 1.35		 -0.44
17:12:36	 0.44		 0.09		 1.25		 -0.01
17:12:37	 0.83		 0.31		 0.52		 1.66
17:12:38	 0.97		 0.31		 0.31		 2.28
17:12:38	 0.80		 0.31		 0.73		 1.35
17:12:39	 0.34		 0.09		 1.15		 -0.23
17:12:40	 0.30		 0.09		 1.35		 -0.55
17:12:41	 0.59		 0.31		 1.04		 0.41
17:12:42	 0.86		 0.20		 0.62		 1.77
17:12:43	 0.90		 0.41		 0.41		 1.87
17:12:44	 0.62		 0.20		 0.73		 0.94
17:12:45	 0.23		 -0.01		 0.94		 -0.23
17:12:46	 0.23		 -0.12		 1.25		 -0.44
17:12:47	 0.48		 0.09		 0.94		 0.41
17:12:48	 0.76		 0.20		 0.52		 1.56
17:12:48	 0.93		 0.41		 0.41		 1.97
17:12:49	 0.52		 0.09		 0.73		 0.73
17:12:50	 0.27		 -0.01		 1.25		 -0.44
17:12:51	 0.19		 -0.01		 1.25		 -0.66
17:12:52	 0.55		 0.09		 0.73		 0.83
17:12:53	 0.86		 0.20		 0.41		 1.97
17:12:54	 0.83		 0.20		 0.41		 1.87
17:12:55	 0.48		 0.20		 0.83		 0.41
17:12:56	 0.23		 -0.01		 1.15		 -0.44
17:12:57	 0.23		 -0.12		 1.25		 -0.44
17:12:57	 0.58		 0.09		 0.83		 0.83
17:12:58	 0.76		 0.20		 0.41		 1.66
17:12:59	 0.72		 0.31		 0.20		 1.66
17:13:00	 0.41		 0.09		 0.52		 0.62
17:13:01	 0.19		 -0.12		 1.25		 -0.55
17:13:02	 0.20		 -0.01		 1.15		 -0.55
17:13:03	 0.55		 0.09		 0.62		 0.94
17:13:04	 0.86		 0.31		 0.20		 2.07
17:13:05	 0.69		 0.20		 0.52		 1.35
17:13:06	 0.52		 -0.12		 0.94		 0.73
17:13:06	 0.01		 -0.23		 1.25		 -0.98
17:13:07	 0.38		 0.09		 0.73		 0.31
17:13:08	 0.69		 0.09		 0.31		 1.66
17:13:09	 0.83		 0.20		 0.31		 1.97
17:13:10	 0.44		 0.09		 0.62		 0.62
17:13:11	 0.12		 -0.12		 1.04		 -0.55
17:13:12	 0.16		 -0.23		 1.25		 -0.55
17:13:13	 0.52		 -0.01		 0.73		 0.83
17:13:14	 0.65		 0.09		 0.31		 1.56
17:13:15	 0.72		 0.09		 0.31		 1.77
17:13:16	 0.23		 0.09		 -0.01		 0.62
17:13:16	 0.12		 -0.23		 1.04		 -0.44
17:13:17	 -0.02		 -0.33		 1.15		 -0.87
17:13:18	 0.20		 -0.12		 0.83		 -0.12
17:13:19	 0.58		 0.09		 0.31		 1.35
17:13:20	 0.79		 0.09		 0.20		 2.07
17:13:21	 1.79		 0.20		 0.31		 4.86
17:13:22	 0.41		 0.09		 0.73		 0.41
17:13:23	 0.09		 -0.23		 0.94		 -0.44
17:13:24	 0.02		 -0.23		 1.04		 -0.76
17:13:25	 0.34		 -0.12		 0.94		 0.20
17:13:25	 0.52		 -0.01		 0.41		 1.15
17:13:26	 0.82		 0.20		 0.20		 2.07
17:13:27	 0.62		 -0.01		 0.31		 1.56
17:13:28	 0.27		 -0.12		 0.62		 0.31
17:13:29	 -0.05		 -0.33		 1.04		 -0.87
17:13:30	 -0.02		 -0.33		 0.83		 -0.55
17:13:31	 0.31		 -0.12		 0.31		 0.73
17:13:32	 0.65		 -0.01		 0.20		 1.77
17:13:33	 0.62		 0.09		 0.20		 1.56
17:13:34	 0.24		 -0.01		 0.41		 0.31
17:13:34	 0.16		 0.20		 0.83		 -0.55
17:13:35	 -0.02		 -0.33		 1.04		 -0.76
17:13:36	 0.34		 -0.12		 0.83		 0.31
17:13:37	 0.55		 0.09		 0.31		 1.25
17:13:38	 0.65		 0.09		 -0.01		 1.87
17:13:39	 0.62		 0.09		 0.20		 1.56
17:13:40	 0.30		 -0.12		 0.62		 0.41
17:13:41	 0.02		 -0.23		 1.04		 -0.76
17:13:42	 -0.05		 -0.23		 0.94		 -0.87
17:13:43	 0.09		 -0.23		 0.83		 -0.33
17:13:43	 0.45		 -0.01		 0.52		 0.83
17:13:44	 0.58		 0.09		 0.20		 1.46
17:13:45	 0.68		 0.09		 -0.01		 1.97
17:13:46	 -0.29		 0.09		 -2.31		 1.35
17:13:47	 0.23		 -0.23		 0.73		 0.20
17:13:48	 -0.02		 -0.23		 1.04		 -0.87
17:13:49	 -0.09		 -0.23		 0.94		 -0.98
17:13:50	 0.20		 -0.12		 0.73		 -0.01
17:13:51	 0.45		 -0.12		 0.52		 0.94
17:13:52	 0.72		 0.09		 0.31		 1.77
17:13:53	 0.62		 -0.01		 0.09		 1.77
17:13:53	 0.55		 0.09		 0.20		 1.35
17:13:54	 0.34		 -0.12		 0.62		 0.52
17:13:55	 0.13		 -0.23		 0.94		 -0.33
17:13:56	 -0.06		 -0.23		 1.15		 -1.09
17:13:57	 0.16		 -0.12		 1.15		 -0.55
17:13:58	 0.23		 -0.23		 0.73		 0.20
17:13:59	 0.55		 0.09		 0.52		 1.04
17:14:00	 0.72		 0.20		 0.41		 1.56
17:14:01	 0.69		 0.20		 0.09		 1.77
17:14:02	 0.58		 0.09		 0.09		 1.56
17:14:02	 0.41		 -0.12		 0.52		 0.83
17:14:03	 0.20		 -0.12		 1.04		 -0.33
17:14:04	 0.02		 -0.12		 1.15		 -0.98
17:14:05	 0.05		 -0.23		 1.15		 -0.76
17:14:06	 0.31		 -0.01		 0.94		 -0.01
17:14:07	 0.48		 -0.01		 0.62		 0.83
17:14:08	 0.66		 0.20		 0.31		 1.46
17:14:09	 0.83		 0.31		 0.20		 1.97
17:14:10	 0.69		 0.09		 0.31		 1.66
17:14:11	 0.55		 -0.01		 0.73		 0.94
17:14:11	 0.13		 -0.12		 0.94		 -0.44
17:14:12	 0.09		 -0.12		 1.04		 -0.66
17:14:13	 0.09		 -0.12		 1.04		 -0.66
17:14:14	 0.30		 -0.12		 0.94		 0.09
17:14:15	 0.41		 0.09		 0.62		 0.52
17:14:16	 0.69		 0.20		 0.31		 1.56
17:14:17	 0.75		 0.20		 0.09		 1.97
17:14:18	 0.76		 0.09		 0.31		 1.87
17:14:19	 0.58		 0.09		 0.62		 1.04
17:14:20	 0.31		 -0.12		 0.73		 0.31
17:14:21	 0.20		 -0.12		 1.04		 -0.33
17:14:21	 0.12		 -0.23		 1.25		 -0.66
17:14:22	 0.16		 -0.23		 1.25		 -0.55
17:14:23	 0.23		 -0.01		 1.04		 -0.33
17:14:24	 0.45		 0.09		 0.73		 0.52
17:14:25	 0.66		 0.20		 0.52		 1.25
17:14:26	 0.79		 0.20		 0.41		 1.77
17:14:27	 0.83		 0.20		 0.31		 1.97
17:14:28	 0.79		 0.20		 0.20		 1.97
17:14:29	 0.69		 0.09		 0.41		 1.56
17:14:30	 0.52		 -0.01		 0.73		 0.83
17:14:30	 0.27		 -0.01		 0.94		 -0.12
17:14:31	 -1.00		 -0.12		 1.15		 -4.03
17:14:32	 0.12		 -0.23		 1.25		 -0.66
17:14:33	 0.09		 -0.23		 1.15		 -0.66
17:14:34	 0.37		 0.09		 1.04		 -0.01
17:14:35	 0.44		 0.09		 0.83		 0.41
17:14:36	 0.66		 0.20		 0.31		 1.46
17:14:37	 0.90		 0.31		 0.41		 1.97
17:14:38	 0.89		 0.20		 0.31		 2.17
17:14:39	 0.69		 0.20		 0.52		 1.35
17:14:39	 0.51		 0.09		 0.62		 0.83
17:14:40	 0.30		 -0.12		 1.15		 -0.12
17:14:41	 0.19		 -0.12		 1.25		 -0.55
17:14:42	 0.12		 -0.01		 1.25		 -0.87
17:14:43	 0.41		 0.09		 1.04		 0.09
17:14:44	 0.55		 0.09		 0.62		 0.94
17:14:45	 0.87		 0.31		 0.52		 1.77
17:14:46	 0.93		 0.41		 0.41		 1.97
17:14:47	 0.90		 0.41		 0.41		 1.87
17:14:48	 0.72		 0.20		 0.62		 1.35
17:14:49	 0.48		 0.09		 0.94		 0.41
17:14:49	 0.34		 -0.01		 1.35		 -0.33
17:14:50	 0.23		 -0.01		 1.46		 -0.76
17:14:51	 0.31		 -0.01		 0.94		 -0.01
17:14:52	 0.65		 0.09		 0.83		 1.04
17:14:53	 0.90		 0.31		 0.41		 1.97
17:14:54	 0.90		 0.31		 0.41		 1.97
17:14:55	 0.76		 0.20		 0.41		 1.66
17:14:56	 0.62		 0.20		 0.83		 0.83
17:14:57	 0.44		 0.09		 1.25		 -0.01
17:14:58	 0.19		 -0.01		 1.35		 -0.76
17:14:58	 0.26		 -0.01		 1.35		 -0.55
17:14:59	 0.38		 -0.01		 1.15		 -0.01
17:15:00	 0.66		 0.31		 0.94		 0.73
17:15:01	 0.76		 0.41		 0.62		 1.25
17:15:02	 0.80		 0.31		 0.31		 1.77
17:15:03	 0.93		 0.41		 0.31		 2.07
17:15:04	 0.90		 0.31		 0.52		 1.87
17:15:05	 0.73		 0.20		 0.73		 1.25
17:15:06	 0.41		 0.09		 1.04		 0.09
17:15:07	 0.34		 0.09		 1.15		 -0.23
17:15:07	 0.23		 -0.01		 1.35		 -0.66
17:15:08	 0.30		 -0.01		 1.35		 -0.44
17:15:09	 0.41		 0.20		 1.04		 -0.01
17:15:10	 0.69		 0.31		 0.83		 0.94
17:15:11	 0.83		 0.31		 0.52		 1.66
17:15:12	 1.00		 0.41		 0.52		 2.07
17:15:13	 0.96		 0.41		 0.41		 2.07
17:15:14	 0.93		 0.41		 0.41		 1.97
17:15:15	 0.76		 0.20		 0.73		 1.35
17:15:16	 0.55		 -0.01		 0.94		 0.73
17:15:17	 0.41		 0.20		 1.25		 -0.23
17:15:17	 0.19		 -0.01		 1.25		 -0.66
17:15:18	 0.26		 -0.01		 1.35		 -0.55
17:15:19	 0.48		 0.20		 1.25		 -0.01
17:15:20	 0.69		 0.31		 0.94		 0.83
17:15:21	 0.76		 0.31		 0.62		 1.35
17:15:22	 0.93		 0.41		 0.31		 2.07
17:15:23	 1.07		 0.41		 0.52		 2.28
17:15:24	 0.93		 0.41		 0.62		 1.77
17:15:25	 0.66		 0.31		 0.94		 0.73
17:15:26	 0.44		 0.09		 1.15		 0.09
17:15:26	 0.27		 -0.01		 1.25		 -0.44
17:15:27	 0.33		 0.09		 1.35		 -0.44
17:15:28	 0.37		 0.20		 1.35		 -0.44
17:15:29	 0.48		 0.31		 0.83		 0.31
17:15:30	 0.90		 0.52		 0.62		 1.56
17:15:31	 0.96		 0.41		 0.41		 2.07
17:15:32	 1.00		 0.52		 0.41		 2.07
17:15:33	 0.83		 0.31		 0.41		 1.77
17:15:34	 0.76		 0.20		 0.83		 1.25
17:15:35	 0.59		 0.09		 1.15		 0.52
17:15:35	 0.41		 0.09		 1.25		 -0.12
17:15:36	 0.23		 -0.01		 1.56		 -0.87
17:15:37	 0.41		 0.09		 1.46		 -0.33
17:15:38	 0.52		 0.20		 1.04		 0.31
17:15:39	 0.76		 0.31		 0.94		 1.04
17:15:40	 0.83		 0.41		 0.62		 1.46
17:15:41	 0.96		 0.41		 0.31		 2.17
17:15:42	 1.03		 0.41		 0.41		 2.28
17:15:43	 1.00		 0.41		 0.52		 2.07
17:15:44	 0.76		 0.31		 0.73		 1.25
17:15:45	 0.59		 0.20		 0.94		 0.62
17:15:45	 0.44		 0.09		 1.15		 0.09
17:15:46	 0.30		 -0.12		 1.35		 -0.33
17:15:47	 0.26		 -0.01		 1.46		 -0.66
17:15:48	 0.40		 0.09		 1.77		 -0.66
17:15:49	 0.55		 0.41		 1.04		 0.20
17:15:50	 0.66		 0.20		 0.94		 0.83
17:15:51	 0.90		 0.41		 0.73		 1.56
17:15:52	 0.90		 0.41		 0.52		 1.77
17:15:53	 1.00		 0.31		 0.41		 2.28
17:15:54	 0.97		 0.31		 0.52		 2.07
17:15:54	 0.86		 0.31		 0.62		 1.66
17:15:55	 0.62		 0.20		 1.04		 0.62
17:15:56	 0.41		 -0.01		 1.15		 0.09
17:15:57	 0.30		 -0.01		 1.35		 -0.44
17:15:58	 0.30		 -0.01		 1.46		 -0.55
17:15:59	 0.41		 0.20		 1.25		 -0.23
17:16:00	 0.27		 0.31		 0.83		 -0.33
17:16:01	 0.87		 0.31		 0.52		 1.77
17:16:02	 1.03		 0.41		 0.52		 2.17
17:16:03	 1.00		 0.41		 0.52		 2.07
17:16:03	 0.69		 0.20		 0.52		 1.35
17:16:04	 0.58		 0.09		 0.83		 0.83
17:16:05	 0.41		 0.09		 1.15		 -0.01
17:16:06	 0.26		 -0.01		 1.35		 -0.55
17:16:07	 0.26		 0.20		 1.25		 -0.66
17:16:08	 0.48		 0.20		 0.94		 0.31
17:16:09	 0.76		 0.20		 0.73		 1.35
17:16:10	 0.96		 0.41		 0.41		 2.07
17:16:11	 0.93		 0.31		 0.52		 1.97
17:16:12	 0.83		 0.20		 0.52		 1.77
17:16:12	 0.62		 0.09		 0.94		 0.83
17:16:13	 0.37		 0.09		 1.15		 -0.12
17:16:14	 0.23		 -0.01		 1.46		 -0.76
17:16:15	 0.19		 -0.01		 1.35		 -0.76
17:16:16	 0.55		 0.20		 1.04		 0.41
17:16:17	 0.76		 0.31		 0.73		 1.25
17:16:18	 0.83		 0.31		 0.52		 1.66
17:16:19	 0.96		 0.41		 0.41		 2.07
17:16:20	 0.93		 0.41		 0.41		 1.97
17:16:21	 0.76		 0.09		 0.73		 1.46
17:16:22	 0.59		 0.09		 0.94		 0.73
17:16:22	 0.27		 -0.01		 1.15		 -0.33
17:16:23	 0.27		 -0.01		 1.25		 -0.44
17:16:24	 0.26		 -0.01		 1.35		 -0.55
17:16:25	 0.30		 -0.01		 1.25		 -0.33
17:16:26	 0.34		 0.09		 0.94		 -0.01
17:16:27	 0.69		 0.31		 0.83		 0.94
17:16:28	 0.79		 0.20		 0.52		 1.66
17:16:29	 0.96		 0.41		 0.41		 2.07
17:16:30	 0.90		 0.31		 0.41		 1.97
17:16:31	 0.72		 0.20		 0.41		 1.56
17:16:31	 0.69		 0.20		 0.52		 1.35
17:16:32	 0.59		 0.09		 0.94		 0.73
17:16:33	 0.38		 -0.01		 1.15		 -0.01
17:16:34	 0.16		 -0.12		 1.35		 -0.76
17:16:35	 0.19		 -0.12		 1.35		 -0.66
17:16:36	 0.30		 0.09		 1.15		 -0.33
17:16:37	 0.44		 0.09		 1.04		 0.20
17:16:38	 0.52		 0.20		 0.73		 0.62
17:16:39	 0.79		 0.31		 0.41		 1.66
17:16:40	 0.86		 0.20		 0.41		 1.97
17:16:40	 1.00		 0.41		 0.41		 2.17
17:16:41	 0.72		 0.20		 0.41		 1.56
17:16:42	 0.66		 0.20		 0.73		 1.04
17:16:43	 0.41		 -0.12		 1.04		 0.31
17:16:44	 0.20		 -0.12		 1.15		 -0.44
17:16:45	 0.09		 -0.01		 1.25		 -0.98
17:16:46	 0.09		 -0.01		 1.04		 -0.76
17:16:47	 0.38		 -0.01		 0.94		 0.20
17:16:48	 0.66		 0.09		 0.73		 1.15
17:16:49	 0.83		 0.20		 0.41		 1.87
17:16:50	 0.86		 0.31		 0.31		 1.97
17:16:50	 0.90		 0.31		 0.41		 1.97
17:16:51	 0.76		 0.20		 0.62		 1.46
17:16:52	 0.52		 -0.01		 0.83		 0.73
17:16:53	 0.20		 -0.12		 1.15		 -0.44
17:16:54	 0.19		 -0.01		 1.25		 -0.66
17:16:55	 0.19		 -0.12		 1.25		 -0.55
17:16:56	 0.34		 -0.01		 1.15		 -0.12
17:16:57	 0.45		 0.09		 0.73		 0.52
17:16:58	 0.55		 0.20		 0.31		 1.15
17:16:59	 0.86		 0.31		 0.20		 2.07
17:16:59	 0.93		 0.31		 0.41		 2.07
17:17:00	 0.65		 0.09		 0.52		 1.35
17:17:01	 0.41		 0.09		 0.73		 0.41
17:17:02	 0.30		 -0.01		 1.04		 -0.12
17:17:03	 0.16		 -0.12		 1.25		 -0.66
17:17:04	 0.19		 -0.12		 1.25		 -0.55
17:17:05	 0.23		 -0.01		 1.04		 -0.33
17:17:06	 0.55		 0.20		 0.83		 0.62
17:17:07	 0.72		 0.20		 0.41		 1.56
17:17:08	 0.90		 0.31		 0.41		 1.97
17:17:08	 0.83		 0.31		 0.31		 1.87
17:17:09	 0.72		 0.20		 0.31		 1.66
17:17:10	 0.52		 -0.01		 0.62		 0.94
17:17:11	 0.34		 -0.12		 0.94		 0.20
17:17:12	 0.16		 -0.12		 1.25		 -0.66
17:17:13	 -0.06		 -0.12		 1.04		 -1.09
17:17:14	 0.13		 -0.01		 0.94		 -0.55
17:17:15	 0.34		 -0.01		 0.94		 0.09
17:17:16	 0.45		 0.09		 0.73		 0.52
17:17:17	 0.69		 0.20		 0.52		 1.35
17:17:17	 1.00		 0.73		 0.31		 1.97
17:17:18	 0.83		 0.20		 0.31		 1.97
17:17:19	 0.76		 0.09		 0.41		 1.77
17:17:20	 0.48		 -0.01		 0.62		 0.83
17:17:21	 0.37		 -0.12		 0.83		 0.41
17:17:22	 0.23		 -0.23		 1.15		 -0.23
17:17:23	 0.09		 -0.23		 1.15		 -0.66
17:17:24	 0.01		 -0.23		 1.25		 -0.98
17:17:25	 0.20		 -0.12		 1.15		 -0.44
17:17:26	 0.41		 0.09		 0.94		 0.20
17:17:27	 0.52		 0.09		 0.73		 0.73
17:17:27	 0.55		 0.09		 0.31		 1.25
17:17:28	 0.72		 0.20		 0.31		 1.66
17:17:29	 0.82		 0.20		 0.20		 2.07
17:17:30	 0.83		 0.20		 0.31		 1.97
17:17:31	 0.55		 0.09		 0.41		 1.15
17:17:32	 1.23		 -0.01		 3.28		 0.41
17:17:33	 0.27		 -0.12		 0.94		 -0.01
17:17:34	 0.09		 -0.23		 1.04		 -0.55
17:17:35	 0.09		 -0.23		 1.15		 -0.66
17:17:36	 0.05		 -0.12		 1.15		 -0.87
17:17:36	 0.27		 -0.01		 0.94		 -0.12
17:17:37	 0.41		 -0.01		 0.83		 0.41
17:17:38	 0.59		 0.20		 0.52		 1.04
17:17:39	 0.65		 0.20		 0.41		 1.35
17:17:40	 0.72		 0.20		 0.09		 1.87
17:17:41	 0.82		 0.31		 0.09		 2.07
17:17:42	 0.76		 0.09		 0.31		 1.87
17:17:43	 0.51		 0.09		 0.41		 1.04
17:17:44	 0.41		 -0.01		 0.62		 0.62
17:17:45	 0.20		 -0.23		 0.94		 -0.12
17:17:45	 0.09		 -0.33		 1.15		 -0.55
17:17:46	 -0.02		 -0.23		 1.25		 -1.09
17:17:47	 0.05		 -0.12		 1.15		 -0.87
17:17:48	 0.34		 0.41		 0.73		 -0.12
17:17:49	 0.38		 -0.12		 0.73		 0.52
17:17:50	 0.65		 0.09		 0.52		 1.35
17:17:51	 0.65		 0.20		 0.20		 1.56
17:17:52	 0.79		 0.20		 0.20		 1.97
17:17:53	 0.75		 0.09		 0.20		 1.97
17:17:54	 0.72		 0.09		 0.31		 1.77
17:17:55	 0.52		 -0.01		 0.62		 0.94
17:17:55	 0.30		 -0.12		 0.62		 0.41
17:17:56	 0.23		 -0.12		 1.04		 -0.23
17:17:57	 0.12		 -0.23		 1.15		 -0.55
17:17:58	 -0.06		 -0.23		 1.15		 -1.09
17:17:59	 0.02		 -0.23		 0.94		 -0.66
17:18:00	 0.13		 -0.23		 0.94		 -0.33
17:18:01	 0.27		 -0.12		 0.62		 0.31
17:18:02	 0.38		 -0.01		 0.52		 0.62
17:18:03	 0.58		 0.09		 0.31		 1.35
17:18:04	 0.72		 0.09		 0.20		 1.87
17:18:04	 0.79		 0.09		 0.20		 2.07
17:18:05	 0.75		 0.09		 0.20		 1.97
17:18:06	 0.58		 0.09		 0.31		 1.35
17:18:07	 0.52		 -0.01		 0.41		 1.15
17:18:08	 0.34		 -0.23		 0.62		 0.62
17:18:09	 0.30		 -0.12		 0.94		 0.09
17:18:10	 0.05		 -0.23		 0.94		 -0.55
17:18:11	 0.02		 -0.23		 1.04		 -0.76
17:18:12	 0.05		 -0.23		 1.25		 -0.87
17:18:13	 0.02		 -0.33		 1.15		 -0.76
17:18:13	 0.09		 -0.12		 1.04		 -0.66
17:18:14	 0.23		 -0.01		 0.62		 0.09
17:18:15	 -0.53		 -0.01		 -2.09		 0.52
17:18:16	 0.37		 -0.55		 0.41		 1.25
17:18:17	 0.59		 0.20		 0.31		 1.25
17:18:18	 0.62		 0.09		 0.20		 1.56
17:18:19	 0.72		 0.20		 -0.01		 1.97
17:18:20	 0.79		 0.20		 0.20		 1.97
17:18:21	 0.93		 0.09		 0.41		 2.28
17:18:22	 0.45		 -0.01		 0.52		 0.83
17:18:23	 0.34		 -0.12		 0.73		 0.41
17:18:23	 0.20		 -0.12		 0.94		 -0.23
17:18:24	 0.12		 -0.12		 1.15		 -0.66
17:18:25	 -0.02		 -0.23		 1.25		 -1.09
17:18:26	 0.09		 -0.12		 1.04		 -0.66
17:18:27	 0.23		 -0.01		 0.94		 -0.23
17:18:28	 0.38		 -0.01		 0.73		 0.41
17:18:29	 0.48		 0.09		 0.52		 0.83
17:18:30	 0.65		 0.20		 0.20		 1.56
17:18:31	 0.79		 0.20		 0.31		 1.87
17:18:32	 0.86		 0.31		 0.20		 2.07
17:18:32	 0.69		 0.20		 0.20		 1.66
17:18:33	 0.58		 0.09		 0.31		 1.35
17:18:34	 0.55		 -0.01		 0.41		 1.25
17:18:35	 0.41		 -0.12		 0.62		 0.73
17:18:36	 0.27		 -0.12		 0.83		 0.09
17:18:37	 0.09		 -0.23		 1.15		 -0.66
17:18:38	 0.05		 -0.23		 1.04		 -0.66
17:18:39	 0.02		 -0.33		 1.25		 -0.87
17:18:40	 0.12		 -0.12		 1.15		 -0.66
17:18:41	 0.09		 -0.12		 1.04		 -0.66
17:18:41	 0.30		 0.09		 0.73		 0.09
17:18:42	 0.48		 0.20		 0.73		 0.52
17:18:43	 0.58		 0.09		 0.62		 1.04
17:18:44	 0.62		 0.20		 0.41		 1.25
17:18:45	 0.76		 0.31		 0.20		 1.77
17:18:46	 0.75		 0.20		 0.09		 1.97
17:18:47	 0.82		 0.20		 0.20		 2.07
17:18:48	 0.72		 0.20		 0.20		 1.77
17:18:49	 0.69		 0.09		 0.31		 1.66
17:18:50	 0.62		 -0.01		 0.52		 1.35
17:18:51	 0.52		 -0.01		 0.73		 0.83
17:18:51	 0.30		 -0.12		 0.83		 0.20
17:18:52	 0.16		 -0.12		 1.04		 -0.44
17:18:53	 0.20		 -0.12		 1.15		 -0.44
17:18:54	 0.16		 -0.12		 1.25		 -0.66
17:18:55	 0.12		 -0.12		 1.25		 -0.76
17:18:56	 0.05		 -0.12		 1.35		 -1.09
17:18:57	 0.12		 -0.12		 1.04		 -0.55
17:18:58	 0.23		 -0.12		 0.94		 -0.12
17:18:59	 0.41		 -0.01		 0.83		 0.41
17:19:00	 0.48		 0.20		 0.73		 0.52
17:19:00	 0.62		 0.20		 0.41		 1.25
17:19:01	 0.72		 0.20		 0.31		 1.66
17:19:02	 0.86		 0.31		 0.31		 1.97
17:19:03	 0.83		 0.31		 0.31		 1.87
17:19:04	 0.83		 0.31		 0.31		 1.87
17:19:05	 0.75		 0.20		 0.09		 1.97
17:19:06	 0.76		 0.09		 0.31		 1.87
17:19:07	 0.89		 0.09		 0.62		 1.97
17:19:08	 0.55		 0.09		 0.62		 0.94
17:19:09	 0.55		 -0.01		 0.73		 0.94
17:19:09	 0.44		 -0.12		 0.83		 0.62
17:19:10	 0.44		 -0.12		 1.04		 0.41
17:19:11	 0.23		 -0.12		 1.04		 -0.23
17:19:12	 0.23		 -0.12		 1.04		 -0.23
17:19:13	 0.23		 -0.12		 1.25		 -0.44
17:19:14	 0.23		 -0.12		 1.35		 -0.55
17:19:15	 0.05		 -0.12		 1.35		 -1.09
17:19:16	 0.02		 -0.12		 1.15		 -0.98
17:19:17	 0.12		 -0.01		 1.04		 -0.66
17:19:18	 0.12		 -0.12		 1.15		 -0.66
17:19:19	 0.12		 -0.01		 1.04		 -0.66
17:19:19	 0.30		 -0.01		 1.46		 -0.55
17:19:20	 0.30		 0.09		 0.73		 0.09
17:19:21	 0.45		 0.09		 0.94		 0.31
17:19:22	 0.52		 0.20		 0.83		 0.52
17:19:23	 0.41		 0.09		 0.73		 0.41
17:19:24	 0.52		 0.20		 0.52		 0.83
17:19:25	 0.66		 0.31		 0.52		 1.15
17:19:26	 0.73		 0.20		 0.52		 1.46
17:19:27	 0.69		 0.31		 0.41		 1.35
17:19:28	 0.76		 0.20		 0.31		 1.77
17:19:28	 0.83		 0.31		 0.31		 1.87
17:19:29	 0.90		 0.31		 0.31		 2.07
17:19:30	 0.83		 0.31		 0.31		 1.87
17:19:31	 0.75		 0.20		 0.09		 1.97
17:19:32	 0.89		 0.31		 0.20		 2.17
17:19:33	 0.90		 0.31		 0.31		 2.07
17:19:34	 0.83		 0.20		 0.41		 1.87
17:19:35	 0.72		 0.20		 0.31		 1.66
17:19:36	 0.72		 0.09		 0.31		 1.77
17:19:37	 0.76		 0.09		 0.62		 1.56
17:19:37	 0.65		 0.09		 0.62		 1.25
17:19:38	 0.48		 -0.01		 0.73		 0.73
17:19:39	 0.45		 -0.01		 0.83		 0.52
17:19:40	 0.34		 -0.12		 1.04		 0.09
17:19:41	 0.27		 -0.12		 1.15		 -0.23
17:19:42	 0.12		 -0.12		 1.25		 -0.76
17:19:43	 0.12		 -0.12		 1.15		 -0.66
17:19:44	 0.09		 -0.23		 1.25		 -0.76
17:19:45	 0.12		 -0.12		 1.15		 -0.66
17:19:46	 0.13		 -0.01		 1.15		 -0.76
17:19:46	 0.16		 0.09		 1.04		 -0.66
17:19:47	 0.38		 -0.01		 0.94		 0.20
17:19:48	 0.51		 0.09		 0.83		 0.62
17:19:49	 1.70		 0.20		 0.62		 4.27
17:19:50	 0.62		 0.20		 0.41		 1.25
17:19:51	 0.79		 0.31		 0.20		 1.87
17:19:52	 0.89		 0.20		 0.31		 2.17
17:19:53	 0.89		 0.20		 0.31		 2.17
17:19:54	 0.76		 0.20		 0.31		 1.77
17:19:55	 0.72		 0.09		 0.31		 1.77
17:19:56	 0.65		 0.09		 0.62		 1.25
17:19:56	 0.59		 -0.01		 0.83		 0.94
17:19:57	 0.38		 -0.01		 0.94		 0.20
17:19:58	 0.30		 -0.01		 1.04		 -0.12
17:19:59	 0.23		 -0.23		 1.25		 -0.33
17:20:00	 0.16		 -0.23		 1.25		 -0.55
17:20:01	 0.08		 -0.12		 1.35		 -0.98
17:20:02	 0.05		 -0.01		 1.15		 -0.98
17:20:03	 0.30		 0.41		 1.15		 -0.66
17:20:04	 0.23		 -0.01		 1.25		 -0.55
17:20:05	 0.30		 0.09		 1.15		 -0.33
17:20:05	 0.23		 -0.01		 1.15		 -0.44
17:20:06	 0.27		 0.09		 0.73		 -0.01
17:20:07	 0.41		 0.09		 0.83		 0.31
17:20:08	 0.45		 0.09		 0.73		 0.52
17:20:09	 0.52		 0.20		 0.62		 0.73
17:20:10	 0.69		 0.31		 0.41		 1.35
17:20:11	 0.72		 0.09		 0.41		 1.66
17:20:12	 0.86		 0.31		 0.31		 1.97
17:20:13	 0.90		 0.41		 0.31		 1.97
17:20:14	 0.93		 0.31		 0.31		 2.17
17:20:14	 0.82		 0.20		 0.20		 2.07
17:20:15	 0.86		 0.31		 0.41		 1.87
17:20:16	 0.62		 0.09		 0.52		 1.25
17:20:17	 0.48		 -0.01		 0.73		 0.73
17:20:18	 0.45		 -0.01		 0.83		 0.52
17:20:19	 0.34		 -0.12		 1.15		 -0.01
17:20:20	 0.30		 -0.01		 1.25		 -0.33
17:20:21	 0.16		 -0.12		 1.35		 -0.76
17:20:22	 0.12		 -0.12		 1.25		 -0.76
17:20:23	 0.23		 -0.01		 1.35		 -0.66
17:20:24	 0.27		 0.09		 1.15		 -0.44
17:20:24	 0.30		 0.09		 0.94		 -0.12
17:20:25	 0.48		 0.20		 0.73		 0.52
17:20:26	 0.62		 0.20		 0.62		 1.04
17:20:27	 0.76		 0.20		 0.52		 1.56
17:20:28	 0.76		 0.31		 0.31		 1.66
17:20:29	 0.52		 0.31		 0.20		 1.04
17:20:30	 0.89		 0.31		 0.09		 2.28
17:20:31	 0.93		 0.31		 0.31		 2.17
17:20:32	 0.79		 0.20		 0.41		 1.77
17:20:33	 0.69		 0.09		 0.62		 1.35
17:20:33	 0.62		 0.09		 0.73		 1.04
17:20:34	 0.41		 -0.12		 0.83		 0.52
17:20:35	 0.34		 -0.01		 1.04		 -0.01
17:20:36	 0.16		 -0.01		 1.25		 -0.76
17:20:37	 0.16		 -0.12		 1.35		 -0.76
17:20:38	 0.12		 -0.12		 1.25		 -0.76
17:20:39	 0.23		 -0.01		 1.25		 -0.55
17:20:40	 0.27		 0.09		 1.04		 -0.33
17:20:41	 0.52		 0.20		 0.83		 0.52
17:20:42	 0.59		 0.20		 0.62		 0.94
17:20:42	 0.69		 0.09		 0.41		 1.56
17:20:43	 0.69		 0.20		 0.31		 1.56
17:20:44	 0.82		 0.31		 0.09		 2.07
17:20:45	 0.82		 0.20		 0.09		 2.17
17:20:46	 0.90		 0.31		 0.31		 2.07
17:20:47	 0.83		 0.20		 0.41		 1.87
17:20:48	 0.65		 0.09		 0.62		 1.25
17:20:49	 0.76		 0.62		 0.52		 1.15
17:20:50	 0.52		 -0.01		 0.83		 0.73
17:20:51	 0.41		 -0.12		 1.04		 0.31
17:20:51	 0.20		 -0.12		 1.15		 -0.44
17:20:52	 0.16		 -0.12		 1.04		 -0.44
17:20:53	 0.26		 -0.01		 1.35		 -0.55
17:20:54	 0.09		 -0.23		 1.25		 -0.76
17:20:55	 0.08		 -0.12		 1.46		 -1.09
17:20:56	 0.20		 -0.01		 1.15		 -0.55
17:20:57	 0.20		 -0.12		 1.04		 -0.33
17:20:58	 0.37		 0.09		 0.83		 0.20
17:20:59	 0.48		 0.20		 0.83		 0.41
17:21:00	 0.38		 0.20		 0.41		 0.52
17:21:01	 0.76		 0.31		 0.31		 1.66
17:21:01	 0.83		 0.31		 0.31		 1.87
17:21:02	 0.86		 0.41		 0.31		 1.87
17:21:03	 0.83		 0.31		 0.20		 1.97
17:21:04	 0.89		 0.20		 0.31		 2.17
17:21:05	 0.79		 0.09		 0.31		 1.97
17:21:06	 0.79		 0.20		 0.41		 1.77
17:21:07	 0.55		 0.09		 0.73		 0.83
17:21:08	 0.48		 -0.01		 0.73		 0.73
17:21:09	 0.38		 -0.12		 0.94		 0.31
17:21:10	 0.30		 -0.01		 1.15		 -0.23
17:21:10	 0.12		 -0.12		 1.25		 -0.76
17:21:11	 0.09		 -0.12		 1.15		 -0.76
17:21:12	 0.12		 -0.12		 1.35		 -0.87
17:21:13	 -0.02		 -0.55		 1.25		 -0.76
17:21:14	 0.20		 -0.01		 1.15		 -0.55
17:21:15	 0.27		 0.09		 0.83		 -0.12
17:21:16	 0.66		 0.62		 0.73		 0.62
17:21:17	 0.66		 0.20		 0.52		 1.25
17:21:18	 0.96		 0.31		 0.41		 2.17
17:21:19	 0.83		 0.31		 0.31		 1.87
17:21:19	 0.86		 0.31		 0.09		 2.17
17:21:20	 0.93		 0.31		 0.41		 2.07
17:21:21	 0.76		 0.20		 0.52		 1.56
17:21:22	 0.55		 0.09		 0.73		 0.83
17:21:23	 0.45		 -0.01		 0.94		 0.41
17:21:24	 0.20		 -0.12		 1.04		 -0.33
17:21:25	 0.12		 -0.23		 1.25		 -0.66
17:21:26	 0.05		 -0.12		 1.35		 -1.09
17:21:27	 0.16		 -0.01		 1.15		 -0.66
17:21:28	 0.20		 -0.12		 0.94		 -0.23
17:21:29	 0.38		 -0.01		 0.83		 0.31
17:21:29	 0.52		 0.20		 0.62		 0.73
17:21:30	 1.54		 0.20		 3.08		 1.35
17:21:31	 1.59		 2.58		 0.31		 1.87
17:21:32	 0.86		 0.20		 0.20		 2.17
17:21:33	 0.86		 0.20		 0.20		 2.17
17:21:34	 0.76		 0.20		 0.41		 1.66
17:21:35	 0.62		 0.09		 0.41		 1.35
17:21:36	 0.52		 -0.01		 0.62		 0.94
17:21:37	 0.41		 -0.12		 1.04		 0.31
17:21:38	 0.16		 -0.23		 1.25		 -0.55
17:21:38	 0.09		 -0.12		 1.04		 -0.66
17:21:39	 0.12		 -0.23		 1.35		 -0.76
17:21:40	 0.12		 -0.12		 1.25		 -0.76
17:21:41	 0.09		 -0.01		 1.25		 -0.98
17:21:42	 0.13		 -0.01		 1.15		 -0.76
17:21:43	 0.27		 0.09		 0.83		 -0.12
17:21:44	 0.44		 0.09		 0.83		 0.41
17:21:45	 0.55		 0.20		 0.73		 0.73
17:21:46	 0.52		 0.20		 0.52		 0.83
17:21:47	 0.69		 0.20		 0.31		 1.56
17:21:47	 0.83		 0.20		 0.41		 1.87
17:21:48	 0.86		 0.31		 0.20		 2.07
17:21:49	 0.83		 0.20		 0.31		 1.97
17:21:50	 0.89		 0.31		 0.20		 2.17
17:21:51	 0.93		 0.31		 0.31		 2.17
17:21:52	 0.83		 0.20		 0.31		 1.97
17:21:53	 0.69		 0.09		 0.41		 1.56
17:21:54	 0.55		 0.09		 0.41		 1.15
17:21:55	 0.55		 0.09		 0.52		 1.04
17:21:56	 0.44		 -0.12		 0.83		 0.62
17:21:57	 0.34		 -0.01		 1.04		 -0.01
17:21:57	 0.23		 -0.12		 1.35		 -0.55
17:21:58	 0.16		 -0.12		 1.15		 -0.55
17:21:59	 0.19		 -0.12		 1.35		 -0.66
17:22:00	 0.12		 -0.12		 1.35		 -0.87
17:22:01	 0.02		 -0.12		 1.15		 -0.98
17:22:02	 0.12		 -0.01		 1.04		 -0.66
17:22:03	 0.20		 -0.12		 1.04		 -0.33
17:22:04	 0.34		 -0.01		 0.94		 0.09
17:22:05	 0.30		 0.09		 0.73		 0.09
17:22:06	 0.48		 0.20		 0.52		 0.73
17:22:06	 0.59		 0.09		 0.52		 1.15
17:22:07	 0.65		 0.09		 0.41		 1.46
17:22:08	 0.69		 0.20		 0.41		 1.46
17:22:09	 0.48		 0.20		 0.31		 0.94
17:22:10	 0.72		 0.20		 0.09		 1.87
17:22:11	 0.86		 0.20		 0.31		 2.07
17:22:12	 0.83		 0.31		 0.20		 1.97
17:22:13	 0.72		 0.20		 0.09		 1.87
17:22:14	 0.82		 0.09		 0.20		 2.17
17:22:15	 0.82		 0.09		 0.20		 2.17
17:22:15	 0.86		 0.20		 0.31		 2.07
17:22:16	 0.72		 0.20		 0.41		 1.56
17:22:17	 0.58		 0.09		 0.41		 1.25
17:22:18	 0.48		 -0.01		 0.62		 0.83
17:22:19	 0.41		 -0.12		 0.94		 0.41
17:22:20	 0.12		 -0.12		 1.04		 -0.55
17:22:21	 0.02		 -0.23		 0.94		 -0.66
