Temperature log started on 12/05/2021 at 14:56:23

Time 		 Average T (C) 	 T0 (C) 	 T1 (C) 	 T2 (C) 
------------------------------------------------------------------------
14:56:23	 17.08		 16.71		 17.40		 17.14
14:56:24	 17.11		 16.71		 17.48		 17.14
14:56:25	 17.11		 16.79		 17.40		 17.14
14:56:26	 17.11		 16.79		 17.40		 17.14
14:56:27	 17.22		 16.88		 17.48		 17.31
14:56:28	 17.26		 16.97		 17.40		 17.40
14:56:29	 17.28		 16.97		 17.40		 17.48
14:56:30	 17.31		 16.97		 17.40		 17.57
14:56:31	 17.31		 16.97		 17.48		 17.48
14:56:31	 17.31		 16.97		 17.48		 17.48
14:56:32	 17.28		 16.97		 17.48		 17.40
14:56:33	 17.19		 16.79		 17.57		 17.22
14:56:34	 17.19		 16.79		 17.57		 17.22
14:56:35	 17.22		 16.88		 17.57		 17.22
14:56:36	 17.28		 16.97		 17.57		 17.31
14:56:37	 17.40		 17.05		 17.57		 17.57
14:56:38	 17.37		 17.05		 17.48		 17.57
14:56:39	 17.46		 17.14		 17.57		 17.66
14:56:40	 17.43		 17.14		 17.57		 17.57
14:56:40	 17.37		 17.05		 17.57		 17.48
14:56:41	 17.37		 17.05		 17.66		 17.40
14:56:42	 17.34		 16.97		 17.74		 17.31
14:56:43	 17.34		 17.05		 17.66		 17.31
14:56:44	 17.40		 17.05		 17.66		 17.48
14:56:45	 17.43		 17.05		 17.66		 17.57
14:56:46	 17.51		 17.22		 17.66		 17.66
14:56:47	 17.60		 17.31		 17.66		 17.83
14:56:48	 17.57		 17.22		 17.74		 17.74
