Temperature log started on 20/05/2021 at 12:30:15

Time 		 Average T (C) 	 T0 (C) 	 T1 (C) 	 T2 (C) 
------------------------------------------------------------------------
12:30:16	 20.04		 19.64		 20.42		 20.07
12:30:17	 19.96		 19.47		 20.42		 19.98
12:30:17	 20.10		 19.73		 20.33		 20.24
12:30:18	 20.10		 19.81		 20.33		 20.16
12:30:19	 20.01		 19.64		 20.42		 19.98
12:30:20	 19.99		 19.73		 20.33		 19.90
12:30:21	 20.01		 19.64		 20.24		 20.16
12:30:22	 19.99		 19.64		 20.16		 20.16
12:30:23	 19.84		 19.47		 20.24		 19.81
12:30:24	 19.73		 19.30		 20.16		 19.73
12:30:25	 19.78		 19.38		 19.98		 19.98
12:30:26	 19.75		 19.38		 19.98		 19.90
12:30:26	 19.61		 19.21		 19.98		 19.64
12:30:27	 19.50		 19.04		 19.90		 19.55
12:30:28	 19.64		 19.21		 19.90		 19.81
12:30:29	 19.58		 19.21		 19.81		 19.73
12:30:30	 19.35		 18.95		 19.73		 19.38
12:30:31	 19.24		 18.78		 19.64		 19.30
12:30:32	 19.29		 18.78		 19.55		 19.55
12:30:33	 19.21		 18.86		 19.47		 19.30
12:30:34	 19.01		 18.52		 19.47		 19.04
12:30:35	 18.92		 18.43		 19.30		 19.04
12:30:35	 19.01		 18.61		 19.21		 19.21
12:30:36	 18.87		 18.35		 19.21		 19.04
12:30:37	 18.66		 18.17		 19.12		 18.69
12:30:38	 18.58		 18.09		 18.95		 18.69
12:30:39	 18.55		 18.09		 18.78		 18.78
12:30:40	 18.46		 18.09		 18.78		 18.52
12:30:41	 18.26		 17.74		 18.69		 18.35
12:30:42	 18.15		 17.57		 18.61		 18.26
12:30:43	 18.15		 17.74		 18.35		 18.35
12:30:44	 18.03		 17.57		 18.26		 18.26
12:30:45	 17.80		 17.22		 18.26		 17.92
12:30:45	 17.77		 17.22		 18.17		 17.92
12:30:46	 17.71		 17.22		 18.00		 17.92
12:30:47	 17.57		 17.14		 17.83		 17.74
12:30:48	 17.40		 16.88		 17.83		 17.48
12:30:49	 17.25		 16.71		 17.74		 17.31
12:30:50	 17.22		 16.71		 17.48		 17.48
12:30:51	 17.08		 16.53		 17.48		 17.22
12:30:52	 16.85		 16.27		 17.31		 16.97
12:30:53	 16.76		 16.10		 17.22		 16.97
12:30:54	 16.79		 16.27		 17.05		 17.05
12:30:54	 16.62		 16.10		 16.97		 16.79
12:30:55	 16.42		 15.93		 16.79		 16.53
12:30:56	 16.30		 15.66		 16.71		 16.53
12:30:57	 16.27		 15.75		 16.45		 16.62
12:30:58	 16.04		 15.66		 16.19		 16.27
12:30:59	 15.90		 15.32		 16.36		 16.01
12:31:00	 15.81		 15.23		 16.19		 16.01
12:31:01	 15.84		 15.23		 16.27		 16.01
12:31:02	 15.67		 15.23		 15.93		 15.84
12:31:03	 15.40		 14.88		 15.84		 15.49
12:31:03	 15.34		 14.79		 15.75		 15.49
12:31:04	 15.29		 14.79		 15.58		 15.49
12:31:05	 15.20		 14.71		 15.40		 15.49
12:31:06	 14.97		 14.44		 15.32		 15.14
12:31:07	 14.82		 14.27		 15.32		 14.88
12:31:08	 14.76		 14.18		 15.14		 14.97
12:31:09	 14.71		 14.18		 14.97		 14.97
12:31:10	 14.59		 14.01		 14.97		 14.79
12:31:11	 14.33		 13.92		 14.53		 14.53
12:31:12	 14.30		 13.74		 14.71		 14.44
12:31:13	 14.27		 13.74		 14.53		 14.53
12:31:13	 14.21		 13.74		 14.44		 14.44
12:31:14	 14.00		 13.48		 14.44		 14.09
12:31:15	 13.83		 13.30		 14.27		 13.92
12:31:16	 13.77		 13.22		 14.09		 14.01
12:31:17	 13.80		 13.22		 14.09		 14.09
12:31:18	 13.60		 13.04		 13.92		 13.83
12:31:19	 13.45		 12.86		 13.92		 13.57
12:31:20	 13.42		 12.86		 13.83		 13.57
12:31:21	 13.42		 12.95		 13.66		 13.66
12:31:22	 13.33		 12.86		 13.66		 13.48
12:31:22	 13.16		 12.60		 13.57		 13.30
12:31:23	 13.04		 12.51		 13.39		 13.22
12:31:24	 13.04		 12.51		 13.39		 13.22
12:31:25	 12.95		 12.51		 13.22		 13.13
12:31:26	 12.80		 12.33		 13.22		 12.86
12:31:27	 12.77		 12.24		 13.22		 12.86
12:31:28	 12.69		 12.16		 12.95		 12.95
12:31:29	 12.69		 12.16		 13.04		 12.86
12:31:30	 12.54		 11.98		 12.95		 12.69
12:31:31	 12.51		 11.98		 12.95		 12.60
12:31:31	 12.51		 12.07		 12.78		 12.69
12:31:32	 12.48		 11.98		 12.78		 12.69
12:31:33	 12.36		 11.98		 12.69		 12.42
12:31:34	 12.24		 11.71		 12.69		 12.33
12:31:35	 12.27		 11.80		 12.60		 12.42
12:31:36	 12.30		 11.89		 12.51		 12.51
12:31:37	 12.21		 11.71		 12.60		 12.33
12:31:38	 12.18		 11.71		 12.60		 12.24
12:31:39	 12.09		 11.62		 12.42		 12.24
12:31:40	 12.15		 11.71		 12.42		 12.33
12:31:41	 12.12		 11.71		 12.42		 12.24
12:31:41	 12.07		 11.62		 12.51		 12.07
12:31:42	 12.04		 11.53		 12.42		 12.16
12:31:43	 12.01		 11.53		 12.33		 12.16
12:31:44	 12.12		 11.71		 12.42		 12.24
12:31:45	 11.98		 11.53		 12.33		 12.07
12:31:46	 11.92		 11.44		 12.42		 11.89
12:31:47	 11.98		 11.53		 12.33		 12.07
12:31:48	 12.04		 11.71		 12.24		 12.16
12:31:49	 12.04		 11.62		 12.33		 12.16
12:31:50	 11.98		 11.53		 12.42		 11.98
12:31:50	 11.92		 11.44		 12.33		 11.98
12:31:51	 12.01		 11.62		 12.24		 12.16
12:31:52	 12.09		 11.71		 12.33		 12.24
12:31:53	 12.07		 11.62		 12.42		 12.16
12:31:54	 12.01		 11.62		 12.42		 11.98
12:31:55	 12.10		 11.71		 12.42		 12.16
12:31:56	 12.15		 11.71		 12.42		 12.33
12:31:57	 12.18		 11.80		 12.51		 12.24
12:31:58	 12.16		 11.80		 12.51		 12.16
12:31:59	 12.16		 11.80		 12.51		 12.16
12:31:59	 12.21		 11.80		 12.51		 12.33
12:32:00	 12.33		 11.98		 12.60		 12.42
12:32:01	 12.30		 11.89		 12.69		 12.33
12:32:02	 12.24		 11.80		 12.69		 12.24
12:32:03	 12.30		 11.89		 12.69		 12.33
12:32:04	 12.36		 11.98		 12.60		 12.51
12:32:05	 12.45		 12.07		 12.69		 12.60
12:32:06	 12.39		 11.98		 12.78		 12.42
12:32:07	 12.39		 11.98		 12.78		 12.42
12:32:08	 12.45		 12.07		 12.78		 12.51
12:32:09	 12.57		 12.16		 12.86		 12.69
12:32:09	 12.57		 12.24		 12.86		 12.60
12:32:10	 12.48		 12.07		 12.86		 12.51
12:32:11	 12.54		 12.07		 13.04		 12.51
12:32:12	 12.60		 12.16		 12.95		 12.69
12:32:13	 12.69		 12.33		 12.95		 12.78
12:32:14	 12.69		 12.33		 13.04		 12.69
12:32:15	 12.66		 12.33		 13.04		 12.60
12:32:16	 12.66		 12.24		 13.04		 12.69
12:32:17	 12.77		 12.42		 13.04		 12.86
12:32:18	 12.83		 12.42		 13.13		 12.95
12:32:18	 12.78		 12.42		 13.13		 12.78
12:32:19	 12.75		 12.42		 13.13		 12.69
12:32:20	 12.80		 12.33		 13.22		 12.86
12:32:21	 12.92		 12.51		 13.22		 13.04
12:32:22	 12.98		 12.69		 13.22		 13.04
12:32:23	 12.92		 12.51		 13.30		 12.95
12:32:24	 12.89		 12.51		 13.30		 12.86
12:32:25	 13.01		 12.60		 13.30		 13.13
12:32:26	 13.07		 12.69		 13.30		 13.22
12:32:27	 13.04		 12.69		 13.39		 13.04
12:32:27	 12.98		 12.60		 13.39		 12.95
12:32:28	 13.07		 12.69		 13.39		 13.13
12:32:29	 13.16		 12.78		 13.48		 13.22
12:32:30	 13.16		 12.78		 13.48		 13.22
12:32:31	 13.10		 12.78		 13.48		 13.04
12:32:32	 13.13		 12.69		 13.57		 13.13
12:32:33	 13.21		 12.86		 13.48		 13.30
12:32:34	 13.30		 12.95		 13.57		 13.39
12:32:35	 13.30		 12.95		 13.66		 13.30
12:32:36	 13.25		 12.86		 13.66		 13.22
12:32:37	 13.30		 12.95		 13.74		 13.22
12:32:37	 13.36		 12.95		 13.66		 13.48
12:32:38	 13.42		 13.04		 13.66		 13.57
12:32:39	 13.45		 13.13		 13.74		 13.48
12:32:40	 13.39		 13.04		 13.74		 13.39
12:32:41	 13.42		 13.04		 13.83		 13.39
12:32:42	 13.45		 13.13		 13.74		 13.48
12:32:43	 13.54		 13.22		 13.74		 13.66
12:32:44	 13.54		 13.13		 13.83		 13.66
12:32:45	 13.54		 13.13		 13.92		 13.57
12:32:46	 13.51		 13.13		 13.92		 13.48
12:32:46	 13.54		 13.13		 13.92		 13.57
12:32:47	 13.63		 13.22		 13.92		 13.74
12:32:48	 13.65		 13.30		 13.83		 13.83
12:32:49	 13.68		 13.30		 14.01		 13.74
12:32:50	 13.66		 13.30		 14.01		 13.66
12:32:51	 13.66		 13.30		 14.01		 13.66
12:32:52	 13.71		 13.30		 14.09		 13.74
12:32:53	 13.80		 13.39		 14.09		 13.92
12:32:54	 13.80		 13.48		 14.01		 13.92
12:32:55	 13.80		 13.39		 14.18		 13.83
12:32:55	 13.80		 13.39		 14.27		 13.74
12:32:56	 13.80		 13.39		 14.18		 13.83
12:32:57	 13.89		 13.48		 14.18		 14.01
12:32:58	 13.89		 13.48		 14.18		 14.01
12:32:59	 13.89		 13.48		 14.27		 13.92
12:33:00	 13.89		 13.48		 14.36		 13.83
12:33:01	 13.92		 13.48		 14.36		 13.92
12:33:02	 14.01		 13.57		 14.36		 14.09
12:33:03	 14.04		 13.66		 14.27		 14.18
12:33:04	 14.04		 13.66		 14.36		 14.09
12:33:05	 14.01		 13.66		 14.36		 14.01
12:33:05	 14.01		 13.57		 14.44		 14.01
12:33:06	 14.07		 13.66		 14.36		 14.18
12:33:07	 14.18		 13.83		 14.44		 14.27
12:33:08	 14.12		 13.74		 14.44		 14.18
12:33:09	 14.15		 13.74		 14.53		 14.18
12:33:10	 14.15		 13.74		 14.62		 14.09
12:33:11	 14.18		 13.74		 14.53		 14.27
12:33:12	 14.30		 13.92		 14.53		 14.44
12:33:13	 14.36		 14.01		 14.62		 14.44
12:33:14	 14.24		 13.83		 14.62		 14.27
12:33:14	 14.18		 13.74		 14.62		 14.18
12:33:15	 14.27		 13.92		 14.62		 14.27
12:33:16	 14.36		 14.01		 14.62		 14.44
12:33:17	 14.39		 14.01		 14.62		 14.53
12:33:18	 14.39		 14.01		 14.71		 14.44
12:33:19	 14.36		 13.92		 14.79		 14.36
12:33:20	 14.39		 14.01		 14.71		 14.44
12:33:21	 14.45		 14.01		 14.71		 14.62
12:33:22	 14.50		 14.18		 14.71		 14.62
12:33:23	 14.50		 14.09		 14.79		 14.62
12:33:23	 14.44		 14.01		 14.88		 14.44
12:33:24	 14.41		 14.01		 14.79		 14.44
12:33:25	 14.53		 14.09		 14.88		 14.62
12:33:26	 14.59		 14.18		 14.88		 14.71
12:33:27	 14.59		 14.27		 14.79		 14.71
12:33:28	 14.59		 14.18		 14.97		 14.62
12:33:29	 14.56		 14.18		 14.97		 14.53
12:33:30	 14.56		 14.09		 14.97		 14.62
12:33:31	 14.62		 14.27		 14.88		 14.71
12:33:32	 14.74		 14.36		 14.97		 14.88
12:33:32	 14.73		 14.44		 14.97		 14.79
12:33:33	 14.71		 14.36		 15.06		 14.71
12:33:34	 14.65		 14.27		 15.06		 14.62
12:33:35	 14.71		 14.27		 15.06		 14.79
12:33:36	 14.82		 14.44		 15.14		 14.88
12:33:37	 14.88		 14.53		 15.06		 15.06
12:33:38	 14.82		 14.36		 15.23		 14.88
12:33:39	 14.77		 14.36		 15.23		 14.71
12:33:40	 14.73		 14.27		 15.14		 14.79
12:33:41	 14.88		 14.44		 15.23		 14.97
12:33:42	 14.94		 14.62		 15.14		 15.06
12:33:42	 14.94		 14.62		 15.23		 14.97
12:33:43	 14.85		 14.44		 15.23		 14.88
12:33:44	 14.85		 14.44		 15.23		 14.88
12:33:45	 14.97		 14.62		 15.23		 15.06
12:33:46	 15.03		 14.71		 15.23		 15.14
12:33:47	 15.06		 14.71		 15.32		 15.14
12:33:48	 15.00		 14.62		 15.40		 14.97
12:33:49	 14.94		 14.53		 15.40		 14.88
12:33:50	 15.02		 14.53		 15.40		 15.14
12:33:51	 15.12		 14.71		 15.32		 15.32
12:33:51	 15.14		 14.79		 15.32		 15.32
12:33:52	 15.08		 14.71		 15.40		 15.14
12:33:53	 15.09		 14.71		 15.49		 15.06
12:33:54	 15.14		 14.79		 15.49		 15.14
12:33:55	 15.20		 14.88		 15.40		 15.32
12:33:56	 15.23		 14.88		 15.40		 15.40
12:33:57	 15.23		 14.88		 15.58		 15.23
12:33:58	 15.14		 14.71		 15.58		 15.14
12:33:59	 15.20		 14.79		 15.58		 15.23
12:34:00	 15.26		 14.88		 15.49		 15.40
12:34:00	 15.32		 14.97		 15.58		 15.40
12:34:01	 15.32		 14.97		 15.66		 15.32
12:34:02	 15.29		 14.88		 15.75		 15.23
12:34:03	 15.26		 14.79		 15.66		 15.32
12:34:04	 15.34		 14.97		 15.66		 15.40
12:34:05	 15.43		 15.06		 15.66		 15.58
12:34:06	 15.43		 15.06		 15.75		 15.49
12:34:07	 15.37		 14.97		 15.75		 15.40
12:34:08	 15.35		 14.97		 15.75		 15.32
12:34:09	 15.40		 14.97		 15.75		 15.49
12:34:10	 15.49		 15.14		 15.66		 15.66
12:34:10	 15.49		 15.14		 15.75		 15.58
12:34:11	 15.46		 15.06		 15.84		 15.49
12:34:12	 15.43		 15.06		 15.84		 15.40
12:34:13	 15.43		 14.97		 15.84		 15.49
12:34:14	 15.55		 15.14		 15.84		 15.66
12:34:15	 15.64		 15.32		 15.84		 15.75
12:34:16	 15.58		 15.23		 15.93		 15.58
12:34:17	 15.52		 15.14		 15.93		 15.49
12:34:18	 15.58		 15.14		 15.93		 15.66
12:34:19	 15.67		 15.23		 15.93		 15.84
12:34:19	 15.70		 15.32		 15.93		 15.84
12:34:20	 15.63		 15.23		 16.01		 15.66
12:34:21	 15.61		 15.23		 16.01		 15.58
12:34:22	 15.63		 15.23		 16.01		 15.66
12:34:23	 15.70		 15.32		 15.93		 15.84
12:34:24	 15.78		 15.49		 15.93		 15.93
12:34:25	 15.75		 15.40		 16.01		 15.84
12:34:26	 15.69		 15.23		 16.19		 15.66
12:34:27	 15.69		 15.32		 16.10		 15.66
12:34:28	 15.75		 15.40		 16.01		 15.84
12:34:28	 15.84		 15.49		 16.01		 16.01
12:34:29	 15.84		 15.40		 16.19		 15.93
12:34:30	 15.78		 15.40		 16.19		 15.75
12:34:31	 15.75		 15.32		 16.19		 15.75
12:34:32	 15.84		 15.40		 16.10		 16.01
12:34:33	 15.96		 15.58		 16.19		 16.10
12:34:34	 15.93		 15.58		 16.19		 16.01
12:34:35	 15.87		 15.49		 16.27		 15.84
12:34:36	 15.87		 15.49		 16.27		 15.84
12:34:37	 15.93		 15.58		 16.27		 15.93
12:34:38	 15.98		 15.66		 16.19		 16.10
12:34:38	 16.01		 15.58		 16.27		 16.19
12:34:39	 15.98		 15.58		 16.36		 16.01
12:34:40	 15.90		 15.49		 16.36		 15.84
12:34:41	 15.98		 15.66		 16.27		 16.01
12:34:42	 16.04		 15.66		 16.27		 16.19
12:34:43	 16.13		 15.75		 16.36		 16.27
12:34:44	 16.07		 15.66		 16.36		 16.19
12:34:45	 16.01		 15.58		 16.45		 16.01
12:34:46	 15.98		 15.58		 16.36		 16.01
12:34:47	 16.10		 15.75		 16.36		 16.19
12:34:47	 16.19		 15.84		 16.45		 16.27
12:34:48	 16.21		 15.84		 16.53		 16.27
12:34:49	 16.10		 15.75		 16.45		 16.10
12:34:50	 16.10		 15.66		 16.53		 16.10
12:34:51	 16.13		 15.75		 16.45		 16.19
12:34:52	 16.25		 15.93		 16.45		 16.36
12:34:53	 16.28		 15.93		 16.45		 16.45
12:34:54	 16.24		 15.84		 16.62		 16.27
12:34:55	 16.19		 15.84		 16.62		 16.10
12:34:56	 16.24		 15.84		 16.62		 16.27
12:34:56	 16.24		 15.84		 16.53		 16.36
12:34:57	 16.33		 16.01		 16.53		 16.45
12:34:58	 16.30		 16.01		 16.53		 16.36
12:34:59	 16.33		 16.01		 16.71		 16.27
12:35:00	 16.27		 15.84		 16.71		 16.27
12:35:01	 16.27		 15.84		 16.62		 16.36
12:35:02	 16.39		 16.01		 16.62		 16.53
12:35:03	 16.39		 16.01		 16.62		 16.53
12:35:04	 16.39		 16.01		 16.71		 16.45
12:35:05	 16.24		 15.66		 16.79		 16.27
12:35:06	 16.36		 15.93		 16.79		 16.36
12:35:06	 16.42		 16.01		 16.71		 16.53
12:35:07	 16.48		 16.10		 16.71		 16.62
12:35:08	 16.42		 16.10		 16.62		 16.53
12:35:09	 16.36		 16.01		 16.71		 16.36
12:35:10	 16.36		 16.01		 16.71		 16.36
12:35:11	 16.36		 15.93		 16.79		 16.36
12:35:12	 16.33		 15.93		 16.62		 16.45
12:35:13	 16.45		 16.10		 16.62		 16.62
12:35:14	 16.48		 16.10		 16.71		 16.62
12:35:15	 16.36		 16.01		 16.71		 16.36
12:35:15	 16.33		 15.84		 16.79		 16.36
12:35:16	 16.27		 15.75		 16.79		 16.27
12:35:17	 16.36		 16.01		 16.62		 16.45
12:35:18	 16.42		 16.10		 16.62		 16.53
12:35:19	 16.33		 16.01		 16.62		 16.36
12:35:20	 16.27		 15.84		 16.71		 16.27
12:35:21	 16.24		 15.75		 16.71		 16.27
12:35:22	 16.30		 15.84		 16.62		 16.45
12:35:23	 16.33		 15.93		 16.53		 16.53
12:35:24	 16.33		 15.93		 16.62		 16.45
12:35:24	 16.27		 15.93		 16.62		 16.27
12:35:25	 16.19		 15.75		 16.71		 16.10
12:35:26	 16.67		 15.75		 18.00		 16.27
12:35:27	 16.22		 15.84		 16.45		 16.36
12:35:28	 16.25		 15.84		 16.45		 16.45
12:35:29	 16.30		 15.93		 16.53		 16.45
12:35:30	 16.21		 15.84		 16.53		 16.27
12:35:31	 16.10		 15.66		 16.53		 16.10
12:35:32	 16.10		 15.66		 16.53		 16.10
12:35:33	 16.10		 15.66		 16.45		 16.19
12:35:34	 16.19		 15.84		 16.36		 16.36
12:35:34	 16.16		 15.75		 16.45		 16.27
12:35:35	 16.07		 15.66		 16.36		 16.19
12:35:36	 16.01		 15.58		 16.45		 16.01
12:35:37	 15.96		 15.49		 16.45		 15.93
12:35:38	 15.98		 15.58		 16.36		 16.01
12:35:39	 15.96		 15.58		 16.19		 16.10
12:35:40	 15.96		 15.49		 16.19		 16.19
12:35:41	 15.96		 15.58		 16.19		 16.10
12:35:42	 15.84		 15.40		 16.19		 15.93
12:35:43	 15.84		 15.40		 16.27		 15.84
12:35:43	 15.81		 15.40		 16.10		 15.93
12:35:44	 15.87		 15.49		 16.10		 16.01
12:35:45	 15.81		 15.32		 16.10		 16.01
12:35:46	 15.78		 15.40		 16.10		 15.84
12:35:47	 15.66		 15.23		 16.10		 15.66
12:35:48	 15.61		 15.23		 16.01		 15.58
12:35:49	 15.69		 15.23		 16.01		 15.84
12:35:50	 15.73		 15.32		 15.93		 15.93
12:35:51	 15.72		 15.40		 15.93		 15.84
12:35:52	 15.63		 15.23		 16.01		 15.66
12:35:52	 15.55		 15.14		 15.93		 15.58
12:35:53	 15.58		 15.06		 15.93		 15.75
12:35:54	 15.58		 15.14		 15.84		 15.75
12:35:55	 15.58		 15.23		 15.75		 15.75
12:35:56	 15.55		 15.23		 15.84		 15.58
12:35:57	 15.43		 14.97		 15.84		 15.49
12:35:58	 15.37		 14.88		 15.84		 15.40
12:35:59	 15.46		 15.06		 15.75		 15.58
12:36:00	 15.43		 15.06		 15.66		 15.58
12:36:01	 15.46		 15.06		 15.75		 15.58
12:36:02	 15.31		 14.88		 15.66		 15.40
12:36:02	 15.26		 14.71		 15.75		 15.32
12:36:03	 15.31		 14.88		 15.66		 15.40
12:36:04	 15.32		 14.88		 15.58		 15.49
12:36:05	 15.35		 14.97		 15.58		 15.49
12:36:06	 15.29		 14.88		 15.58		 15.40
12:36:07	 15.20		 14.79		 15.58		 15.23
12:36:08	 15.17		 14.71		 15.58		 15.23
12:36:09	 15.26		 14.88		 15.49		 15.40
12:36:10	 15.26		 14.88		 15.49		 15.40
12:36:11	 15.23		 14.88		 15.49		 15.32
12:36:11	 15.11		 14.71		 15.49		 15.14
12:36:12	 15.08		 14.62		 15.49		 15.14
12:36:13	 15.11		 14.71		 15.40		 15.23
12:36:14	 15.14		 14.71		 15.40		 15.32
12:36:15	 15.14		 14.71		 15.40		 15.32
12:36:16	 15.08		 14.71		 15.40		 15.14
12:36:17	 14.97		 14.53		 15.40		 14.97
12:36:18	 14.97		 14.53		 15.40		 14.97
12:36:19	 14.97		 14.53		 15.32		 15.06
12:36:20	 15.00		 14.62		 15.23		 15.14
12:36:20	 15.03		 14.62		 15.23		 15.23
12:36:21	 14.97		 14.53		 15.32		 15.06
12:36:22	 14.88		 14.44		 15.23		 14.97
12:36:23	 14.82		 14.36		 15.23		 14.88
12:36:24	 14.82		 14.44		 15.14		 14.88
12:36:25	 14.94		 14.53		 15.23		 15.06
12:36:26	 14.94		 14.62		 15.14		 15.06
12:36:27	 14.94		 14.53		 15.23		 15.06
12:36:28	 14.85		 14.44		 15.23		 14.88
12:36:29	 14.82		 14.36		 15.32		 14.79
12:36:30	 14.79		 14.27		 15.23		 14.88
12:36:30	 14.79		 14.36		 15.14		 14.88
12:36:31	 14.85		 14.44		 15.14		 14.97
12:36:32	 14.91		 14.44		 15.14		 15.14
12:36:33	 14.85		 14.44		 15.14		 14.97
12:36:34	 14.79		 14.36		 15.14		 14.88
12:36:35	 14.76		 14.36		 15.14		 14.79
12:36:36	 14.73		 14.27		 15.14		 14.79
12:36:37	 14.74		 14.36		 15.06		 14.79
12:36:38	 14.85		 14.44		 15.14		 14.97
12:36:39	 14.91		 14.53		 15.14		 15.06
12:36:39	 14.82		 14.44		 15.06		 14.97
12:36:40	 14.82		 14.44		 15.14		 14.88
12:36:41	 14.79		 14.36		 15.23		 14.79
12:36:42	 14.76		 14.27		 15.23		 14.79
12:36:43	 14.76		 14.36		 15.14		 14.79
12:36:44	 14.85		 14.44		 15.14		 14.97
12:36:45	 14.88		 14.53		 15.06		 15.06
12:36:46	 14.91		 14.53		 15.14		 15.06
12:36:47	 14.85		 14.44		 15.14		 14.97
12:36:48	 14.82		 14.44		 15.23		 14.79
12:36:48	 14.82		 14.44		 15.23		 14.79
12:36:49	 14.82		 14.44		 15.14		 14.88
12:36:50	 14.91		 14.53		 15.23		 14.97
12:36:51	 15.00		 14.62		 15.23		 15.14
12:36:52	 14.97		 14.62		 15.23		 15.06
12:36:53	 14.97		 14.53		 15.32		 15.06
12:36:54	 14.94		 14.53		 15.32		 14.97
12:36:55	 14.97		 14.53		 15.40		 14.97
12:36:56	 14.94		 14.44		 15.40		 14.97
12:36:57	 15.00		 14.53		 15.40		 15.06
12:36:57	 15.05		 14.62		 15.40		 15.14
12:36:58	 15.11		 14.71		 15.40		 15.23
12:36:59	 15.14		 14.79		 15.40		 15.23
12:37:00	 15.14		 14.88		 15.32		 15.23
12:37:01	 15.14		 14.79		 15.40		 15.23
12:37:02	 15.11		 14.79		 15.40		 15.14
12:37:03	 15.06		 14.62		 15.49		 15.06
12:37:04	 15.09		 14.71		 15.49		 15.06
12:37:05	 15.14		 14.71		 15.58		 15.14
12:37:06	 15.20		 14.79		 15.49		 15.32
12:37:07	 15.23		 14.88		 15.49		 15.32
12:37:07	 15.29		 14.97		 15.49		 15.40
12:37:08	 15.35		 15.06		 15.58		 15.40
12:37:09	 15.32		 14.97		 15.58		 15.40
12:37:10	 15.29		 14.88		 15.66		 15.32
12:37:11	 15.26		 14.79		 15.75		 15.23
12:37:12	 15.23		 14.79		 15.66		 15.23
12:37:13	 15.32		 14.97		 15.66		 15.32
12:37:14	 15.40		 15.06		 15.66		 15.49
12:37:15	 15.43		 15.06		 15.66		 15.58
12:37:16	 15.46		 15.06		 15.75		 15.58
12:37:16	 15.46		 15.06		 15.75		 15.58
12:37:17	 15.46		 15.06		 15.84		 15.49
12:37:18	 15.40		 14.97		 15.84		 15.40
12:37:19	 15.40		 14.97		 15.84		 15.40
12:37:20	 15.49		 15.14		 15.84		 15.49
12:37:21	 14.97		 13.48		 15.84		 15.58
12:37:22	 15.61		 15.23		 15.84		 15.75
12:37:23	 15.61		 15.32		 15.84		 15.66
12:37:24	 15.58		 15.14		 15.93		 15.66
12:37:25	 15.58		 15.14		 16.01		 15.58
12:37:25	 16.04		 16.71		 15.93		 15.49
12:37:26	 15.55		 15.23		 15.93		 15.49
12:37:27	 15.61		 15.23		 15.93		 15.66
12:37:28	 15.67		 15.32		 15.93		 15.75
12:37:29	 15.72		 15.40		 15.93		 15.84
12:37:30	 15.78		 15.40		 16.01		 15.93
12:37:31	 15.72		 15.40		 16.01		 15.75
12:37:32	 15.69		 15.32		 16.10		 15.66
12:37:33	 15.64		 15.23		 16.10		 15.58
12:37:34	 15.69		 15.32		 16.10		 15.66
12:37:35	 16.27		 16.97		 16.01		 15.84
12:37:35	 15.87		 15.58		 16.10		 15.93
12:37:36	 15.81		 15.49		 16.01		 15.93
12:37:37	 15.78		 15.40		 16.10		 15.84
12:37:38	 15.69		 15.23		 16.19		 15.66
12:37:39	 15.67		 15.06		 16.19		 15.75
12:37:40	 15.81		 15.40		 16.19		 15.84
12:37:41	 15.87		 15.49		 16.10		 16.01
12:37:42	 15.87		 15.49		 16.10		 16.01
12:37:43	 15.87		 15.49		 16.19		 15.93
12:37:44	 15.81		 15.32		 16.27		 15.84
12:37:44	 15.78		 15.40		 16.19		 15.75
12:37:45	 15.90		 15.49		 16.19		 16.01
12:37:46	 15.96		 15.58		 16.19		 16.10
12:37:47	 16.01		 15.66		 16.27		 16.10
12:37:48	 15.37		 13.92		 16.27		 15.93
12:37:49	 15.87		 15.49		 16.27		 15.84
12:37:50	 15.90		 15.49		 16.27		 15.93
12:37:51	 15.98		 15.66		 16.27		 16.01
12:37:52	 16.01		 15.66		 16.19		 16.19
12:37:53	 15.93		 15.32		 16.27		 16.19
12:37:53	 16.01		 15.66		 16.36		 16.01
12:37:54	 15.93		 15.49		 16.36		 15.93
12:37:55	 15.93		 15.49		 16.36		 15.93
12:37:56	 15.90		 15.58		 16.01		 16.10
12:37:57	 16.13		 15.75		 16.36		 16.27
12:37:58	 16.10		 15.75		 16.27		 16.27
12:37:59	 16.04		 15.66		 16.36		 16.10
12:38:00	 16.01		 15.58		 16.45		 16.01
12:38:01	 16.01		 15.58		 16.45		 16.01
12:38:02	 16.04		 15.66		 16.36		 16.10
12:38:03	 16.13		 15.84		 16.27		 16.27
12:38:03	 16.13		 15.75		 16.36		 16.27
12:38:04	 16.13		 15.75		 16.45		 16.19
12:38:05	 16.04		 15.58		 16.45		 16.10
12:38:06	 15.98		 15.58		 16.36		 16.01
12:38:07	 15.98		 15.66		 16.27		 16.01
12:38:08	 16.13		 15.75		 16.36		 16.27
12:38:09	 16.13		 15.75		 16.36		 16.27
12:38:10	 16.10		 15.75		 16.36		 16.19
12:38:11	 16.04		 15.58		 16.45		 16.10
12:38:12	 15.99		 15.58		 16.45		 15.93
12:38:12	 15.98		 15.58		 16.36		 16.01
12:38:13	 16.04		 15.66		 16.36		 16.10
12:38:14	 16.13		 15.84		 16.36		 16.19
12:38:15	 16.13		 15.75		 16.36		 16.27
12:38:16	 16.04		 15.66		 16.36		 16.10
12:38:17	 16.01		 15.58		 16.45		 16.01
12:38:18	 15.93		 15.49		 16.36		 15.93
12:38:19	 15.98		 15.58		 16.36		 16.01
12:38:20	 15.99		 15.58		 16.19		 16.19
12:38:21	 16.04		 15.66		 16.27		 16.19
12:38:21	 16.01		 15.58		 16.36		 16.10
12:38:22	 15.93		 15.49		 16.36		 15.93
12:38:23	 15.90		 15.40		 16.36		 15.93
12:38:24	 15.92		 15.49		 16.27		 16.01
12:38:25	 15.98		 15.58		 16.27		 16.10
12:38:26	 15.98		 15.66		 16.19		 16.10
12:38:27	 15.95		 15.58		 16.27		 16.01
12:38:28	 15.90		 15.49		 16.27		 15.93
12:38:29	 15.87		 15.40		 16.27		 15.93
12:38:30	 15.81		 15.40		 16.19		 15.84
12:38:31	 15.87		 15.49		 16.10		 16.01
12:38:31	 15.96		 15.58		 16.19		 16.10
12:38:32	 15.87		 15.49		 16.10		 16.01
12:38:33	 15.87		 15.49		 16.19		 15.93
12:38:34	 15.75		 15.32		 16.19		 15.75
12:38:35	 15.75		 15.32		 16.19		 15.75
12:38:36	 15.81		 15.40		 16.10		 15.93
12:38:37	 15.87		 15.49		 16.10		 16.01
12:38:38	 15.84		 15.40		 16.10		 16.01
12:38:39	 15.78		 15.40		 16.10		 15.84
12:38:40	 15.72		 15.32		 16.10		 15.75
12:38:40	 15.72		 15.32		 16.10		 15.75
12:38:41	 15.69		 15.23		 16.10		 15.75
12:38:42	 15.75		 15.40		 16.01		 15.84
12:38:43	 15.78		 15.40		 16.01		 15.93
12:38:44	 15.78		 15.40		 16.01		 15.93
12:38:45	 15.72		 15.32		 16.01		 15.84
12:38:46	 15.66		 15.14		 16.10		 15.75
12:38:47	 15.60		 15.14		 16.01		 15.66
12:38:48	 15.66		 15.32		 16.01		 15.66
12:38:49	 15.72		 15.32		 16.01		 15.84
12:38:49	 15.72		 15.23		 16.01		 15.93
12:38:50	 15.70		 15.32		 15.93		 15.84
12:38:51	 15.64		 15.23		 15.93		 15.75
12:38:52	 15.55		 15.14		 16.01		 15.49
12:38:53	 16.01		 15.14		 17.31		 15.58
12:38:54	 15.61		 15.23		 15.93		 15.66
12:38:55	 15.64		 15.23		 15.93		 15.75
12:38:56	 15.67		 15.32		 15.84		 15.84
12:38:57	 15.64		 15.23		 15.93		 15.75
12:38:58	 15.52		 15.14		 15.93		 15.49
12:38:59	 15.52		 15.06		 16.01		 15.49
12:38:59	 15.49		 15.14		 15.75		 15.58
12:39:00	 15.58		 15.23		 15.84		 15.66
12:39:01	 15.58		 15.23		 15.75		 15.75
12:39:02	 15.64		 15.23		 15.93		 15.75
12:39:03	 15.52		 15.06		 15.93		 15.58
12:39:04	 15.46		 15.06		 15.93		 15.40
12:39:05	 15.46		 14.97		 15.93		 15.49
12:39:06	 15.49		 15.06		 15.84		 15.58
12:39:07	 15.55		 15.14		 15.84		 15.66
12:39:08	 15.49		 15.14		 15.66		 15.66
12:39:08	 15.52		 15.14		 15.75		 15.66
12:39:09	 15.46		 15.06		 15.84		 15.49
12:39:10	 15.37		 14.97		 15.75		 15.40
12:39:11	 15.40		 14.97		 15.84		 15.40
12:39:12	 15.40		 14.97		 15.75		 15.49
12:39:13	 15.49		 15.14		 15.66		 15.66
12:39:14	 15.49		 15.14		 15.66		 15.66
12:39:15	 15.46		 15.06		 15.84		 15.49
12:39:16	 15.34		 14.88		 15.75		 15.40
12:39:17	 15.32		 14.88		 15.75		 15.32
