Temperature log started on 12/05/2021 at 14:08:22

Time 		 Average T (C) 	 T0 (C) 	 T1 (C) 	 T2 (C) 
------------------------------------------------------------------------
14:08:22	 14.91		 14.53		 15.23		 14.97
14:08:23	 14.97		 14.62		 15.23		 15.06
14:08:24	 15.06		 14.71		 15.23		 15.23
14:08:25	 15.08		 14.79		 15.23		 15.23
14:08:26	 15.06		 14.71		 15.23		 15.23
14:08:27	 15.06		 14.71		 15.32		 15.14
14:08:28	 15.00		 14.62		 15.32		 15.06
14:08:29	 15.00		 14.62		 15.32		 15.06
14:08:30	 15.00		 14.62		 15.32		 15.06
14:08:30	 15.06		 14.71		 15.32		 15.14
14:08:31	 15.11		 14.79		 15.32		 15.23
14:08:32	 15.20		 14.88		 15.32		 15.40
14:08:33	 15.17		 14.88		 15.32		 15.32
14:08:34	 15.20		 14.88		 15.40		 15.32
14:08:35	 15.14		 14.79		 15.49		 15.14
14:08:36	 15.14		 14.79		 15.49		 15.14
14:08:37	 15.14		 14.79		 15.49		 15.14
14:08:38	 15.17		 14.88		 15.40		 15.23
14:08:39	 15.29		 14.97		 15.49		 15.40
14:08:39	 15.32		 14.97		 15.49		 15.49
14:08:40	 15.35		 15.06		 15.49		 15.49
14:08:41	 15.29		 14.97		 15.49		 15.40
14:08:42	 15.26		 14.88		 15.58		 15.32
14:08:43	 15.23		 14.88		 15.58		 15.23
14:08:44	 15.29		 14.97		 15.58		 15.32
14:08:45	 15.32		 14.97		 15.58		 15.40
14:08:46	 15.38		 15.06		 15.58		 15.49
14:08:47	 15.43		 15.14		 15.58		 15.58
14:08:48	 15.43		 15.14		 15.58		 15.58
14:08:48	 15.43		 15.06		 15.66		 15.58
14:08:49	 15.43		 15.06		 15.75		 15.49
14:08:50	 15.37		 14.97		 15.75		 15.40
14:08:51	 15.37		 14.97		 15.75		 15.40
14:08:52	 15.40		 15.06		 15.75		 15.40
14:08:53	 15.43		 15.06		 15.75		 15.49
14:08:54	 15.52		 15.23		 15.66		 15.66
14:08:55	 15.55		 15.23		 15.75		 15.66
14:08:56	 15.58		 15.23		 15.75		 15.75
14:08:57	 15.61		 15.32		 15.75		 15.75
14:08:57	 15.58		 15.23		 15.84		 15.66
14:08:58	 15.55		 15.23		 15.84		 15.58
14:08:59	 15.55		 15.14		 15.93		 15.58
14:09:00	 15.52		 15.14		 15.84		 15.58
14:09:01	 15.52		 15.14		 15.84		 15.58
14:09:02	 15.61		 15.32		 15.84		 15.66
14:09:03	 15.67		 15.32		 15.84		 15.84
14:09:04	 15.72		 15.40		 15.84		 15.93
14:09:05	 15.75		 15.49		 15.84		 15.93
14:09:06	 15.72		 15.40		 15.93		 15.84
14:09:07	 15.67		 15.32		 15.93		 15.75
14:09:07	 15.66		 15.32		 16.01		 15.66
14:09:08	 15.66		 15.32		 16.01		 15.66
14:09:09	 15.69		 15.32		 16.01		 15.75
14:09:10	 15.75		 15.40		 16.01		 15.84
14:09:11	 15.81		 15.49		 16.01		 15.93
14:09:12	 15.84		 15.58		 15.93		 16.01
14:09:13	 15.87		 15.58		 16.01		 16.01
14:09:14	 15.84		 15.49		 16.01		 16.01
14:09:15	 15.81		 15.40		 16.10		 15.93
14:09:16	 15.78		 15.40		 16.10		 15.84
14:09:16	 15.81		 15.40		 16.19		 15.84
14:09:17	 15.81		 15.49		 16.10		 15.84
14:09:18	 15.84		 15.49		 16.10		 15.93
14:09:19	 15.93		 15.58		 16.10		 16.10
14:09:20	 15.95		 15.66		 16.10		 16.10
14:09:21	 15.95		 15.66		 16.10		 16.10
14:09:22	 15.98		 15.66		 16.19		 16.10
14:09:23	 15.93		 15.58		 16.19		 16.01
14:09:24	 15.90		 15.58		 16.19		 15.93
14:09:25	 15.90		 15.49		 16.27		 15.93
14:09:26	 15.95		 15.58		 16.27		 16.01
14:09:26	 15.98		 15.66		 16.19		 16.10
14:09:27	 16.04		 15.75		 16.19		 16.19
14:09:28	 16.07		 15.75		 16.19		 16.27
14:09:29	 16.10		 15.75		 16.27		 16.27
14:09:30	 16.07		 15.75		 16.27		 16.19
14:09:31	 16.01		 15.66		 16.27		 16.10
14:09:32	 16.04		 15.66		 16.36		 16.10
14:09:33	 16.01		 15.66		 16.36		 16.01
14:09:34	 16.04		 15.66		 16.36		 16.10
14:09:35	 16.07		 15.75		 16.36		 16.10
14:09:35	 16.16		 15.84		 16.36		 16.27
14:09:36	 16.22		 15.93		 16.36		 16.36
14:09:37	 16.22		 15.93		 16.36		 16.36
14:09:38	 16.25		 15.93		 16.36		 16.45
14:09:39	 16.22		 15.84		 16.45		 16.36
14:09:40	 16.13		 15.75		 16.45		 16.19
14:09:41	 16.13		 15.75		 16.45		 16.19
14:09:42	 16.16		 15.84		 16.45		 16.19
14:09:43	 16.19		 15.84		 16.45		 16.27
14:09:44	 16.25		 15.93		 16.45		 16.36
14:09:44	 16.30		 16.01		 16.45		 16.45
14:09:45	 16.33		 16.01		 16.45		 16.53
14:09:46	 16.33		 16.01		 16.53		 16.45
14:09:47	 16.30		 15.93		 16.53		 16.45
14:09:48	 16.21		 15.84		 16.53		 16.27
14:09:49	 16.22		 15.84		 16.62		 16.19
14:09:50	 16.27		 15.93		 16.62		 16.27
14:09:51	 16.33		 16.01		 16.53		 16.45
14:09:52	 16.39		 16.10		 16.53		 16.53
14:09:53	 16.42		 16.10		 16.53		 16.62
14:09:53	 16.42		 16.10		 16.53		 16.62
14:09:54	 16.39		 16.01		 16.62		 16.53
14:09:55	 16.36		 16.01		 16.71		 16.36
14:09:56	 16.36		 16.01		 16.71		 16.36
14:09:57	 16.36		 16.01		 16.71		 16.36
14:09:58	 16.42		 16.10		 16.62		 16.53
14:09:59	 16.48		 16.19		 16.62		 16.62
14:10:00	 16.51		 16.19		 16.62		 16.71
14:10:01	 16.56		 16.27		 16.71		 16.71
14:10:02	 16.51		 16.19		 16.71		 16.62
14:10:03	 16.47		 16.10		 16.79		 16.53
14:10:03	 16.44		 16.01		 16.79		 16.53
14:10:04	 16.45		 16.10		 16.79		 16.45
14:10:05	 16.45		 16.10		 16.71		 16.53
14:10:06	 16.53		 16.19		 16.79		 16.62
14:10:07	 16.56		 16.27		 16.71		 16.71
14:10:08	 16.62		 16.36		 16.71		 16.79
14:10:09	 16.65		 16.36		 16.79		 16.79
14:10:10	 16.65		 16.36		 16.79		 16.79
14:10:11	 16.59		 16.27		 16.79		 16.71
14:10:12	 16.56		 16.19		 16.88		 16.62
14:10:12	 16.56		 16.19		 16.88		 16.62
14:10:13	 16.53		 16.19		 16.88		 16.53
14:10:14	 16.62		 16.27		 16.88		 16.71
14:10:15	 16.65		 16.36		 16.79		 16.79
14:10:16	 16.74		 16.45		 16.88		 16.88
14:10:17	 16.74		 16.45		 16.88		 16.88
14:10:18	 16.74		 16.45		 16.88		 16.88
14:10:19	 16.71		 16.36		 16.97		 16.79
14:10:20	 16.65		 16.27		 16.97		 16.71
14:10:21	 16.65		 16.27		 16.97		 16.71
14:10:21	 16.65		 16.27		 16.97		 16.71
14:10:22	 16.68		 16.36		 16.97		 16.71
14:10:23	 16.77		 16.45		 16.97		 16.88
14:10:24	 16.82		 16.53		 16.97		 16.97
14:10:25	 16.85		 16.53		 16.97		 17.05
14:10:26	 16.85		 16.53		 17.05		 16.97
14:10:27	 16.79		 16.45		 17.05		 16.88
14:10:28	 16.73		 16.36		 17.05		 16.79
14:10:29	 16.71		 16.36		 17.05		 16.71
14:10:30	 16.79		 16.45		 17.05		 16.88
14:10:31	 16.85		 16.53		 17.05		 16.97
