Temperature log started on 18/05/2021 at 15:08:19

Time 		 Average T (C) 	 T0 (C) 	 T1 (C) 	 T2 (C) 
------------------------------------------------------------------------
15:08:20	 19.70		 19.38		 19.98		 19.73
15:08:21	 19.64		 19.30		 19.98		 19.64
15:08:22	 19.64		 19.38		 19.90		 19.64
15:08:23	 19.70		 19.30		 19.90		 19.90
15:08:23	 19.75		 19.38		 19.81		 20.07
15:08:24	 19.70		 19.38		 19.81		 19.90
15:08:25	 19.67		 19.30		 19.98		 19.73
15:08:26	 19.49		 19.12		 19.81		 19.55
15:08:27	 19.47		 19.12		 19.81		 19.47
15:08:28	 19.52		 19.12		 19.81		 19.64
15:08:29	 19.58		 19.21		 19.73		 19.81
15:08:30	 19.53		 19.30		 19.55		 19.73
15:08:31	 19.50		 19.12		 19.73		 19.64
15:08:32	 19.32		 18.95		 19.64		 19.38
15:08:32	 19.24		 18.78		 19.64		 19.30
15:08:33	 19.12		 18.69		 19.47		 19.21
15:08:34	 19.07		 18.69		 19.21		 19.30
15:08:35	 19.24		 18.86		 19.38		 19.47
15:08:36	 19.15		 18.78		 19.21		 19.47
15:08:37	 19.04		 18.69		 19.21		 19.21
15:08:38	 18.89		 18.43		 19.21		 19.04
15:08:39	 18.72		 18.26		 19.12		 18.78
15:08:40	 18.72		 18.26		 19.04		 18.86
15:08:41	 18.69		 18.26		 18.86		 18.95
15:08:42	 18.63		 18.26		 18.78		 18.86
15:08:42	 18.58		 18.17		 18.78		 18.78
15:08:43	 18.32		 17.92		 18.61		 18.43
15:08:44	 18.20		 17.83		 18.52		 18.26
15:08:45	 18.12		 17.66		 18.43		 18.26
15:08:46	 18.15		 17.74		 18.35		 18.35
15:08:47	 18.03		 17.57		 18.17		 18.35
15:08:48	 18.00		 17.57		 18.09		 18.35
15:08:49	 17.89		 17.48		 18.09		 18.09
15:08:50	 17.68		 17.22		 18.09		 17.74
15:08:51	 17.51		 17.05		 17.83		 17.66
15:08:51	 17.48		 17.05		 17.83		 17.57
15:08:52	 17.40		 16.88		 17.66		 17.66
15:08:53	 17.34		 16.88		 17.57		 17.57
15:08:54	 17.25		 16.79		 17.40		 17.57
15:08:55	 17.08		 16.62		 17.31		 17.31
15:08:56	 16.91		 16.45		 17.22		 17.05
15:08:57	 16.76		 16.27		 17.14		 16.88
15:08:58	 16.56		 16.10		 16.88		 16.71
15:08:59	 16.59		 16.10		 16.88		 16.79
15:09:00	 16.50		 16.01		 16.71		 16.79
15:09:00	 16.42		 16.01		 16.53		 16.71
15:09:01	 16.24		 15.75		 16.36		 16.62
15:09:02	 16.13		 15.66		 16.45		 16.27
15:09:03	 16.01		 15.49		 16.36		 16.19
15:09:04	 15.81		 15.32		 16.19		 15.93
15:09:05	 15.72		 15.23		 16.01		 15.93
15:09:06	 15.64		 15.14		 15.84		 15.93
15:09:07	 15.64		 15.23		 15.75		 15.93
15:09:08	 15.49		 15.06		 15.58		 15.84
15:09:09	 15.32		 14.88		 15.58		 15.49
15:09:10	 15.20		 14.71		 15.49		 15.40
15:09:10	 15.05		 14.53		 15.40		 15.23
15:09:11	 14.97		 14.44		 15.32		 15.14
15:09:12	 14.83		 14.36		 15.06		 15.06
15:09:13	 14.77		 14.36		 14.97		 14.97
15:09:14	 14.71		 14.18		 14.88		 15.06
15:09:15	 14.56		 14.09		 14.71		 14.88
15:09:16	 14.48		 14.01		 14.71		 14.71
15:09:17	 14.33		 13.83		 14.62		 14.53
15:09:18	 14.15		 13.66		 14.44		 14.36
15:09:19	 14.12		 13.57		 14.44		 14.36
15:09:19	 13.98		 13.48		 14.27		 14.18
15:09:20	 13.89		 13.48		 14.09		 14.09
15:09:21	 13.83		 13.39		 14.01		 14.09
15:09:22	 13.80		 13.39		 13.92		 14.09
15:09:23	 13.68		 13.30		 13.74		 14.01
15:09:24	 13.63		 13.22		 13.83		 13.83
15:09:25	 13.45		 12.95		 13.74		 13.66
15:09:26	 13.36		 12.95		 13.66		 13.48
15:09:27	 13.25		 12.69		 13.66		 13.39
15:09:28	 13.16		 12.69		 13.39		 13.39
15:09:28	 13.13		 12.69		 13.39		 13.30
15:09:29	 13.10		 12.69		 13.39		 13.22
15:09:30	 13.04		 12.60		 13.13		 13.39
15:09:31	 12.98		 12.51		 13.22		 13.22
15:09:32	 12.83		 12.42		 13.04		 13.04
15:09:33	 12.80		 12.33		 13.04		 13.04
15:09:34	 12.66		 12.16		 12.95		 12.86
15:09:35	 12.60		 12.16		 12.86		 12.78
15:09:36	 12.63		 12.24		 12.95		 12.69
15:09:37	 12.51		 12.07		 12.78		 12.69
15:09:38	 12.57		 12.16		 12.78		 12.78
15:09:38	 12.51		 12.16		 12.69		 12.69
15:09:39	 12.39		 12.07		 12.60		 12.51
15:09:40	 12.36		 11.98		 12.51		 12.60
15:09:41	 12.36		 11.98		 12.60		 12.51
15:09:42	 12.30		 11.89		 12.60		 12.42
15:09:43	 12.18		 11.80		 12.51		 12.24
15:09:44	 12.15		 11.71		 12.42		 12.33
15:09:45	 12.15		 11.80		 12.33		 12.33
15:09:46	 12.18		 11.80		 12.33		 12.42
15:09:47	 12.18		 11.89		 12.33		 12.33
15:09:47	 12.12		 11.80		 12.24		 12.33
15:09:48	 12.09		 11.71		 12.33		 12.24
15:09:49	 12.10		 11.71		 12.42		 12.16
15:09:50	 12.07		 11.71		 12.33		 12.16
15:09:51	 12.04		 11.62		 12.33		 12.16
15:09:52	 12.06		 11.71		 12.24		 12.24
15:09:53	 12.09		 11.71		 12.24		 12.33
15:09:54	 12.12		 11.80		 12.33		 12.24
15:09:55	 12.09		 11.71		 12.33		 12.24
15:09:56	 12.07		 11.62		 12.42		 12.16
15:09:56	 12.07		 11.62		 12.42		 12.16
15:09:57	 12.10		 11.71		 12.42		 12.16
15:09:58	 12.09		 11.71		 12.33		 12.24
15:09:59	 12.15		 11.80		 12.33		 12.33
15:10:00	 12.18		 11.98		 12.24		 12.33
15:10:01	 12.27		 11.98		 12.51		 12.33
15:10:02	 12.27		 11.89		 12.51		 12.42
15:10:03	 12.24		 11.89		 12.51		 12.33
15:10:04	 12.21		 11.89		 12.51		 12.24
15:10:05	 12.21		 11.89		 12.51		 12.24
15:10:06	 12.27		 11.89		 12.51		 12.42
15:10:06	 12.36		 12.07		 12.51		 12.51
15:10:07	 12.39		 12.07		 12.60		 12.51
15:10:08	 12.42		 12.07		 12.60		 12.60
15:10:09	 12.39		 12.07		 12.60		 12.51
15:10:10	 12.42		 12.07		 12.69		 12.51
15:10:11	 12.39		 12.07		 12.69		 12.42
15:10:12	 12.45		 12.24		 12.60		 12.51
15:10:13	 12.57		 12.24		 12.78		 12.69
15:10:14	 12.63		 12.33		 12.78		 12.78
15:10:15	 12.60		 12.24		 12.78		 12.78
15:10:15	 12.63		 12.24		 12.86		 12.78
15:10:16	 12.57		 12.24		 12.78		 12.69
15:10:17	 12.60		 12.24		 12.86		 12.69
15:10:18	 12.60		 12.24		 12.86		 12.69
15:10:19	 12.69		 12.42		 12.86		 12.78
15:10:20	 12.77		 12.42		 12.95		 12.95
15:10:21	 12.77		 12.42		 12.95		 12.95
15:10:22	 12.80		 12.51		 12.95		 12.95
15:10:23	 12.83		 12.51		 13.04		 12.95
15:10:24	 12.83		 12.51		 13.13		 12.86
15:10:24	 12.80		 12.42		 13.13		 12.86
15:10:25	 12.86		 12.51		 13.13		 12.95
15:10:26	 12.92		 12.60		 13.13		 13.04
15:10:27	 13.04		 12.78		 13.22		 13.13
15:10:28	 12.98		 12.60		 13.13		 13.22
15:10:29	 13.01		 12.69		 13.22		 13.13
15:10:30	 13.01		 12.69		 13.30		 13.04
15:10:31	 12.98		 12.60		 13.30		 13.04
15:10:32	 13.04		 12.69		 13.30		 13.13
15:10:33	 13.10		 12.78		 13.30		 13.22
15:10:34	 13.16		 12.78		 13.30		 13.39
15:10:34	 13.21		 12.86		 13.39		 13.39
15:10:35	 13.21		 12.86		 13.48		 13.30
15:10:36	 13.19		 12.86		 13.48		 13.22
15:10:37	 13.19		 12.78		 13.48		 13.30
15:10:38	 13.24		 12.86		 13.48		 13.39
15:10:39	 13.33		 13.04		 13.48		 13.48
15:10:40	 13.30		 13.04		 13.48		 13.39
15:10:41	 13.36		 13.04		 13.57		 13.48
15:10:42	 13.33		 12.95		 13.66		 13.39
15:10:43	 13.33		 12.95		 13.66		 13.39
15:10:43	 13.33		 12.95		 13.57		 13.48
15:10:44	 13.45		 13.13		 13.66		 13.57
15:10:45	 13.48		 13.22		 13.57		 13.66
15:10:46	 13.51		 13.30		 13.66		 13.57
15:10:47	 13.51		 13.22		 13.74		 13.57
15:10:48	 13.48		 13.13		 13.83		 13.48
15:10:49	 13.48		 13.22		 13.74		 13.48
15:10:50	 13.62		 13.30		 13.83		 13.74
15:10:51	 13.65		 13.39		 13.83		 13.74
15:10:52	 13.71		 13.39		 13.92		 13.83
15:10:52	 13.63		 13.30		 13.92		 13.66
15:10:53	 13.63		 13.30		 13.92		 13.66
15:10:54	 13.63		 13.30		 13.92		 13.66
15:10:55	 13.71		 13.39		 13.92		 13.83
15:10:56	 13.74		 13.48		 13.83		 13.92
15:10:57	 13.83		 13.48		 14.09		 13.92
15:10:58	 13.74		 13.39		 14.01		 13.83
15:10:59	 13.71		 13.39		 14.01		 13.74
15:11:00	 13.83		 13.48		 14.09		 13.92
15:11:01	 13.86		 13.57		 14.01		 14.01
15:11:02	 13.92		 13.66		 14.09		 14.01
15:11:02	 13.92		 13.66		 14.09		 14.01
15:11:03	 13.89		 13.57		 14.18		 13.92
15:11:04	 13.89		 13.57		 14.18		 13.92
15:11:05	 13.95		 13.57		 14.18		 14.09
15:11:06	 13.98		 13.66		 14.09		 14.18
15:11:07	 14.06		 13.74		 14.27		 14.18
15:11:08	 14.01		 13.66		 14.27		 14.09
15:11:09	 14.01		 13.66		 14.36		 14.01
15:11:10	 13.98		 13.66		 14.27		 14.01
15:11:11	 14.12		 13.74		 14.36		 14.27
15:11:11	 14.12		 13.83		 14.27		 14.27
15:11:12	 14.18		 13.83		 14.36		 14.36
15:11:13	 14.12		 13.83		 14.36		 14.18
15:11:14	 14.12		 13.83		 14.44		 14.09
15:11:15	 14.18		 13.74		 14.53		 14.27
15:11:16	 14.21		 13.92		 14.36		 14.36
15:11:17	 14.27		 13.92		 14.44		 14.44
15:11:18	 14.30		 13.92		 14.53		 14.44
15:11:19	 14.24		 13.92		 14.53		 14.27
15:11:20	 14.21		 13.83		 14.53		 14.27
15:11:20	 14.27		 14.01		 14.44		 14.36
15:11:21	 14.36		 14.01		 14.53		 14.53
15:11:22	 14.44		 14.09		 14.62		 14.62
15:11:23	 14.41		 14.09		 14.62		 14.53
15:11:24	 14.36		 14.01		 14.71		 14.36
15:11:25	 14.36		 13.92		 14.62		 14.53
15:11:26	 14.44		 14.09		 14.62		 14.62
15:11:27	 14.53		 14.27		 14.71		 14.62
15:11:28	 14.53		 14.18		 14.79		 14.62
15:11:29	 14.47		 14.18		 14.71		 14.53
15:11:30	 14.47		 14.09		 14.79		 14.53
15:11:30	 14.53		 14.18		 14.79		 14.62
15:11:31	 14.62		 14.27		 14.79		 14.79
15:11:32	 14.68		 14.36		 14.88		 14.79
15:11:33	 14.59		 14.27		 14.88		 14.62
15:11:34	 14.59		 14.18		 14.97		 14.62
15:11:35	 14.62		 14.27		 14.79		 14.79
15:11:36	 14.70		 14.44		 14.79		 14.88
15:11:37	 14.70		 14.44		 14.88		 14.79
15:11:38	 14.68		 14.36		 14.97		 14.71
15:11:39	 14.68		 14.27		 14.97		 14.79
15:11:39	 14.79		 14.44		 14.97		 14.97
15:11:40	 14.76		 14.44		 14.88		 14.97
15:11:41	 14.76		 14.44		 15.06		 14.79
15:11:42	 14.71		 14.36		 14.97		 14.79
15:11:43	 14.79		 14.44		 15.06		 14.88
15:11:44	 14.85		 14.53		 15.06		 14.97
15:11:45	 14.88		 14.62		 15.06		 14.97
15:11:46	 14.79		 14.44		 15.06		 14.88
15:11:47	 14.82		 14.44		 15.14		 14.88
15:11:48	 14.88		 14.53		 15.06		 15.06
15:11:48	 14.97		 14.62		 15.14		 15.14
15:11:49	 15.00		 14.71		 15.14		 15.14
15:11:50	 14.94		 14.62		 15.23		 14.97
15:11:51	 14.91		 14.53		 15.23		 14.97
15:11:52	 15.00		 14.62		 15.23		 15.14
15:11:53	 15.05		 14.79		 15.14		 15.23
15:11:54	 15.08		 14.79		 15.23		 15.23
15:11:55	 15.03		 14.71		 15.32		 15.06
15:11:56	 15.03		 14.62		 15.40		 15.06
15:11:57	 15.06		 14.71		 15.32		 15.14
15:11:57	 15.14		 14.79		 15.32		 15.32
15:11:58	 15.17		 14.88		 15.32		 15.32
15:11:59	 15.11		 14.79		 15.40		 15.14
15:12:00	 15.11		 14.71		 15.49		 15.14
15:12:01	 15.20		 14.79		 15.49		 15.32
15:12:02	 15.26		 14.97		 15.40		 15.40
15:12:03	 15.26		 14.97		 15.40		 15.40
15:12:04	 15.20		 14.88		 15.49		 15.23
15:12:05	 15.20		 14.79		 15.58		 15.23
15:12:06	 15.29		 14.97		 15.49		 15.40
15:12:07	 15.26		 14.97		 15.40		 15.40
15:12:07	 15.35		 15.06		 15.49		 15.49
15:12:08	 15.32		 14.97		 15.58		 15.40
15:12:09	 15.23		 14.97		 15.49		 15.23
15:12:10	 15.32		 14.97		 15.58		 15.40
15:12:11	 15.41		 15.06		 15.58		 15.58
15:12:12	 15.43		 15.14		 15.58		 15.58
15:12:13	 15.40		 15.14		 15.66		 15.40
15:12:14	 15.37		 15.06		 15.66		 15.40
15:12:15	 15.40		 15.06		 15.66		 15.49
15:12:16	 15.49		 15.14		 15.75		 15.58
15:12:16	 15.52		 15.23		 15.66		 15.66
15:12:17	 15.55		 15.23		 15.75		 15.66
15:12:18	 15.43		 15.06		 15.75		 15.49
15:12:19	 15.43		 15.06		 15.75		 15.49
15:12:20	 15.49		 15.14		 15.75		 15.58
15:12:21	 15.58		 15.32		 15.66		 15.75
15:12:22	 15.64		 15.32		 15.84		 15.75
15:12:23	 15.58		 15.23		 15.84		 15.66
15:12:24	 15.49		 15.14		 15.84		 15.49
15:12:25	 15.58		 15.23		 15.84		 15.66
15:12:25	 15.69		 15.40		 15.84		 15.84
15:12:26	 15.69		 15.40		 15.93		 15.75
15:12:27	 15.58		 15.23		 15.93		 15.58
15:12:28	 15.69		 15.32		 16.01		 15.75
15:12:29	 15.69		 15.40		 15.93		 15.75
15:12:30	 15.78		 15.49		 15.93		 15.93
15:12:31	 15.72		 15.40		 15.93		 15.84
15:12:32	 15.69		 15.32		 16.01		 15.75
15:12:33	 15.72		 15.40		 16.01		 15.75
15:12:34	 15.75		 15.40		 15.93		 15.93
15:12:35	 15.87		 15.58		 16.01		 16.01
15:12:35	 15.78		 15.49		 16.01		 15.84
15:12:36	 15.75		 15.40		 16.10		 15.75
15:12:37	 15.78		 15.40		 16.01		 15.93
15:12:38	 15.90		 15.58		 16.01		 16.10
15:12:39	 15.87		 15.58		 16.01		 16.01
15:12:40	 15.84		 15.49		 16.10		 15.93
15:12:41	 15.87		 15.49		 16.19		 15.93
15:12:42	 15.92		 15.66		 16.01		 16.10
15:12:43	 16.04		 15.75		 16.19		 16.19
15:12:44	 15.95		 15.66		 16.19		 16.01
15:12:44	 15.90		 15.58		 16.19		 15.93
15:12:45	 15.95		 15.66		 16.27		 15.93
15:12:46	 16.04		 15.75		 16.19		 16.19
15:12:47	 16.04		 15.84		 16.10		 16.19
15:12:48	 16.01		 15.66		 16.27		 16.10
15:12:49	 15.93		 15.58		 16.27		 15.93
15:12:50	 16.04		 15.66		 16.27		 16.19
15:12:51	 16.16		 15.84		 16.27		 16.36
15:12:52	 16.10		 15.84		 16.27		 16.19
15:12:53	 16.04		 15.66		 16.36		 16.10
15:12:53	 16.04		 15.75		 16.36		 16.01
15:12:54	 16.13		 15.84		 16.27		 16.27
15:12:55	 16.19		 15.84		 16.27		 16.45
15:12:56	 16.19		 15.84		 16.45		 16.27
15:12:57	 16.13		 15.75		 16.45		 16.19
15:12:58	 16.10		 15.75		 16.36		 16.19
15:12:59	 16.25		 15.93		 16.36		 16.45
15:13:00	 16.28		 15.93		 16.45		 16.45
15:13:01	 16.25		 15.93		 16.45		 16.36
15:13:02	 16.16		 15.75		 16.53		 16.19
15:13:03	 16.21		 15.84		 16.53		 16.27
15:13:03	 16.30		 16.01		 16.45		 16.45
15:13:04	 16.99		 18.00		 16.45		 16.53
15:13:05	 16.30		 16.01		 16.45		 16.45
15:13:06	 16.24		 15.93		 16.53		 16.27
15:13:07	 16.27		 15.93		 16.53		 16.36
15:13:08	 16.33		 16.01		 16.53		 16.45
15:13:09	 16.36		 16.10		 16.45		 16.53
15:13:10	 16.33		 16.01		 16.53		 16.45
15:13:11	 16.30		 16.01		 16.62		 16.27
15:13:12	 16.30		 16.01		 16.53		 16.36
15:13:12	 16.36		 16.10		 16.53		 16.45
15:13:13	 16.39		 16.10		 16.45		 16.62
15:13:14	 16.33		 16.01		 16.53		 16.45
15:13:15	 16.33		 15.93		 16.62		 16.45
15:13:16	 16.30		 15.93		 16.62		 16.36
15:13:17	 16.36		 16.01		 16.53		 16.53
15:13:18	 16.42		 16.10		 16.53		 16.62
15:13:19	 16.39		 16.10		 16.53		 16.53
15:13:20	 16.30		 15.93		 16.62		 16.36
15:13:21	 16.30		 15.93		 16.62		 16.36
15:13:21	 16.36		 15.93		 16.62		 16.53
15:13:22	 16.39		 16.01		 16.53		 16.62
15:13:23	 16.45		 16.10		 16.62		 16.62
15:13:24	 16.30		 15.93		 16.62		 16.36
15:13:25	 16.21		 15.84		 16.53		 16.27
15:13:26	 16.24		 15.84		 16.53		 16.36
15:13:27	 16.28		 15.93		 16.45		 16.45
15:13:28	 16.36		 16.01		 16.53		 16.53
15:13:29	 16.36		 16.01		 16.53		 16.53
15:13:30	 16.21		 15.84		 16.53		 16.27
15:13:31	 16.19		 15.84		 16.45		 16.27
15:13:31	 16.19		 15.84		 16.45		 16.27
15:13:32	 16.22		 15.84		 16.45		 16.36
15:13:33	 16.25		 15.93		 16.36		 16.45
15:13:34	 16.22		 15.84		 16.36		 16.45
15:13:35	 16.16		 15.75		 16.45		 16.27
15:13:36	 16.13		 15.75		 16.45		 16.19
15:13:37	 16.10		 15.66		 16.45		 16.19
15:13:38	 16.24		 16.10		 16.27		 16.36
15:13:39	 16.16		 15.84		 16.27		 16.36
15:13:40	 16.13		 15.75		 16.27		 16.36
15:13:40	 16.10		 15.75		 16.36		 16.19
15:13:41	 15.93		 15.58		 16.27		 15.93
15:13:42	 15.98		 15.58		 16.36		 16.01
15:13:43	 15.98		 15.66		 16.19		 16.10
15:13:44	 15.98		 15.66		 16.10		 16.19
15:13:45	 15.98		 15.66		 16.10		 16.19
15:13:46	 15.96		 15.58		 16.19		 16.10
15:13:47	 15.84		 15.49		 16.10		 15.93
15:13:48	 15.75		 15.40		 16.01		 15.84
15:13:49	 15.84		 15.49		 16.10		 15.93
15:13:49	 15.87		 15.49		 16.10		 16.01
15:13:50	 15.90		 15.58		 16.01		 16.10
15:13:51	 15.84		 15.49		 16.01		 16.01
15:13:52	 15.75		 15.40		 16.01		 15.84
15:13:53	 15.72		 15.32		 16.10		 15.75
15:13:54	 15.66		 15.23		 16.01		 15.75
15:13:55	 15.72		 15.40		 15.93		 15.84
15:13:56	 15.73		 15.32		 15.93		 15.93
15:13:57	 15.69		 15.40		 15.84		 15.84
15:13:58	 15.67		 15.32		 15.93		 15.75
15:13:59	 15.52		 15.14		 15.84		 15.58
15:13:59	 15.55		 15.06		 15.93		 15.66
15:14:00	 15.52		 15.14		 15.75		 15.66
15:14:01	 15.61		 15.32		 15.66		 15.84
15:14:02	 15.55		 15.23		 15.66		 15.75
15:14:03	 15.43		 15.14		 15.66		 15.49
15:14:04	 15.43		 15.06		 15.75		 15.49
15:14:05	 15.37		 14.97		 15.66		 15.49
15:14:06	 15.41		 15.06		 15.58		 15.58
15:14:07	 15.49		 15.14		 15.66		 15.66
15:14:08	 15.43		 15.14		 15.58		 15.58
15:14:08	 15.32		 14.97		 15.58		 15.40
15:14:09	 15.26		 14.88		 15.58		 15.32
15:14:10	 15.32		 14.97		 15.58		 15.40
15:14:11	 15.35		 14.97		 15.49		 15.58
15:14:12	 15.38		 15.06		 15.49		 15.58
15:14:13	 15.29		 14.97		 15.49		 15.40
15:14:14	 15.86		 14.79		 15.49		 17.31
15:14:15	 14.50		 14.79		 15.49		 13.22
15:14:16	 15.23		 14.79		 15.49		 15.40
15:14:17	 15.26		 14.88		 15.40		 15.49
15:14:17	 15.23		 14.88		 15.40		 15.40
15:14:18	 15.14		 14.79		 15.40		 15.23
15:14:19	 15.11		 14.71		 15.49		 15.14
15:14:20	 15.06		 14.71		 15.32		 15.14
15:14:21	 15.12		 14.71		 15.32		 15.32
15:14:22	 15.14		 14.88		 15.23		 15.32
15:14:23	 15.11		 14.79		 15.32		 15.23
15:14:24	 15.00		 14.62		 15.32		 15.06
15:14:25	 15.08		 14.53		 15.23		 15.49
15:14:26	 14.97		 14.62		 15.23		 15.06
15:14:27	 15.06		 14.71		 15.23		 15.23
15:14:27	 15.03		 14.62		 15.23		 15.23
15:14:28	 15.00		 14.62		 15.23		 15.14
15:14:29	 14.88		 14.44		 15.23		 14.97
15:14:30	 14.88		 14.44		 15.23		 14.97
15:14:31	 14.94		 14.62		 15.14		 15.06
15:14:32	 14.94		 14.62		 15.06		 15.14
15:14:33	 15.00		 14.71		 15.14		 15.14
15:14:34	 14.91		 14.53		 15.14		 15.06
15:14:35	 14.82		 14.44		 15.14		 14.88
15:14:36	 14.82		 14.44		 15.14		 14.88
15:14:36	 14.82		 14.44		 15.14		 14.88
15:14:37	 14.85		 14.53		 14.97		 15.06
15:14:38	 14.91		 14.53		 15.06		 15.14
15:14:39	 14.85		 14.44		 15.06		 15.06
15:14:40	 14.79		 14.44		 15.06		 14.88
15:14:41	 14.79		 14.44		 15.06		 14.88
15:14:42	 14.82		 14.44		 15.06		 14.97
15:14:43	 14.88		 14.53		 15.06		 15.06
15:14:44	 14.88		 14.62		 14.97		 15.06
15:14:45	 14.82		 14.53		 14.97		 14.97
15:14:45	 14.77		 14.36		 15.06		 14.88
15:14:46	 14.76		 14.44		 15.06		 14.79
15:14:47	 14.82		 14.44		 15.06		 14.97
15:14:48	 14.85		 14.53		 15.06		 14.97
15:14:49	 14.94		 14.62		 15.06		 15.14
15:14:50	 14.85		 14.53		 15.06		 14.97
15:14:51	 14.79		 14.44		 15.06		 14.88
15:14:52	 14.88		 14.44		 15.14		 15.06
15:14:53	 14.79		 14.44		 15.06		 14.88
15:14:54	 14.91		 14.62		 15.06		 15.06
15:14:54	 14.97		 14.71		 15.06		 15.14
15:14:55	 14.91		 14.62		 15.06		 15.06
15:14:56	 15.60		 14.62		 15.14		 17.05
15:14:57	 14.88		 14.53		 15.23		 14.88
15:14:58	 14.88		 14.53		 15.14		 14.97
15:14:59	 15.00		 14.71		 15.14		 15.14
15:15:00	 15.03		 14.71		 15.14		 15.23
15:15:01	 15.03		 14.71		 15.23		 15.14
15:15:02	 14.97		 14.53		 15.32		 15.06
15:15:03	 14.97		 14.62		 15.32		 14.97
15:15:04	 15.03		 14.71		 15.32		 15.06
15:15:04	 15.11		 14.79		 15.32		 15.23
15:15:05	 15.14		 14.79		 15.23		 15.40
15:15:06	 15.11		 14.79		 15.32		 15.23
15:15:07	 15.09		 14.71		 15.32		 15.23
15:15:08	 15.08		 14.71		 15.40		 15.14
15:15:09	 15.08		 14.71		 15.40		 15.14
15:15:10	 15.17		 14.88		 15.32		 15.32
15:15:11	 15.23		 14.97		 15.32		 15.40
15:15:12	 15.29		 14.97		 15.49		 15.40
15:15:13	 15.23		 14.88		 15.49		 15.32
15:15:13	 15.20		 14.88		 15.49		 15.23
15:15:14	 15.23		 14.88		 15.49		 15.32
15:15:15	 15.29		 14.97		 15.49		 15.40
15:15:16	 15.35		 15.06		 15.49		 15.49
15:15:17	 15.40		 15.14		 15.49		 15.58
15:15:18	 15.23		 15.06		 15.58		 15.06
15:15:19	 15.32		 14.97		 15.66		 15.32
15:15:20	 15.29		 14.88		 15.66		 15.32
15:15:21	 15.40		 15.06		 15.66		 15.49
15:15:22	 15.40		 15.06		 15.66		 15.49
15:15:22	 15.43		 15.14		 15.58		 15.58
15:15:23	 15.63		 15.23		 16.01		 15.66
15:15:24	 15.52		 15.23		 15.75		 15.58
15:15:25	 15.46		 15.14		 15.75		 15.49
15:15:26	 15.46		 15.14		 15.75		 15.49
15:15:27	 15.46		 15.14		 15.75		 15.49
15:15:28	 15.02		 15.14		 14.27		 15.66
15:15:29	 15.55		 15.23		 15.66		 15.75
15:15:30	 15.63		 15.40		 15.75		 15.75
15:15:31	 15.61		 15.32		 15.75		 15.75
15:15:32	 15.58		 15.23		 15.84		 15.66
15:15:32	 15.55		 15.23		 15.84		 15.58
15:15:33	 15.58		 15.23		 15.93		 15.58
15:15:34	 15.64		 15.32		 15.93		 15.66
15:15:35	 15.70		 15.32		 15.93		 15.84
15:15:36	 15.72		 15.40		 15.93		 15.84
15:15:37	 15.75		 15.49		 15.84		 15.93
15:15:38	 15.75		 15.49		 15.93		 15.84
15:15:39	 15.72		 15.40		 16.01		 15.75
15:15:40	 15.69		 15.40		 16.01		 15.66
15:15:41	 15.72		 15.40		 16.01		 15.75
15:15:41	 15.75		 15.40		 16.01		 15.84
15:15:42	 15.81		 15.49		 15.93		 16.01
15:15:43	 15.87		 15.58		 15.93		 16.10
15:15:44	 15.87		 15.58		 16.01		 16.01
15:15:45	 15.84		 15.49		 16.10		 15.93
15:15:46	 15.81		 15.49		 16.10		 15.84
15:15:47	 15.78		 15.40		 16.10		 15.84
15:15:48	 15.87		 15.49		 16.10		 16.01
15:15:49	 15.98		 15.58		 16.10		 16.27
15:15:50	 15.98		 15.66		 16.10		 16.19
15:15:50	 15.93		 15.58		 16.10		 16.10
15:15:51	 15.95		 15.58		 16.27		 16.01
15:15:52	 15.93		 15.58		 16.27		 15.93
15:15:53	 15.78		 15.49		 16.27		 15.58
15:15:54	 15.93		 15.58		 16.19		 16.01
15:15:55	 16.04		 15.75		 16.19		 16.19
15:15:56	 16.01		 15.75		 16.10		 16.19
15:15:57	 16.07		 15.75		 16.27		 16.19
15:15:58	 16.01		 15.66		 16.27		 16.10
15:15:59	 16.01		 15.66		 16.36		 16.01
15:16:00	 15.98		 15.66		 16.27		 16.01
15:16:00	 16.04		 15.66		 16.27		 16.19
15:16:01	 16.10		 15.75		 16.27		 16.27
15:16:02	 16.13		 15.84		 16.27		 16.27
15:16:03	 16.16		 15.84		 16.45		 16.19
15:16:04	 16.01		 15.66		 16.27		 16.10
15:16:05	 16.04		 15.66		 16.36		 16.10
15:16:06	 16.04		 15.66		 16.36		 16.10
15:16:07	 16.16		 15.84		 16.36		 16.27
15:16:08	 16.16		 15.84		 16.27		 16.36
15:16:09	 16.10		 15.75		 16.27		 16.27
15:16:09	 16.04		 15.66		 16.36		 16.10
15:16:10	 16.04		 15.66		 16.36		 16.10
15:16:11	 16.07		 15.66		 16.36		 16.19
15:16:12	 16.13		 15.84		 16.27		 16.27
15:16:13	 16.16		 15.84		 16.27		 16.36
15:16:14	 16.07		 15.75		 16.27		 16.19
15:16:15	 16.04		 15.66		 16.36		 16.10
15:16:16	 16.01		 15.66		 16.27		 16.10
15:16:17	 16.10		 15.75		 16.27		 16.27
15:16:18	 16.13		 15.75		 16.27		 16.36
15:16:18	 16.10		 15.84		 16.27		 16.19
15:16:19	 16.01		 15.66		 16.27		 16.10
15:16:20	 15.26		 15.58		 16.27		 13.92
15:16:21	 16.01		 15.66		 16.27		 16.10
15:16:22	 16.10		 15.75		 16.27		 16.27
15:16:23	 16.07		 15.66		 16.27		 16.27
15:16:24	 15.93		 15.58		 16.19		 16.01
15:16:25	 15.95		 15.58		 16.27		 16.01
15:16:26	 15.90		 15.58		 16.19		 15.93
15:16:27	 15.98		 15.66		 16.10		 16.19
15:16:28	 16.01		 15.66		 16.19		 16.19
15:16:28	 15.93		 15.58		 16.19		 16.01
15:16:29	 15.87		 15.49		 16.19		 15.93
15:16:30	 15.81		 15.40		 16.10		 15.93
15:16:31	 15.84		 15.49		 16.01		 16.01
15:16:32	 15.92		 15.66		 16.01		 16.10
15:16:33	 15.93		 15.58		 16.10		 16.10
15:16:34	 15.81		 15.40		 16.10		 15.93
15:16:35	 15.75		 15.40		 16.10		 15.75
15:16:36	 15.81		 15.49		 16.01		 15.93
15:16:37	 15.84		 15.58		 16.01		 15.93
15:16:37	 15.84		 15.40		 16.01		 16.10
15:16:38	 15.78		 15.40		 16.01		 15.93
15:16:39	 15.69		 15.32		 16.01		 15.75
15:16:40	 15.72		 15.32		 16.01		 15.84
15:16:41	 15.78		 15.40		 16.01		 15.93
15:16:42	 15.75		 15.40		 15.93		 15.93
15:16:43	 15.72		 15.40		 15.84		 15.93
15:16:44	 15.70		 15.32		 15.93		 15.84
15:16:45	 15.61		 15.23		 15.93		 15.66
15:16:46	 15.61		 15.23		 15.93		 15.66
15:16:46	 15.64		 15.23		 15.84		 15.84
15:16:47	 15.67		 15.32		 15.84		 15.84
15:16:48	 15.64		 15.32		 15.75		 15.84
15:16:49	 15.61		 15.32		 15.84		 15.66
15:16:50	 15.52		 15.14		 15.84		 15.58
15:16:51	 15.52		 15.14		 15.84		 15.58
15:16:52	 15.58		 15.23		 15.75		 15.75
15:16:53	 15.61		 15.23		 15.75		 15.84
15:16:54	 15.61		 15.23		 15.84		 15.75
15:16:55	 15.46		 15.06		 15.75		 15.58
15:16:56	 15.46		 15.06		 15.75		 15.58
15:16:56	 15.52		 15.14		 15.75		 15.66
15:16:57	 15.52		 15.14		 15.66		 15.75
15:16:58	 15.58		 15.23		 15.75		 15.75
15:16:59	 15.40		 15.06		 15.66		 15.49
15:17:00	 15.37		 15.06		 15.66		 15.40
15:17:01	 15.35		 14.97		 15.58		 15.49
15:17:02	 15.49		 15.14		 15.66		 15.66
15:17:03	 15.49		 15.06		 15.66		 15.75
15:17:04	 15.43		 15.06		 15.58		 15.66
15:17:05	 15.37		 14.97		 15.66		 15.49
15:17:05	 15.32		 14.97		 15.58		 15.40
15:17:06	 15.35		 14.97		 15.58		 15.49
15:17:07	 15.41		 15.06		 15.58		 15.58
15:17:08	 15.41		 15.06		 15.58		 15.58
15:17:09	 15.38		 15.06		 15.58		 15.49
15:17:10	 15.26		 14.88		 15.49		 15.40
15:17:11	 15.26		 14.88		 15.58		 15.32
15:17:12	 15.26		 14.88		 15.58		 15.32
15:17:13	 15.29		 14.97		 15.40		 15.49
15:17:14	 15.35		 14.97		 15.49		 15.58
15:17:14	 15.29		 14.97		 15.40		 15.49
15:17:15	 15.29		 14.97		 15.49		 15.40
15:17:16	 15.20		 14.79		 15.58		 15.23
15:17:17	 15.14		 14.79		 15.40		 15.23
15:17:18	 15.23		 14.88		 15.40		 15.40
15:17:19	 15.29		 14.97		 15.40		 15.49
15:17:20	 15.26		 14.97		 15.40		 15.40
15:17:21	 15.14		 14.79		 15.40		 15.23
