Temperature log started on 12/05/2021 at 12:54:40

Time 		 Average T (C) 	 T0 (C) 	 T1 (C) 	 T2 (C) 
------------------------------------------------------------------------
12:54:40	 14.09		 13.66		 14.44		 14.18
12:54:41	 14.12		 13.74		 14.36		 14.27
12:54:42	 14.15		 13.83		 14.27		 14.36
12:54:43	 14.09		 13.74		 14.27		 14.27
12:54:44	 14.09		 13.66		 14.44		 14.18
12:54:45	 14.06		 13.74		 14.36		 14.09
12:54:46	 14.15		 14.01		 14.27		 14.18
12:54:46	 14.12		 13.74		 14.36		 14.27
12:54:47	 14.09		 13.74		 14.27		 14.27
12:54:48	 14.09		 13.83		 14.36		 14.09
12:54:49	 13.92		 13.48		 14.27		 14.01
12:54:50	 14.09		 13.92		 14.18		 14.18
12:54:51	 14.01		 13.66		 14.18		 14.18
12:54:52	 14.09		 13.83		 14.18		 14.27
12:54:53	 14.01		 13.66		 14.18		 14.18
12:54:54	 13.95		 13.57		 14.18		 14.09
12:54:55	 14.33		 14.79		 14.18		 14.01
12:54:55	 13.95		 13.57		 14.18		 14.09
12:54:56	 14.53		 15.14		 14.18		 14.27
12:54:57	 14.00		 13.74		 14.09		 14.18
12:54:58	 13.98		 13.66		 14.18		 14.09
12:54:59	 14.04		 13.92		 14.18		 14.01
12:55:00	 13.89		 13.48		 14.18		 14.01
12:55:01	 14.24		 14.44		 14.18		 14.09
12:55:02	 14.01		 13.66		 14.09		 14.27
12:55:03	 14.15		 14.01		 14.27		 14.18
12:55:04	 13.95		 13.57		 14.18		 14.09
12:55:04	 14.07		 13.92		 14.27		 14.01
12:55:05	 13.92		 13.57		 14.18		 14.01
12:55:06	 14.21		 14.36		 14.09		 14.18
12:55:07	 14.01		 13.66		 14.18		 14.18
12:55:08	 14.03		 13.74		 14.18		 14.18
12:55:09	 13.92		 13.48		 14.18		 14.09
12:55:10	 14.04		 13.92		 14.18		 14.01
12:55:11	 13.89		 13.48		 14.18		 14.01
12:55:12	 14.38		 14.97		 14.09		 14.09
12:55:13	 14.01		 13.66		 14.18		 14.18
12:55:14	 14.01		 13.66		 14.18		 14.18
12:55:14	 13.92		 13.57		 14.18		 14.01
12:55:15	 14.12		 14.18		 14.18		 14.01
12:55:16	 13.86		 13.48		 14.09		 14.01
12:55:17	 14.18		 14.27		 14.09		 14.18
12:55:18	 13.98		 13.66		 14.18		 14.09
12:55:19	 14.09		 14.09		 14.18		 14.01
12:55:20	 13.89		 13.48		 14.18		 14.01
12:55:21	 14.01		 13.83		 14.18		 14.01
12:55:22	 13.89		 13.48		 14.09		 14.09
12:55:23	 14.12		 14.01		 14.18		 14.18
12:55:23	 14.01		 13.66		 14.18		 14.18
12:55:24	 13.95		 13.57		 14.18		 14.09
12:55:25	 14.01		 13.92		 14.18		 13.92
12:55:26	 13.92		 13.57		 14.18		 14.01
12:55:27	 14.18		 14.27		 14.18		 14.09
12:55:28	 14.04		 13.66		 14.18		 14.27
12:55:29	 14.12		 14.01		 14.18		 14.18
12:55:30	 13.98		 13.57		 14.27		 14.09
12:55:31	 14.07		 13.92		 14.27		 14.01
12:55:32	 13.89		 13.48		 14.18		 14.01
12:55:32	 14.35		 14.79		 14.18		 14.09
12:55:33	 13.98		 13.66		 14.09		 14.18
12:55:34	 14.27		 14.53		 14.18		 14.09
12:55:35	 13.98		 13.66		 14.18		 14.09
