Temperature log started on 12/05/2021 at 14:58:42

Time 		 Average T (C) 	 T0 (C) 	 T1 (C) 	 T2 (C) 
------------------------------------------------------------------------
14:58:42	 18.58		 18.26		 18.86		 18.61
14:58:43	 18.63		 18.26		 18.86		 18.78
14:58:44	 18.69		 18.43		 18.78		 18.86
14:58:45	 18.78		 18.52		 18.86		 18.95
14:58:46	 18.72		 18.43		 18.78		 18.95
14:58:47	 18.69		 18.35		 18.86		 18.86
14:58:48	 18.63		 18.26		 18.95		 18.69
14:58:49	 18.61		 18.26		 18.95		 18.61
14:58:49	 18.61		 18.26		 18.95		 18.61
14:58:50	 18.69		 18.35		 18.95		 18.78
14:58:51	 18.72		 18.43		 18.86		 18.86
14:58:52	 18.78		 18.52		 18.86		 18.95
14:58:53	 18.81		 18.52		 18.86		 19.04
14:58:54	 18.78		 18.52		 18.86		 18.95
14:58:55	 18.72		 18.35		 18.95		 18.86
14:58:56	 18.69		 18.26		 19.04		 18.78
14:58:57	 18.63		 18.26		 18.95		 18.69
14:58:58	 18.69		 18.35		 18.95		 18.78
14:58:58	 18.75		 18.43		 18.95		 18.86
14:58:59	 18.81		 18.52		 18.95		 18.95
14:59:00	 18.87		 18.61		 18.95		 19.04
14:59:01	 18.87		 18.61		 18.95		 19.04
14:59:02	 18.81		 18.43		 18.95		 19.04
14:59:03	 18.78		 18.43		 19.12		 18.78
14:59:04	 18.72		 18.35		 19.04		 18.78
14:59:05	 18.75		 18.43		 19.04		 18.78
14:59:06	 18.78		 18.43		 18.95		 18.95
14:59:07	 18.84		 18.52		 18.95		 19.04
14:59:08	 18.92		 18.61		 18.95		 19.21
14:59:08	 18.87		 18.52		 19.04		 19.04
14:59:09	 18.83		 18.52		 19.12		 18.86
14:59:10	 18.75		 18.43		 19.04		 18.78
14:59:11	 18.72		 18.35		 19.04		 18.78
14:59:12	 18.81		 18.43		 19.04		 18.95
14:59:13	 18.90		 18.61		 19.04		 19.04
14:59:14	 18.98		 18.69		 19.12		 19.12
14:59:15	 18.92		 18.61		 19.04		 19.12
14:59:16	 18.90		 18.61		 19.04		 19.04
14:59:17	 18.83		 18.43		 19.21		 18.86
14:59:17	 18.83		 18.52		 19.12		 18.86
14:59:18	 18.92		 18.52		 19.21		 19.04
14:59:19	 19.01		 18.69		 19.12		 19.21
14:59:20	 19.01		 18.69		 19.12		 19.21
14:59:21	 18.89		 18.61		 19.12		 18.95
