Temperature log started on 12/05/2021 at 15:52:12

Time 		 Average T (C) 	 T0 (C) 	 T1 (C) 	 T2 (C) 
------------------------------------------------------------------------
15:52:13	 13.71		 13.39		 13.83		 13.92
15:52:14	 13.71		 13.39		 13.92		 13.83
15:52:14	 13.68		 13.30		 13.92		 13.83
15:52:15	 13.63		 13.22		 14.01		 13.66
15:52:16	 13.66		 13.22		 14.01		 13.74
15:52:17	 13.57		 13.13		 13.74		 13.83
15:52:18	 13.63		 13.22		 13.74		 13.92
15:52:19	 13.42		 12.95		 13.57		 13.74
15:52:20	 13.25		 12.78		 13.48		 13.48
15:52:21	 13.01		 12.51		 13.39		 13.13
15:52:22	 12.89		 12.42		 13.22		 13.04
15:52:23	 12.74		 12.24		 12.95		 13.04
15:52:24	 12.60		 12.07		 12.78		 12.95
15:52:24	 12.42		 11.89		 12.60		 12.78
15:52:25	 12.21		 11.62		 12.42		 12.60
15:52:26	 12.00		 11.44		 12.33		 12.24
15:52:27	 11.80		 11.26		 12.07		 12.07
15:52:28	 11.65		 11.09		 11.98		 11.89
15:52:29	 11.50		 11.00		 11.62		 11.89
15:52:30	 11.32		 10.82		 11.53		 11.62
15:52:31	 11.08		 10.55		 11.26		 11.44
15:52:32	 10.93		 10.37		 11.26		 11.17
15:52:33	 10.64		 10.00		 11.00		 10.91
15:52:33	 10.49		 9.82		 10.82		 10.82
15:52:34	 10.34		 9.73		 10.55		 10.73
15:52:35	 10.28		 9.73		 10.46		 10.64
15:52:36	 10.10		 9.55		 10.28		 10.46
15:52:37	 9.85		 9.28		 10.09		 10.18
15:52:38	 9.61		 9.09		 9.91		 9.82
15:52:39	 9.40		 8.82		 9.73		 9.64
15:52:40	 9.27		 8.63		 9.55		 9.64
15:52:41	 9.06		 8.45		 9.37		 9.37
15:52:42	 8.88		 8.36		 9.00		 9.28
15:52:42	 8.72		 8.17		 8.91		 9.09
15:52:43	 8.51		 7.89		 8.82		 8.82
15:52:44	 8.29		 7.71		 8.63		 8.54
15:52:45	 8.08		 7.52		 8.36		 8.36
15:52:46	 7.96		 7.34		 8.27		 8.27
15:52:47	 7.86		 7.24		 8.08		 8.27
15:52:48	 7.61		 7.05		 7.80		 7.99
15:52:49	 7.43		 6.87		 7.62		 7.80
15:52:50	 7.24		 6.77		 7.43		 7.52
15:52:51	 7.02		 6.39		 7.34		 7.34
15:52:51	 6.83		 6.20		 7.15		 7.15
15:52:52	 6.67		 6.01		 6.96		 7.05
15:52:53	 6.58		 6.11		 6.77		 6.87
15:52:54	 6.52		 6.01		 6.68		 6.87
15:52:55	 6.42		 5.92		 6.58		 6.77
15:52:56	 6.20		 5.73		 6.39		 6.49
15:52:57	 6.14		 5.73		 6.30		 6.39
15:52:58	 6.11		 5.63		 6.30		 6.39
15:52:59	 5.98		 5.53		 6.30		 6.11
15:53:00	 6.04		 5.63		 6.30		 6.20
15:53:01	 6.04		 5.63		 6.30		 6.20
15:53:01	 6.08		 5.73		 6.30		 6.20
15:53:02	 6.17		 5.82		 6.30		 6.39
15:53:03	 6.17		 5.82		 6.30		 6.39
15:53:04	 6.20		 5.92		 6.30		 6.39
15:53:05	 6.20		 5.82		 6.39		 6.39
15:53:06	 6.20		 5.82		 6.49		 6.30
15:53:07	 6.27		 5.92		 6.49		 6.39
15:53:08	 6.30		 5.92		 6.58		 6.39
15:53:09	 6.30		 6.01		 6.49		 6.39
15:53:10	 6.39		 6.11		 6.58		 6.49
15:53:10	 6.49		 6.20		 6.68		 6.58
15:53:11	 6.52		 6.20		 6.68		 6.68
15:53:12	 6.55		 6.30		 6.68		 6.68
15:53:13	 6.58		 6.30		 6.77		 6.68
15:53:14	 6.58		 6.20		 6.87		 6.68
15:53:15	 6.68		 6.30		 6.96		 6.77
15:53:16	 6.68		 6.30		 6.96		 6.77
15:53:17	 6.71		 6.39		 6.96		 6.77
15:53:18	 6.77		 6.49		 6.96		 6.87
15:53:19	 6.83		 6.49		 6.96		 7.05
15:53:19	 6.93		 6.68		 7.05		 7.05
15:53:20	 6.96		 6.58		 7.15		 7.15
15:53:21	 6.93		 6.58		 7.15		 7.05
15:53:22	 6.99		 6.68		 7.24		 7.05
15:53:23	 7.06		 6.68		 7.34		 7.15
15:53:24	 7.06		 6.68		 7.34		 7.15
15:53:25	 7.15		 6.77		 7.34		 7.34
15:53:26	 7.21		 6.87		 7.43		 7.34
15:53:27	 7.33		 7.05		 7.52		 7.43
15:53:28	 7.30		 6.96		 7.43		 7.52
15:53:29	 7.34		 6.96		 7.62		 7.43
15:53:29	 7.37		 6.96		 7.62		 7.52
15:53:30	 7.43		 7.05		 7.71		 7.52
15:53:31	 7.46		 7.15		 7.62		 7.62
15:53:32	 7.55		 7.24		 7.71		 7.71
