Temperature log started on 18/05/2021 at 12:52:49

Time 		 Average T (C) 	 T0 (C) 	 T1 (C) 	 T2 (C) 
------------------------------------------------------------------------
12:52:49	 19.87		 19.55		 20.07		 19.98
12:52:50	 19.78		 19.47		 20.07		 19.81
12:52:51	 19.70		 19.30		 20.16		 19.64
12:52:52	 19.61		 19.30		 20.07		 19.47
12:52:53	 19.70		 19.30		 20.07		 19.73
12:52:54	 19.75		 19.30		 19.98		 19.98
12:52:54	 19.84		 19.47		 19.98		 20.07
12:52:55	 19.72		 19.38		 19.98		 19.81
12:52:56	 19.61		 19.21		 19.98		 19.64
12:52:57	 19.58		 19.12		 19.98		 19.64
12:52:58	 19.52		 19.12		 19.90		 19.55
12:52:59	 19.55		 19.12		 19.90		 19.64
12:53:00	 19.56		 19.21		 19.73		 19.73
12:53:01	 19.55		 19.12		 19.73		 19.81
12:53:02	 19.50		 19.04		 19.81		 19.64
12:53:03	 19.35		 18.86		 19.81		 19.38
12:53:03	 19.27		 18.86		 19.64		 19.30
12:53:04	 19.24		 18.78		 19.64		 19.30
12:53:05	 19.21		 18.78		 19.55		 19.30
12:53:06	 19.21		 18.78		 19.47		 19.38
12:53:07	 19.18		 18.78		 19.38		 19.38
12:53:08	 19.04		 18.52		 19.38		 19.21
12:53:09	 18.92		 18.52		 19.30		 18.95
12:53:10	 18.78		 18.26		 19.21		 18.86
12:53:11	 18.72		 18.17		 19.21		 18.78
12:53:12	 18.72		 18.26		 19.04		 18.86
12:53:13	 18.60		 18.17		 18.86		 18.78
12:53:13	 18.63		 18.17		 18.86		 18.86
12:53:14	 18.46		 17.92		 18.78		 18.69
12:53:15	 18.35		 17.83		 18.78		 18.43
12:53:16	 18.20		 17.74		 18.61		 18.26
12:53:17	 18.09		 17.57		 18.52		 18.17
12:53:18	 18.06		 17.57		 18.35		 18.26
12:53:19	 18.03		 17.48		 18.35		 18.26
12:53:20	 17.91		 17.48		 18.09		 18.17
12:53:21	 17.77		 17.22		 18.00		 18.09
12:53:22	 17.63		 17.14		 18.00		 17.74
12:53:22	 17.49		 16.97		 17.92		 17.57
12:53:23	 17.37		 16.88		 17.74		 17.48
12:53:24	 17.28		 16.71		 17.66		 17.48
12:53:25	 17.25		 16.79		 17.48		 17.48
12:53:26	 17.14		 16.62		 17.40		 17.40
12:53:27	 17.05		 16.62		 17.22		 17.31
12:53:28	 16.85		 16.36		 17.14		 17.05
12:53:29	 16.68		 16.10		 17.05		 16.88
12:53:30	 16.59		 16.10		 16.97		 16.71
12:53:31	 16.45		 15.93		 16.79		 16.62
12:53:31	 16.42		 15.93		 16.62		 16.71
12:53:32	 16.33		 15.84		 16.53		 16.62
12:53:33	 16.24		 15.75		 16.53		 16.45
12:53:34	 15.98		 15.49		 16.27		 16.19
12:53:35	 15.84		 15.32		 16.19		 16.01
12:53:36	 15.72		 15.14		 16.19		 15.84
12:53:37	 15.66		 15.14		 16.01		 15.84
12:53:38	 15.58		 15.06		 15.84		 15.84
12:53:39	 15.49		 15.06		 15.75		 15.66
12:53:40	 15.35		 14.88		 15.58		 15.58
12:53:41	 15.17		 14.62		 15.49		 15.40
12:53:41	 15.02		 14.53		 15.40		 15.14
12:53:42	 14.77		 13.92		 15.32		 15.06
12:53:43	 14.82		 14.27		 15.14		 15.06
12:53:44	 14.77		 14.18		 15.06		 15.06
12:53:45	 14.59		 14.09		 14.79		 14.88
12:53:46	 14.50		 14.01		 14.79		 14.71
12:53:47	 14.36		 13.83		 14.71		 14.53
12:53:48	 14.24		 13.57		 14.62		 14.53
12:53:49	 14.09		 13.57		 14.44		 14.27
12:53:50	 14.04		 13.57		 14.36		 14.18
12:53:50	 14.01		 13.48		 14.27		 14.27
12:53:51	 13.86		 13.30		 14.18		 14.09
12:53:52	 13.80		 13.30		 14.09		 14.01
12:53:53	 13.66		 13.13		 14.01		 13.83
12:53:54	 13.48		 12.95		 13.83		 13.66
12:53:55	 13.39		 12.86		 13.83		 13.48
12:53:56	 13.36		 12.78		 13.74		 13.57
12:53:57	 13.28		 12.78		 13.57		 13.48
12:53:58	 13.25		 12.78		 13.48		 13.48
12:53:59	 13.07		 12.69		 13.22		 13.30
12:53:59	 12.98		 12.51		 13.30		 13.13
12:54:00	 12.89		 12.42		 13.22		 13.04
12:54:01	 12.74		 12.24		 13.13		 12.86
12:54:02	 12.66		 12.16		 13.04		 12.78
12:54:03	 12.65		 12.24		 12.86		 12.86
12:54:04	 12.57		 12.07		 12.86		 12.78
12:54:05	 12.54		 12.07		 12.78		 12.78
12:54:06	 12.48		 11.98		 12.78		 12.69
12:54:07	 12.36		 11.89		 12.69		 12.51
12:54:08	 12.24		 11.80		 12.60		 12.33
12:54:09	 12.15		 11.62		 12.51		 12.33
12:54:09	 12.18		 11.71		 12.60		 12.24
12:54:10	 12.18		 11.71		 12.51		 12.33
12:54:11	 12.09		 11.62		 12.33		 12.33
12:54:12	 12.15		 11.62		 12.60		 12.24
12:54:13	 12.03		 11.53		 12.33		 12.24
12:54:14	 11.95		 11.44		 12.24		 12.16
12:54:15	 11.95		 11.44		 12.33		 12.07
12:54:16	 11.92		 11.35		 12.24		 12.16
12:54:17	 11.83		 11.35		 12.24		 11.89
12:54:18	 11.80		 11.35		 12.16		 11.89
12:54:18	 11.86		 11.44		 12.16		 11.98
12:54:19	 11.77		 11.35		 11.98		 11.98
12:54:20	 11.80		 11.35		 11.98		 12.07
12:54:21	 11.80		 11.35		 12.07		 11.98
12:54:22	 11.77		 11.35		 12.07		 11.89
12:54:23	 11.77		 11.35		 12.16		 11.80
12:54:24	 11.71		 11.26		 12.16		 11.71
12:54:25	 11.71		 11.26		 12.07		 11.80
12:54:26	 11.71		 11.26		 12.07		 11.80
12:54:27	 11.71		 11.26		 12.07		 11.80
12:54:27	 11.83		 11.53		 12.07		 11.89
12:54:28	 11.83		 11.44		 12.07		 11.98
12:54:29	 11.86		 11.53		 12.07		 11.98
12:54:30	 11.83		 11.44		 12.16		 11.89
12:54:31	 11.86		 11.44		 12.16		 11.98
12:54:32	 11.83		 11.44		 12.16		 11.89
12:54:33	 11.86		 11.44		 12.24		 11.89
12:54:34	 11.92		 11.53		 12.24		 11.98
12:54:35	 11.98		 11.62		 12.24		 12.07
12:54:36	 12.04		 11.71		 12.24		 12.16
12:54:36	 12.12		 11.80		 12.33		 12.24
12:54:37	 12.04		 11.62		 12.33		 12.16
12:54:38	 12.07		 11.71		 12.42		 12.07
12:54:39	 12.04		 11.62		 12.42		 12.07
12:54:40	 12.07		 11.71		 12.42		 12.07
12:54:41	 12.15		 11.80		 12.42		 12.24
12:54:42	 12.24		 11.89		 12.51		 12.33
12:54:43	 12.27		 11.89		 12.51		 12.42
12:54:44	 12.30		 11.89		 12.60		 12.42
12:54:45	 12.27		 11.89		 12.60		 12.33
12:54:46	 12.24		 11.80		 12.60		 12.33
12:54:46	 12.27		 11.89		 12.60		 12.33
12:54:47	 12.39		 11.98		 12.78		 12.42
12:54:48	 12.36		 11.98		 12.60		 12.51
12:54:49	 12.45		 12.07		 12.69		 12.60
12:54:50	 12.45		 12.16		 12.69		 12.51
12:54:51	 12.51		 12.16		 12.86		 12.51
12:54:52	 12.48		 12.07		 12.86		 12.51
12:54:53	 12.48		 12.07		 12.86		 12.51
12:54:54	 12.57		 12.16		 12.86		 12.69
12:54:55	 12.63		 12.24		 12.86		 12.78
12:54:55	 12.66		 12.24		 12.95		 12.78
12:54:56	 12.66		 12.33		 12.86		 12.78
12:54:57	 12.63		 12.24		 13.04		 12.60
12:54:58	 12.66		 12.24		 13.04		 12.69
12:54:59	 12.66		 12.33		 12.95		 12.69
12:55:00	 12.77		 12.42		 13.04		 12.86
12:55:01	 12.83		 12.51		 13.04		 12.95
12:55:02	 12.86		 12.60		 13.04		 12.95
12:55:03	 12.92		 12.60		 13.22		 12.95
12:55:04	 12.83		 12.42		 13.22		 12.86
12:55:04	 12.84		 12.51		 13.22		 12.78
12:55:05	 12.89		 12.51		 13.22		 12.95
12:55:06	 12.92		 12.51		 13.22		 13.04
12:55:07	 13.01		 12.60		 13.30		 13.13
12:55:08	 13.07		 12.78		 13.30		 13.13
12:55:09	 13.04		 12.69		 13.30		 13.13
12:55:10	 13.01		 12.60		 13.39		 13.04
12:55:11	 13.04		 12.60		 13.48		 13.04
12:55:12	 13.10		 12.69		 13.48		 13.13
12:55:13	 13.16		 12.78		 13.39		 13.30
12:55:14	 13.21		 12.86		 13.39		 13.39
12:55:14	 13.21		 12.86		 13.48		 13.30
12:55:15	 13.19		 12.86		 13.48		 13.22
12:55:16	 13.19		 12.78		 13.57		 13.22
12:55:17	 13.22		 12.86		 13.57		 13.22
12:55:18	 13.27		 12.86		 13.66		 13.30
12:55:19	 13.36		 13.04		 13.57		 13.48
12:55:20	 13.36		 13.04		 13.57		 13.48
12:55:21	 13.36		 12.95		 13.66		 13.48
12:55:22	 13.36		 12.95		 13.74		 13.39
12:55:23	 13.39		 13.04		 13.74		 13.39
12:55:23	 13.45		 13.13		 13.74		 13.48
12:55:24	 13.48		 13.13		 13.66		 13.66
12:55:25	 13.54		 13.13		 13.83		 13.66
12:55:26	 13.51		 13.22		 13.74		 13.57
12:55:27	 13.48		 13.04		 13.92		 13.48
12:55:28	 13.51		 13.13		 13.92		 13.48
12:55:29	 13.60		 13.22		 13.92		 13.66
12:55:30	 13.65		 13.30		 13.92		 13.74
12:55:31	 13.71		 13.39		 13.92		 13.83
12:55:32	 13.68		 13.30		 13.92		 13.83
12:55:32	 13.66		 13.22		 14.01		 13.74
12:55:33	 13.63		 13.22		 14.01		 13.66
12:55:34	 13.63		 13.22		 14.01		 13.66
12:55:35	 13.77		 13.39		 14.09		 13.83
12:55:36	 13.80		 13.48		 14.01		 13.92
12:55:37	 13.83		 13.48		 14.09		 13.92
12:55:38	 13.83		 13.39		 14.18		 13.92
12:55:39	 13.80		 13.39		 14.18		 13.83
12:55:40	 13.80		 13.39		 14.18		 13.83
12:55:41	 13.89		 13.48		 14.27		 13.92
12:55:42	 13.98		 13.57		 14.27		 14.09
12:55:42	 14.04		 13.66		 14.27		 14.18
12:55:43	 13.95		 13.57		 14.27		 14.01
12:55:44	 13.95		 13.57		 14.27		 14.01
12:55:45	 13.95		 13.57		 14.36		 13.92
12:55:46	 14.01		 13.57		 14.36		 14.09
12:55:47	 14.06		 13.74		 14.27		 14.18
12:55:48	 14.12		 13.74		 14.36		 14.27
12:55:49	 14.12		 13.83		 14.36		 14.18
12:55:50	 14.09		 13.74		 14.44		 14.09
12:55:51	 14.06		 13.66		 14.44		 14.09
12:55:51	 14.15		 13.74		 14.53		 14.18
12:55:52	 14.18		 13.83		 14.44		 14.27
12:55:53	 14.24		 13.92		 14.44		 14.36
12:55:54	 14.24		 13.92		 14.53		 14.27
12:55:55	 14.27		 13.92		 14.62		 14.27
12:55:56	 14.24		 13.83		 14.62		 14.27
12:55:57	 14.24		 13.83		 14.62		 14.27
12:55:58	 14.30		 13.92		 14.62		 14.36
12:55:59	 14.36		 14.01		 14.62		 14.44
12:56:00	 14.41		 14.09		 14.62		 14.53
12:56:00	 14.36		 14.01		 14.62		 14.44
12:56:01	 14.36		 14.01		 14.71		 14.36
12:56:02	 14.33		 13.92		 14.71		 14.36
12:56:03	 14.36		 13.92		 14.71		 14.44
12:56:04	 14.47		 14.18		 14.71		 14.53
12:56:05	 14.50		 14.18		 14.71		 14.62
12:56:06	 14.53		 14.18		 14.79		 14.62
12:56:07	 14.50		 14.09		 14.79		 14.62
12:56:08	 14.47		 14.09		 14.79		 14.53
12:56:09	 14.47		 14.09		 14.88		 14.44
12:56:10	 14.50		 14.09		 14.88		 14.53
12:56:10	 14.62		 14.27		 14.88		 14.71
12:56:11	 14.65		 14.27		 14.88		 14.79
12:56:12	 14.71		 14.36		 14.97		 14.79
12:56:13	 14.68		 14.27		 14.97		 14.79
12:56:14	 14.65		 14.27		 14.97		 14.71
12:56:15	 14.65		 14.27		 15.06		 14.62
12:56:16	 14.65		 14.27		 15.06		 14.62
12:56:17	 14.71		 14.36		 15.06		 14.71
12:56:18	 14.74		 14.44		 15.06		 14.71
12:56:19	 14.82		 14.44		 15.06		 14.97
12:56:19	 14.82		 14.53		 14.97		 14.97
12:56:20	 14.88		 14.53		 15.14		 14.97
12:56:21	 14.88		 14.53		 15.14		 14.97
12:56:22	 14.82		 14.44		 15.14		 14.88
12:56:23	 14.82		 14.44		 15.23		 14.79
12:56:24	 14.88		 14.44		 15.32		 14.88
12:56:25	 14.82		 14.44		 15.14		 14.88
12:56:26	 14.97		 14.62		 15.23		 15.06
12:56:27	 15.03		 14.71		 15.23		 15.14
12:56:28	 15.00		 14.62		 15.23		 15.14
12:56:28	 15.03		 14.71		 15.32		 15.06
12:56:29	 14.94		 14.53		 15.32		 14.97
12:56:30	 14.97		 14.53		 15.40		 14.97
12:56:31	 14.97		 14.53		 15.40		 14.97
12:56:32	 15.06		 14.71		 15.32		 15.14
12:56:33	 15.14		 14.79		 15.32		 15.32
12:56:34	 15.17		 14.79		 15.40		 15.32
12:56:35	 15.14		 14.79		 15.49		 15.14
12:56:36	 15.09		 14.71		 15.49		 15.06
12:56:37	 15.11		 14.71		 15.49		 15.14
12:56:38	 15.14		 14.71		 15.49		 15.23
12:56:38	 15.20		 14.79		 15.49		 15.32
12:56:39	 15.26		 14.97		 15.40		 15.40
12:56:40	 15.23		 14.88		 15.40		 15.40
12:56:41	 15.23		 14.88		 15.49		 15.32
12:56:42	 15.23		 14.79		 15.66		 15.23
12:56:43	 15.20		 14.79		 15.58		 15.23
12:56:44	 15.29		 14.88		 15.58		 15.40
12:56:45	 15.35		 14.97		 15.58		 15.49
12:56:46	 15.43		 15.06		 15.66		 15.58
12:56:47	 15.37		 14.97		 15.66		 15.49
12:56:47	 15.32		 14.97		 15.66		 15.32
12:56:48	 15.32		 14.88		 15.75		 15.32
12:56:49	 15.29		 14.88		 15.66		 15.32
12:56:50	 15.40		 14.97		 15.75		 15.49
12:56:51	 15.43		 15.06		 15.66		 15.58
12:56:52	 15.46		 15.14		 15.66		 15.58
12:56:53	 15.52		 15.14		 15.75		 15.66
12:56:54	 15.46		 15.06		 15.84		 15.49
12:56:55	 15.49		 15.14		 15.84		 15.49
12:56:56	 15.46		 15.14		 15.84		 15.40
12:56:56	 15.49		 15.14		 15.84		 15.49
12:56:57	 15.58		 15.23		 15.84		 15.66
12:56:58	 15.64		 15.32		 15.84		 15.75
12:56:59	 15.64		 15.32		 15.84		 15.75
12:57:00	 15.64		 15.23		 15.93		 15.75
12:57:01	 15.58		 15.14		 16.01		 15.58
12:57:02	 15.60		 15.14		 16.01		 15.66
12:57:03	 15.63		 15.23		 16.01		 15.66
12:57:04	 15.69		 15.32		 16.01		 15.75
12:57:05	 15.75		 15.40		 16.01		 15.84
12:57:06	 15.75		 15.49		 15.93		 15.84
12:57:06	 15.78		 15.40		 16.01		 15.93
12:57:07	 15.69		 15.32		 16.01		 15.75
12:57:08	 15.72		 15.32		 16.10		 15.75
12:57:09	 15.72		 15.32		 16.10		 15.75
12:57:10	 15.75		 15.40		 16.01		 15.84
12:57:11	 15.81		 15.40		 16.10		 15.93
12:57:12	 15.87		 15.49		 16.10		 16.01
12:57:13	 15.90		 15.58		 16.10		 16.01
12:57:14	 15.87		 15.49		 16.19		 15.93
12:57:15	 15.81		 15.40		 16.19		 15.84
12:57:15	 15.81		 15.40		 16.19		 15.84
12:57:16	 15.81		 15.40		 16.19		 15.84
12:57:17	 15.87		 15.49		 16.19		 15.93
12:57:18	 15.98		 15.66		 16.19		 16.10
12:57:19	 16.01		 15.66		 16.19		 16.19
12:57:20	 15.98		 15.66		 16.19		 16.10
12:57:21	 15.95		 15.58		 16.27		 16.01
12:57:22	 15.98		 15.58		 16.36		 16.01
12:57:23	 15.90		 15.49		 16.27		 15.93
12:57:24	 15.98		 15.58		 16.27		 16.10
12:57:24	 16.04		 15.66		 16.27		 16.19
12:57:25	 16.13		 15.75		 16.36		 16.27
12:57:26	 16.16		 15.84		 16.36		 16.27
12:57:27	 16.16		 15.84		 16.45		 16.19
12:57:28	 16.07		 15.75		 16.36		 16.10
12:57:29	 16.10		 15.75		 16.45		 16.10
12:57:30	 16.07		 15.66		 16.45		 16.10
12:57:31	 16.10		 15.66		 16.45		 16.19
12:57:32	 16.19		 15.84		 16.45		 16.27
12:57:33	 16.30		 15.93		 16.53		 16.45
12:57:33	 16.25		 15.93		 16.45		 16.36
12:57:34	 16.24		 15.84		 16.53		 16.36
12:57:35	 16.16		 15.75		 16.53		 16.19
12:57:36	 16.19		 15.75		 16.62		 16.19
12:57:37	 16.21		 15.84		 16.53		 16.27
12:57:38	 16.27		 15.93		 16.53		 16.36
12:57:39	 16.33		 16.01		 16.53		 16.45
12:57:40	 16.36		 16.01		 16.53		 16.53
12:57:41	 16.36		 16.01		 16.62		 16.45
12:57:42	 16.30		 15.93		 16.62		 16.36
12:57:43	 16.27		 15.84		 16.71		 16.27
12:57:43	 16.30		 15.93		 16.71		 16.27
12:57:44	 16.39		 16.01		 16.71		 16.45
12:57:45	 16.45		 16.10		 16.62		 16.62
12:57:46	 16.45		 16.10		 16.62		 16.62
12:57:47	 16.45		 16.10		 16.71		 16.53
12:57:48	 16.42		 16.01		 16.79		 16.45
12:57:49	 16.39		 16.01		 16.79		 16.36
12:57:50	 16.44		 16.01		 16.79		 16.53
12:57:51	 16.51		 16.19		 16.71		 16.62
12:57:52	 16.54		 16.19		 16.71		 16.71
12:57:52	 16.56		 16.19		 16.79		 16.71
12:57:53	 16.50		 16.19		 16.79		 16.53
12:57:54	 16.50		 16.10		 16.88		 16.53
12:57:55	 16.47		 16.10		 16.79		 16.53
12:57:56	 16.50		 16.10		 16.79		 16.62
12:57:57	 16.59		 16.27		 16.79		 16.71
12:57:58	 16.65		 16.27		 16.88		 16.79
12:57:59	 16.62		 16.27		 16.88		 16.71
12:58:00	 16.59		 16.19		 16.97		 16.62
12:58:01	 16.56		 16.19		 16.97		 16.53
12:58:01	 16.56		 16.10		 16.97		 16.62
12:58:02	 16.62		 16.19		 16.97		 16.71
12:58:03	 16.74		 16.36		 16.97		 16.88
12:58:04	 16.71		 16.36		 16.88		 16.88
12:58:05	 16.68		 16.27		 16.97		 16.79
12:58:06	 16.59		 16.19		 16.88		 16.71
12:58:07	 16.56		 16.10		 16.97		 16.62
12:58:08	 16.59		 16.19		 16.97		 16.62
12:58:09	 16.65		 16.27		 16.97		 16.71
12:58:10	 16.74		 16.36		 16.97		 16.88
12:58:11	 16.71		 16.36		 16.88		 16.88
12:58:11	 16.68		 16.36		 16.88		 16.79
12:58:12	 16.62		 16.27		 16.97		 16.62
12:58:13	 16.56		 16.19		 16.97		 16.53
12:58:14	 16.50		 16.01		 16.97		 16.53
12:58:15	 16.56		 16.19		 16.88		 16.62
12:58:16	 16.59		 16.27		 16.79		 16.71
12:58:17	 16.62		 16.27		 16.79		 16.79
12:58:18	 16.68		 16.36		 16.88		 16.79
12:58:19	 16.62		 16.27		 16.88		 16.71
12:58:20	 16.53		 16.10		 16.88		 16.62
12:58:20	 16.50		 16.10		 16.88		 16.53
12:58:21	 16.50		 16.10		 16.79		 16.62
12:58:22	 16.56		 16.19		 16.79		 16.71
12:58:23	 16.56		 16.19		 16.79		 16.71
12:58:24	 16.59		 16.27		 16.71		 16.79
12:58:25	 16.54		 16.19		 16.71		 16.71
12:58:26	 16.47		 16.10		 16.79		 16.53
12:58:27	 16.36		 15.93		 16.79		 16.36
12:58:28	 16.36		 16.01		 16.71		 16.36
12:58:29	 16.45		 16.10		 16.71		 16.53
12:58:29	 16.48		 16.10		 16.71		 16.62
12:58:30	 16.51		 16.19		 16.71		 16.62
12:58:31	 16.39		 16.01		 16.71		 16.45
12:58:32	 16.33		 15.84		 16.71		 16.45
12:58:33	 16.24		 15.75		 16.62		 16.36
12:58:34	 16.22		 15.84		 16.62		 16.19
12:58:35	 16.27		 15.84		 16.53		 16.45
12:58:36	 16.30		 15.93		 16.53		 16.45
12:58:37	 16.30		 15.93		 16.53		 16.45
12:58:38	 16.19		 15.75		 16.45		 16.36
12:58:39	 16.18		 15.75		 16.53		 16.27
12:58:39	 16.07		 15.66		 16.45		 16.10
12:58:40	 16.07		 15.66		 16.36		 16.19
12:58:41	 16.07		 15.66		 16.36		 16.19
12:58:42	 16.10		 15.66		 16.36		 16.27
12:58:43	 16.07		 15.66		 16.27		 16.27
12:58:44	 15.98		 15.58		 16.27		 16.10
12:58:45	 15.92		 15.49		 16.27		 16.01
12:58:46	 15.84		 15.40		 16.19		 15.93
12:58:47	 15.75		 15.40		 15.93		 15.93
12:58:48	 15.90		 15.49		 16.19		 16.01
12:58:48	 15.84		 15.40		 16.10		 16.01
12:58:49	 15.81		 15.40		 16.01		 16.01
12:58:50	 15.78		 15.40		 16.01		 15.93
12:58:51	 15.69		 15.32		 16.01		 15.75
12:58:52	 15.63		 15.14		 16.10		 15.66
12:58:53	 15.58		 15.06		 16.01		 15.66
12:58:54	 15.61		 15.14		 15.93		 15.75
12:58:55	 15.58		 15.14		 15.84		 15.75
12:58:56	 15.61		 15.23		 15.75		 15.84
12:58:57	 15.58		 15.23		 15.75		 15.75
12:58:57	 15.52		 15.14		 15.75		 15.66
12:58:58	 15.46		 14.97		 15.84		 15.58
12:58:59	 15.37		 14.88		 15.84		 15.40
12:59:00	 15.34		 14.88		 15.75		 15.40
12:59:01	 15.31		 14.88		 15.66		 15.40
12:59:02	 15.26		 14.88		 15.49		 15.40
12:59:03	 15.32		 14.88		 15.58		 15.49
12:59:04	 15.35		 14.97		 15.58		 15.49
12:59:05	 15.26		 14.88		 15.49		 15.40
12:59:06	 15.95		 14.79		 15.49		 17.57
12:59:07	 15.14		 14.71		 15.49		 15.23
12:59:07	 15.05		 14.53		 15.49		 15.14
12:59:08	 15.61		 16.36		 15.40		 15.06
12:59:09	 15.05		 14.62		 15.40		 15.14
12:59:10	 15.03		 14.62		 15.23		 15.23
12:59:11	 15.06		 14.62		 15.32		 15.23
12:59:12	 15.03		 14.62		 15.23		 15.23
12:59:13	 14.97		 14.62		 15.23		 15.06
12:59:14	 14.94		 14.53		 15.23		 15.06
12:59:15	 14.82		 14.36		 15.23		 14.88
12:59:16	 14.79		 14.36		 15.23		 14.79
12:59:16	 14.79		 14.36		 15.14		 14.88
12:59:17	 14.80		 14.36		 15.06		 14.97
12:59:18	 14.79		 14.44		 14.97		 14.97
12:59:19	 14.82		 14.44		 15.06		 14.97
12:59:20	 14.80		 14.36		 15.06		 14.97
12:59:21	 14.71		 14.27		 14.97		 14.88
12:59:22	 14.68		 14.27		 15.06		 14.71
12:59:23	 14.65		 14.18		 15.06		 14.71
12:59:24	 14.59		 14.18		 14.97		 14.62
12:59:25	 14.62		 14.27		 14.88		 14.71
12:59:25	 14.62		 14.18		 14.88		 14.79
12:59:26	 14.68		 14.27		 14.88		 14.88
12:59:27	 14.62		 14.18		 14.88		 14.79
12:59:28	 14.53		 14.09		 14.88		 14.62
12:59:29	 14.39		 14.01		 14.62		 14.53
12:59:30	 14.50		 14.09		 14.88		 14.53
12:59:31	 14.47		 14.01		 14.88		 14.53
12:59:32	 14.56		 14.18		 14.79		 14.71
12:59:33	 14.56		 14.18		 14.79		 14.71
12:59:34	 14.56		 14.18		 14.79		 14.71
12:59:35	 14.50		 14.09		 14.79		 14.62
12:59:35	 14.41		 14.01		 14.79		 14.44
12:59:36	 14.41		 14.01		 14.79		 14.44
12:59:37	 14.44		 14.09		 14.71		 14.53
12:59:38	 14.47		 14.09		 14.71		 14.62
12:59:39	 14.50		 14.09		 14.71		 14.71
12:59:40	 14.50		 14.18		 14.71		 14.62
12:59:41	 14.42		 14.01		 14.71		 14.53
12:59:42	 14.41		 14.01		 14.79		 14.44
12:59:43	 14.36		 13.92		 14.71		 14.44
12:59:44	 14.38		 13.92		 14.79		 14.44
12:59:44	 14.42		 14.01		 14.71		 14.53
12:59:45	 14.42		 14.01		 14.62		 14.62
12:59:46	 14.47		 14.09		 14.71		 14.62
12:59:47	 14.47		 14.09		 14.79		 14.53
12:59:48	 14.41		 14.01		 14.79		 14.44
12:59:49	 14.41		 14.01		 14.79		 14.44
12:59:50	 14.38		 13.92		 14.79		 14.44
12:59:51	 14.44		 14.09		 14.71		 14.53
12:59:52	 14.50		 14.09		 14.79		 14.62
12:59:53	 14.56		 14.18		 14.79		 14.71
12:59:53	 14.59		 14.27		 14.88		 14.62
12:59:54	 14.44		 14.09		 14.71		 14.53
12:59:55	 14.47		 14.09		 14.88		 14.44
12:59:56	 14.44		 14.01		 14.79		 14.53
12:59:57	 14.53		 14.09		 14.88		 14.62
12:59:58	 14.59		 14.18		 14.88		 14.71
12:59:59	 14.65		 14.27		 14.88		 14.79
13:00:00	 14.65		 14.27		 14.88		 14.79
13:00:01	 14.62		 14.27		 14.88		 14.71
13:00:02	 14.59		 14.18		 14.97		 14.62
13:00:03	 14.62		 14.18		 15.06		 14.62
13:00:03	 14.59		 14.18		 14.97		 14.62
13:00:04	 14.74		 14.36		 15.06		 14.79
13:00:05	 14.76		 14.44		 14.97		 14.88
13:00:06	 14.82		 14.53		 15.06		 14.88
13:00:07	 14.79		 14.44		 15.06		 14.88
13:00:08	 14.76		 14.36		 15.14		 14.79
13:00:09	 14.74		 14.36		 15.14		 14.71
13:00:10	 14.76		 14.36		 15.14		 14.79
13:00:11	 14.82		 14.44		 15.14		 14.88
13:00:12	 14.91		 14.53		 15.14		 15.06
13:00:12	 14.94		 14.62		 15.14		 15.06
13:00:13	 14.94		 14.62		 15.14		 15.06
13:00:14	 14.94		 14.53		 15.32		 14.97
13:00:15	 14.91		 14.53		 15.23		 14.97
13:00:16	 14.91		 14.53		 15.32		 14.88
13:00:17	 14.97		 14.53		 15.32		 15.06
13:00:18	 15.03		 14.62		 15.32		 15.14
13:00:19	 15.06		 14.71		 15.23		 15.23
13:00:20	 15.14		 14.71		 15.40		 15.32
13:00:21	 15.14		 14.79		 15.40		 15.23
13:00:21	 15.08		 14.71		 15.40		 15.14
13:00:22	 15.08		 14.71		 15.40		 15.14
13:00:23	 15.08		 14.71		 15.40		 15.14
13:00:24	 15.11		 14.71		 15.49		 15.14
13:00:25	 15.17		 14.88		 15.40		 15.23
13:00:26	 15.29		 14.97		 15.49		 15.40
13:00:27	 15.26		 14.88		 15.49		 15.40
13:00:28	 15.23		 14.88		 15.49		 15.32
13:00:29	 15.26		 14.88		 15.58		 15.32
13:00:30	 15.20		 14.79		 15.58		 15.23
13:00:30	 15.26		 14.88		 15.66		 15.23
13:00:31	 15.26		 14.88		 15.66		 15.23
13:00:32	 15.34		 14.97		 15.66		 15.40
13:00:33	 15.40		 15.06		 15.66		 15.49
13:00:34	 15.43		 15.06		 15.66		 15.58
13:00:35	 15.43		 15.14		 15.58		 15.58
13:00:36	 15.37		 14.97		 15.66		 15.49
13:00:37	 15.40		 14.97		 15.84		 15.40
13:00:38	 15.34		 14.88		 15.75		 15.40
13:00:39	 15.40		 15.06		 15.66		 15.49
13:00:40	 15.43		 15.14		 15.66		 15.49
13:00:40	 15.52		 15.14		 15.75		 15.66
13:00:41	 15.55		 15.23		 15.75		 15.66
13:00:42	 15.61		 15.23		 15.84		 15.75
13:00:43	 15.55		 15.23		 15.84		 15.58
13:00:44	 15.55		 15.23		 15.93		 15.49
13:00:45	 15.55		 15.14		 15.93		 15.58
13:00:46	 15.55		 15.23		 15.93		 15.49
13:00:47	 15.61		 15.23		 16.01		 15.58
13:00:48	 15.64		 15.32		 15.84		 15.75
13:00:49	 15.70		 15.32		 15.93		 15.84
13:00:49	 15.72		 15.40		 15.93		 15.84
13:00:50	 15.69		 15.32		 16.01		 15.75
13:00:51	 15.66		 15.32		 16.01		 15.66
13:00:52	 15.63		 15.23		 16.01		 15.66
13:00:53	 15.69		 15.32		 16.10		 15.66
13:00:54	 15.72		 15.40		 16.01		 15.75
13:00:55	 15.78		 15.40		 16.01		 15.93
13:00:56	 15.84		 15.49		 16.01		 16.01
13:00:57	 15.87		 15.49		 16.10		 16.01
13:00:58	 15.84		 15.49		 16.10		 15.93
13:00:58	 15.84		 15.40		 16.19		 15.93
13:00:59	 15.84		 15.49		 16.19		 15.84
13:01:00	 15.78		 15.32		 16.19		 15.84
13:01:01	 15.81		 15.40		 16.19		 15.84
13:01:02	 15.87		 15.49		 16.19		 15.93
13:01:03	 15.96		 15.58		 16.19		 16.10
13:01:04	 16.01		 15.66		 16.19		 16.19
13:01:05	 16.01		 15.66		 16.27		 16.10
13:01:06	 16.01		 15.66		 16.27		 16.10
13:01:07	 15.95		 15.58		 16.27		 16.01
13:01:08	 15.96		 15.58		 16.36		 15.93
13:01:08	 15.96		 15.58		 16.36		 15.93
13:01:09	 16.01		 15.66		 16.36		 16.01
13:01:10	 15.98		 15.58		 16.36		 16.01
13:01:11	 16.07		 15.75		 16.27		 16.19
13:01:12	 16.13		 15.75		 16.36		 16.27
13:01:13	 16.13		 15.84		 16.27		 16.27
13:01:14	 16.13		 15.75		 16.36		 16.27
13:01:15	 16.13		 15.75		 16.45		 16.19
13:01:16	 16.04		 15.66		 16.36		 16.10
13:01:17	 16.04		 15.58		 16.45		 16.10
13:01:17	 16.04		 15.66		 16.45		 16.01
13:01:18	 16.10		 15.66		 16.45		 16.19
13:01:19	 16.07		 15.66		 16.36		 16.19
13:01:20	 16.16		 15.75		 16.45		 16.27
13:01:21	 16.22		 15.84		 16.45		 16.36
13:01:22	 16.16		 15.84		 16.36		 16.27
13:01:23	 16.19		 15.84		 16.45		 16.27
13:01:24	 16.16		 15.75		 16.53		 16.19
13:01:25	 16.10		 15.75		 16.45		 16.10
13:01:26	 16.04		 15.66		 16.45		 16.01
13:01:26	 16.10		 15.75		 16.36		 16.19
13:01:27	 16.10		 15.66		 16.45		 16.19
13:01:28	 16.13		 15.75		 16.36		 16.27
13:01:29	 16.19		 15.84		 16.45		 16.27
13:01:30	 16.16		 15.84		 16.36		 16.27
13:01:31	 16.16		 15.84		 16.36		 16.27
13:01:32	 16.07		 15.66		 16.36		 16.19
13:01:33	 16.01		 15.58		 16.36		 16.10
13:01:34	 16.01		 15.58		 16.36		 16.10
13:01:35	 16.04		 15.58		 16.45		 16.10
13:01:36	 16.04		 15.66		 16.36		 16.10
13:01:36	 16.13		 15.75		 16.36		 16.27
13:01:37	 16.01		 15.66		 16.19		 16.19
13:01:38	 16.07		 15.75		 16.27		 16.19
13:01:39	 16.01		 15.58		 16.36		 16.10
13:01:40	 15.98		 15.58		 16.36		 16.01
13:01:41	 15.90		 15.40		 16.36		 15.93
13:01:42	 16.04		 15.40		 16.36		 16.36
13:01:43	 15.87		 15.49		 16.19		 15.93
13:01:44	 15.90		 15.49		 16.10		 16.10
13:01:45	 15.93		 15.58		 16.10		 16.10
13:01:45	 15.93		 15.49		 16.19		 16.10
13:01:46	 15.90		 15.49		 16.10		 16.10
13:01:47	 15.81		 15.40		 16.19		 15.84
13:01:48	 15.81		 15.40		 16.19		 15.84
13:01:49	 15.72		 15.32		 16.10		 15.75
13:01:50	 15.69		 15.23		 16.01		 15.84
